digraph "busybox-1.18.5/modutils/depmod.c" {
node [shape=record];
"288602390"[label="{{Decl\ -1:\ xstrtoull_range_sfx}|True}", color="blue", fontname="Calibri", style="filled", fillcolor="white"];
"209164751"[label="{{Stmt\ -1:\ return\ xstrtoull_ran}|True}", color="black", fontname="Calibri", style="filled", fillcolor="white"];
"209164751" -> "288602390"[label="1", color="black", style="setlinewidth(1)"];
"1414258346"[label="{{Function\ -1:\ xstrtoul_range_sfx}|True}", color="blue", fontname="Calibri", style="filled", fillcolor="white"];
"209164751" -> "1414258346"[label="1", color="black", style="setlinewidth(1)"];
"1414258346" -> "209164751"[label="1", color="black", style="setlinewidth(1)"];
"1458092347"[label="{{Decl\ -1:\ xstrtoull_range}|True}", color="blue", fontname="Calibri", style="filled", fillcolor="white"];
"1402185131"[label="{{Stmt\ -1:\ return\ xstrtoull_ran}|True}", color="black", fontname="Calibri", style="filled", fillcolor="white"];
"1402185131" -> "1458092347"[label="1", color="black", style="setlinewidth(1)"];
"1250138254"[label="{{Function\ -1:\ xstrtoul_range}|True}", color="blue", fontname="Calibri", style="filled", fillcolor="white"];
"1402185131" -> "1250138254"[label="1", color="black", style="setlinewidth(1)"];
"1250138254" -> "1402185131"[label="1", color="black", style="setlinewidth(1)"];
"1051154513"[label="{{Decl\ -1:\ xstrtoull_sfx}|True}", color="blue", fontname="Calibri", style="filled", fillcolor="white"];
"155196744"[label="{{Stmt\ -1:\ return\ xstrtoull_sfx}|True}", color="black", fontname="Calibri", style="filled", fillcolor="white"];
"155196744" -> "1051154513"[label="1", color="black", style="setlinewidth(1)"];
"1492560408"[label="{{Function\ -1:\ xstrtoul_sfx}|True}", color="blue", fontname="Calibri", style="filled", fillcolor="white"];
"155196744" -> "1492560408"[label="1", color="black", style="setlinewidth(1)"];
"1492560408" -> "155196744"[label="1", color="black", style="setlinewidth(1)"];
"1088050549"[label="{{Decl\ -1:\ xstrtoull}|True}", color="blue", fontname="Calibri", style="filled", fillcolor="white"];
"508309533"[label="{{Stmt\ -1:\ return\ xstrtoull(str}|True}", color="black", fontname="Calibri", style="filled", fillcolor="white"];
"508309533" -> "1088050549"[label="1", color="black", style="setlinewidth(1)"];
"1597001729"[label="{{Function\ -1:\ xstrtoul}|True}", color="blue", fontname="Calibri", style="filled", fillcolor="white"];
"508309533" -> "1597001729"[label="1", color="black", style="setlinewidth(1)"];
"1597001729" -> "508309533"[label="1", color="black", style="setlinewidth(1)"];
"1299994768"[label="{{Decl\ -1:\ xatoull_range_sfx}|True}", color="blue", fontname="Calibri", style="filled", fillcolor="white"];
"1916471696"[label="{{Stmt\ -1:\ return\ xatoull_range}|True}", color="black", fontname="Calibri", style="filled", fillcolor="white"];
"1916471696" -> "1299994768"[label="1", color="black", style="setlinewidth(1)"];
"1759619773"[label="{{Function\ -1:\ xatoul_range_sfx}|True}", color="blue", fontname="Calibri", style="filled", fillcolor="white"];
"1916471696" -> "1759619773"[label="1", color="black", style="setlinewidth(1)"];
"1759619773" -> "1916471696"[label="1", color="black", style="setlinewidth(1)"];
"175742254"[label="{{Decl\ -1:\ xatoull_range}|True}", color="blue", fontname="Calibri", style="filled", fillcolor="white"];
"1027066858"[label="{{Stmt\ -1:\ return\ xatoull_range}|True}", color="black", fontname="Calibri", style="filled", fillcolor="white"];
"1027066858" -> "175742254"[label="1", color="black", style="setlinewidth(1)"];
"389107230"[label="{{Function\ -1:\ xatoul_range}|True}", color="blue", fontname="Calibri", style="filled", fillcolor="white"];
"1027066858" -> "389107230"[label="1", color="black", style="setlinewidth(1)"];
"389107230" -> "1027066858"[label="1", color="black", style="setlinewidth(1)"];
"1522226173"[label="{{Decl\ -1:\ xatoull_sfx}|True}", color="blue", fontname="Calibri", style="filled", fillcolor="white"];
"695826629"[label="{{Stmt\ -1:\ return\ xatoull_sfx(s}|True}", color="black", fontname="Calibri", style="filled", fillcolor="white"];
"695826629" -> "1522226173"[label="1", color="black", style="setlinewidth(1)"];
"1640639889"[label="{{Function\ -1:\ xatoul_sfx}|True}", color="blue", fontname="Calibri", style="filled", fillcolor="white"];
"695826629" -> "1640639889"[label="1", color="black", style="setlinewidth(1)"];
"1640639889" -> "695826629"[label="1", color="black", style="setlinewidth(1)"];
"117064116"[label="{{Decl\ -1:\ xatoull}|True}", color="blue", fontname="Calibri", style="filled", fillcolor="white"];
"1224759359"[label="{{Stmt\ -1:\ return\ xatoull(str);}|True}", color="black", fontname="Calibri", style="filled", fillcolor="white"];
"1224759359" -> "117064116"[label="1", color="black", style="setlinewidth(1)"];
"354561951"[label="{{Function\ -1:\ xatoul}|True}", color="blue", fontname="Calibri", style="filled", fillcolor="white"];
"1224759359" -> "354561951"[label="1", color="black", style="setlinewidth(1)"];
"354561951" -> "1224759359"[label="1", color="black", style="setlinewidth(1)"];
"87364834"[label="{{Decl\ -1:\ xstrtoll_range_sfx}|True}", color="blue", fontname="Calibri", style="filled", fillcolor="white"];
"1646866513"[label="{{Stmt\ -1:\ return\ xstrtoll_rang}|True}", color="black", fontname="Calibri", style="filled", fillcolor="white"];
"1646866513" -> "87364834"[label="1", color="black", style="setlinewidth(1)"];
"2145883845"[label="{{Function\ -1:\ xstrtol_range_sfx}|True}", color="blue", fontname="Calibri", style="filled", fillcolor="white"];
"1646866513" -> "2145883845"[label="1", color="black", style="setlinewidth(1)"];
"2145883845" -> "1646866513"[label="1", color="black", style="setlinewidth(1)"];
"1006249366"[label="{{Decl\ -1:\ xstrtoll_range}|True}", color="blue", fontname="Calibri", style="filled", fillcolor="white"];
"1154567966"[label="{{Stmt\ -1:\ return\ xstrtoll_rang}|True}", color="black", fontname="Calibri", style="filled", fillcolor="white"];
"1154567966" -> "1006249366"[label="1", color="black", style="setlinewidth(1)"];
"1041649459"[label="{{Function\ -1:\ xstrtol_range}|True}", color="blue", fontname="Calibri", style="filled", fillcolor="white"];
"1154567966" -> "1041649459"[label="1", color="black", style="setlinewidth(1)"];
"1041649459" -> "1154567966"[label="1", color="black", style="setlinewidth(1)"];
"244216048"[label="{{Decl\ -1:\ xstrtoll}|True}", color="blue", fontname="Calibri", style="filled", fillcolor="white"];
"959836157"[label="{{Stmt\ -1:\ return\ xstrtoll(str\ }|True}", color="black", fontname="Calibri", style="filled", fillcolor="white"];
"959836157" -> "244216048"[label="1", color="black", style="setlinewidth(1)"];
"1025294329"[label="{{Function\ -1:\ xstrtol}|True}", color="blue", fontname="Calibri", style="filled", fillcolor="white"];
"959836157" -> "1025294329"[label="1", color="black", style="setlinewidth(1)"];
"1025294329" -> "959836157"[label="1", color="black", style="setlinewidth(1)"];
"377018358"[label="{{Decl\ -1:\ xatoll_range_sfx}|True}", color="blue", fontname="Calibri", style="filled", fillcolor="white"];
"176117377"[label="{{Stmt\ -1:\ return\ xatoll_range_}|True}", color="black", fontname="Calibri", style="filled", fillcolor="white"];
"176117377" -> "377018358"[label="1", color="black", style="setlinewidth(1)"];
"1378955514"[label="{{Function\ -1:\ xatol_range_sfx}|True}", color="blue", fontname="Calibri", style="filled", fillcolor="white"];
"176117377" -> "1378955514"[label="1", color="black", style="setlinewidth(1)"];
"1378955514" -> "176117377"[label="1", color="black", style="setlinewidth(1)"];
"1989412862"[label="{{Decl\ -1:\ xatoll_range}|True}", color="blue", fontname="Calibri", style="filled", fillcolor="white"];
"1928228501"[label="{{Stmt\ -1:\ return\ xatoll_range(}|True}", color="black", fontname="Calibri", style="filled", fillcolor="white"];
"1928228501" -> "1989412862"[label="1", color="black", style="setlinewidth(1)"];
"290354745"[label="{{Function\ -1:\ xatol_range}|True}", color="blue", fontname="Calibri", style="filled", fillcolor="white"];
"1928228501" -> "290354745"[label="1", color="black", style="setlinewidth(1)"];
"290354745" -> "1928228501"[label="1", color="black", style="setlinewidth(1)"];
"2045993857"[label="{{Decl\ -1:\ xatoll_sfx}|True}", color="blue", fontname="Calibri", style="filled", fillcolor="white"];
"1655061437"[label="{{Stmt\ -1:\ return\ xatoll_sfx(st}|True}", color="black", fontname="Calibri", style="filled", fillcolor="white"];
"1655061437" -> "2045993857"[label="1", color="black", style="setlinewidth(1)"];
"18591948"[label="{{Function\ -1:\ xatol_sfx}|True}", color="blue", fontname="Calibri", style="filled", fillcolor="white"];
"1655061437" -> "18591948"[label="1", color="black", style="setlinewidth(1)"];
"18591948" -> "1655061437"[label="1", color="black", style="setlinewidth(1)"];
"29871853"[label="{{Decl\ -1:\ xatoll}|True}", color="blue", fontname="Calibri", style="filled", fillcolor="white"];
"1804775408"[label="{{Stmt\ -1:\ return\ xatoll(str);}|True}", color="black", fontname="Calibri", style="filled", fillcolor="white"];
"1804775408" -> "29871853"[label="1", color="black", style="setlinewidth(1)"];
"1273196956"[label="{{Function\ -1:\ xatol}|True}", color="blue", fontname="Calibri", style="filled", fillcolor="white"];
"1804775408" -> "1273196956"[label="1", color="black", style="setlinewidth(1)"];
"1273196956" -> "1804775408"[label="1", color="black", style="setlinewidth(1)"];
"1224759359" -> "117064116"[label="1", color="black", style="setlinewidth(1)"];
"1224759359" -> "354561951"[label="1", color="black", style="setlinewidth(1)"];
"354561951" -> "1224759359"[label="1", color="black", style="setlinewidth(1)"];
"1302313510"[label="{{Decl\ -1:\ BUG_xatou32_unimplemented}|True}", color="blue", fontname="Calibri", style="filled", fillcolor="white"];
"8622183"[label="{{Decl\ -1:\ xatou}|True}", color="blue", fontname="Calibri", style="filled", fillcolor="white"];
"1506407533"[label="{{Stmt\ -1:\ return\ xatoul(numstr}|True}", color="black", fontname="Calibri", style="filled", fillcolor="white"];
"1506407533" -> "354561951"[label="1", color="black", style="setlinewidth(1)"];
"1308088698"[label="{{Function\ -1:\ xatou32}|True}", color="blue", fontname="Calibri", style="filled", fillcolor="white"];
"1506407533" -> "1308088698"[label="1", color="black", style="setlinewidth(1)"];
"542445444"[label="{{Stmt\ -1:\ return\ BUG_xatou32_u}|True}", color="black", fontname="Calibri", style="filled", fillcolor="white"];
"542445444" -> "1302313510"[label="1", color="black", style="setlinewidth(1)"];
"542445444" -> "1308088698"[label="1", color="black", style="setlinewidth(1)"];
"1317181228"[label="{{Stmt\ -1:\ return\ xatou(numstr)}|True}", color="black", fontname="Calibri", style="filled", fillcolor="white"];
"1317181228" -> "8622183"[label="1", color="black", style="setlinewidth(1)"];
"1317181228" -> "1308088698"[label="1", color="black", style="setlinewidth(1)"];
"34048766"[label="{{Expr\ -1:\ (((92233720368547758}|True}", color="black", fontname="Calibri", style="filled", fillcolor="white"];
"34048766" -> "542445444"[label="1", color="black", style="setlinewidth(1)"];
"34048766" -> "1506407533"[label="1", color="black", style="setlinewidth(1)"];
"2128199103"[label="{{Expr\ -1:\ (((2147483647\ *\ 2U)\ }|True}", color="black", fontname="Calibri", style="filled", fillcolor="white"];
"2128199103" -> "34048766"[label="1", color="black", style="setlinewidth(1)"];
"2128199103" -> "1317181228"[label="1", color="black", style="setlinewidth(1)"];
"1308088698" -> "2128199103"[label="1", color="black", style="setlinewidth(1)"];
"1388772400"[label="{{Decl\ -1:\ bb_strtoull}|True}", color="blue", fontname="Calibri", style="filled", fillcolor="white"];
"1578876725"[label="{{Stmt\ -1:\ return\ bb_strtoull(a}|True}", color="black", fontname="Calibri", style="filled", fillcolor="white"];
"1578876725" -> "1388772400"[label="1", color="black", style="setlinewidth(1)"];
"2120373926"[label="{{Function\ -1:\ bb_strtoul}|True}", color="blue", fontname="Calibri", style="filled", fillcolor="white"];
"1578876725" -> "2120373926"[label="1", color="black", style="setlinewidth(1)"];
"2120373926" -> "1578876725"[label="1", color="black", style="setlinewidth(1)"];
"854362504"[label="{{Decl\ -1:\ bb_strtoll}|True}", color="blue", fontname="Calibri", style="filled", fillcolor="white"];
"1947853755"[label="{{Stmt\ -1:\ return\ bb_strtoll(ar}|True}", color="black", fontname="Calibri", style="filled", fillcolor="white"];
"1947853755" -> "854362504"[label="1", color="black", style="setlinewidth(1)"];
"296106912"[label="{{Function\ -1:\ bb_strtol}|True}", color="blue", fontname="Calibri", style="filled", fillcolor="white"];
"1947853755" -> "296106912"[label="1", color="black", style="setlinewidth(1)"];
"296106912" -> "1947853755"[label="1", color="black", style="setlinewidth(1)"];
"1578876725" -> "1388772400"[label="1", color="black", style="setlinewidth(1)"];
"1578876725" -> "2120373926"[label="1", color="black", style="setlinewidth(1)"];
"2120373926" -> "1578876725"[label="1", color="black", style="setlinewidth(1)"];
"1620241533"[label="{{Decl\ -1:\ BUG_bb_strtou32_unimplemented}|True}", color="blue", fontname="Calibri", style="filled", fillcolor="white"];
"1479452433"[label="{{Decl\ -1:\ bb_strtou}|True}", color="blue", fontname="Calibri", style="filled", fillcolor="white"];
"96691044"[label="{{Stmt\ -1:\ return\ bb_strtoul(ar}|True}", color="black", fontname="Calibri", style="filled", fillcolor="white"];
"96691044" -> "2120373926"[label="1", color="black", style="setlinewidth(1)"];
"773222043"[label="{{Function\ -1:\ bb_strtou32}|True}", color="blue", fontname="Calibri", style="filled", fillcolor="white"];
"96691044" -> "773222043"[label="1", color="black", style="setlinewidth(1)"];
"534000608"[label="{{Stmt\ -1:\ return\ BUG_bb_strtou}|True}", color="black", fontname="Calibri", style="filled", fillcolor="white"];
"534000608" -> "1620241533"[label="1", color="black", style="setlinewidth(1)"];
"534000608" -> "773222043"[label="1", color="black", style="setlinewidth(1)"];
"1820486624"[label="{{Stmt\ -1:\ return\ bb_strtou(arg}|True}", color="black", fontname="Calibri", style="filled", fillcolor="white"];
"1820486624" -> "1479452433"[label="1", color="black", style="setlinewidth(1)"];
"1820486624" -> "773222043"[label="1", color="black", style="setlinewidth(1)"];
"1299424849"[label="{{Expr\ -1:\ (sizeof(uint32_t\ )\ =}|True}", color="black", fontname="Calibri", style="filled", fillcolor="white"];
"1299424849" -> "534000608"[label="1", color="black", style="setlinewidth(1)"];
"1299424849" -> "96691044"[label="1", color="black", style="setlinewidth(1)"];
"1787217409"[label="{{Expr\ -1:\ (sizeof(uint32_t\ )\ =}|True}", color="black", fontname="Calibri", style="filled", fillcolor="white"];
"1787217409" -> "1299424849"[label="1", color="black", style="setlinewidth(1)"];
"1787217409" -> "1820486624"[label="1", color="black", style="setlinewidth(1)"];
"773222043" -> "1787217409"[label="1", color="black", style="setlinewidth(1)"];
"2036519704"[label="{{Stmt\ -1:\ return\ (b\ \<=\ ('z'\ -\ }|True}", color="black", fontname="Calibri", style="filled", fillcolor="white"];
"2102315920"[label="{{Function\ -1:\ bb_ascii_isalnum}|True}", color="blue", fontname="Calibri", style="filled", fillcolor="white"];
"2036519704" -> "2102315920"[label="1", color="black", style="setlinewidth(1)"];
"2021968360"[label="{{Stmt\ -1:\ return\ (b\ \<=\ 9);}|True}", color="black", fontname="Calibri", style="filled", fillcolor="white"];
"2021968360" -> "2102315920"[label="1", color="black", style="setlinewidth(1)"];
"1904266658"[label="{{Stmt\ -1:\ (b\ =\ ((a\ \|\ 0x20)\ -\ '}|True}", color="black", fontname="Calibri", style="filled", fillcolor="white"];
"1904266658" -> "2036519704"[label="1", color="black", style="setlinewidth(1)"];
"1951007364"[label="{{Expr\ -1:\ (b\ \<=\ 9)}|True}", color="black", fontname="Calibri", style="filled", fillcolor="white"];
"1951007364" -> "1904266658"[label="1", color="black", style="setlinewidth(1)"];
"1951007364" -> "2021968360"[label="1", color="black", style="setlinewidth(1)"];
"891843055"[label="{{Stmt\ -1:\ unsigned\ char\ b\ =\ \ (}|True}", color="black", fontname="Calibri", style="filled", fillcolor="white"];
"891843055" -> "1951007364"[label="1", color="black", style="setlinewidth(1)"];
"2102315920" -> "891843055"[label="1", color="black", style="setlinewidth(1)"];
"2047697825"[label="{{Stmt\ -1:\ return\ (b\ \<=\ ('f'\ -\ }|True}", color="black", fontname="Calibri", style="filled", fillcolor="white"];
"1658538283"[label="{{Function\ -1:\ bb_ascii_isxdigit}|True}", color="blue", fontname="Calibri", style="filled", fillcolor="white"];
"2047697825" -> "1658538283"[label="1", color="black", style="setlinewidth(1)"];
"2115928026"[label="{{Stmt\ -1:\ return\ (b\ \<=\ 9);}|True}", color="black", fontname="Calibri", style="filled", fillcolor="white"];
"2115928026" -> "1658538283"[label="1", color="black", style="setlinewidth(1)"];
"1936520006"[label="{{Stmt\ -1:\ (b\ =\ ((a\ \|\ 0x20)\ -\ '}|True}", color="black", fontname="Calibri", style="filled", fillcolor="white"];
"1936520006" -> "2047697825"[label="1", color="black", style="setlinewidth(1)"];
"1414614368"[label="{{Expr\ -1:\ (b\ \<=\ 9)}|True}", color="black", fontname="Calibri", style="filled", fillcolor="white"];
"1414614368" -> "1936520006"[label="1", color="black", style="setlinewidth(1)"];
"1414614368" -> "2115928026"[label="1", color="black", style="setlinewidth(1)"];
"872782169"[label="{{Stmt\ -1:\ unsigned\ char\ b\ =\ \ (}|True}", color="black", fontname="Calibri", style="filled", fillcolor="white"];
"872782169" -> "1414614368"[label="1", color="black", style="setlinewidth(1)"];
"1658538283" -> "872782169"[label="1", color="black", style="setlinewidth(1)"];
"34207568"[label="{{Stmt\ -1:\ (a\ -=\ ('a'\ -\ 'A'));}|True}", color="black", fontname="Calibri", style="filled", fillcolor="white"];
"2072480134"[label="{{Stmt\ -1:\ return\ a;}|True}", color="black", fontname="Calibri", style="filled", fillcolor="white"];
"34207568" -> "2072480134"[label="1", color="black", style="setlinewidth(1)"];
"130962255"[label="{{Function\ -1:\ bb_ascii_toupper}|True}", color="blue", fontname="Calibri", style="filled", fillcolor="white"];
"2072480134" -> "130962255"[label="1", color="black", style="setlinewidth(1)"];
"1470537170"[label="{{Expr\ -1:\ (b\ \<=\ ('z'\ -\ 'a'))}|True}", color="black", fontname="Calibri", style="filled", fillcolor="white"];
"1470537170" -> "2072480134"[label="1", color="black", style="setlinewidth(1)"];
"1470537170" -> "34207568"[label="1", color="black", style="setlinewidth(1)"];
"187562972"[label="{{Stmt\ -1:\ unsigned\ char\ b\ =\ \ (}|True}", color="black", fontname="Calibri", style="filled", fillcolor="white"];
"187562972" -> "1470537170"[label="1", color="black", style="setlinewidth(1)"];
"130962255" -> "187562972"[label="1", color="black", style="setlinewidth(1)"];
"975296308"[label="{{Stmt\ -1:\ (a\ +=\ ('a'\ -\ 'A'));}|True}", color="black", fontname="Calibri", style="filled", fillcolor="white"];
"2132745027"[label="{{Stmt\ -1:\ return\ a;}|True}", color="black", fontname="Calibri", style="filled", fillcolor="white"];
"975296308" -> "2132745027"[label="1", color="black", style="setlinewidth(1)"];
"1711571922"[label="{{Function\ -1:\ bb_ascii_tolower}|True}", color="blue", fontname="Calibri", style="filled", fillcolor="white"];
"2132745027" -> "1711571922"[label="1", color="black", style="setlinewidth(1)"];
"233496949"[label="{{Expr\ -1:\ (b\ \<=\ ('Z'\ -\ 'A'))}|True}", color="black", fontname="Calibri", style="filled", fillcolor="white"];
"233496949" -> "2132745027"[label="1", color="black", style="setlinewidth(1)"];
"233496949" -> "975296308"[label="1", color="black", style="setlinewidth(1)"];
"258818643"[label="{{Stmt\ -1:\ unsigned\ char\ b\ =\ \ (}|True}", color="black", fontname="Calibri", style="filled", fillcolor="white"];
"258818643" -> "233496949"[label="1", color="black", style="setlinewidth(1)"];
"1711571922" -> "258818643"[label="1", color="black", style="setlinewidth(1)"];
"267152132"[label="{{Decl\ -1:\ strrstr}|True}", color="blue", fontname="Calibri", style="filled", fillcolor="white"];
"490491463"[label="{{Stmt\ -1:\ size_t\ len\ =\ \ ((64\ *}|True}", color="black", fontname="Calibri", style="filled", fillcolor="white"];
"490491463" -> "267152132"[label="1", color="black", style="setlinewidth(1)"];
"1416055722"[label="{{Stmt\ -1:\ module_info\ *info;}|True}", color="black", fontname="Calibri", style="filled", fillcolor="white"];
"1416055722" -> "490491463"[label="1", color="black", style="setlinewidth(1)"];
"264408200"[label="{{Stmt\ -1:\ char\ *image,\ *ptr;}|True}", color="black", fontname="Calibri", style="filled", fillcolor="white"];
"264408200" -> "1416055722"[label="1", color="black", style="setlinewidth(1)"];
"913549335"[label="{{Stmt\ -1:\ module_info\ **first\ }|True}", color="black", fontname="Calibri", style="filled", fillcolor="white"];
"913549335" -> "264408200"[label="1", color="black", style="setlinewidth(1)"];
"1176427357"[label="{{Stmt\ -1:\ char\ modname[256];}|True}", color="black", fontname="Calibri", style="filled", fillcolor="white"];
"1176427357" -> "913549335"[label="1", color="black", style="setlinewidth(1)"];
"486413956"[label="{{Function\ -1:\ parse_module}|True}", color="blue", fontname="Calibri", style="filled", fillcolor="white"];
"486413956" -> "1176427357"[label="1", color="black", style="setlinewidth(1)"];
"1762362916"[label="{{Decl\ -1:\ strcmp}|True}", color="blue", fontname="Calibri", style="filled", fillcolor="white"];
"1750307665"[label="{{Stmt\ -1:\ return\ ((void\ *)\ 0);}|True}", color="black", fontname="Calibri", style="filled", fillcolor="white"];
"208924176"[label="{{Function\ -1:\ find_module}|True}", color="blue", fontname="Calibri", style="filled", fillcolor="white"];
"1750307665" -> "208924176"[label="1", color="black", style="setlinewidth(1)"];
"692898061"[label="{{Expr\ -1:\ (m\ !=\ ((void\ *)\ 0))}|True}", color="black", fontname="Calibri", style="filled", fillcolor="white"];
"692898061" -> "1750307665"[label="1", color="black", style="setlinewidth(1)"];
"692898061" -> "1762362916"[label="1", color="black", style="setlinewidth(1)"];
"26428467"[label="{{Expr\ -1:\ (m\ =\ modules)}|True}", color="black", fontname="Calibri", style="filled", fillcolor="white"];
"26428467" -> "692898061"[label="1", color="black", style="setlinewidth(1)"];
"441357813"[label="{{Stmt\ -1:\ module_info\ *m;}|True}", color="black", fontname="Calibri", style="filled", fillcolor="white"];
"441357813" -> "26428467"[label="1", color="black", style="setlinewidth(1)"];
"208924176" -> "441357813"[label="1", color="black", style="setlinewidth(1)"];
"372826365"[label="{{Stmt\ -1:\ order_dep_list(modul}|True}", color="black", fontname="Calibri", style="filled", fillcolor="white"];
"2024589660"[label="{{Function\ -1:\ order_dep_list}|True}", color="blue", fontname="Calibri", style="filled", fillcolor="white"];
"372826365" -> "2024589660"[label="1", color="black", style="setlinewidth(1)"];
"372826365" -> "208924176"[label="1", color="black", style="setlinewidth(1)"];
"1195466555"[label="{{Expr\ -1:\ (n\ =\ n-\>link)}|True}", color="black", fontname="Calibri", style="filled", fillcolor="white"];
"372826365" -> "1195466555"[label="1", color="black", style="setlinewidth(1)"];
"101919530"[label="{{Stmt\ -1:\ (start-\>dprev\ =\ m);}|True}", color="black", fontname="Calibri", style="filled", fillcolor="white"];
"101919530" -> "372826365"[label="1", color="black", style="setlinewidth(1)"];
"269213529"[label="{{Stmt\ -1:\ (start-\>dprev-\>dnext}|True}", color="black", fontname="Calibri", style="filled", fillcolor="white"];
"269213529" -> "101919530"[label="1", color="black", style="setlinewidth(1)"];
"330179223"[label="{{Stmt\ -1:\ (m-\>dprev\ =\ start-\>d}|True}", color="black", fontname="Calibri", style="filled", fillcolor="white"];
"330179223" -> "269213529"[label="1", color="black", style="setlinewidth(1)"];
"523137250"[label="{{Stmt\ -1:\ (m-\>dnext\ =\ start);}|True}", color="black", fontname="Calibri", style="filled", fillcolor="white"];
"523137250" -> "330179223"[label="1", color="black", style="setlinewidth(1)"];
"1750307665" -> "208924176"[label="1", color="black", style="setlinewidth(1)"];
"1497679044"[label="{{Expr\ -1:\ (n\ !=\ ((void\ *)\ 0))}|True}", color="black", fontname="Calibri", style="filled", fillcolor="white"];
"1195466555" -> "1497679044"[label="1", color="black", style="setlinewidth(1)"];
"19774849"[label="{{Stmt\ -1:\ (m-\>dprev-\>dnext\ =\ m}|True}", color="black", fontname="Calibri", style="filled", fillcolor="white"];
"19774849" -> "523137250"[label="1", color="black", style="setlinewidth(1)"];
"692898061" -> "1750307665"[label="1", color="black", style="setlinewidth(1)"];
"692898061" -> "1762362916"[label="1", color="black", style="setlinewidth(1)"];
"184180801"[label="{{Stmt\ 111:\ continue;}|True}", color="black", fontname="Calibri", style="filled", fillcolor="white"];
"184180801" -> "1195466555"[label="1", color="black", style="setlinewidth(1)"];
"1002787080"[label="{{Stmt\ -1:\ (m-\>dnext-\>dprev\ =\ m}|True}", color="black", fontname="Calibri", style="filled", fillcolor="white"];
"1002787080" -> "19774849"[label="1", color="black", style="setlinewidth(1)"];
"26428467" -> "692898061"[label="1", color="black", style="setlinewidth(1)"];
"397590088"[label="{{Expr\ -1:\ (m\ ==\ ((void\ *)\ 0))}|True}", color="black", fontname="Calibri", style="filled", fillcolor="white"];
"397590088" -> "1002787080"[label="1", color="black", style="setlinewidth(1)"];
"397590088" -> "184180801"[label="1", color="black", style="setlinewidth(1)"];
"441357813" -> "26428467"[label="1", color="black", style="setlinewidth(1)"];
"157180111"[label="{{Stmt\ -1:\ (m\ =\ find_module(mod}|True}", color="black", fontname="Calibri", style="filled", fillcolor="white"];
"157180111" -> "208924176"[label="1", color="black", style="setlinewidth(1)"];
"157180111" -> "397590088"[label="1", color="black", style="setlinewidth(1)"];
"208924176" -> "441357813"[label="1", color="black", style="setlinewidth(1)"];
"1497679044" -> "2024589660"[label="1", color="black", style="setlinewidth(1)"];
"1497679044" -> "208924176"[label="1", color="black", style="setlinewidth(1)"];
"1497679044" -> "157180111"[label="1", color="black", style="setlinewidth(1)"];
"283257303"[label="{{Expr\ -1:\ (n\ =\ add)}|True}", color="black", fontname="Calibri", style="filled", fillcolor="white"];
"283257303" -> "1497679044"[label="1", color="black", style="setlinewidth(1)"];
"1572208213"[label="{{Stmt\ -1:\ llist_t\ *n;}|True}", color="black", fontname="Calibri", style="filled", fillcolor="white"];
"1572208213" -> "283257303"[label="1", color="black", style="setlinewidth(1)"];
"320506795"[label="{{Stmt\ -1:\ module_info\ *m;}|True}", color="black", fontname="Calibri", style="filled", fillcolor="white"];
"320506795" -> "1572208213"[label="1", color="black", style="setlinewidth(1)"];
"2024589660" -> "320506795"[label="1", color="black", style="setlinewidth(1)"];
"1992916477"[label="{{Decl\ -1:\ freopen}|True}", color="blue", fontname="Calibri", style="filled", fillcolor="white"];
"640662412"[label="{{Function\ -1:\ xfreopen_write}|True}", color="blue", fontname="Calibri", style="filled", fillcolor="white"];
"640662412" -> "1992916477"[label="1", color="black", style="setlinewidth(1)"];
"1008870434"[label="{{Decl\ -1:\ sscanf}|True}", color="blue", fontname="Calibri", style="filled", fillcolor="white"];
"460974703"[label="{{Decl\ -1:\ xchdir}|True}", color="blue", fontname="Calibri", style="filled", fillcolor="white"];
"103772883"[label="{{Stmt\ -1:\ xchdir(moddir_base);}|True}", color="black", fontname="Calibri", style="filled", fillcolor="white"];
"103772883" -> "460974703"[label="1", color="black", style="setlinewidth(1)"];
"103772883" -> "1008870434"[label="1", color="black", style="setlinewidth(1)"];
"516211283"[label="{{Stmt\ -1:\ (argv\ +=\ optind);}|True}", color="black", fontname="Calibri", style="filled", fillcolor="white"];
"516211283" -> "103772883"[label="1", color="black", style="setlinewidth(1)"];
"349155350"[label="{{Decl\ -1:\ getopt32}|True}", color="blue", fontname="Calibri", style="filled", fillcolor="white"];
"956599389"[label="{{Stmt\ -1:\ getopt32(argv\ ,\ \\\"aAb}|True}", color="black", fontname="Calibri", style="filled", fillcolor="white"];
"956599389" -> "349155350"[label="1", color="black", style="setlinewidth(1)"];
"956599389" -> "516211283"[label="1", color="black", style="setlinewidth(1)"];
"760939655"[label="{{Stmt\ -1:\ int\ tmp;}|True}", color="black", fontname="Calibri", style="filled", fillcolor="white"];
"760939655" -> "956599389"[label="1", color="black", style="setlinewidth(1)"];
"2093442047"[label="{{Stmt\ -1:\ struct\ utsname\ \ uts;}|True}", color="black", fontname="Calibri", style="filled", fillcolor="white"];
"2093442047" -> "760939655"[label="1", color="black", style="setlinewidth(1)"];
"1128921051"[label="{{Stmt\ -1:\ char\ *moddir,\ *versi}|True}", color="black", fontname="Calibri", style="filled", fillcolor="white"];
"1128921051" -> "2093442047"[label="1", color="black", style="setlinewidth(1)"];
"901750657"[label="{{Stmt\ -1:\ const\ char\ *moddir_b}|True}", color="black", fontname="Calibri", style="filled", fillcolor="white"];
"901750657" -> "1128921051"[label="1", color="black", style="setlinewidth(1)"];
"1770812714"[label="{{Stmt\ -1:\ module_info\ *modules}|True}", color="black", fontname="Calibri", style="filled", fillcolor="white"];
"1770812714" -> "901750657"[label="1", color="black", style="setlinewidth(1)"];
"401866740"[label="{{Function\ -1:\ depmod_main}|True}", color="blue", fontname="Calibri", style="filled", fillcolor="white"];
"401866740" -> "1770812714"[label="1", color="black", style="setlinewidth(1)"];
}
