digraph "busybox-1.18.5/miscutils/adjtimex.c" {
node [shape=record];
"1889071491"[label="{{Decl\ -1:\ xstrtoull_range_sfx}|True}", color="blue", fontname="Calibri", style="filled", fillcolor="white"];
"633861552"[label="{{Stmt\ -1:\ return\ xstrtoull_ran}|True}", color="black", fontname="Calibri", style="filled", fillcolor="white"];
"633861552" -> "1889071491"[label="1", color="black", style="setlinewidth(1)"];
"1078300894"[label="{{Function\ -1:\ xstrtoul_range_sfx}|True}", color="blue", fontname="Calibri", style="filled", fillcolor="white"];
"633861552" -> "1078300894"[label="1", color="black", style="setlinewidth(1)"];
"1078300894" -> "633861552"[label="1", color="black", style="setlinewidth(1)"];
"1163371805"[label="{{Decl\ -1:\ xstrtoull_range}|True}", color="blue", fontname="Calibri", style="filled", fillcolor="white"];
"176117377"[label="{{Stmt\ -1:\ return\ xstrtoull_ran}|True}", color="black", fontname="Calibri", style="filled", fillcolor="white"];
"176117377" -> "1163371805"[label="1", color="black", style="setlinewidth(1)"];
"2065407546"[label="{{Function\ -1:\ xstrtoul_range}|True}", color="blue", fontname="Calibri", style="filled", fillcolor="white"];
"176117377" -> "2065407546"[label="1", color="black", style="setlinewidth(1)"];
"2065407546" -> "176117377"[label="1", color="black", style="setlinewidth(1)"];
"592575528"[label="{{Decl\ -1:\ xstrtoull_sfx}|True}", color="blue", fontname="Calibri", style="filled", fillcolor="white"];
"1725243001"[label="{{Stmt\ -1:\ return\ xstrtoull_sfx}|True}", color="black", fontname="Calibri", style="filled", fillcolor="white"];
"1725243001" -> "592575528"[label="1", color="black", style="setlinewidth(1)"];
"290354745"[label="{{Function\ -1:\ xstrtoul_sfx}|True}", color="blue", fontname="Calibri", style="filled", fillcolor="white"];
"1725243001" -> "290354745"[label="1", color="black", style="setlinewidth(1)"];
"290354745" -> "1725243001"[label="1", color="black", style="setlinewidth(1)"];
"1511949003"[label="{{Decl\ -1:\ xstrtoull}|True}", color="blue", fontname="Calibri", style="filled", fillcolor="white"];
"905086084"[label="{{Stmt\ -1:\ return\ xstrtoull(str}|True}", color="black", fontname="Calibri", style="filled", fillcolor="white"];
"905086084" -> "1511949003"[label="1", color="black", style="setlinewidth(1)"];
"125283515"[label="{{Function\ -1:\ xstrtoul}|True}", color="blue", fontname="Calibri", style="filled", fillcolor="white"];
"905086084" -> "125283515"[label="1", color="black", style="setlinewidth(1)"];
"125283515" -> "905086084"[label="1", color="black", style="setlinewidth(1)"];
"1802775084"[label="{{Decl\ -1:\ xatoull_range_sfx}|True}", color="blue", fontname="Calibri", style="filled", fillcolor="white"];
"1548494820"[label="{{Stmt\ -1:\ return\ xatoull_range}|True}", color="black", fontname="Calibri", style="filled", fillcolor="white"];
"1548494820" -> "1802775084"[label="1", color="black", style="setlinewidth(1)"];
"1790859751"[label="{{Function\ -1:\ xatoul_range_sfx}|True}", color="blue", fontname="Calibri", style="filled", fillcolor="white"];
"1548494820" -> "1790859751"[label="1", color="black", style="setlinewidth(1)"];
"1790859751" -> "1548494820"[label="1", color="black", style="setlinewidth(1)"];
"258005602"[label="{{Decl\ -1:\ xatoull_range}|True}", color="blue", fontname="Calibri", style="filled", fillcolor="white"];
"413149834"[label="{{Stmt\ -1:\ return\ xatoull_range}|True}", color="black", fontname="Calibri", style="filled", fillcolor="white"];
"413149834" -> "258005602"[label="1", color="black", style="setlinewidth(1)"];
"117048942"[label="{{Function\ -1:\ xatoul_range}|True}", color="blue", fontname="Calibri", style="filled", fillcolor="white"];
"413149834" -> "117048942"[label="1", color="black", style="setlinewidth(1)"];
"117048942" -> "413149834"[label="1", color="black", style="setlinewidth(1)"];
"1597001729"[label="{{Decl\ -1:\ xatoull_sfx}|True}", color="blue", fontname="Calibri", style="filled", fillcolor="white"];
"2001861786"[label="{{Stmt\ -1:\ return\ xatoull_sfx(s}|True}", color="black", fontname="Calibri", style="filled", fillcolor="white"];
"2001861786" -> "1597001729"[label="1", color="black", style="setlinewidth(1)"];
"1403575067"[label="{{Function\ -1:\ xatoul_sfx}|True}", color="blue", fontname="Calibri", style="filled", fillcolor="white"];
"2001861786" -> "1403575067"[label="1", color="black", style="setlinewidth(1)"];
"1403575067" -> "2001861786"[label="1", color="black", style="setlinewidth(1)"];
"981983873"[label="{{Decl\ -1:\ xatoull}|True}", color="blue", fontname="Calibri", style="filled", fillcolor="white"];
"391767650"[label="{{Stmt\ -1:\ return\ xatoull(str);}|True}", color="black", fontname="Calibri", style="filled", fillcolor="white"];
"391767650" -> "981983873"[label="1", color="black", style="setlinewidth(1)"];
"454109626"[label="{{Function\ -1:\ xatoul}|True}", color="blue", fontname="Calibri", style="filled", fillcolor="white"];
"391767650" -> "454109626"[label="1", color="black", style="setlinewidth(1)"];
"454109626" -> "391767650"[label="1", color="black", style="setlinewidth(1)"];
"1844875049"[label="{{Decl\ -1:\ xstrtoll_range_sfx}|True}", color="blue", fontname="Calibri", style="filled", fillcolor="white"];
"734347813"[label="{{Stmt\ -1:\ return\ xstrtoll_rang}|True}", color="black", fontname="Calibri", style="filled", fillcolor="white"];
"734347813" -> "1844875049"[label="1", color="black", style="setlinewidth(1)"];
"1588066574"[label="{{Function\ -1:\ xstrtol_range_sfx}|True}", color="blue", fontname="Calibri", style="filled", fillcolor="white"];
"734347813" -> "1588066574"[label="1", color="black", style="setlinewidth(1)"];
"1588066574" -> "734347813"[label="1", color="black", style="setlinewidth(1)"];
"1020435066"[label="{{Decl\ -1:\ xstrtoll_range}|True}", color="blue", fontname="Calibri", style="filled", fillcolor="white"];
"1017611264"[label="{{Stmt\ -1:\ return\ xstrtoll_rang}|True}", color="black", fontname="Calibri", style="filled", fillcolor="white"];
"1017611264" -> "1020435066"[label="1", color="black", style="setlinewidth(1)"];
"1662906633"[label="{{Function\ -1:\ xstrtol_range}|True}", color="blue", fontname="Calibri", style="filled", fillcolor="white"];
"1017611264" -> "1662906633"[label="1", color="black", style="setlinewidth(1)"];
"1662906633" -> "1017611264"[label="1", color="black", style="setlinewidth(1)"];
"1634243527"[label="{{Decl\ -1:\ xstrtoll}|True}", color="blue", fontname="Calibri", style="filled", fillcolor="white"];
"1498763422"[label="{{Stmt\ -1:\ return\ xstrtoll(str\ }|True}", color="black", fontname="Calibri", style="filled", fillcolor="white"];
"1498763422" -> "1634243527"[label="1", color="black", style="setlinewidth(1)"];
"424346576"[label="{{Function\ -1:\ xstrtol}|True}", color="blue", fontname="Calibri", style="filled", fillcolor="white"];
"1498763422" -> "424346576"[label="1", color="black", style="setlinewidth(1)"];
"424346576" -> "1498763422"[label="1", color="black", style="setlinewidth(1)"];
"927290704"[label="{{Decl\ -1:\ xatoll_range_sfx}|True}", color="blue", fontname="Calibri", style="filled", fillcolor="white"];
"1696122673"[label="{{Stmt\ -1:\ return\ xatoll_range_}|True}", color="black", fontname="Calibri", style="filled", fillcolor="white"];
"1696122673" -> "927290704"[label="1", color="black", style="setlinewidth(1)"];
"1640638071"[label="{{Function\ -1:\ xatol_range_sfx}|True}", color="blue", fontname="Calibri", style="filled", fillcolor="white"];
"1696122673" -> "1640638071"[label="1", color="black", style="setlinewidth(1)"];
"1640638071" -> "1696122673"[label="1", color="black", style="setlinewidth(1)"];
"194351752"[label="{{Decl\ -1:\ xatoll_range}|True}", color="blue", fontname="Calibri", style="filled", fillcolor="white"];
"1592281350"[label="{{Stmt\ -1:\ return\ xatoll_range(}|True}", color="black", fontname="Calibri", style="filled", fillcolor="white"];
"1592281350" -> "194351752"[label="1", color="black", style="setlinewidth(1)"];
"39676008"[label="{{Function\ -1:\ xatol_range}|True}", color="blue", fontname="Calibri", style="filled", fillcolor="white"];
"1592281350" -> "39676008"[label="1", color="black", style="setlinewidth(1)"];
"39676008" -> "1592281350"[label="1", color="black", style="setlinewidth(1)"];
"111057350"[label="{{Decl\ -1:\ xatoll_sfx}|True}", color="blue", fontname="Calibri", style="filled", fillcolor="white"];
"1629213625"[label="{{Stmt\ -1:\ return\ xatoll_sfx(st}|True}", color="black", fontname="Calibri", style="filled", fillcolor="white"];
"1629213625" -> "111057350"[label="1", color="black", style="setlinewidth(1)"];
"1446025365"[label="{{Function\ -1:\ xatol_sfx}|True}", color="blue", fontname="Calibri", style="filled", fillcolor="white"];
"1629213625" -> "1446025365"[label="1", color="black", style="setlinewidth(1)"];
"1446025365" -> "1629213625"[label="1", color="black", style="setlinewidth(1)"];
"993561082"[label="{{Decl\ -1:\ xatoll}|True}", color="blue", fontname="Calibri", style="filled", fillcolor="white"];
"437776393"[label="{{Stmt\ -1:\ return\ xatoll(str);}|True}", color="black", fontname="Calibri", style="filled", fillcolor="white"];
"437776393" -> "993561082"[label="1", color="black", style="setlinewidth(1)"];
"1723437402"[label="{{Function\ -1:\ xatol}|True}", color="blue", fontname="Calibri", style="filled", fillcolor="white"];
"437776393" -> "1723437402"[label="1", color="black", style="setlinewidth(1)"];
"1723437402" -> "437776393"[label="1", color="black", style="setlinewidth(1)"];
"391767650" -> "981983873"[label="1", color="black", style="setlinewidth(1)"];
"391767650" -> "454109626"[label="1", color="black", style="setlinewidth(1)"];
"454109626" -> "391767650"[label="1", color="black", style="setlinewidth(1)"];
"554577858"[label="{{Decl\ -1:\ BUG_xatou32_unimplemented}|True}", color="blue", fontname="Calibri", style="filled", fillcolor="white"];
"1071708129"[label="{{Decl\ -1:\ xatou}|True}", color="blue", fontname="Calibri", style="filled", fillcolor="white"];
"771208294"[label="{{Stmt\ -1:\ return\ xatoul(numstr}|True}", color="black", fontname="Calibri", style="filled", fillcolor="white"];
"771208294" -> "454109626"[label="1", color="black", style="setlinewidth(1)"];
"6139267"[label="{{Function\ -1:\ xatou32}|True}", color="blue", fontname="Calibri", style="filled", fillcolor="white"];
"771208294" -> "6139267"[label="1", color="black", style="setlinewidth(1)"];
"456680830"[label="{{Stmt\ -1:\ return\ BUG_xatou32_u}|True}", color="black", fontname="Calibri", style="filled", fillcolor="white"];
"456680830" -> "554577858"[label="1", color="black", style="setlinewidth(1)"];
"456680830" -> "6139267"[label="1", color="black", style="setlinewidth(1)"];
"1176810138"[label="{{Stmt\ -1:\ return\ xatou(numstr)}|True}", color="black", fontname="Calibri", style="filled", fillcolor="white"];
"1176810138" -> "1071708129"[label="1", color="black", style="setlinewidth(1)"];
"1176810138" -> "6139267"[label="1", color="black", style="setlinewidth(1)"];
"205058015"[label="{{Expr\ -1:\ (((92233720368547758}|True}", color="black", fontname="Calibri", style="filled", fillcolor="white"];
"205058015" -> "456680830"[label="1", color="black", style="setlinewidth(1)"];
"205058015" -> "771208294"[label="1", color="black", style="setlinewidth(1)"];
"227452025"[label="{{Expr\ -1:\ (((2147483647\ *\ 2U)\ }|True}", color="black", fontname="Calibri", style="filled", fillcolor="white"];
"227452025" -> "205058015"[label="1", color="black", style="setlinewidth(1)"];
"227452025" -> "1176810138"[label="1", color="black", style="setlinewidth(1)"];
"6139267" -> "227452025"[label="1", color="black", style="setlinewidth(1)"];
"382674052"[label="{{Decl\ -1:\ bb_strtoull}|True}", color="blue", fontname="Calibri", style="filled", fillcolor="white"];
"499497789"[label="{{Stmt\ -1:\ return\ bb_strtoull(a}|True}", color="black", fontname="Calibri", style="filled", fillcolor="white"];
"499497789" -> "382674052"[label="1", color="black", style="setlinewidth(1)"];
"1650418173"[label="{{Function\ -1:\ bb_strtoul}|True}", color="blue", fontname="Calibri", style="filled", fillcolor="white"];
"499497789" -> "1650418173"[label="1", color="black", style="setlinewidth(1)"];
"1650418173" -> "499497789"[label="1", color="black", style="setlinewidth(1)"];
"12455184"[label="{{Decl\ -1:\ bb_strtoll}|True}", color="blue", fontname="Calibri", style="filled", fillcolor="white"];
"466222469"[label="{{Stmt\ -1:\ return\ bb_strtoll(ar}|True}", color="black", fontname="Calibri", style="filled", fillcolor="white"];
"466222469" -> "12455184"[label="1", color="black", style="setlinewidth(1)"];
"1681676127"[label="{{Function\ -1:\ bb_strtol}|True}", color="blue", fontname="Calibri", style="filled", fillcolor="white"];
"466222469" -> "1681676127"[label="1", color="black", style="setlinewidth(1)"];
"1681676127" -> "466222469"[label="1", color="black", style="setlinewidth(1)"];
"499497789" -> "382674052"[label="1", color="black", style="setlinewidth(1)"];
"499497789" -> "1650418173"[label="1", color="black", style="setlinewidth(1)"];
"1650418173" -> "499497789"[label="1", color="black", style="setlinewidth(1)"];
"1300339760"[label="{{Decl\ -1:\ BUG_bb_strtou32_unimplemented}|True}", color="blue", fontname="Calibri", style="filled", fillcolor="white"];
"931903965"[label="{{Decl\ -1:\ bb_strtou}|True}", color="blue", fontname="Calibri", style="filled", fillcolor="white"];
"331663701"[label="{{Stmt\ -1:\ return\ bb_strtoul(ar}|True}", color="black", fontname="Calibri", style="filled", fillcolor="white"];
"331663701" -> "1650418173"[label="1", color="black", style="setlinewidth(1)"];
"1945561537"[label="{{Function\ -1:\ bb_strtou32}|True}", color="blue", fontname="Calibri", style="filled", fillcolor="white"];
"331663701" -> "1945561537"[label="1", color="black", style="setlinewidth(1)"];
"776262894"[label="{{Stmt\ -1:\ return\ BUG_bb_strtou}|True}", color="black", fontname="Calibri", style="filled", fillcolor="white"];
"776262894" -> "1300339760"[label="1", color="black", style="setlinewidth(1)"];
"776262894" -> "1945561537"[label="1", color="black", style="setlinewidth(1)"];
"1010374559"[label="{{Stmt\ -1:\ return\ bb_strtou(arg}|True}", color="black", fontname="Calibri", style="filled", fillcolor="white"];
"1010374559" -> "931903965"[label="1", color="black", style="setlinewidth(1)"];
"1010374559" -> "1945561537"[label="1", color="black", style="setlinewidth(1)"];
"263203513"[label="{{Expr\ -1:\ (sizeof(uint32_t\ )\ =}|True}", color="black", fontname="Calibri", style="filled", fillcolor="white"];
"263203513" -> "776262894"[label="1", color="black", style="setlinewidth(1)"];
"263203513" -> "331663701"[label="1", color="black", style="setlinewidth(1)"];
"470803440"[label="{{Expr\ -1:\ (sizeof(uint32_t\ )\ =}|True}", color="black", fontname="Calibri", style="filled", fillcolor="white"];
"470803440" -> "263203513"[label="1", color="black", style="setlinewidth(1)"];
"470803440" -> "1010374559"[label="1", color="black", style="setlinewidth(1)"];
"1945561537" -> "470803440"[label="1", color="black", style="setlinewidth(1)"];
"561602570"[label="{{Stmt\ -1:\ return\ (b\ \<=\ ('z'\ -\ }|True}", color="black", fontname="Calibri", style="filled", fillcolor="white"];
"888705094"[label="{{Function\ -1:\ bb_ascii_isalnum}|True}", color="blue", fontname="Calibri", style="filled", fillcolor="white"];
"561602570" -> "888705094"[label="1", color="black", style="setlinewidth(1)"];
"1853432597"[label="{{Stmt\ -1:\ return\ (b\ \<=\ 9);}|True}", color="black", fontname="Calibri", style="filled", fillcolor="white"];
"1853432597" -> "888705094"[label="1", color="black", style="setlinewidth(1)"];
"758232213"[label="{{Stmt\ -1:\ (b\ =\ ((a\ \|\ 0x20)\ -\ '}|True}", color="black", fontname="Calibri", style="filled", fillcolor="white"];
"758232213" -> "561602570"[label="1", color="black", style="setlinewidth(1)"];
"1008564900"[label="{{Expr\ -1:\ (b\ \<=\ 9)}|True}", color="black", fontname="Calibri", style="filled", fillcolor="white"];
"1008564900" -> "758232213"[label="1", color="black", style="setlinewidth(1)"];
"1008564900" -> "1853432597"[label="1", color="black", style="setlinewidth(1)"];
"1091178914"[label="{{Stmt\ -1:\ unsigned\ char\ b\ =\ \ (}|True}", color="black", fontname="Calibri", style="filled", fillcolor="white"];
"1091178914" -> "1008564900"[label="1", color="black", style="setlinewidth(1)"];
"888705094" -> "1091178914"[label="1", color="black", style="setlinewidth(1)"];
"1972100684"[label="{{Stmt\ -1:\ return\ (b\ \<=\ ('f'\ -\ }|True}", color="black", fontname="Calibri", style="filled", fillcolor="white"];
"1119078126"[label="{{Function\ -1:\ bb_ascii_isxdigit}|True}", color="blue", fontname="Calibri", style="filled", fillcolor="white"];
"1972100684" -> "1119078126"[label="1", color="black", style="setlinewidth(1)"];
"1084480901"[label="{{Stmt\ -1:\ return\ (b\ \<=\ 9);}|True}", color="black", fontname="Calibri", style="filled", fillcolor="white"];
"1084480901" -> "1119078126"[label="1", color="black", style="setlinewidth(1)"];
"1441636487"[label="{{Stmt\ -1:\ (b\ =\ ((a\ \|\ 0x20)\ -\ '}|True}", color="black", fontname="Calibri", style="filled", fillcolor="white"];
"1441636487" -> "1972100684"[label="1", color="black", style="setlinewidth(1)"];
"2141610468"[label="{{Expr\ -1:\ (b\ \<=\ 9)}|True}", color="black", fontname="Calibri", style="filled", fillcolor="white"];
"2141610468" -> "1441636487"[label="1", color="black", style="setlinewidth(1)"];
"2141610468" -> "1084480901"[label="1", color="black", style="setlinewidth(1)"];
"1894123966"[label="{{Stmt\ -1:\ unsigned\ char\ b\ =\ \ (}|True}", color="black", fontname="Calibri", style="filled", fillcolor="white"];
"1894123966" -> "2141610468"[label="1", color="black", style="setlinewidth(1)"];
"1119078126" -> "1894123966"[label="1", color="black", style="setlinewidth(1)"];
"1381417618"[label="{{Stmt\ -1:\ (a\ -=\ ('a'\ -\ 'A'));}|True}", color="black", fontname="Calibri", style="filled", fillcolor="white"];
"258723644"[label="{{Stmt\ -1:\ return\ a;}|True}", color="black", fontname="Calibri", style="filled", fillcolor="white"];
"1381417618" -> "258723644"[label="1", color="black", style="setlinewidth(1)"];
"890877103"[label="{{Function\ -1:\ bb_ascii_toupper}|True}", color="blue", fontname="Calibri", style="filled", fillcolor="white"];
"258723644" -> "890877103"[label="1", color="black", style="setlinewidth(1)"];
"635134691"[label="{{Expr\ -1:\ (b\ \<=\ ('z'\ -\ 'a'))}|True}", color="black", fontname="Calibri", style="filled", fillcolor="white"];
"635134691" -> "258723644"[label="1", color="black", style="setlinewidth(1)"];
"635134691" -> "1381417618"[label="1", color="black", style="setlinewidth(1)"];
"152032604"[label="{{Stmt\ -1:\ unsigned\ char\ b\ =\ \ (}|True}", color="black", fontname="Calibri", style="filled", fillcolor="white"];
"152032604" -> "635134691"[label="1", color="black", style="setlinewidth(1)"];
"890877103" -> "152032604"[label="1", color="black", style="setlinewidth(1)"];
"1305029624"[label="{{Stmt\ -1:\ (a\ +=\ ('a'\ -\ 'A'));}|True}", color="black", fontname="Calibri", style="filled", fillcolor="white"];
"432779670"[label="{{Stmt\ -1:\ return\ a;}|True}", color="black", fontname="Calibri", style="filled", fillcolor="white"];
"1305029624" -> "432779670"[label="1", color="black", style="setlinewidth(1)"];
"1872820411"[label="{{Function\ -1:\ bb_ascii_tolower}|True}", color="blue", fontname="Calibri", style="filled", fillcolor="white"];
"432779670" -> "1872820411"[label="1", color="black", style="setlinewidth(1)"];
"1704941767"[label="{{Expr\ -1:\ (b\ \<=\ ('Z'\ -\ 'A'))}|True}", color="black", fontname="Calibri", style="filled", fillcolor="white"];
"1704941767" -> "432779670"[label="1", color="black", style="setlinewidth(1)"];
"1704941767" -> "1305029624"[label="1", color="black", style="setlinewidth(1)"];
"1410591079"[label="{{Stmt\ -1:\ unsigned\ char\ b\ =\ \ (}|True}", color="black", fontname="Calibri", style="filled", fillcolor="white"];
"1410591079" -> "1704941767"[label="1", color="black", style="setlinewidth(1)"];
"1872820411" -> "1410591079"[label="1", color="black", style="setlinewidth(1)"];
"240558214"[label="{{Stmt\ -1:\ (sep\ =\ 1);}|True}", color="black", fontname="Calibri", style="filled", fillcolor="white"];
"2128981735"[label="{{Decl\ -1:\ fputs}|True}", color="blue", fontname="Calibri", style="filled", fillcolor="white"];
"240558214" -> "2128981735"[label="1", color="black", style="setlinewidth(1)"];
"1259218580"[label="{{Stmt\ -1:\ (name\ +=\ (strlen(nam}|True}", color="black", fontname="Calibri", style="filled", fillcolor="white"];
"240558214" -> "1259218580"[label="1", color="black", style="setlinewidth(1)"];
"1007280075"[label="{{Decl\ -1:\ nth_string}|True}", color="blue", fontname="Calibri", style="filled", fillcolor="white"];
"98406411"[label="{{Stmt\ -1:\ fputs(\\\"\ \|\ \\\"\ ,\ stdout}|True}", color="black", fontname="Calibri", style="filled", fillcolor="white"];
"98406411" -> "2128981735"[label="1", color="black", style="setlinewidth(1)"];
"594280268"[label="{{Stmt\ -1:\ fputs(name\ ,\ stdout)}|True}", color="black", fontname="Calibri", style="filled", fillcolor="white"];
"98406411" -> "594280268"[label="1", color="black", style="setlinewidth(1)"];
"594280268" -> "2128981735"[label="1", color="black", style="setlinewidth(1)"];
"594280268" -> "240558214"[label="1", color="black", style="setlinewidth(1)"];
"683229179"[label="{{Expr\ -1:\ i++}|True}", color="black", fontname="Calibri", style="filled", fillcolor="white"];
"1197042711"[label="{{Expr\ -1:\ statlist_bit[i]}|True}", color="black", fontname="Calibri", style="filled", fillcolor="white"];
"683229179" -> "1197042711"[label="1", color="black", style="setlinewidth(1)"];
"539248284"[label="{{Decl\ -1:\ strlen}|True}", color="blue", fontname="Calibri", style="filled", fillcolor="white"];
"157180111"[label="{{Stmt\ -1:\ (descript\ =\ nth_stri}|True}", color="black", fontname="Calibri", style="filled", fillcolor="white"];
"157180111" -> "1007280075"[label="1", color="black", style="setlinewidth(1)"];
"233188187"[label="{{Stmt\ -1:\ printf(\\\")\n\\\"\ \\\"-p\ \ ti}|True}", color="black", fontname="Calibri", style="filled", fillcolor="white"];
"157180111" -> "233188187"[label="1", color="black", style="setlinewidth(1)"];
"108468754"[label="{{Decl\ -1:\ printf}|True}", color="blue", fontname="Calibri", style="filled", fillcolor="white"];
"233188187" -> "108468754"[label="1", color="black", style="setlinewidth(1)"];
"233188187" -> "1007280075"[label="1", color="black", style="setlinewidth(1)"];
"233188187" -> "539248284"[label="1", color="black", style="setlinewidth(1)"];
"233188187" -> "2128981735"[label="1", color="black", style="setlinewidth(1)"];
"2071221321"[label="{{Stmt\ -1:\ return\ 0;}|True}", color="black", fontname="Calibri", style="filled", fillcolor="white"];
"233188187" -> "2071221321"[label="1", color="black", style="setlinewidth(1)"];
"1737554609"[label="{{Expr\ 118:\ sep}|True}", color="black", fontname="Calibri", style="filled", fillcolor="white"];
"1737554609" -> "594280268"[label="1", color="black", style="setlinewidth(1)"];
"1737554609" -> "98406411"[label="1", color="black", style="setlinewidth(1)"];
"1259218580" -> "539248284"[label="1", color="black", style="setlinewidth(1)"];
"1259218580" -> "2128981735"[label="1", color="black", style="setlinewidth(1)"];
"1259218580" -> "683229179"[label="1", color="black", style="setlinewidth(1)"];
"885075371"[label="{{Expr\ -1:\ (ret\ \<=\ 5)}|True}", color="black", fontname="Calibri", style="filled", fillcolor="white"];
"885075371" -> "233188187"[label="1", color="black", style="setlinewidth(1)"];
"885075371" -> "157180111"[label="1", color="black", style="setlinewidth(1)"];
"1411754342"[label="{{Expr\ -1:\ (txc.status\ &\ statli}|True}", color="black", fontname="Calibri", style="filled", fillcolor="white"];
"1411754342" -> "1259218580"[label="1", color="black", style="setlinewidth(1)"];
"1411754342" -> "1737554609"[label="1", color="black", style="setlinewidth(1)"];
"345361419"[label="{{Stmt\ -1:\ (descript\ =\ \\\"error\\\")}|True}", color="black", fontname="Calibri", style="filled", fillcolor="white"];
"345361419" -> "885075371"[label="1", color="black", style="setlinewidth(1)"];
"1197042711" -> "345361419"[label="1", color="black", style="setlinewidth(1)"];
"1197042711" -> "1411754342"[label="1", color="black", style="setlinewidth(1)"];
"853099856"[label="{{Expr\ -1:\ (i\ =\ 0)}|True}", color="black", fontname="Calibri", style="filled", fillcolor="white"];
"853099856" -> "1197042711"[label="1", color="black", style="setlinewidth(1)"];
"110472920"[label="{{Stmt\ -1:\ (sep\ =\ 0);}|True}", color="black", fontname="Calibri", style="filled", fillcolor="white"];
"110472920" -> "853099856"[label="1", color="black", style="setlinewidth(1)"];
"400028905"[label="{{Stmt\ -1:\ (name\ =\ statlist_nam}|True}", color="black", fontname="Calibri", style="filled", fillcolor="white"];
"400028905" -> "110472920"[label="1", color="black", style="setlinewidth(1)"];
"1384851027"[label="{{Stmt\ -1:\ printf(\\\"\ \ \ \ mode:\ \ \ }|True}", color="black", fontname="Calibri", style="filled", fillcolor="white"];
"1384851027" -> "108468754"[label="1", color="black", style="setlinewidth(1)"];
"1384851027" -> "400028905"[label="1", color="black", style="setlinewidth(1)"];
"126288327"[label="{{Stmt\ -1:\ const\ char\ *name;}|True}", color="black", fontname="Calibri", style="filled", fillcolor="white"];
"126288327" -> "1384851027"[label="1", color="black", style="setlinewidth(1)"];
"212846613"[label="{{Decl\ -1:\ bb_perror_nomsg_and_die}|True}", color="blue", fontname="Calibri", style="filled", fillcolor="white"];
"492246353"[label="{{Stmt\ -1:\ int\ sep;}|True}", color="black", fontname="Calibri", style="filled", fillcolor="white"];
"492246353" -> "126288327"[label="1", color="black", style="setlinewidth(1)"];
"1337159847"[label="{{Function\ -1:\ adjtimex_main}|True}", color="blue", fontname="Calibri", style="filled", fillcolor="white"];
"2071221321" -> "1337159847"[label="1", color="black", style="setlinewidth(1)"];
"1149347901"[label="{{Stmt\ -1:\ bb_perror_nomsg_and_}|True}", color="black", fontname="Calibri", style="filled", fillcolor="white"];
"1149347901" -> "212846613"[label="1", color="black", style="setlinewidth(1)"];
"1931597534"[label="{{Expr\ -1:\ (!\ (opt\ &\ OPT_quiet)}|True}", color="black", fontname="Calibri", style="filled", fillcolor="white"];
"1149347901" -> "1931597534"[label="1", color="black", style="setlinewidth(1)"];
"1931597534" -> "2071221321"[label="1", color="black", style="setlinewidth(1)"];
"1931597534" -> "492246353"[label="1", color="black", style="setlinewidth(1)"];
"1956957770"[label="{{Stmt\ -1:\ (txc.modes\ \|=\ 0x4000}|True}", color="black", fontname="Calibri", style="filled", fillcolor="white"];
"1956957770" -> "1723437402"[label="1", color="black", style="setlinewidth(1)"];
"510256311"[label="{{Stmt\ -1:\ (ret\ =\ adjtimex((&tx}|True}", color="black", fontname="Calibri", style="filled", fillcolor="white"];
"1956957770" -> "510256311"[label="1", color="black", style="setlinewidth(1)"];
"1899230108"[label="{{Expr\ -1:\ (ret\ \<\ 0)}|True}", color="black", fontname="Calibri", style="filled", fillcolor="white"];
"1899230108" -> "1931597534"[label="1", color="black", style="setlinewidth(1)"];
"1899230108" -> "1149347901"[label="1", color="black", style="setlinewidth(1)"];
"518645019"[label="{{Decl\ -1:\ adjtimex}|True}", color="blue", fontname="Calibri", style="filled", fillcolor="white"];
"494098065"[label="{{Stmt\ -1:\ (txc.modes\ \|=\ 0x0020}|True}", color="black", fontname="Calibri", style="filled", fillcolor="white"];
"494098065" -> "1723437402"[label="1", color="black", style="setlinewidth(1)"];
"1471723762"[label="{{Expr\ -1:\ (opt\ &\ 0x10)}|True}", color="black", fontname="Calibri", style="filled", fillcolor="white"];
"494098065" -> "1471723762"[label="1", color="black", style="setlinewidth(1)"];
"1956223659"[label="{{Stmt\ -1:\ (txc.tick\ =\ xatol(op}|True}", color="black", fontname="Calibri", style="filled", fillcolor="white"];
"1956223659" -> "1723437402"[label="1", color="black", style="setlinewidth(1)"];
"1956223659" -> "1956957770"[label="1", color="black", style="setlinewidth(1)"];
"510256311" -> "518645019"[label="1", color="black", style="setlinewidth(1)"];
"510256311" -> "1899230108"[label="1", color="black", style="setlinewidth(1)"];
"437776393" -> "993561082"[label="1", color="black", style="setlinewidth(1)"];
"437776393" -> "1723437402"[label="1", color="black", style="setlinewidth(1)"];
"131539443"[label="{{Stmt\ -1:\ (txc.modes\ \|=\ 0x0002}|True}", color="black", fontname="Calibri", style="filled", fillcolor="white"];
"131539443" -> "1723437402"[label="1", color="black", style="setlinewidth(1)"];
"1837494199"[label="{{Expr\ -1:\ (opt\ &\ 0x8)}|True}", color="black", fontname="Calibri", style="filled", fillcolor="white"];
"131539443" -> "1837494199"[label="1", color="black", style="setlinewidth(1)"];
"271280042"[label="{{Stmt\ -1:\ (txc.constant\ =\ xato}|True}", color="black", fontname="Calibri", style="filled", fillcolor="white"];
"271280042" -> "1723437402"[label="1", color="black", style="setlinewidth(1)"];
"271280042" -> "494098065"[label="1", color="black", style="setlinewidth(1)"];
"1471723762" -> "510256311"[label="1", color="black", style="setlinewidth(1)"];
"1471723762" -> "1956223659"[label="1", color="black", style="setlinewidth(1)"];
"1162513035"[label="{{Stmt\ -1:\ (txc.modes\ \|=\ 0x8001}|True}", color="black", fontname="Calibri", style="filled", fillcolor="white"];
"1162513035" -> "1723437402"[label="1", color="black", style="setlinewidth(1)"];
"888439183"[label="{{Expr\ -1:\ (opt\ &\ 0x4)}|True}", color="black", fontname="Calibri", style="filled", fillcolor="white"];
"1162513035" -> "888439183"[label="1", color="black", style="setlinewidth(1)"];
"1723437402" -> "437776393"[label="1", color="black", style="setlinewidth(1)"];
"1753025588"[label="{{Stmt\ -1:\ (txc.freq\ =\ xatol(op}|True}", color="black", fontname="Calibri", style="filled", fillcolor="white"];
"1753025588" -> "1723437402"[label="1", color="black", style="setlinewidth(1)"];
"1753025588" -> "131539443"[label="1", color="black", style="setlinewidth(1)"];
"1837494199" -> "1471723762"[label="1", color="black", style="setlinewidth(1)"];
"1837494199" -> "271280042"[label="1", color="black", style="setlinewidth(1)"];
"421516595"[label="{{Stmt\ -1:\ (txc.offset\ =\ xatol(}|True}", color="black", fontname="Calibri", style="filled", fillcolor="white"];
"421516595" -> "1723437402"[label="1", color="black", style="setlinewidth(1)"];
"421516595" -> "1162513035"[label="1", color="black", style="setlinewidth(1)"];
"888439183" -> "1837494199"[label="1", color="black", style="setlinewidth(1)"];
"888439183" -> "1753025588"[label="1", color="black", style="setlinewidth(1)"];
"2012036025"[label="{{Expr\ -1:\ (opt\ &\ 0x2)}|True}", color="black", fontname="Calibri", style="filled", fillcolor="white"];
"2012036025" -> "888439183"[label="1", color="black", style="setlinewidth(1)"];
"2012036025" -> "421516595"[label="1", color="black", style="setlinewidth(1)"];
"1905538239"[label="{{Stmt\ -1:\ (txc.modes\ =\ 0);}|True}", color="black", fontname="Calibri", style="filled", fillcolor="white"];
"1905538239" -> "2012036025"[label="1", color="black", style="setlinewidth(1)"];
"113212829"[label="{{Decl\ -1:\ getopt32}|True}", color="blue", fontname="Calibri", style="filled", fillcolor="white"];
"2050959703"[label="{{Stmt\ -1:\ (opt\ =\ getopt32(argv}|True}", color="black", fontname="Calibri", style="filled", fillcolor="white"];
"2050959703" -> "113212829"[label="1", color="black", style="setlinewidth(1)"];
"2050959703" -> "1905538239"[label="1", color="black", style="setlinewidth(1)"];
"78589352"[label="{{Stmt\ -1:\ (opt_complementary\ =}|True}", color="black", fontname="Calibri", style="filled", fillcolor="white"];
"78589352" -> "2050959703"[label="1", color="black", style="setlinewidth(1)"];
"847794453"[label="{{Stmt\ -1:\ const\ char\ *descript}|True}", color="black", fontname="Calibri", style="filled", fillcolor="white"];
"847794453" -> "78589352"[label="1", color="black", style="setlinewidth(1)"];
"341738759"[label="{{Stmt\ -1:\ int\ i,\ ret;}|True}", color="black", fontname="Calibri", style="filled", fillcolor="white"];
"341738759" -> "847794453"[label="1", color="black", style="setlinewidth(1)"];
"1839594852"[label="{{Stmt\ -1:\ struct\ timex\ \ txc;}|True}", color="black", fontname="Calibri", style="filled", fillcolor="white"];
"1839594852" -> "341738759"[label="1", color="black", style="setlinewidth(1)"];
"926583705"[label="{{Stmt\ -1:\ char\ *opt_o,\ *opt_f,}|True}", color="black", fontname="Calibri", style="filled", fillcolor="white"];
"926583705" -> "1839594852"[label="1", color="black", style="setlinewidth(1)"];
"931518719"[label="{{Stmt\ -1:\ unsigned\ opt;}|True}", color="black", fontname="Calibri", style="filled", fillcolor="white"];
"931518719" -> "926583705"[label="1", color="black", style="setlinewidth(1)"];
"1014695783"[label="{{Stmt\ -1:\ enum\ \ \{\l\ \ OPT_quiet\ }|True}", color="black", fontname="Calibri", style="filled", fillcolor="white"];
"1014695783" -> "931518719"[label="1", color="black", style="setlinewidth(1)"];
"1337159847" -> "1014695783"[label="1", color="black", style="setlinewidth(1)"];
}
