digraph "busybox-1.18.5/miscutils/flash_eraseall.c" {
node [shape=record];
"1366758756"[label="{{Decl\ -1:\ xstrtoull_range_sfx}|True}", color="blue", fontname="Calibri", style="filled", fillcolor="white"];
"1662304180"[label="{{Stmt\ -1:\ return\ xstrtoull_ran}|True}", color="black", fontname="Calibri", style="filled", fillcolor="white"];
"1662304180" -> "1366758756"[label="1", color="black", style="setlinewidth(1)"];
"1215814045"[label="{{Function\ -1:\ xstrtoul_range_sfx}|True}", color="blue", fontname="Calibri", style="filled", fillcolor="white"];
"1662304180" -> "1215814045"[label="1", color="black", style="setlinewidth(1)"];
"1215814045" -> "1662304180"[label="1", color="black", style="setlinewidth(1)"];
"2097919540"[label="{{Decl\ -1:\ xstrtoull_range}|True}", color="blue", fontname="Calibri", style="filled", fillcolor="white"];
"1801252028"[label="{{Stmt\ -1:\ return\ xstrtoull_ran}|True}", color="black", fontname="Calibri", style="filled", fillcolor="white"];
"1801252028" -> "2097919540"[label="1", color="black", style="setlinewidth(1)"];
"867902807"[label="{{Function\ -1:\ xstrtoul_range}|True}", color="blue", fontname="Calibri", style="filled", fillcolor="white"];
"1801252028" -> "867902807"[label="1", color="black", style="setlinewidth(1)"];
"867902807" -> "1801252028"[label="1", color="black", style="setlinewidth(1)"];
"58698264"[label="{{Decl\ -1:\ xstrtoull_sfx}|True}", color="blue", fontname="Calibri", style="filled", fillcolor="white"];
"1212877220"[label="{{Stmt\ -1:\ return\ xstrtoull_sfx}|True}", color="black", fontname="Calibri", style="filled", fillcolor="white"];
"1212877220" -> "58698264"[label="1", color="black", style="setlinewidth(1)"];
"1895412718"[label="{{Function\ -1:\ xstrtoul_sfx}|True}", color="blue", fontname="Calibri", style="filled", fillcolor="white"];
"1212877220" -> "1895412718"[label="1", color="black", style="setlinewidth(1)"];
"1895412718" -> "1212877220"[label="1", color="black", style="setlinewidth(1)"];
"1597001729"[label="{{Decl\ -1:\ xstrtoull}|True}", color="blue", fontname="Calibri", style="filled", fillcolor="white"];
"1403575067"[label="{{Stmt\ -1:\ return\ xstrtoull(str}|True}", color="black", fontname="Calibri", style="filled", fillcolor="white"];
"1403575067" -> "1597001729"[label="1", color="black", style="setlinewidth(1)"];
"1310234149"[label="{{Function\ -1:\ xstrtoul}|True}", color="blue", fontname="Calibri", style="filled", fillcolor="white"];
"1403575067" -> "1310234149"[label="1", color="black", style="setlinewidth(1)"];
"1310234149" -> "1403575067"[label="1", color="black", style="setlinewidth(1)"];
"330509140"[label="{{Decl\ -1:\ xatoull_range_sfx}|True}", color="blue", fontname="Calibri", style="filled", fillcolor="white"];
"1476520346"[label="{{Stmt\ -1:\ return\ xatoull_range}|True}", color="black", fontname="Calibri", style="filled", fillcolor="white"];
"1476520346" -> "330509140"[label="1", color="black", style="setlinewidth(1)"];
"719368635"[label="{{Function\ -1:\ xatoul_range_sfx}|True}", color="blue", fontname="Calibri", style="filled", fillcolor="white"];
"1476520346" -> "719368635"[label="1", color="black", style="setlinewidth(1)"];
"719368635" -> "1476520346"[label="1", color="black", style="setlinewidth(1)"];
"791981879"[label="{{Decl\ -1:\ xatoull_range}|True}", color="blue", fontname="Calibri", style="filled", fillcolor="white"];
"2067056950"[label="{{Stmt\ -1:\ return\ xatoull_range}|True}", color="black", fontname="Calibri", style="filled", fillcolor="white"];
"2067056950" -> "791981879"[label="1", color="black", style="setlinewidth(1)"];
"764159952"[label="{{Function\ -1:\ xatoul_range}|True}", color="blue", fontname="Calibri", style="filled", fillcolor="white"];
"2067056950" -> "764159952"[label="1", color="black", style="setlinewidth(1)"];
"764159952" -> "2067056950"[label="1", color="black", style="setlinewidth(1)"];
"182810973"[label="{{Decl\ -1:\ xatoull_sfx}|True}", color="blue", fontname="Calibri", style="filled", fillcolor="white"];
"1959763949"[label="{{Stmt\ -1:\ return\ xatoull_sfx(s}|True}", color="black", fontname="Calibri", style="filled", fillcolor="white"];
"1959763949" -> "182810973"[label="1", color="black", style="setlinewidth(1)"];
"1320385802"[label="{{Function\ -1:\ xatoul_sfx}|True}", color="blue", fontname="Calibri", style="filled", fillcolor="white"];
"1959763949" -> "1320385802"[label="1", color="black", style="setlinewidth(1)"];
"1320385802" -> "1959763949"[label="1", color="black", style="setlinewidth(1)"];
"2005467440"[label="{{Decl\ -1:\ xatoull}|True}", color="blue", fontname="Calibri", style="filled", fillcolor="white"];
"1763259809"[label="{{Stmt\ -1:\ return\ xatoull(str);}|True}", color="black", fontname="Calibri", style="filled", fillcolor="white"];
"1763259809" -> "2005467440"[label="1", color="black", style="setlinewidth(1)"];
"1812187845"[label="{{Function\ -1:\ xatoul}|True}", color="blue", fontname="Calibri", style="filled", fillcolor="white"];
"1763259809" -> "1812187845"[label="1", color="black", style="setlinewidth(1)"];
"1812187845" -> "1763259809"[label="1", color="black", style="setlinewidth(1)"];
"364813400"[label="{{Decl\ -1:\ xstrtoll_range_sfx}|True}", color="blue", fontname="Calibri", style="filled", fillcolor="white"];
"1386674129"[label="{{Stmt\ -1:\ return\ xstrtoll_rang}|True}", color="black", fontname="Calibri", style="filled", fillcolor="white"];
"1386674129" -> "364813400"[label="1", color="black", style="setlinewidth(1)"];
"1789089"[label="{{Function\ -1:\ xstrtol_range_sfx}|True}", color="blue", fontname="Calibri", style="filled", fillcolor="white"];
"1386674129" -> "1789089"[label="1", color="black", style="setlinewidth(1)"];
"1789089" -> "1386674129"[label="1", color="black", style="setlinewidth(1)"];
"202597347"[label="{{Decl\ -1:\ xstrtoll_range}|True}", color="blue", fontname="Calibri", style="filled", fillcolor="white"];
"232717341"[label="{{Stmt\ -1:\ return\ xstrtoll_rang}|True}", color="black", fontname="Calibri", style="filled", fillcolor="white"];
"232717341" -> "202597347"[label="1", color="black", style="setlinewidth(1)"];
"451579021"[label="{{Function\ -1:\ xstrtol_range}|True}", color="blue", fontname="Calibri", style="filled", fillcolor="white"];
"232717341" -> "451579021"[label="1", color="black", style="setlinewidth(1)"];
"451579021" -> "232717341"[label="1", color="black", style="setlinewidth(1)"];
"2102573258"[label="{{Decl\ -1:\ xstrtoll}|True}", color="blue", fontname="Calibri", style="filled", fillcolor="white"];
"14044122"[label="{{Stmt\ -1:\ return\ xstrtoll(str\ }|True}", color="black", fontname="Calibri", style="filled", fillcolor="white"];
"14044122" -> "2102573258"[label="1", color="black", style="setlinewidth(1)"];
"1740351657"[label="{{Function\ -1:\ xstrtol}|True}", color="blue", fontname="Calibri", style="filled", fillcolor="white"];
"14044122" -> "1740351657"[label="1", color="black", style="setlinewidth(1)"];
"1740351657" -> "14044122"[label="1", color="black", style="setlinewidth(1)"];
"2108260949"[label="{{Decl\ -1:\ xatoll_range_sfx}|True}", color="blue", fontname="Calibri", style="filled", fillcolor="white"];
"428862529"[label="{{Stmt\ -1:\ return\ xatoll_range_}|True}", color="black", fontname="Calibri", style="filled", fillcolor="white"];
"428862529" -> "2108260949"[label="1", color="black", style="setlinewidth(1)"];
"1283617319"[label="{{Function\ -1:\ xatol_range_sfx}|True}", color="blue", fontname="Calibri", style="filled", fillcolor="white"];
"428862529" -> "1283617319"[label="1", color="black", style="setlinewidth(1)"];
"1283617319" -> "428862529"[label="1", color="black", style="setlinewidth(1)"];
"1025294329"[label="{{Decl\ -1:\ xatoll_range}|True}", color="blue", fontname="Calibri", style="filled", fillcolor="white"];
"1256652947"[label="{{Stmt\ -1:\ return\ xatoll_range(}|True}", color="black", fontname="Calibri", style="filled", fillcolor="white"];
"1256652947" -> "1025294329"[label="1", color="black", style="setlinewidth(1)"];
"1814858615"[label="{{Function\ -1:\ xatol_range}|True}", color="blue", fontname="Calibri", style="filled", fillcolor="white"];
"1256652947" -> "1814858615"[label="1", color="black", style="setlinewidth(1)"];
"1814858615" -> "1256652947"[label="1", color="black", style="setlinewidth(1)"];
"2065407546"[label="{{Decl\ -1:\ xatoll_sfx}|True}", color="blue", fontname="Calibri", style="filled", fillcolor="white"];
"2124486103"[label="{{Stmt\ -1:\ return\ xatoll_sfx(st}|True}", color="black", fontname="Calibri", style="filled", fillcolor="white"];
"2124486103" -> "2065407546"[label="1", color="black", style="setlinewidth(1)"];
"1843086975"[label="{{Function\ -1:\ xatol_sfx}|True}", color="blue", fontname="Calibri", style="filled", fillcolor="white"];
"2124486103" -> "1843086975"[label="1", color="black", style="setlinewidth(1)"];
"1843086975" -> "2124486103"[label="1", color="black", style="setlinewidth(1)"];
"1530669442"[label="{{Decl\ -1:\ xatoll}|True}", color="blue", fontname="Calibri", style="filled", fillcolor="white"];
"97967557"[label="{{Stmt\ -1:\ return\ xatoll(str);}|True}", color="black", fontname="Calibri", style="filled", fillcolor="white"];
"97967557" -> "1530669442"[label="1", color="black", style="setlinewidth(1)"];
"38076291"[label="{{Function\ -1:\ xatol}|True}", color="blue", fontname="Calibri", style="filled", fillcolor="white"];
"97967557" -> "38076291"[label="1", color="black", style="setlinewidth(1)"];
"38076291" -> "97967557"[label="1", color="black", style="setlinewidth(1)"];
"1763259809" -> "2005467440"[label="1", color="black", style="setlinewidth(1)"];
"1763259809" -> "1812187845"[label="1", color="black", style="setlinewidth(1)"];
"1812187845" -> "1763259809"[label="1", color="black", style="setlinewidth(1)"];
"811911381"[label="{{Decl\ -1:\ BUG_xatou32_unimplemented}|True}", color="blue", fontname="Calibri", style="filled", fillcolor="white"];
"1713683603"[label="{{Decl\ -1:\ xatou}|True}", color="blue", fontname="Calibri", style="filled", fillcolor="white"];
"562611813"[label="{{Stmt\ -1:\ return\ xatoul(numstr}|True}", color="black", fontname="Calibri", style="filled", fillcolor="white"];
"562611813" -> "1812187845"[label="1", color="black", style="setlinewidth(1)"];
"5230972"[label="{{Function\ -1:\ xatou32}|True}", color="blue", fontname="Calibri", style="filled", fillcolor="white"];
"562611813" -> "5230972"[label="1", color="black", style="setlinewidth(1)"];
"1761626440"[label="{{Stmt\ -1:\ return\ BUG_xatou32_u}|True}", color="black", fontname="Calibri", style="filled", fillcolor="white"];
"1761626440" -> "811911381"[label="1", color="black", style="setlinewidth(1)"];
"1761626440" -> "5230972"[label="1", color="black", style="setlinewidth(1)"];
"76832813"[label="{{Stmt\ -1:\ return\ xatou(numstr)}|True}", color="black", fontname="Calibri", style="filled", fillcolor="white"];
"76832813" -> "1713683603"[label="1", color="black", style="setlinewidth(1)"];
"76832813" -> "5230972"[label="1", color="black", style="setlinewidth(1)"];
"1548800708"[label="{{Expr\ -1:\ (((92233720368547758}|True}", color="black", fontname="Calibri", style="filled", fillcolor="white"];
"1548800708" -> "1761626440"[label="1", color="black", style="setlinewidth(1)"];
"1548800708" -> "562611813"[label="1", color="black", style="setlinewidth(1)"];
"1679448959"[label="{{Expr\ -1:\ (((2147483647\ *\ 2U)\ }|True}", color="black", fontname="Calibri", style="filled", fillcolor="white"];
"1679448959" -> "1548800708"[label="1", color="black", style="setlinewidth(1)"];
"1679448959" -> "76832813"[label="1", color="black", style="setlinewidth(1)"];
"5230972" -> "1679448959"[label="1", color="black", style="setlinewidth(1)"];
"1698733603"[label="{{Decl\ -1:\ bb_strtoull}|True}", color="blue", fontname="Calibri", style="filled", fillcolor="white"];
"484177653"[label="{{Stmt\ -1:\ return\ bb_strtoull(a}|True}", color="black", fontname="Calibri", style="filled", fillcolor="white"];
"484177653" -> "1698733603"[label="1", color="black", style="setlinewidth(1)"];
"1326198179"[label="{{Function\ -1:\ bb_strtoul}|True}", color="blue", fontname="Calibri", style="filled", fillcolor="white"];
"484177653" -> "1326198179"[label="1", color="black", style="setlinewidth(1)"];
"1326198179" -> "484177653"[label="1", color="black", style="setlinewidth(1)"];
"1365695461"[label="{{Decl\ -1:\ bb_strtoll}|True}", color="blue", fontname="Calibri", style="filled", fillcolor="white"];
"280409571"[label="{{Stmt\ -1:\ return\ bb_strtoll(ar}|True}", color="black", fontname="Calibri", style="filled", fillcolor="white"];
"280409571" -> "1365695461"[label="1", color="black", style="setlinewidth(1)"];
"1717265975"[label="{{Function\ -1:\ bb_strtol}|True}", color="blue", fontname="Calibri", style="filled", fillcolor="white"];
"280409571" -> "1717265975"[label="1", color="black", style="setlinewidth(1)"];
"1717265975" -> "280409571"[label="1", color="black", style="setlinewidth(1)"];
"484177653" -> "1698733603"[label="1", color="black", style="setlinewidth(1)"];
"484177653" -> "1326198179"[label="1", color="black", style="setlinewidth(1)"];
"1326198179" -> "484177653"[label="1", color="black", style="setlinewidth(1)"];
"65955247"[label="{{Decl\ -1:\ BUG_bb_strtou32_unimplemented}|True}", color="blue", fontname="Calibri", style="filled", fillcolor="white"];
"56994749"[label="{{Decl\ -1:\ bb_strtou}|True}", color="blue", fontname="Calibri", style="filled", fillcolor="white"];
"455827297"[label="{{Stmt\ -1:\ return\ bb_strtoul(ar}|True}", color="black", fontname="Calibri", style="filled", fillcolor="white"];
"455827297" -> "1326198179"[label="1", color="black", style="setlinewidth(1)"];
"191448210"[label="{{Function\ -1:\ bb_strtou32}|True}", color="blue", fontname="Calibri", style="filled", fillcolor="white"];
"455827297" -> "191448210"[label="1", color="black", style="setlinewidth(1)"];
"807641075"[label="{{Stmt\ -1:\ return\ BUG_bb_strtou}|True}", color="black", fontname="Calibri", style="filled", fillcolor="white"];
"807641075" -> "65955247"[label="1", color="black", style="setlinewidth(1)"];
"807641075" -> "191448210"[label="1", color="black", style="setlinewidth(1)"];
"239607386"[label="{{Stmt\ -1:\ return\ bb_strtou(arg}|True}", color="black", fontname="Calibri", style="filled", fillcolor="white"];
"239607386" -> "56994749"[label="1", color="black", style="setlinewidth(1)"];
"239607386" -> "191448210"[label="1", color="black", style="setlinewidth(1)"];
"941820114"[label="{{Expr\ -1:\ (sizeof(uint32_t\ )\ =}|True}", color="black", fontname="Calibri", style="filled", fillcolor="white"];
"941820114" -> "807641075"[label="1", color="black", style="setlinewidth(1)"];
"941820114" -> "455827297"[label="1", color="black", style="setlinewidth(1)"];
"216309538"[label="{{Expr\ -1:\ (sizeof(uint32_t\ )\ =}|True}", color="black", fontname="Calibri", style="filled", fillcolor="white"];
"216309538" -> "941820114"[label="1", color="black", style="setlinewidth(1)"];
"216309538" -> "239607386"[label="1", color="black", style="setlinewidth(1)"];
"191448210" -> "216309538"[label="1", color="black", style="setlinewidth(1)"];
"1266836731"[label="{{Stmt\ -1:\ return\ (b\ \<=\ ('z'\ -\ }|True}", color="black", fontname="Calibri", style="filled", fillcolor="white"];
"2250656"[label="{{Function\ -1:\ bb_ascii_isalnum}|True}", color="blue", fontname="Calibri", style="filled", fillcolor="white"];
"1266836731" -> "2250656"[label="1", color="black", style="setlinewidth(1)"];
"874393059"[label="{{Stmt\ -1:\ return\ (b\ \<=\ 9);}|True}", color="black", fontname="Calibri", style="filled", fillcolor="white"];
"874393059" -> "2250656"[label="1", color="black", style="setlinewidth(1)"];
"1566739424"[label="{{Stmt\ -1:\ (b\ =\ ((a\ \|\ 0x20)\ -\ '}|True}", color="black", fontname="Calibri", style="filled", fillcolor="white"];
"1566739424" -> "1266836731"[label="1", color="black", style="setlinewidth(1)"];
"1496730678"[label="{{Expr\ -1:\ (b\ \<=\ 9)}|True}", color="black", fontname="Calibri", style="filled", fillcolor="white"];
"1496730678" -> "1566739424"[label="1", color="black", style="setlinewidth(1)"];
"1496730678" -> "874393059"[label="1", color="black", style="setlinewidth(1)"];
"1029671468"[label="{{Stmt\ -1:\ unsigned\ char\ b\ =\ \ (}|True}", color="black", fontname="Calibri", style="filled", fillcolor="white"];
"1029671468" -> "1496730678"[label="1", color="black", style="setlinewidth(1)"];
"2250656" -> "1029671468"[label="1", color="black", style="setlinewidth(1)"];
"1305029624"[label="{{Stmt\ -1:\ return\ (b\ \<=\ ('f'\ -\ }|True}", color="black", fontname="Calibri", style="filled", fillcolor="white"];
"1680623355"[label="{{Function\ -1:\ bb_ascii_isxdigit}|True}", color="blue", fontname="Calibri", style="filled", fillcolor="white"];
"1305029624" -> "1680623355"[label="1", color="black", style="setlinewidth(1)"];
"1328877391"[label="{{Stmt\ -1:\ return\ (b\ \<=\ 9);}|True}", color="black", fontname="Calibri", style="filled", fillcolor="white"];
"1328877391" -> "1680623355"[label="1", color="black", style="setlinewidth(1)"];
"565122288"[label="{{Stmt\ -1:\ (b\ =\ ((a\ \|\ 0x20)\ -\ '}|True}", color="black", fontname="Calibri", style="filled", fillcolor="white"];
"565122288" -> "1305029624"[label="1", color="black", style="setlinewidth(1)"];
"1016598734"[label="{{Expr\ -1:\ (b\ \<=\ 9)}|True}", color="black", fontname="Calibri", style="filled", fillcolor="white"];
"1016598734" -> "565122288"[label="1", color="black", style="setlinewidth(1)"];
"1016598734" -> "1328877391"[label="1", color="black", style="setlinewidth(1)"];
"824445694"[label="{{Stmt\ -1:\ unsigned\ char\ b\ =\ \ (}|True}", color="black", fontname="Calibri", style="filled", fillcolor="white"];
"824445694" -> "1016598734"[label="1", color="black", style="setlinewidth(1)"];
"1680623355" -> "824445694"[label="1", color="black", style="setlinewidth(1)"];
"400983947"[label="{{Stmt\ -1:\ (a\ -=\ ('a'\ -\ 'A'));}|True}", color="black", fontname="Calibri", style="filled", fillcolor="white"];
"1393493575"[label="{{Stmt\ -1:\ return\ a;}|True}", color="black", fontname="Calibri", style="filled", fillcolor="white"];
"400983947" -> "1393493575"[label="1", color="black", style="setlinewidth(1)"];
"1170656470"[label="{{Function\ -1:\ bb_ascii_toupper}|True}", color="blue", fontname="Calibri", style="filled", fillcolor="white"];
"1393493575" -> "1170656470"[label="1", color="black", style="setlinewidth(1)"];
"1676567479"[label="{{Expr\ -1:\ (b\ \<=\ ('z'\ -\ 'a'))}|True}", color="black", fontname="Calibri", style="filled", fillcolor="white"];
"1676567479" -> "1393493575"[label="1", color="black", style="setlinewidth(1)"];
"1676567479" -> "400983947"[label="1", color="black", style="setlinewidth(1)"];
"158146185"[label="{{Stmt\ -1:\ unsigned\ char\ b\ =\ \ (}|True}", color="black", fontname="Calibri", style="filled", fillcolor="white"];
"158146185" -> "1676567479"[label="1", color="black", style="setlinewidth(1)"];
"1170656470" -> "158146185"[label="1", color="black", style="setlinewidth(1)"];
"828477420"[label="{{Stmt\ -1:\ (a\ +=\ ('a'\ -\ 'A'));}|True}", color="black", fontname="Calibri", style="filled", fillcolor="white"];
"343802177"[label="{{Stmt\ -1:\ return\ a;}|True}", color="black", fontname="Calibri", style="filled", fillcolor="white"];
"828477420" -> "343802177"[label="1", color="black", style="setlinewidth(1)"];
"1389880061"[label="{{Function\ -1:\ bb_ascii_tolower}|True}", color="blue", fontname="Calibri", style="filled", fillcolor="white"];
"343802177" -> "1389880061"[label="1", color="black", style="setlinewidth(1)"];
"1959003166"[label="{{Expr\ -1:\ (b\ \<=\ ('Z'\ -\ 'A'))}|True}", color="black", fontname="Calibri", style="filled", fillcolor="white"];
"1959003166" -> "343802177"[label="1", color="black", style="setlinewidth(1)"];
"1959003166" -> "828477420"[label="1", color="black", style="setlinewidth(1)"];
"850909777"[label="{{Stmt\ -1:\ unsigned\ char\ b\ =\ \ (}|True}", color="black", fontname="Calibri", style="filled", fillcolor="white"];
"850909777" -> "1959003166"[label="1", color="black", style="setlinewidth(1)"];
"1389880061" -> "850909777"[label="1", color="black", style="setlinewidth(1)"];
"493593033"[label="{{Decl\ -1:\ fflush_all}|True}", color="blue", fontname="Calibri", style="filled", fillcolor="white"];
"2084087050"[label="{{Stmt\ -1:\ fflush_all();}|True}", color="black", fontname="Calibri", style="filled", fillcolor="white"];
"2084087050" -> "493593033"[label="1", color="black", style="setlinewidth(1)"];
"1666392491"[label="{{Decl\ -1:\ printf}|True}", color="blue", fontname="Calibri", style="filled", fillcolor="white"];
"2084087050" -> "1666392491"[label="1", color="black", style="setlinewidth(1)"];
"1363804914"[label="{{Function\ -1:\ show_progress}|True}", color="blue", fontname="Calibri", style="filled", fillcolor="white"];
"2084087050" -> "1363804914"[label="1", color="black", style="setlinewidth(1)"];
"760498024"[label="{{Stmt\ -1:\ printf(\\\"\rErasing\ %u}|True}", color="black", fontname="Calibri", style="filled", fillcolor="white"];
"760498024" -> "1666392491"[label="1", color="black", style="setlinewidth(1)"];
"760498024" -> "2084087050"[label="1", color="black", style="setlinewidth(1)"];
"1363804914" -> "760498024"[label="1", color="black", style="setlinewidth(1)"];
"1374413376"[label="{{Stmt\ -1:\ bb_error_msg_and_die}|True}", color="black", fontname="Calibri", style="filled", fillcolor="white"];
"1012445442"[label="{{Decl\ -1:\ bb_error_msg_and_die}|True}", color="blue", fontname="Calibri", style="filled", fillcolor="white"];
"1374413376" -> "1012445442"[label="1", color="black", style="setlinewidth(1)"];
"255605994"[label="{{Stmt\ -1:\ (cleanmarker.totlen\ }|True}", color="black", fontname="Calibri", style="filled", fillcolor="white"];
"1374413376" -> "255605994"[label="1", color="black", style="setlinewidth(1)"];
"1370724241"[label="{{Stmt\ 111:\ break;}|True}", color="black", fontname="Calibri", style="filled", fillcolor="white"];
"1370724241" -> "1012445442"[label="1", color="black", style="setlinewidth(1)"];
"1370724241" -> "255605994"[label="1", color="black", style="setlinewidth(1)"];
"2118661837"[label="{{Stmt\ -1:\ bb_error_msg_and_die}|True}", color="black", fontname="Calibri", style="filled", fillcolor="white"];
"2118661837" -> "1012445442"[label="1", color="black", style="setlinewidth(1)"];
"1905570216"[label="{{Decl\ -1:\ bb_perror_msg_and_die}|True}", color="blue", fontname="Calibri", style="filled", fillcolor="white"];
"2118661837" -> "1905570216"[label="1", color="black", style="setlinewidth(1)"];
"1306917113"[label="{{Decl\ -1:\ bb_info_msg}|True}", color="blue", fontname="Calibri", style="filled", fillcolor="white"];
"2118661837" -> "1306917113"[label="1", color="black", style="setlinewidth(1)"];
"328467576"[label="{{Decl\ -1:\ ioctl}|True}", color="blue", fontname="Calibri", style="filled", fillcolor="white"];
"2118661837" -> "328467576"[label="1", color="black", style="setlinewidth(1)"];
"1216575764"[label="{{Expr\ -1:\ (!\ (flags\ &\ (1\ \<\<\ 1)}|True}", color="black", fontname="Calibri", style="filled", fillcolor="white"];
"2118661837" -> "1216575764"[label="1", color="black", style="setlinewidth(1)"];
"476290009"[label="{{Stmt\ -1:\ bb_xioctl(\l#if\ !defi}|!def(CONFIG_IOCTL_HEX2STR_ERROR)}", color="black", fontname="Calibri", style="filled", fillcolor="#CD5200"];
"658728178"[label="{{Decl\ -1:\ bb_xioctl}|!def(CONFIG_IOCTL_HEX2STR_ERROR)}", color="blue", fontname="Calibri", style="filled", fillcolor="#CD5200"];
"476290009" -> "658728178"[label="!definedEx(CONFIG_IOCTL_HEX2STR_ERROR)", color="red", style="setlinewidth(1)"];
"1606037998"[label="{{Decl\ -1:\ xwrite}|!def(CONFIG_IOCTL_HEX2STR_ERROR)}", color="blue", fontname="Calibri", style="filled", fillcolor="#CD5200"];
"476290009" -> "1606037998"[label="!definedEx(CONFIG_IOCTL_HEX2STR_ERROR)", color="red", style="setlinewidth(1)"];
"1583893114"[label="{{Decl\ -1:\ xlseek}|!def(CONFIG_IOCTL_HEX2STR_ERROR)}", color="blue", fontname="Calibri", style="filled", fillcolor="#CD5200"];
"476290009" -> "1583893114"[label="!definedEx(CONFIG_IOCTL_HEX2STR_ERROR)", color="red", style="setlinewidth(1)"];
"8396038"[label="{{Expr\ -1:\ (!\ (flags\ &\ (1\ \<\<\ 1)}|!def(CONFIG_IOCTL_HEX2STR_ERROR)}", color="black", fontname="Calibri", style="filled", fillcolor="#CD5200"];
"476290009" -> "8396038"[label="!definedEx(CONFIG_IOCTL_HEX2STR_ERROR)", color="red", style="setlinewidth(1)"];
"1738237653"[label="{{Stmt\ -1:\ bb_xioctl(\l#if\ defin}|def(CONFIG_IOCTL_HEX2STR_ERROR)}", color="black", fontname="Calibri", style="filled", fillcolor="#CD5200"];
"487704696"[label="{{Decl\ -1:\ bb_xioctl}|def(CONFIG_IOCTL_HEX2STR_ERROR)}", color="blue", fontname="Calibri", style="filled", fillcolor="#CD5200"];
"1738237653" -> "487704696"[label="definedEx(CONFIG_IOCTL_HEX2STR_ERROR)", color="red", style="setlinewidth(1)"];
"1738237653" -> "1606037998"[label="definedEx(CONFIG_IOCTL_HEX2STR_ERROR)", color="red", style="setlinewidth(1)"];
"1738237653" -> "1583893114"[label="definedEx(CONFIG_IOCTL_HEX2STR_ERROR)", color="red", style="setlinewidth(1)"];
"1738237653" -> "8396038"[label="definedEx(CONFIG_IOCTL_HEX2STR_ERROR)", color="red", style="setlinewidth(1)"];
"1843302318"[label="{{Stmt\ -1:\ (clmlen\ =\ 8);}|True}", color="black", fontname="Calibri", style="filled", fillcolor="white"];
"1516043671"[label="{{Expr\ -1:\ (clmlen\ ==\ 0)}|True}", color="black", fontname="Calibri", style="filled", fillcolor="white"];
"1843302318" -> "1516043671"[label="1", color="black", style="setlinewidth(1)"];
"1516043671" -> "1012445442"[label="1", color="black", style="setlinewidth(1)"];
"1516043671" -> "255605994"[label="1", color="black", style="setlinewidth(1)"];
"1516043671" -> "1374413376"[label="1", color="black", style="setlinewidth(1)"];
"2067001759"[label="{{Stmt\ 119:\ break;}|True}", color="black", fontname="Calibri", style="filled", fillcolor="white"];
"2067001759" -> "1012445442"[label="1", color="black", style="setlinewidth(1)"];
"2067001759" -> "255605994"[label="1", color="black", style="setlinewidth(1)"];
"1833387939"[label="{{Stmt\ 115:\ break;}|True}", color="black", fontname="Calibri", style="filled", fillcolor="white"];
"1833387939" -> "1012445442"[label="1", color="black", style="setlinewidth(1)"];
"1833387939" -> "255605994"[label="1", color="black", style="setlinewidth(1)"];
"1127726678"[label="{{Stmt\ -1:\ (clmlen\ =\ 2);}|True}", color="black", fontname="Calibri", style="filled", fillcolor="white"];
"1127726678" -> "1370724241"[label="1", color="black", style="setlinewidth(1)"];
"1342713833"[label="{{Expr\ -1:\ (flags\ &\ (1\ \<\<\ 2))}|True}", color="black", fontname="Calibri", style="filled", fillcolor="white"];
"1342713833" -> "1012445442"[label="1", color="black", style="setlinewidth(1)"];
"1342713833" -> "1905570216"[label="1", color="black", style="setlinewidth(1)"];
"1342713833" -> "1306917113"[label="1", color="black", style="setlinewidth(1)"];
"1342713833" -> "328467576"[label="1", color="black", style="setlinewidth(1)"];
"1342713833" -> "1216575764"[label="1", color="black", style="setlinewidth(1)"];
"1342713833" -> "2118661837"[label="1", color="black", style="setlinewidth(1)"];
"1715052057"[label="{{Stmt\ -1:\ (oob.length\ =\ clmlen}|True}", color="black", fontname="Calibri", style="filled", fillcolor="white"];
"1715052057" -> "1738237653"[label="definedEx(CONFIG_IOCTL_HEX2STR_ERROR)", color="red", style="setlinewidth(1)"];
"1715052057" -> "476290009"[label="!definedEx(CONFIG_IOCTL_HEX2STR_ERROR)", color="red", style="setlinewidth(1)"];
"33680714"[label="{{Stmt\ -1:\ printf(\\\"\ Cleanmarker}|True}", color="black", fontname="Calibri", style="filled", fillcolor="white"];
"33680714" -> "1666392491"[label="1", color="black", style="setlinewidth(1)"];
"33680714" -> "1606037998"[label="1", color="black", style="setlinewidth(1)"];
"33680714" -> "1583893114"[label="1", color="black", style="setlinewidth(1)"];
"33680714" -> "658728178"[label="!definedEx(CONFIG_IOCTL_HEX2STR_ERROR)", color="red", style="setlinewidth(1)"];
"33680714" -> "487704696"[label="definedEx(CONFIG_IOCTL_HEX2STR_ERROR)", color="red", style="setlinewidth(1)"];
"33680714" -> "1363804914"[label="1", color="black", style="setlinewidth(1)"];
"33680714" -> "1905570216"[label="1", color="black", style="setlinewidth(1)"];
"33680714" -> "1012445442"[label="1", color="black", style="setlinewidth(1)"];
"33680714" -> "1306917113"[label="1", color="black", style="setlinewidth(1)"];
"33680714" -> "328467576"[label="1", color="black", style="setlinewidth(1)"];
"951981209"[label="{{Expr\ -1:\ (erase.start\ +=\ memi}|True}", color="black", fontname="Calibri", style="filled", fillcolor="white"];
"33680714" -> "951981209"[label="1", color="black", style="setlinewidth(1)"];
"964551186"[label="{{Expr\ -1:\ (clmlen\ \>\ 8)}|True}", color="black", fontname="Calibri", style="filled", fillcolor="white"];
"964551186" -> "1516043671"[label="1", color="black", style="setlinewidth(1)"];
"964551186" -> "1843302318"[label="1", color="black", style="setlinewidth(1)"];
"765755999"[label="{{Stmt\ -1:\ (clmpos\ =\ 16);}|True}", color="black", fontname="Calibri", style="filled", fillcolor="white"];
"765755999" -> "2067001759"[label="1", color="black", style="setlinewidth(1)"];
"1634981036"[label="{{Stmt\ -1:\ (clmpos\ =\ 8);}|True}", color="black", fontname="Calibri", style="filled", fillcolor="white"];
"1634981036" -> "1833387939"[label="1", color="black", style="setlinewidth(1)"];
"279296356"[label="{{Stmt\ -1:\ (clmpos\ =\ 6);}|True}", color="black", fontname="Calibri", style="filled", fillcolor="white"];
"279296356" -> "1127726678"[label="1", color="black", style="setlinewidth(1)"];
"2096082313"[label="{{Stmt\ -1:\ (flags\ &=\ (~\ (1\ \<\<\ 3}|True}", color="black", fontname="Calibri", style="filled", fillcolor="white"];
"2096082313" -> "1342713833"[label="1", color="black", style="setlinewidth(1)"];
"2121675175"[label="{{Stmt\ -1:\ bb_perror_msg_and_di}|True}", color="black", fontname="Calibri", style="filled", fillcolor="white"];
"2121675175" -> "1905570216"[label="1", color="black", style="setlinewidth(1)"];
"2121675175" -> "1012445442"[label="1", color="black", style="setlinewidth(1)"];
"2121675175" -> "1306917113"[label="1", color="black", style="setlinewidth(1)"];
"2121675175" -> "328467576"[label="1", color="black", style="setlinewidth(1)"];
"2121675175" -> "1216575764"[label="1", color="black", style="setlinewidth(1)"];
"349017564"[label="{{Stmt\ -1:\ (oob.start\ =\ (erase.}|True}", color="black", fontname="Calibri", style="filled", fillcolor="white"];
"349017564" -> "1715052057"[label="1", color="black", style="setlinewidth(1)"];
"8396038" -> "1666392491"[label="1", color="black", style="setlinewidth(1)"];
"8396038" -> "1606037998"[label="1", color="black", style="setlinewidth(1)"];
"8396038" -> "1583893114"[label="1", color="black", style="setlinewidth(1)"];
"8396038" -> "658728178"[label="!definedEx(CONFIG_IOCTL_HEX2STR_ERROR)", color="red", style="setlinewidth(1)"];
"8396038" -> "487704696"[label="definedEx(CONFIG_IOCTL_HEX2STR_ERROR)", color="red", style="setlinewidth(1)"];
"8396038" -> "1363804914"[label="1", color="black", style="setlinewidth(1)"];
"8396038" -> "1905570216"[label="1", color="black", style="setlinewidth(1)"];
"8396038" -> "1012445442"[label="1", color="black", style="setlinewidth(1)"];
"8396038" -> "1306917113"[label="1", color="black", style="setlinewidth(1)"];
"8396038" -> "328467576"[label="1", color="black", style="setlinewidth(1)"];
"8396038" -> "951981209"[label="1", color="black", style="setlinewidth(1)"];
"8396038" -> "33680714"[label="1", color="black", style="setlinewidth(1)"];
"360569957"[label="{{Stmt\ -1:\ (clmlen\ =\ oobinfo.oo}|True}", color="black", fontname="Calibri", style="filled", fillcolor="white"];
"360569957" -> "964551186"[label="1", color="black", style="setlinewidth(1)"];
"255605994" -> "1012445442"[label="1", color="black", style="setlinewidth(1)"];
"255605994" -> "658728178"[label="!definedEx(CONFIG_IOCTL_HEX2STR_ERROR)", color="red", style="setlinewidth(1)"];
"255605994" -> "487704696"[label="definedEx(CONFIG_IOCTL_HEX2STR_ERROR)", color="red", style="setlinewidth(1)"];
"786883320"[label="{{Stmt\ -1:\ (cleanmarker.hdr_crc}|True}", color="black", fontname="Calibri", style="filled", fillcolor="white"];
"255605994" -> "786883320"[label="1", color="black", style="setlinewidth(1)"];
"1655723617"[label="{{Stmt\ -1:\ case\ 64:}|True}", color="black", fontname="Calibri", style="filled", fillcolor="white"];
"1655723617" -> "765755999"[label="1", color="black", style="setlinewidth(1)"];
"1705237118"[label="{{Stmt\ -1:\ case\ 16:}|True}", color="black", fontname="Calibri", style="filled", fillcolor="white"];
"1705237118" -> "1634981036"[label="1", color="black", style="setlinewidth(1)"];
"1296190232"[label="{{Stmt\ -1:\ case\ 8:}|True}", color="black", fontname="Calibri", style="filled", fillcolor="white"];
"1296190232" -> "279296356"[label="1", color="black", style="setlinewidth(1)"];
"605221117"[label="{{Stmt\ -1:\ bb_info_msg(\\\"\nSkipp}|True}", color="black", fontname="Calibri", style="filled", fillcolor="white"];
"605221117" -> "1306917113"[label="1", color="black", style="setlinewidth(1)"];
"2066775786"[label="{{Stmt\ 143:\ continue;}|True}", color="black", fontname="Calibri", style="filled", fillcolor="white"];
"605221117" -> "2066775786"[label="1", color="black", style="setlinewidth(1)"];
"2066775786" -> "951981209"[label="1", color="black", style="setlinewidth(1)"];
"751933480"[label="{{Expr\ -1:\ ((*bb_errno)\ ==\ 95)}|True}", color="black", fontname="Calibri", style="filled", fillcolor="white"];
"751933480" -> "2121675175"[label="1", color="black", style="setlinewidth(1)"];
"751933480" -> "2096082313"[label="1", color="black", style="setlinewidth(1)"];
"782672616"[label="{{Stmt\ -1:\ (oob.ptr\ =\ ((unsigne}|True}", color="black", fontname="Calibri", style="filled", fillcolor="white"];
"782672616" -> "349017564"[label="1", color="black", style="setlinewidth(1)"];
"576535547"[label="{{Stmt\ -1:\ xwrite(fd\ ,\ (&cleanm}|True}", color="black", fontname="Calibri", style="filled", fillcolor="white"];
"576535547" -> "1606037998"[label="1", color="black", style="setlinewidth(1)"];
"576535547" -> "1583893114"[label="1", color="black", style="setlinewidth(1)"];
"576535547" -> "658728178"[label="!definedEx(CONFIG_IOCTL_HEX2STR_ERROR)", color="red", style="setlinewidth(1)"];
"576535547" -> "487704696"[label="definedEx(CONFIG_IOCTL_HEX2STR_ERROR)", color="red", style="setlinewidth(1)"];
"576535547" -> "8396038"[label="1", color="black", style="setlinewidth(1)"];
"1984750364"[label="{{Stmt\ -1:\ (clmpos\ =\ oobinfo.oo}|True}", color="black", fontname="Calibri", style="filled", fillcolor="white"];
"1984750364" -> "360569957"[label="1", color="black", style="setlinewidth(1)"];
"1038500617"[label="{{Expr\ -1:\ meminfo.oobsize}|True}", color="black", fontname="Calibri", style="filled", fillcolor="white"];
"1038500617" -> "1296190232"[label="1", color="black", style="setlinewidth(1)"];
"1038500617" -> "1705237118"[label="1", color="black", style="setlinewidth(1)"];
"1038500617" -> "1655723617"[label="1", color="black", style="setlinewidth(1)"];
"1038500617" -> "1012445442"[label="1", color="black", style="setlinewidth(1)"];
"1038500617" -> "255605994"[label="1", color="black", style="setlinewidth(1)"];
"937036982"[label="{{Expr\ -1:\ (!\ (flags\ &\ (1\ \<\<\ 1)}|True}", color="black", fontname="Calibri", style="filled", fillcolor="white"];
"937036982" -> "2066775786"[label="1", color="black", style="setlinewidth(1)"];
"937036982" -> "605221117"[label="1", color="black", style="setlinewidth(1)"];
"1471934777"[label="{{Expr\ -1:\ (ret\ \<\ 0)}|True}", color="black", fontname="Calibri", style="filled", fillcolor="white"];
"1471934777" -> "1905570216"[label="1", color="black", style="setlinewidth(1)"];
"1471934777" -> "1012445442"[label="1", color="black", style="setlinewidth(1)"];
"1471934777" -> "1306917113"[label="1", color="black", style="setlinewidth(1)"];
"1471934777" -> "328467576"[label="1", color="black", style="setlinewidth(1)"];
"1471934777" -> "1216575764"[label="1", color="black", style="setlinewidth(1)"];
"1471934777" -> "751933480"[label="1", color="black", style="setlinewidth(1)"];
"1432028314"[label="{{Expr\ -1:\ (erase.start\ \<\ memin}|True}", color="black", fontname="Calibri", style="filled", fillcolor="white"];
"951981209" -> "1432028314"[label="1", color="black", style="setlinewidth(1)"];
"1251588716"[label="{{Stmt\ -1:\ struct\ mtd_oob_buf\ \ }|True}", color="black", fontname="Calibri", style="filled", fillcolor="white"];
"1251588716" -> "782672616"[label="1", color="black", style="setlinewidth(1)"];
"1430281418"[label="{{Stmt\ -1:\ xlseek(fd\ ,\ erase.st}|True}", color="black", fontname="Calibri", style="filled", fillcolor="white"];
"1430281418" -> "1583893114"[label="1", color="black", style="setlinewidth(1)"];
"1430281418" -> "576535547"[label="1", color="black", style="setlinewidth(1)"];
"1342069809"[label="{{Decl\ -1:\ crc32_block_endian0}|True}", color="blue", fontname="Calibri", style="filled", fillcolor="white"];
"489941420"[label="{{Expr\ -1:\ (oobinfo.useecc\ ==\ 2}|True}", color="black", fontname="Calibri", style="filled", fillcolor="white"];
"489941420" -> "1038500617"[label="1", color="black", style="setlinewidth(1)"];
"489941420" -> "1984750364"[label="1", color="black", style="setlinewidth(1)"];
"2115282451"[label="{{Expr\ -1:\ (ret\ \>\ 0)}|True}", color="black", fontname="Calibri", style="filled", fillcolor="white"];
"2115282451" -> "1471934777"[label="1", color="black", style="setlinewidth(1)"];
"2115282451" -> "937036982"[label="1", color="black", style="setlinewidth(1)"];
"1517165558"[label="{{Stmt\ 166:\ continue;}|True}", color="black", fontname="Calibri", style="filled", fillcolor="white"];
"1517165558" -> "951981209"[label="1", color="black", style="setlinewidth(1)"];
"592270344"[label="{{Expr\ -1:\ (flags\ &\ (1\ \<\<\ 2))}|True}", color="black", fontname="Calibri", style="filled", fillcolor="white"];
"592270344" -> "1430281418"[label="1", color="black", style="setlinewidth(1)"];
"592270344" -> "1251588716"[label="1", color="black", style="setlinewidth(1)"];
"2084087050" -> "493593033"[label="1", color="black", style="setlinewidth(1)"];
"2084087050" -> "1666392491"[label="1", color="black", style="setlinewidth(1)"];
"2084087050" -> "1363804914"[label="1", color="black", style="setlinewidth(1)"];
"786883320" -> "1342069809"[label="1", color="black", style="setlinewidth(1)"];
"786883320" -> "1012445442"[label="1", color="black", style="setlinewidth(1)"];
"786883320" -> "658728178"[label="!definedEx(CONFIG_IOCTL_HEX2STR_ERROR)", color="red", style="setlinewidth(1)"];
"786883320" -> "487704696"[label="definedEx(CONFIG_IOCTL_HEX2STR_ERROR)", color="red", style="setlinewidth(1)"];
"533237148"[label="{{Decl\ -1:\ crc32_filltable}|True}", color="blue", fontname="Calibri", style="filled", fillcolor="white"];
"786883320" -> "533237148"[label="1", color="black", style="setlinewidth(1)"];
"288587821"[label="{{Stmt\ -1:\ (applet_name\ =\ xaspr}|True}", color="black", fontname="Calibri", style="filled", fillcolor="white"];
"786883320" -> "288587821"[label="1", color="black", style="setlinewidth(1)"];
"1713006561"[label="{{Stmt\ -1:\ bb_xioctl(\l#if\ !defi}|!def(CONFIG_IOCTL_HEX2STR_ERROR)}", color="black", fontname="Calibri", style="filled", fillcolor="#CD5200"];
"1713006561" -> "658728178"[label="!definedEx(CONFIG_IOCTL_HEX2STR_ERROR)", color="red", style="setlinewidth(1)"];
"1713006561" -> "489941420"[label="!definedEx(CONFIG_IOCTL_HEX2STR_ERROR)", color="red", style="setlinewidth(1)"];
"576285689"[label="{{Stmt\ -1:\ bb_xioctl(\l#if\ defin}|def(CONFIG_IOCTL_HEX2STR_ERROR)}", color="black", fontname="Calibri", style="filled", fillcolor="#CD5200"];
"576285689" -> "487704696"[label="definedEx(CONFIG_IOCTL_HEX2STR_ERROR)", color="red", style="setlinewidth(1)"];
"576285689" -> "489941420"[label="definedEx(CONFIG_IOCTL_HEX2STR_ERROR)", color="red", style="setlinewidth(1)"];
"2017517312"[label="{{Stmt\ -1:\ (ret\ =\ ioctl(fd\ ,\ ((}|True}", color="black", fontname="Calibri", style="filled", fillcolor="white"];
"2017517312" -> "328467576"[label="1", color="black", style="setlinewidth(1)"];
"2017517312" -> "2115282451"[label="1", color="black", style="setlinewidth(1)"];
"2073568237"[label="{{Expr\ -1:\ (!\ (flags\ &\ (1\ \<\<\ 0)}|True}", color="black", fontname="Calibri", style="filled", fillcolor="white"];
"2073568237" -> "592270344"[label="1", color="black", style="setlinewidth(1)"];
"2073568237" -> "1517165558"[label="1", color="black", style="setlinewidth(1)"];
"293335073"[label="{{Decl\ -1:\ bb_putchar}|True}", color="blue", fontname="Calibri", style="filled", fillcolor="white"];
"760498024" -> "1666392491"[label="1", color="black", style="setlinewidth(1)"];
"760498024" -> "2084087050"[label="1", color="black", style="setlinewidth(1)"];
"1532022081"[label="{{Decl\ -1:\ close}|True}", color="blue", fontname="Calibri", style="filled", fillcolor="white"];
"1763307657"[label="{{Stmt\ -1:\ (cleanmarker.totlen\ }|True}", color="black", fontname="Calibri", style="filled", fillcolor="white"];
"1763307657" -> "1012445442"[label="1", color="black", style="setlinewidth(1)"];
"1763307657" -> "658728178"[label="!definedEx(CONFIG_IOCTL_HEX2STR_ERROR)", color="red", style="setlinewidth(1)"];
"1763307657" -> "487704696"[label="definedEx(CONFIG_IOCTL_HEX2STR_ERROR)", color="red", style="setlinewidth(1)"];
"1763307657" -> "786883320"[label="1", color="black", style="setlinewidth(1)"];
"453856425"[label="{{Stmt\ -1:\ struct\ nand_oobinfo\ }|True}", color="black", fontname="Calibri", style="filled", fillcolor="white"];
"453856425" -> "576285689"[label="definedEx(CONFIG_IOCTL_HEX2STR_ERROR)", color="red", style="setlinewidth(1)"];
"453856425" -> "1713006561"[label="!definedEx(CONFIG_IOCTL_HEX2STR_ERROR)", color="red", style="setlinewidth(1)"];
"1278176318"[label="{{Stmt\ -1:\ loff_t\ offset\ =\ \ era}|True}", color="black", fontname="Calibri", style="filled", fillcolor="white"];
"1278176318" -> "2017517312"[label="1", color="black", style="setlinewidth(1)"];
"1970988356"[label="{{Stmt\ -1:\ show_progress((&memi}|True}", color="black", fontname="Calibri", style="filled", fillcolor="white"];
"1970988356" -> "1363804914"[label="1", color="black", style="setlinewidth(1)"];
"503204177"[label="{{Stmt\ -1:\ bb_xioctl(\l#if\ defin}|True}", color="black", fontname="Calibri", style="filled", fillcolor="white"];
"1970988356" -> "503204177"[label="definedEx(CONFIG_IOCTL_HEX2STR_ERROR)", color="red", style="setlinewidth(1)"];
"839814293"[label="{{Stmt\ -1:\ bb_xioctl(\l#if\ !defi}|True}", color="black", fontname="Calibri", style="filled", fillcolor="white"];
"1970988356" -> "839814293"[label="!definedEx(CONFIG_IOCTL_HEX2STR_ERROR)", color="red", style="setlinewidth(1)"];
"839814293" -> "658728178"[label="!definedEx(CONFIG_IOCTL_HEX2STR_ERROR)", color="red", style="setlinewidth(1)"];
"839814293" -> "2073568237"[label="!definedEx(CONFIG_IOCTL_HEX2STR_ERROR)", color="red", style="setlinewidth(1)"];
"503204177" -> "487704696"[label="definedEx(CONFIG_IOCTL_HEX2STR_ERROR)", color="red", style="setlinewidth(1)"];
"503204177" -> "2073568237"[label="definedEx(CONFIG_IOCTL_HEX2STR_ERROR)", color="red", style="setlinewidth(1)"];
"605268245"[label="{{Stmt\ -1:\ bb_putchar('\n');}|True}", color="black", fontname="Calibri", style="filled", fillcolor="white"];
"605268245" -> "293335073"[label="1", color="black", style="setlinewidth(1)"];
"605268245" -> "1363804914"[label="1", color="black", style="setlinewidth(1)"];
"1589293289"[label="{{Expr\ 393:\ 1}|True}", color="black", fontname="Calibri", style="filled", fillcolor="white"];
"605268245" -> "1589293289"[label="definedEx(CONFIG_FEATURE_CLEAN_UP)", color="red", style="setlinewidth(1)"];
"2031171380"[label="{{Expr\ 397:\ 0}|True}", color="black", fontname="Calibri", style="filled", fillcolor="white"];
"605268245" -> "2031171380"[label="!definedEx(CONFIG_FEATURE_CLEAN_UP)", color="red", style="setlinewidth(1)"];
"1363804914" -> "760498024"[label="1", color="black", style="setlinewidth(1)"];
"1427867490"[label="{{Stmt\ -1:\ close(fd);}|True}", color="black", fontname="Calibri", style="filled", fillcolor="white"];
"1427867490" -> "1532022081"[label="1", color="black", style="setlinewidth(1)"];
"155030294"[label="{{Stmt\ -1:\ return\ 0;}|True}", color="black", fontname="Calibri", style="filled", fillcolor="white"];
"1427867490" -> "155030294"[label="1", color="black", style="setlinewidth(1)"];
"1015005031"[label="{{Function\ -1:\ flash_eraseall_main}|True}", color="blue", fontname="Calibri", style="filled", fillcolor="white"];
"155030294" -> "1015005031"[label="1", color="black", style="setlinewidth(1)"];
"389167774"[label="{{Expr\ -1:\ (!\ (flags\ &\ (1\ \<\<\ 2)}|True}", color="black", fontname="Calibri", style="filled", fillcolor="white"];
"389167774" -> "453856425"[label="1", color="black", style="setlinewidth(1)"];
"389167774" -> "1763307657"[label="1", color="black", style="setlinewidth(1)"];
"915841992"[label="{{Stmt\ -1:\ int\ ret;}|True}", color="black", fontname="Calibri", style="filled", fillcolor="white"];
"915841992" -> "1278176318"[label="1", color="black", style="setlinewidth(1)"];
"1216575764" -> "503204177"[label="definedEx(CONFIG_IOCTL_HEX2STR_ERROR)", color="red", style="setlinewidth(1)"];
"1216575764" -> "839814293"[label="!definedEx(CONFIG_IOCTL_HEX2STR_ERROR)", color="red", style="setlinewidth(1)"];
"1216575764" -> "1970988356"[label="1", color="black", style="setlinewidth(1)"];
"777994339"[label="{{Stmt\ -1:\ show_progress((&memi}|True}", color="black", fontname="Calibri", style="filled", fillcolor="white"];
"777994339" -> "1363804914"[label="1", color="black", style="setlinewidth(1)"];
"777994339" -> "605268245"[label="1", color="black", style="setlinewidth(1)"];
"2031171380" -> "155030294"[label="!definedEx(CONFIG_FEATURE_CLEAN_UP)", color="red", style="setlinewidth(1)"];
"2031171380" -> "1427867490"[label="!definedEx(CONFIG_FEATURE_CLEAN_UP)", color="red", style="setlinewidth(1)"];
"1589293289" -> "155030294"[label="definedEx(CONFIG_FEATURE_CLEAN_UP)", color="red", style="setlinewidth(1)"];
"1589293289" -> "1427867490"[label="definedEx(CONFIG_FEATURE_CLEAN_UP)", color="red", style="setlinewidth(1)"];
"313899533"[label="{{Stmt\ -1:\ (cleanmarker.nodetyp}|True}", color="black", fontname="Calibri", style="filled", fillcolor="white"];
"313899533" -> "389167774"[label="1", color="black", style="setlinewidth(1)"];
"182933470"[label="{{Expr\ -1:\ (flags\ &\ (1\ \<\<\ 3))}|True}", color="black", fontname="Calibri", style="filled", fillcolor="white"];
"182933470" -> "1216575764"[label="1", color="black", style="setlinewidth(1)"];
"182933470" -> "915841992"[label="1", color="black", style="setlinewidth(1)"];
"85699696"[label="{{Expr\ -1:\ (!\ (flags\ &\ (1\ \<\<\ 1)}|True}", color="black", fontname="Calibri", style="filled", fillcolor="white"];
"85699696" -> "1589293289"[label="definedEx(CONFIG_FEATURE_CLEAN_UP)", color="red", style="setlinewidth(1)"];
"85699696" -> "2031171380"[label="!definedEx(CONFIG_FEATURE_CLEAN_UP)", color="red", style="setlinewidth(1)"];
"85699696" -> "777994339"[label="1", color="black", style="setlinewidth(1)"];
"2056497899"[label="{{Stmt\ -1:\ (cleanmarker.magic\ =}|True}", color="black", fontname="Calibri", style="filled", fillcolor="white"];
"2056497899" -> "313899533"[label="1", color="black", style="setlinewidth(1)"];
"1432028314" -> "85699696"[label="1", color="black", style="setlinewidth(1)"];
"1432028314" -> "182933470"[label="1", color="black", style="setlinewidth(1)"];
"1625632534"[label="{{Stmt\ -1:\ (crc32_table\ =\ crc32}|True}", color="black", fontname="Calibri", style="filled", fillcolor="white"];
"1625632534" -> "533237148"[label="1", color="black", style="setlinewidth(1)"];
"1625632534" -> "2056497899"[label="1", color="black", style="setlinewidth(1)"];
"1641959055"[label="{{Expr\ -1:\ (erase.start\ =\ 0)}|True}", color="black", fontname="Calibri", style="filled", fillcolor="white"];
"1641959055" -> "1432028314"[label="1", color="black", style="setlinewidth(1)"];
"447367737"[label="{{Decl\ -1:\ xasprintf}|True}", color="blue", fontname="Calibri", style="filled", fillcolor="white"];
"847247454"[label="{{Stmt\ -1:\ uint32_t\ *crc32_tabl}|True}", color="black", fontname="Calibri", style="filled", fillcolor="white"];
"847247454" -> "1625632534"[label="1", color="black", style="setlinewidth(1)"];
"288587821" -> "447367737"[label="1", color="black", style="setlinewidth(1)"];
"288587821" -> "1641959055"[label="1", color="black", style="setlinewidth(1)"];
"1685655233"[label="{{Expr\ -1:\ (flags\ &\ (1\ \<\<\ 0))}|True}", color="black", fontname="Calibri", style="filled", fillcolor="white"];
"1685655233" -> "288587821"[label="1", color="black", style="setlinewidth(1)"];
"1685655233" -> "847247454"[label="1", color="black", style="setlinewidth(1)"];
"1741539801"[label="{{Stmt\ -1:\ (clmlen\ =\ 8);}|True}", color="black", fontname="Calibri", style="filled", fillcolor="white"];
"1741539801" -> "1685655233"[label="1", color="black", style="setlinewidth(1)"];
"703620520"[label="{{Stmt\ -1:\ (flags\ \|=\ (1\ \<\<\ 2));}|True}", color="black", fontname="Calibri", style="filled", fillcolor="white"];
"198726745"[label="{{Stmt\ -1:\ (clmpos\ =\ 0);}|True}", color="black", fontname="Calibri", style="filled", fillcolor="white"];
"703620520" -> "198726745"[label="1", color="black", style="setlinewidth(1)"];
"198726745" -> "1741539801"[label="1", color="black", style="setlinewidth(1)"];
"87766948"[label="{{Expr\ -1:\ (meminfo.type\ ==\ 4)}|True}", color="black", fontname="Calibri", style="filled", fillcolor="white"];
"87766948" -> "198726745"[label="1", color="black", style="setlinewidth(1)"];
"87766948" -> "703620520"[label="1", color="black", style="setlinewidth(1)"];
"555708631"[label="{{Stmt\ -1:\ (erase.length\ =\ memi}|True}", color="black", fontname="Calibri", style="filled", fillcolor="white"];
"555708631" -> "87766948"[label="1", color="black", style="setlinewidth(1)"];
"957582612"[label="{{Stmt\ -1:\ bb_error_msg_and_die}|True}", color="black", fontname="Calibri", style="filled", fillcolor="white"];
"957582612" -> "1012445442"[label="1", color="black", style="setlinewidth(1)"];
"1530859300"[label="{{Stmt\ -1:\ bb_xioctl(\l#if\ defin}|True}", color="black", fontname="Calibri", style="filled", fillcolor="white"];
"957582612" -> "1530859300"[label="definedEx(CONFIG_IOCTL_HEX2STR_ERROR)", color="red", style="setlinewidth(1)"];
"555258148"[label="{{Stmt\ -1:\ bb_xioctl(\l#if\ !defi}|True}", color="black", fontname="Calibri", style="filled", fillcolor="white"];
"957582612" -> "555258148"[label="!definedEx(CONFIG_IOCTL_HEX2STR_ERROR)", color="red", style="setlinewidth(1)"];
"555258148" -> "658728178"[label="!definedEx(CONFIG_IOCTL_HEX2STR_ERROR)", color="red", style="setlinewidth(1)"];
"555258148" -> "555708631"[label="!definedEx(CONFIG_IOCTL_HEX2STR_ERROR)", color="red", style="setlinewidth(1)"];
"1530859300" -> "487704696"[label="definedEx(CONFIG_IOCTL_HEX2STR_ERROR)", color="red", style="setlinewidth(1)"];
"1530859300" -> "555708631"[label="definedEx(CONFIG_IOCTL_HEX2STR_ERROR)", color="red", style="setlinewidth(1)"];
"584325346"[label="{{Expr\ -1:\ (!\ ((st.st_mode\ &\ 01}|True}", color="black", fontname="Calibri", style="filled", fillcolor="white"];
"584325346" -> "1530859300"[label="definedEx(CONFIG_IOCTL_HEX2STR_ERROR)", color="red", style="setlinewidth(1)"];
"584325346" -> "555258148"[label="!definedEx(CONFIG_IOCTL_HEX2STR_ERROR)", color="red", style="setlinewidth(1)"];
"584325346" -> "957582612"[label="1", color="black", style="setlinewidth(1)"];
"1343863107"[label="{{Decl\ -1:\ fstat}|True}", color="blue", fontname="Calibri", style="filled", fillcolor="white"];
"570361406"[label="{{Stmt\ -1:\ fstat(fd\ ,\ (&st));}|True}", color="black", fontname="Calibri", style="filled", fillcolor="white"];
"570361406" -> "1343863107"[label="1", color="black", style="setlinewidth(1)"];
"570361406" -> "584325346"[label="1", color="black", style="setlinewidth(1)"];
"247375638"[label="{{Decl\ -1:\ xopen}|True}", color="blue", fontname="Calibri", style="filled", fillcolor="white"];
"422460351"[label="{{Stmt\ -1:\ (fd\ =\ xopen(mtd_name}|True}", color="black", fontname="Calibri", style="filled", fillcolor="white"];
"422460351" -> "247375638"[label="1", color="black", style="setlinewidth(1)"];
"422460351" -> "570361406"[label="1", color="black", style="setlinewidth(1)"];
"1150151740"[label="{{Stmt\ -1:\ (mtd_name\ =\ argv[opt}|True}", color="black", fontname="Calibri", style="filled", fillcolor="white"];
"1150151740" -> "422460351"[label="1", color="black", style="setlinewidth(1)"];
"403708924"[label="{{Decl\ -1:\ getopt32}|True}", color="blue", fontname="Calibri", style="filled", fillcolor="white"];
"1849828329"[label="{{Stmt\ -1:\ (flags\ =\ ((1\ \<\<\ 3)\ \|}|True}", color="black", fontname="Calibri", style="filled", fillcolor="white"];
"1849828329" -> "403708924"[label="1", color="black", style="setlinewidth(1)"];
"1849828329" -> "1150151740"[label="1", color="black", style="setlinewidth(1)"];
"1023136157"[label="{{Stmt\ -1:\ (opt_complementary\ =}|True}", color="black", fontname="Calibri", style="filled", fillcolor="white"];
"1023136157" -> "1849828329"[label="1", color="black", style="setlinewidth(1)"];
"1674126760"[label="{{Stmt\ -1:\ char\ *mtd_name;}|True}", color="black", fontname="Calibri", style="filled", fillcolor="white"];
"1674126760" -> "1023136157"[label="1", color="black", style="setlinewidth(1)"];
"810991545"[label="{{Stmt\ -1:\ unsigned\ int\ flags;}|True}", color="black", fontname="Calibri", style="filled", fillcolor="white"];
"810991545" -> "1674126760"[label="1", color="black", style="setlinewidth(1)"];
"1435878060"[label="{{Stmt\ -1:\ struct\ stat\ \ st;}|True}", color="black", fontname="Calibri", style="filled", fillcolor="white"];
"1435878060" -> "810991545"[label="1", color="black", style="setlinewidth(1)"];
"1337571487"[label="{{Stmt\ -1:\ erase_info_t\ erase;}|True}", color="black", fontname="Calibri", style="filled", fillcolor="white"];
"1337571487" -> "1435878060"[label="1", color="black", style="setlinewidth(1)"];
"1727081876"[label="{{Stmt\ -1:\ int\ fd,\ clmpos,\ clml}|True}", color="black", fontname="Calibri", style="filled", fillcolor="white"];
"1727081876" -> "1337571487"[label="1", color="black", style="setlinewidth(1)"];
"2062437114"[label="{{Stmt\ -1:\ mtd_info_t\ meminfo;}|True}", color="black", fontname="Calibri", style="filled", fillcolor="white"];
"2062437114" -> "1727081876"[label="1", color="black", style="setlinewidth(1)"];
"578725778"[label="{{Stmt\ -1:\ struct\ jffs2_unknown}|True}", color="black", fontname="Calibri", style="filled", fillcolor="white"];
"578725778" -> "2062437114"[label="1", color="black", style="setlinewidth(1)"];
"1015005031" -> "578725778"[label="1", color="black", style="setlinewidth(1)"];
}
