digraph "busybox-1.18.5/miscutils/last.c" {
node [shape=record];
"626464078"[label="{{Decl\ -1:\ xstrtoull_range_sfx}|True}", color="blue", fontname="Calibri", style="filled", fillcolor="white"];
"1727263506"[label="{{Stmt\ -1:\ return\ xstrtoull_ran}|True}", color="black", fontname="Calibri", style="filled", fillcolor="white"];
"1727263506" -> "626464078"[label="1", color="black", style="setlinewidth(1)"];
"1812474943"[label="{{Function\ -1:\ xstrtoul_range_sfx}|True}", color="blue", fontname="Calibri", style="filled", fillcolor="white"];
"1727263506" -> "1812474943"[label="1", color="black", style="setlinewidth(1)"];
"1812474943" -> "1727263506"[label="1", color="black", style="setlinewidth(1)"];
"1324547809"[label="{{Decl\ -1:\ xstrtoull_range}|True}", color="blue", fontname="Calibri", style="filled", fillcolor="white"];
"70689348"[label="{{Stmt\ -1:\ return\ xstrtoull_ran}|True}", color="black", fontname="Calibri", style="filled", fillcolor="white"];
"70689348" -> "1324547809"[label="1", color="black", style="setlinewidth(1)"];
"394061265"[label="{{Function\ -1:\ xstrtoul_range}|True}", color="blue", fontname="Calibri", style="filled", fillcolor="white"];
"70689348" -> "394061265"[label="1", color="black", style="setlinewidth(1)"];
"394061265" -> "70689348"[label="1", color="black", style="setlinewidth(1)"];
"2082980910"[label="{{Decl\ -1:\ xstrtoull_sfx}|True}", color="blue", fontname="Calibri", style="filled", fillcolor="white"];
"314377535"[label="{{Stmt\ -1:\ return\ xstrtoull_sfx}|True}", color="black", fontname="Calibri", style="filled", fillcolor="white"];
"314377535" -> "2082980910"[label="1", color="black", style="setlinewidth(1)"];
"1132319710"[label="{{Function\ -1:\ xstrtoul_sfx}|True}", color="blue", fontname="Calibri", style="filled", fillcolor="white"];
"314377535" -> "1132319710"[label="1", color="black", style="setlinewidth(1)"];
"1132319710" -> "314377535"[label="1", color="black", style="setlinewidth(1)"];
"1731420138"[label="{{Decl\ -1:\ xstrtoull}|True}", color="blue", fontname="Calibri", style="filled", fillcolor="white"];
"2133612328"[label="{{Stmt\ -1:\ return\ xstrtoull(str}|True}", color="black", fontname="Calibri", style="filled", fillcolor="white"];
"2133612328" -> "1731420138"[label="1", color="black", style="setlinewidth(1)"];
"1693593661"[label="{{Function\ -1:\ xstrtoul}|True}", color="blue", fontname="Calibri", style="filled", fillcolor="white"];
"2133612328" -> "1693593661"[label="1", color="black", style="setlinewidth(1)"];
"1693593661" -> "2133612328"[label="1", color="black", style="setlinewidth(1)"];
"1818569647"[label="{{Decl\ -1:\ xatoull_range_sfx}|True}", color="blue", fontname="Calibri", style="filled", fillcolor="white"];
"798580286"[label="{{Stmt\ -1:\ return\ xatoull_range}|True}", color="black", fontname="Calibri", style="filled", fillcolor="white"];
"798580286" -> "1818569647"[label="1", color="black", style="setlinewidth(1)"];
"1844875049"[label="{{Function\ -1:\ xatoul_range_sfx}|True}", color="blue", fontname="Calibri", style="filled", fillcolor="white"];
"798580286" -> "1844875049"[label="1", color="black", style="setlinewidth(1)"];
"1844875049" -> "798580286"[label="1", color="black", style="setlinewidth(1)"];
"1134829723"[label="{{Decl\ -1:\ xatoull_range}|True}", color="blue", fontname="Calibri", style="filled", fillcolor="white"];
"328239583"[label="{{Stmt\ -1:\ return\ xatoull_range}|True}", color="black", fontname="Calibri", style="filled", fillcolor="white"];
"328239583" -> "1134829723"[label="1", color="black", style="setlinewidth(1)"];
"1620280391"[label="{{Function\ -1:\ xatoul_range}|True}", color="blue", fontname="Calibri", style="filled", fillcolor="white"];
"328239583" -> "1620280391"[label="1", color="black", style="setlinewidth(1)"];
"1620280391" -> "328239583"[label="1", color="black", style="setlinewidth(1)"];
"934601345"[label="{{Decl\ -1:\ xatoull_sfx}|True}", color="blue", fontname="Calibri", style="filled", fillcolor="white"];
"1026269072"[label="{{Stmt\ -1:\ return\ xatoull_sfx(s}|True}", color="black", fontname="Calibri", style="filled", fillcolor="white"];
"1026269072" -> "934601345"[label="1", color="black", style="setlinewidth(1)"];
"2136542553"[label="{{Function\ -1:\ xatoul_sfx}|True}", color="blue", fontname="Calibri", style="filled", fillcolor="white"];
"1026269072" -> "2136542553"[label="1", color="black", style="setlinewidth(1)"];
"2136542553" -> "1026269072"[label="1", color="black", style="setlinewidth(1)"];
"753652609"[label="{{Decl\ -1:\ xatoull}|True}", color="blue", fontname="Calibri", style="filled", fillcolor="white"];
"935633010"[label="{{Stmt\ -1:\ return\ xatoull(str);}|True}", color="black", fontname="Calibri", style="filled", fillcolor="white"];
"935633010" -> "753652609"[label="1", color="black", style="setlinewidth(1)"];
"66304332"[label="{{Function\ -1:\ xatoul}|True}", color="blue", fontname="Calibri", style="filled", fillcolor="white"];
"935633010" -> "66304332"[label="1", color="black", style="setlinewidth(1)"];
"66304332" -> "935633010"[label="1", color="black", style="setlinewidth(1)"];
"1136256180"[label="{{Decl\ -1:\ xstrtoll_range_sfx}|True}", color="blue", fontname="Calibri", style="filled", fillcolor="white"];
"1841221836"[label="{{Stmt\ -1:\ return\ xstrtoll_rang}|True}", color="black", fontname="Calibri", style="filled", fillcolor="white"];
"1841221836" -> "1136256180"[label="1", color="black", style="setlinewidth(1)"];
"1874870175"[label="{{Function\ -1:\ xstrtol_range_sfx}|True}", color="blue", fontname="Calibri", style="filled", fillcolor="white"];
"1841221836" -> "1874870175"[label="1", color="black", style="setlinewidth(1)"];
"1874870175" -> "1841221836"[label="1", color="black", style="setlinewidth(1)"];
"470332308"[label="{{Decl\ -1:\ xstrtoll_range}|True}", color="blue", fontname="Calibri", style="filled", fillcolor="white"];
"550216269"[label="{{Stmt\ -1:\ return\ xstrtoll_rang}|True}", color="black", fontname="Calibri", style="filled", fillcolor="white"];
"550216269" -> "470332308"[label="1", color="black", style="setlinewidth(1)"];
"1787227469"[label="{{Function\ -1:\ xstrtol_range}|True}", color="blue", fontname="Calibri", style="filled", fillcolor="white"];
"550216269" -> "1787227469"[label="1", color="black", style="setlinewidth(1)"];
"1787227469" -> "550216269"[label="1", color="black", style="setlinewidth(1)"];
"423007546"[label="{{Decl\ -1:\ xstrtoll}|True}", color="blue", fontname="Calibri", style="filled", fillcolor="white"];
"1257603424"[label="{{Stmt\ -1:\ return\ xstrtoll(str\ }|True}", color="black", fontname="Calibri", style="filled", fillcolor="white"];
"1257603424" -> "423007546"[label="1", color="black", style="setlinewidth(1)"];
"872392504"[label="{{Function\ -1:\ xstrtol}|True}", color="blue", fontname="Calibri", style="filled", fillcolor="white"];
"1257603424" -> "872392504"[label="1", color="black", style="setlinewidth(1)"];
"872392504" -> "1257603424"[label="1", color="black", style="setlinewidth(1)"];
"1626747280"[label="{{Decl\ -1:\ xatoll_range_sfx}|True}", color="blue", fontname="Calibri", style="filled", fillcolor="white"];
"212277636"[label="{{Stmt\ -1:\ return\ xatoll_range_}|True}", color="black", fontname="Calibri", style="filled", fillcolor="white"];
"212277636" -> "1626747280"[label="1", color="black", style="setlinewidth(1)"];
"1913444557"[label="{{Function\ -1:\ xatol_range_sfx}|True}", color="blue", fontname="Calibri", style="filled", fillcolor="white"];
"212277636" -> "1913444557"[label="1", color="black", style="setlinewidth(1)"];
"1913444557" -> "212277636"[label="1", color="black", style="setlinewidth(1)"];
"14267475"[label="{{Decl\ -1:\ xatoll_range}|True}", color="blue", fontname="Calibri", style="filled", fillcolor="white"];
"1731589437"[label="{{Stmt\ -1:\ return\ xatoll_range(}|True}", color="black", fontname="Calibri", style="filled", fillcolor="white"];
"1731589437" -> "14267475"[label="1", color="black", style="setlinewidth(1)"];
"581226639"[label="{{Function\ -1:\ xatol_range}|True}", color="blue", fontname="Calibri", style="filled", fillcolor="white"];
"1731589437" -> "581226639"[label="1", color="black", style="setlinewidth(1)"];
"581226639" -> "1731589437"[label="1", color="black", style="setlinewidth(1)"];
"2043054387"[label="{{Decl\ -1:\ xatoll_sfx}|True}", color="blue", fontname="Calibri", style="filled", fillcolor="white"];
"112840691"[label="{{Stmt\ -1:\ return\ xatoll_sfx(st}|True}", color="black", fontname="Calibri", style="filled", fillcolor="white"];
"112840691" -> "2043054387"[label="1", color="black", style="setlinewidth(1)"];
"964211818"[label="{{Function\ -1:\ xatol_sfx}|True}", color="blue", fontname="Calibri", style="filled", fillcolor="white"];
"112840691" -> "964211818"[label="1", color="black", style="setlinewidth(1)"];
"964211818" -> "112840691"[label="1", color="black", style="setlinewidth(1)"];
"1593853606"[label="{{Decl\ -1:\ xatoll}|True}", color="blue", fontname="Calibri", style="filled", fillcolor="white"];
"1024250175"[label="{{Stmt\ -1:\ return\ xatoll(str);}|True}", color="black", fontname="Calibri", style="filled", fillcolor="white"];
"1024250175" -> "1593853606"[label="1", color="black", style="setlinewidth(1)"];
"1779017868"[label="{{Function\ -1:\ xatol}|True}", color="blue", fontname="Calibri", style="filled", fillcolor="white"];
"1024250175" -> "1779017868"[label="1", color="black", style="setlinewidth(1)"];
"1779017868" -> "1024250175"[label="1", color="black", style="setlinewidth(1)"];
"935633010" -> "753652609"[label="1", color="black", style="setlinewidth(1)"];
"935633010" -> "66304332"[label="1", color="black", style="setlinewidth(1)"];
"66304332" -> "935633010"[label="1", color="black", style="setlinewidth(1)"];
"240457000"[label="{{Decl\ -1:\ BUG_xatou32_unimplemented}|True}", color="blue", fontname="Calibri", style="filled", fillcolor="white"];
"1739142357"[label="{{Decl\ -1:\ xatou}|True}", color="blue", fontname="Calibri", style="filled", fillcolor="white"];
"2023505202"[label="{{Stmt\ -1:\ return\ xatoul(numstr}|True}", color="black", fontname="Calibri", style="filled", fillcolor="white"];
"2023505202" -> "66304332"[label="1", color="black", style="setlinewidth(1)"];
"2106900065"[label="{{Function\ -1:\ xatou32}|True}", color="blue", fontname="Calibri", style="filled", fillcolor="white"];
"2023505202" -> "2106900065"[label="1", color="black", style="setlinewidth(1)"];
"1366027713"[label="{{Stmt\ -1:\ return\ BUG_xatou32_u}|True}", color="black", fontname="Calibri", style="filled", fillcolor="white"];
"1366027713" -> "240457000"[label="1", color="black", style="setlinewidth(1)"];
"1366027713" -> "2106900065"[label="1", color="black", style="setlinewidth(1)"];
"1911916813"[label="{{Stmt\ -1:\ return\ xatou(numstr)}|True}", color="black", fontname="Calibri", style="filled", fillcolor="white"];
"1911916813" -> "1739142357"[label="1", color="black", style="setlinewidth(1)"];
"1911916813" -> "2106900065"[label="1", color="black", style="setlinewidth(1)"];
"707574706"[label="{{Expr\ -1:\ (((92233720368547758}|True}", color="black", fontname="Calibri", style="filled", fillcolor="white"];
"707574706" -> "1366027713"[label="1", color="black", style="setlinewidth(1)"];
"707574706" -> "2023505202"[label="1", color="black", style="setlinewidth(1)"];
"369774182"[label="{{Expr\ -1:\ (((2147483647\ *\ 2U)\ }|True}", color="black", fontname="Calibri", style="filled", fillcolor="white"];
"369774182" -> "707574706"[label="1", color="black", style="setlinewidth(1)"];
"369774182" -> "1911916813"[label="1", color="black", style="setlinewidth(1)"];
"2106900065" -> "369774182"[label="1", color="black", style="setlinewidth(1)"];
"1897245020"[label="{{Decl\ -1:\ bb_strtoull}|True}", color="blue", fontname="Calibri", style="filled", fillcolor="white"];
"1111630848"[label="{{Stmt\ -1:\ return\ bb_strtoull(a}|True}", color="black", fontname="Calibri", style="filled", fillcolor="white"];
"1111630848" -> "1897245020"[label="1", color="black", style="setlinewidth(1)"];
"962811664"[label="{{Function\ -1:\ bb_strtoul}|True}", color="blue", fontname="Calibri", style="filled", fillcolor="white"];
"1111630848" -> "962811664"[label="1", color="black", style="setlinewidth(1)"];
"962811664" -> "1111630848"[label="1", color="black", style="setlinewidth(1)"];
"726473212"[label="{{Decl\ -1:\ bb_strtoll}|True}", color="blue", fontname="Calibri", style="filled", fillcolor="white"];
"2020338876"[label="{{Stmt\ -1:\ return\ bb_strtoll(ar}|True}", color="black", fontname="Calibri", style="filled", fillcolor="white"];
"2020338876" -> "726473212"[label="1", color="black", style="setlinewidth(1)"];
"1309565987"[label="{{Function\ -1:\ bb_strtol}|True}", color="blue", fontname="Calibri", style="filled", fillcolor="white"];
"2020338876" -> "1309565987"[label="1", color="black", style="setlinewidth(1)"];
"1309565987" -> "2020338876"[label="1", color="black", style="setlinewidth(1)"];
"1111630848" -> "1897245020"[label="1", color="black", style="setlinewidth(1)"];
"1111630848" -> "962811664"[label="1", color="black", style="setlinewidth(1)"];
"962811664" -> "1111630848"[label="1", color="black", style="setlinewidth(1)"];
"1995692709"[label="{{Decl\ -1:\ BUG_bb_strtou32_unimplemented}|True}", color="blue", fontname="Calibri", style="filled", fillcolor="white"];
"385532508"[label="{{Decl\ -1:\ bb_strtou}|True}", color="blue", fontname="Calibri", style="filled", fillcolor="white"];
"1345152690"[label="{{Stmt\ -1:\ return\ bb_strtoul(ar}|True}", color="black", fontname="Calibri", style="filled", fillcolor="white"];
"1345152690" -> "962811664"[label="1", color="black", style="setlinewidth(1)"];
"1963652502"[label="{{Function\ -1:\ bb_strtou32}|True}", color="blue", fontname="Calibri", style="filled", fillcolor="white"];
"1345152690" -> "1963652502"[label="1", color="black", style="setlinewidth(1)"];
"335164003"[label="{{Stmt\ -1:\ return\ BUG_bb_strtou}|True}", color="black", fontname="Calibri", style="filled", fillcolor="white"];
"335164003" -> "1995692709"[label="1", color="black", style="setlinewidth(1)"];
"335164003" -> "1963652502"[label="1", color="black", style="setlinewidth(1)"];
"898632076"[label="{{Stmt\ -1:\ return\ bb_strtou(arg}|True}", color="black", fontname="Calibri", style="filled", fillcolor="white"];
"898632076" -> "385532508"[label="1", color="black", style="setlinewidth(1)"];
"898632076" -> "1963652502"[label="1", color="black", style="setlinewidth(1)"];
"131025634"[label="{{Expr\ -1:\ (sizeof(uint32_t\ )\ =}|True}", color="black", fontname="Calibri", style="filled", fillcolor="white"];
"131025634" -> "335164003"[label="1", color="black", style="setlinewidth(1)"];
"131025634" -> "1345152690"[label="1", color="black", style="setlinewidth(1)"];
"563660382"[label="{{Expr\ -1:\ (sizeof(uint32_t\ )\ =}|True}", color="black", fontname="Calibri", style="filled", fillcolor="white"];
"563660382" -> "131025634"[label="1", color="black", style="setlinewidth(1)"];
"563660382" -> "898632076"[label="1", color="black", style="setlinewidth(1)"];
"1963652502" -> "563660382"[label="1", color="black", style="setlinewidth(1)"];
"1648793"[label="{{Stmt\ -1:\ return\ (b\ \<=\ ('z'\ -\ }|True}", color="black", fontname="Calibri", style="filled", fillcolor="white"];
"1812005842"[label="{{Function\ -1:\ bb_ascii_isalnum}|True}", color="blue", fontname="Calibri", style="filled", fillcolor="white"];
"1648793" -> "1812005842"[label="1", color="black", style="setlinewidth(1)"];
"939892827"[label="{{Stmt\ -1:\ return\ (b\ \<=\ 9);}|True}", color="black", fontname="Calibri", style="filled", fillcolor="white"];
"939892827" -> "1812005842"[label="1", color="black", style="setlinewidth(1)"];
"1364787248"[label="{{Stmt\ -1:\ (b\ =\ ((a\ \|\ 0x20)\ -\ '}|True}", color="black", fontname="Calibri", style="filled", fillcolor="white"];
"1364787248" -> "1648793"[label="1", color="black", style="setlinewidth(1)"];
"1457634698"[label="{{Expr\ -1:\ (b\ \<=\ 9)}|True}", color="black", fontname="Calibri", style="filled", fillcolor="white"];
"1457634698" -> "1364787248"[label="1", color="black", style="setlinewidth(1)"];
"1457634698" -> "939892827"[label="1", color="black", style="setlinewidth(1)"];
"122011686"[label="{{Stmt\ -1:\ unsigned\ char\ b\ =\ \ (}|True}", color="black", fontname="Calibri", style="filled", fillcolor="white"];
"122011686" -> "1457634698"[label="1", color="black", style="setlinewidth(1)"];
"1812005842" -> "122011686"[label="1", color="black", style="setlinewidth(1)"];
"53813077"[label="{{Stmt\ -1:\ return\ (b\ \<=\ ('f'\ -\ }|True}", color="black", fontname="Calibri", style="filled", fillcolor="white"];
"223288832"[label="{{Function\ -1:\ bb_ascii_isxdigit}|True}", color="blue", fontname="Calibri", style="filled", fillcolor="white"];
"53813077" -> "223288832"[label="1", color="black", style="setlinewidth(1)"];
"862590725"[label="{{Stmt\ -1:\ return\ (b\ \<=\ 9);}|True}", color="black", fontname="Calibri", style="filled", fillcolor="white"];
"862590725" -> "223288832"[label="1", color="black", style="setlinewidth(1)"];
"601633739"[label="{{Stmt\ -1:\ (b\ =\ ((a\ \|\ 0x20)\ -\ '}|True}", color="black", fontname="Calibri", style="filled", fillcolor="white"];
"601633739" -> "53813077"[label="1", color="black", style="setlinewidth(1)"];
"1696549369"[label="{{Expr\ -1:\ (b\ \<=\ 9)}|True}", color="black", fontname="Calibri", style="filled", fillcolor="white"];
"1696549369" -> "601633739"[label="1", color="black", style="setlinewidth(1)"];
"1696549369" -> "862590725"[label="1", color="black", style="setlinewidth(1)"];
"339194158"[label="{{Stmt\ -1:\ unsigned\ char\ b\ =\ \ (}|True}", color="black", fontname="Calibri", style="filled", fillcolor="white"];
"339194158" -> "1696549369"[label="1", color="black", style="setlinewidth(1)"];
"223288832" -> "339194158"[label="1", color="black", style="setlinewidth(1)"];
"416569700"[label="{{Stmt\ -1:\ (a\ -=\ ('a'\ -\ 'A'));}|True}", color="black", fontname="Calibri", style="filled", fillcolor="white"];
"958680863"[label="{{Stmt\ -1:\ return\ a;}|True}", color="black", fontname="Calibri", style="filled", fillcolor="white"];
"416569700" -> "958680863"[label="1", color="black", style="setlinewidth(1)"];
"1676361693"[label="{{Function\ -1:\ bb_ascii_toupper}|True}", color="blue", fontname="Calibri", style="filled", fillcolor="white"];
"958680863" -> "1676361693"[label="1", color="black", style="setlinewidth(1)"];
"1950325185"[label="{{Expr\ -1:\ (b\ \<=\ ('z'\ -\ 'a'))}|True}", color="black", fontname="Calibri", style="filled", fillcolor="white"];
"1950325185" -> "958680863"[label="1", color="black", style="setlinewidth(1)"];
"1950325185" -> "416569700"[label="1", color="black", style="setlinewidth(1)"];
"286682713"[label="{{Stmt\ -1:\ unsigned\ char\ b\ =\ \ (}|True}", color="black", fontname="Calibri", style="filled", fillcolor="white"];
"286682713" -> "1950325185"[label="1", color="black", style="setlinewidth(1)"];
"1676361693" -> "286682713"[label="1", color="black", style="setlinewidth(1)"];
"874043864"[label="{{Stmt\ -1:\ (a\ +=\ ('a'\ -\ 'A'));}|True}", color="black", fontname="Calibri", style="filled", fillcolor="white"];
"568764212"[label="{{Stmt\ -1:\ return\ a;}|True}", color="black", fontname="Calibri", style="filled", fillcolor="white"];
"874043864" -> "568764212"[label="1", color="black", style="setlinewidth(1)"];
"545894167"[label="{{Function\ -1:\ bb_ascii_tolower}|True}", color="blue", fontname="Calibri", style="filled", fillcolor="white"];
"568764212" -> "545894167"[label="1", color="black", style="setlinewidth(1)"];
"1085048872"[label="{{Expr\ -1:\ (b\ \<=\ ('Z'\ -\ 'A'))}|True}", color="black", fontname="Calibri", style="filled", fillcolor="white"];
"1085048872" -> "568764212"[label="1", color="black", style="setlinewidth(1)"];
"1085048872" -> "874043864"[label="1", color="black", style="setlinewidth(1)"];
"1797782377"[label="{{Stmt\ -1:\ unsigned\ char\ b\ =\ \ (}|True}", color="black", fontname="Calibri", style="filled", fillcolor="white"];
"1797782377" -> "1085048872"[label="1", color="black", style="setlinewidth(1)"];
"545894167" -> "1797782377"[label="1", color="black", style="setlinewidth(1)"];
"2131988610"[label="{{Decl\ -1:\ full_read}|True}", color="blue", fontname="Calibri", style="filled", fillcolor="white"];
"140437578"[label="{{Decl\ -1:\ lseek}|True}", color="blue", fontname="Calibri", style="filled", fillcolor="white"];
"654842001"[label="{{Stmt\ -1:\ (pos\ =\ lseek(file\ ,\ }|True}", color="black", fontname="Calibri", style="filled", fillcolor="white"];
"654842001" -> "140437578"[label="1", color="black", style="setlinewidth(1)"];
"654842001" -> "2131988610"[label="1", color="black", style="setlinewidth(1)"];
"914689975"[label="{{Decl\ -1:\ xlseek}|True}", color="blue", fontname="Calibri", style="filled", fillcolor="white"];
"2077183167"[label="{{Stmt\ -1:\ (pos\ =\ xlseek(file\ ,}|True}", color="black", fontname="Calibri", style="filled", fillcolor="white"];
"2077183167" -> "914689975"[label="1", color="black", style="setlinewidth(1)"];
"2077183167" -> "654842001"[label="1", color="black", style="setlinewidth(1)"];
"342099822"[label="{{Decl\ -1:\ printf}|True}", color="blue", fontname="Calibri", style="filled", fillcolor="white"];
"1882931789"[label="{{Decl\ -1:\ bb_show_usage}|True}", color="blue", fontname="Calibri", style="filled", fillcolor="white"];
"1794761775"[label="{{Stmt\ -1:\ printf(\\\"%-10s\ %-14s\ }|True}", color="black", fontname="Calibri", style="filled", fillcolor="white"];
"1794761775" -> "342099822"[label="1", color="black", style="setlinewidth(1)"];
"1794761775" -> "2077183167"[label="1", color="black", style="setlinewidth(1)"];
"1704666695"[label="{{Decl\ -1:\ xopen}|True}", color="blue", fontname="Calibri", style="filled", fillcolor="white"];
"1719489340"[label="{{Stmt\ -1:\ bb_show_usage();}|True}", color="black", fontname="Calibri", style="filled", fillcolor="white"];
"1719489340" -> "1882931789"[label="1", color="black", style="setlinewidth(1)"];
"926583705"[label="{{Stmt\ -1:\ (file\ =\ xopen(bb_pat}|True}", color="black", fontname="Calibri", style="filled", fillcolor="white"];
"1719489340" -> "926583705"[label="1", color="black", style="setlinewidth(1)"];
"926583705" -> "1704666695"[label="1", color="black", style="setlinewidth(1)"];
"926583705" -> "1794761775"[label="1", color="black", style="setlinewidth(1)"];
"1578653176"[label="{{Expr\ -1:\ argv[1]}|True}", color="black", fontname="Calibri", style="filled", fillcolor="white"];
"1578653176" -> "926583705"[label="1", color="black", style="setlinewidth(1)"];
"1578653176" -> "1719489340"[label="1", color="black", style="setlinewidth(1)"];
"770853660"[label="{{Stmt\ -1:\ enum\ \ \{\l\ \ _TILDE\ =\ 0}|True}", color="black", fontname="Calibri", style="filled", fillcolor="white"];
"770853660" -> "1578653176"[label="1", color="black", style="setlinewidth(1)"];
"150136459"[label="{{Stmt\ -1:\ enum\ \ \{\l\ \ TYPE_RUN_L}|True}", color="black", fontname="Calibri", style="filled", fillcolor="white"];
"150136459" -> "770853660"[label="1", color="black", style="setlinewidth(1)"];
"358591043"[label="{{Stmt\ -1:\ static\ const\ char\ _u}|True}", color="black", fontname="Calibri", style="filled", fillcolor="white"];
"358591043" -> "150136459"[label="1", color="black", style="setlinewidth(1)"];
"208536374"[label="{{Stmt\ -1:\ static\ const\ char\ _u}|True}", color="black", fontname="Calibri", style="filled", fillcolor="white"];
"208536374" -> "358591043"[label="1", color="black", style="setlinewidth(1)"];
"614000521"[label="{{Stmt\ -1:\ off_t\ pos;}|True}", color="black", fontname="Calibri", style="filled", fillcolor="white"];
"614000521" -> "208536374"[label="1", color="black", style="setlinewidth(1)"];
"283770623"[label="{{Stmt\ -1:\ time_t\ t_tmp;}|True}", color="black", fontname="Calibri", style="filled", fillcolor="white"];
"283770623" -> "614000521"[label="1", color="black", style="setlinewidth(1)"];
"2033215909"[label="{{Stmt\ -1:\ int\ n,\ file\ =\ \ 0;}|True}", color="black", fontname="Calibri", style="filled", fillcolor="white"];
"2033215909" -> "283770623"[label="1", color="black", style="setlinewidth(1)"];
"984387889"[label="{{Stmt\ -1:\ struct\ utmp\ \ ut;}|True}", color="black", fontname="Calibri", style="filled", fillcolor="white"];
"984387889" -> "2033215909"[label="1", color="black", style="setlinewidth(1)"];
"1247811181"[label="{{Function\ -1:\ last_main}|True}", color="blue", fontname="Calibri", style="filled", fillcolor="white"];
"1247811181" -> "984387889"[label="1", color="black", style="setlinewidth(1)"];
}
