digraph "busybox-1.18.5/miscutils/strings.c" {
node [shape=record];
"223097611"[label="{{Decl\ -1:\ xstrtoull_range_sfx}|True}", color="blue", fontname="Calibri", style="filled", fillcolor="white"];
"557020560"[label="{{Stmt\ -1:\ return\ xstrtoull_ran}|True}", color="black", fontname="Calibri", style="filled", fillcolor="white"];
"557020560" -> "223097611"[label="1", color="black", style="setlinewidth(1)"];
"158180959"[label="{{Function\ -1:\ xstrtoul_range_sfx}|True}", color="blue", fontname="Calibri", style="filled", fillcolor="white"];
"557020560" -> "158180959"[label="1", color="black", style="setlinewidth(1)"];
"158180959" -> "557020560"[label="1", color="black", style="setlinewidth(1)"];
"1691548601"[label="{{Decl\ -1:\ xstrtoull_range}|True}", color="blue", fontname="Calibri", style="filled", fillcolor="white"];
"779890585"[label="{{Stmt\ -1:\ return\ xstrtoull_ran}|True}", color="black", fontname="Calibri", style="filled", fillcolor="white"];
"779890585" -> "1691548601"[label="1", color="black", style="setlinewidth(1)"];
"1913444557"[label="{{Function\ -1:\ xstrtoul_range}|True}", color="blue", fontname="Calibri", style="filled", fillcolor="white"];
"779890585" -> "1913444557"[label="1", color="black", style="setlinewidth(1)"];
"1913444557" -> "779890585"[label="1", color="black", style="setlinewidth(1)"];
"1629323780"[label="{{Decl\ -1:\ xstrtoull_sfx}|True}", color="blue", fontname="Calibri", style="filled", fillcolor="white"];
"1892312802"[label="{{Stmt\ -1:\ return\ xstrtoull_sfx}|True}", color="black", fontname="Calibri", style="filled", fillcolor="white"];
"1892312802" -> "1629323780"[label="1", color="black", style="setlinewidth(1)"];
"1920495117"[label="{{Function\ -1:\ xstrtoul_sfx}|True}", color="blue", fontname="Calibri", style="filled", fillcolor="white"];
"1892312802" -> "1920495117"[label="1", color="black", style="setlinewidth(1)"];
"1920495117" -> "1892312802"[label="1", color="black", style="setlinewidth(1)"];
"2076300379"[label="{{Decl\ -1:\ xstrtoull}|True}", color="blue", fontname="Calibri", style="filled", fillcolor="white"];
"454730149"[label="{{Stmt\ -1:\ return\ xstrtoull(str}|True}", color="black", fontname="Calibri", style="filled", fillcolor="white"];
"454730149" -> "2076300379"[label="1", color="black", style="setlinewidth(1)"];
"1777380050"[label="{{Function\ -1:\ xstrtoul}|True}", color="blue", fontname="Calibri", style="filled", fillcolor="white"];
"454730149" -> "1777380050"[label="1", color="black", style="setlinewidth(1)"];
"1777380050" -> "454730149"[label="1", color="black", style="setlinewidth(1)"];
"630176830"[label="{{Decl\ -1:\ xatoull_range_sfx}|True}", color="blue", fontname="Calibri", style="filled", fillcolor="white"];
"1012231933"[label="{{Stmt\ -1:\ return\ xatoull_range}|True}", color="black", fontname="Calibri", style="filled", fillcolor="white"];
"1012231933" -> "630176830"[label="1", color="black", style="setlinewidth(1)"];
"1806564442"[label="{{Function\ -1:\ xatoul_range_sfx}|True}", color="blue", fontname="Calibri", style="filled", fillcolor="white"];
"1012231933" -> "1806564442"[label="1", color="black", style="setlinewidth(1)"];
"1806564442" -> "1012231933"[label="1", color="black", style="setlinewidth(1)"];
"360165633"[label="{{Decl\ -1:\ xatoull_range}|True}", color="blue", fontname="Calibri", style="filled", fillcolor="white"];
"762864898"[label="{{Stmt\ -1:\ return\ xatoull_range}|True}", color="black", fontname="Calibri", style="filled", fillcolor="white"];
"762864898" -> "360165633"[label="1", color="black", style="setlinewidth(1)"];
"1183980310"[label="{{Function\ -1:\ xatoul_range}|True}", color="blue", fontname="Calibri", style="filled", fillcolor="white"];
"762864898" -> "1183980310"[label="1", color="black", style="setlinewidth(1)"];
"1183980310" -> "762864898"[label="1", color="black", style="setlinewidth(1)"];
"1480403089"[label="{{Decl\ -1:\ xatoull_sfx}|True}", color="blue", fontname="Calibri", style="filled", fillcolor="white"];
"1712850506"[label="{{Stmt\ -1:\ return\ xatoull_sfx(s}|True}", color="black", fontname="Calibri", style="filled", fillcolor="white"];
"1712850506" -> "1480403089"[label="1", color="black", style="setlinewidth(1)"];
"487671489"[label="{{Function\ -1:\ xatoul_sfx}|True}", color="blue", fontname="Calibri", style="filled", fillcolor="white"];
"1712850506" -> "487671489"[label="1", color="black", style="setlinewidth(1)"];
"487671489" -> "1712850506"[label="1", color="black", style="setlinewidth(1)"];
"1526211799"[label="{{Decl\ -1:\ xatoull}|True}", color="blue", fontname="Calibri", style="filled", fillcolor="white"];
"689779550"[label="{{Stmt\ -1:\ return\ xatoull(str);}|True}", color="black", fontname="Calibri", style="filled", fillcolor="white"];
"689779550" -> "1526211799"[label="1", color="black", style="setlinewidth(1)"];
"990467814"[label="{{Function\ -1:\ xatoul}|True}", color="blue", fontname="Calibri", style="filled", fillcolor="white"];
"689779550" -> "990467814"[label="1", color="black", style="setlinewidth(1)"];
"990467814" -> "689779550"[label="1", color="black", style="setlinewidth(1)"];
"1424859144"[label="{{Decl\ -1:\ xstrtoll_range_sfx}|True}", color="blue", fontname="Calibri", style="filled", fillcolor="white"];
"447155215"[label="{{Stmt\ -1:\ return\ xstrtoll_rang}|True}", color="black", fontname="Calibri", style="filled", fillcolor="white"];
"447155215" -> "1424859144"[label="1", color="black", style="setlinewidth(1)"];
"434545342"[label="{{Function\ -1:\ xstrtol_range_sfx}|True}", color="blue", fontname="Calibri", style="filled", fillcolor="white"];
"447155215" -> "434545342"[label="1", color="black", style="setlinewidth(1)"];
"434545342" -> "447155215"[label="1", color="black", style="setlinewidth(1)"];
"331684261"[label="{{Decl\ -1:\ xstrtoll_range}|True}", color="blue", fontname="Calibri", style="filled", fillcolor="white"];
"1789089"[label="{{Stmt\ -1:\ return\ xstrtoll_rang}|True}", color="black", fontname="Calibri", style="filled", fillcolor="white"];
"1789089" -> "331684261"[label="1", color="black", style="setlinewidth(1)"];
"1959763949"[label="{{Function\ -1:\ xstrtol_range}|True}", color="blue", fontname="Calibri", style="filled", fillcolor="white"];
"1789089" -> "1959763949"[label="1", color="black", style="setlinewidth(1)"];
"1959763949" -> "1789089"[label="1", color="black", style="setlinewidth(1)"];
"2115718813"[label="{{Decl\ -1:\ xstrtoll}|True}", color="blue", fontname="Calibri", style="filled", fillcolor="white"];
"1952089565"[label="{{Stmt\ -1:\ return\ xstrtoll(str\ }|True}", color="black", fontname="Calibri", style="filled", fillcolor="white"];
"1952089565" -> "2115718813"[label="1", color="black", style="setlinewidth(1)"];
"2061822298"[label="{{Function\ -1:\ xstrtol}|True}", color="blue", fontname="Calibri", style="filled", fillcolor="white"];
"1952089565" -> "2061822298"[label="1", color="black", style="setlinewidth(1)"];
"2061822298" -> "1952089565"[label="1", color="black", style="setlinewidth(1)"];
"1097918184"[label="{{Decl\ -1:\ xatoll_range_sfx}|True}", color="blue", fontname="Calibri", style="filled", fillcolor="white"];
"373024621"[label="{{Stmt\ -1:\ return\ xatoll_range_}|True}", color="black", fontname="Calibri", style="filled", fillcolor="white"];
"373024621" -> "1097918184"[label="1", color="black", style="setlinewidth(1)"];
"806714520"[label="{{Function\ -1:\ xatol_range_sfx}|True}", color="blue", fontname="Calibri", style="filled", fillcolor="white"];
"373024621" -> "806714520"[label="1", color="black", style="setlinewidth(1)"];
"806714520" -> "373024621"[label="1", color="black", style="setlinewidth(1)"];
"2098861923"[label="{{Decl\ -1:\ xatoll_range}|True}", color="blue", fontname="Calibri", style="filled", fillcolor="white"];
"714762484"[label="{{Stmt\ -1:\ return\ xatoll_range(}|True}", color="black", fontname="Calibri", style="filled", fillcolor="white"];
"714762484" -> "2098861923"[label="1", color="black", style="setlinewidth(1)"];
"639303681"[label="{{Function\ -1:\ xatol_range}|True}", color="blue", fontname="Calibri", style="filled", fillcolor="white"];
"714762484" -> "639303681"[label="1", color="black", style="setlinewidth(1)"];
"639303681" -> "714762484"[label="1", color="black", style="setlinewidth(1)"];
"344491970"[label="{{Decl\ -1:\ xatoll_sfx}|True}", color="blue", fontname="Calibri", style="filled", fillcolor="white"];
"1853253742"[label="{{Stmt\ -1:\ return\ xatoll_sfx(st}|True}", color="black", fontname="Calibri", style="filled", fillcolor="white"];
"1853253742" -> "344491970"[label="1", color="black", style="setlinewidth(1)"];
"1129173601"[label="{{Function\ -1:\ xatol_sfx}|True}", color="blue", fontname="Calibri", style="filled", fillcolor="white"];
"1853253742" -> "1129173601"[label="1", color="black", style="setlinewidth(1)"];
"1129173601" -> "1853253742"[label="1", color="black", style="setlinewidth(1)"];
"475420932"[label="{{Decl\ -1:\ xatoll}|True}", color="blue", fontname="Calibri", style="filled", fillcolor="white"];
"412657149"[label="{{Stmt\ -1:\ return\ xatoll(str);}|True}", color="black", fontname="Calibri", style="filled", fillcolor="white"];
"412657149" -> "475420932"[label="1", color="black", style="setlinewidth(1)"];
"94171784"[label="{{Function\ -1:\ xatol}|True}", color="blue", fontname="Calibri", style="filled", fillcolor="white"];
"412657149" -> "94171784"[label="1", color="black", style="setlinewidth(1)"];
"94171784" -> "412657149"[label="1", color="black", style="setlinewidth(1)"];
"689779550" -> "1526211799"[label="1", color="black", style="setlinewidth(1)"];
"689779550" -> "990467814"[label="1", color="black", style="setlinewidth(1)"];
"990467814" -> "689779550"[label="1", color="black", style="setlinewidth(1)"];
"1330287261"[label="{{Decl\ -1:\ BUG_xatou32_unimplemented}|True}", color="blue", fontname="Calibri", style="filled", fillcolor="white"];
"1591376465"[label="{{Decl\ -1:\ xatou}|True}", color="blue", fontname="Calibri", style="filled", fillcolor="white"];
"117667791"[label="{{Stmt\ -1:\ return\ xatoul(numstr}|True}", color="black", fontname="Calibri", style="filled", fillcolor="white"];
"117667791" -> "990467814"[label="1", color="black", style="setlinewidth(1)"];
"473661776"[label="{{Function\ -1:\ xatou32}|True}", color="blue", fontname="Calibri", style="filled", fillcolor="white"];
"117667791" -> "473661776"[label="1", color="black", style="setlinewidth(1)"];
"146890812"[label="{{Stmt\ -1:\ return\ BUG_xatou32_u}|True}", color="black", fontname="Calibri", style="filled", fillcolor="white"];
"146890812" -> "1330287261"[label="1", color="black", style="setlinewidth(1)"];
"146890812" -> "473661776"[label="1", color="black", style="setlinewidth(1)"];
"1240150561"[label="{{Stmt\ -1:\ return\ xatou(numstr)}|True}", color="black", fontname="Calibri", style="filled", fillcolor="white"];
"1240150561" -> "1591376465"[label="1", color="black", style="setlinewidth(1)"];
"1240150561" -> "473661776"[label="1", color="black", style="setlinewidth(1)"];
"1682678557"[label="{{Expr\ -1:\ (((92233720368547758}|True}", color="black", fontname="Calibri", style="filled", fillcolor="white"];
"1682678557" -> "146890812"[label="1", color="black", style="setlinewidth(1)"];
"1682678557" -> "117667791"[label="1", color="black", style="setlinewidth(1)"];
"91380929"[label="{{Expr\ -1:\ (((2147483647\ *\ 2U)\ }|True}", color="black", fontname="Calibri", style="filled", fillcolor="white"];
"91380929" -> "1682678557"[label="1", color="black", style="setlinewidth(1)"];
"91380929" -> "1240150561"[label="1", color="black", style="setlinewidth(1)"];
"473661776" -> "91380929"[label="1", color="black", style="setlinewidth(1)"];
"237233196"[label="{{Decl\ -1:\ bb_strtoull}|True}", color="blue", fontname="Calibri", style="filled", fillcolor="white"];
"2129827959"[label="{{Stmt\ -1:\ return\ bb_strtoull(a}|True}", color="black", fontname="Calibri", style="filled", fillcolor="white"];
"2129827959" -> "237233196"[label="1", color="black", style="setlinewidth(1)"];
"906271895"[label="{{Function\ -1:\ bb_strtoul}|True}", color="blue", fontname="Calibri", style="filled", fillcolor="white"];
"2129827959" -> "906271895"[label="1", color="black", style="setlinewidth(1)"];
"906271895" -> "2129827959"[label="1", color="black", style="setlinewidth(1)"];
"699491482"[label="{{Decl\ -1:\ bb_strtoll}|True}", color="blue", fontname="Calibri", style="filled", fillcolor="white"];
"820731552"[label="{{Stmt\ -1:\ return\ bb_strtoll(ar}|True}", color="black", fontname="Calibri", style="filled", fillcolor="white"];
"820731552" -> "699491482"[label="1", color="black", style="setlinewidth(1)"];
"2088400398"[label="{{Function\ -1:\ bb_strtol}|True}", color="blue", fontname="Calibri", style="filled", fillcolor="white"];
"820731552" -> "2088400398"[label="1", color="black", style="setlinewidth(1)"];
"2088400398" -> "820731552"[label="1", color="black", style="setlinewidth(1)"];
"2129827959" -> "237233196"[label="1", color="black", style="setlinewidth(1)"];
"2129827959" -> "906271895"[label="1", color="black", style="setlinewidth(1)"];
"906271895" -> "2129827959"[label="1", color="black", style="setlinewidth(1)"];
"1310477761"[label="{{Decl\ -1:\ BUG_bb_strtou32_unimplemented}|True}", color="blue", fontname="Calibri", style="filled", fillcolor="white"];
"544336895"[label="{{Decl\ -1:\ bb_strtou}|True}", color="blue", fontname="Calibri", style="filled", fillcolor="white"];
"1996679453"[label="{{Stmt\ -1:\ return\ bb_strtoul(ar}|True}", color="black", fontname="Calibri", style="filled", fillcolor="white"];
"1996679453" -> "906271895"[label="1", color="black", style="setlinewidth(1)"];
"2141196255"[label="{{Function\ -1:\ bb_strtou32}|True}", color="blue", fontname="Calibri", style="filled", fillcolor="white"];
"1996679453" -> "2141196255"[label="1", color="black", style="setlinewidth(1)"];
"658882774"[label="{{Stmt\ -1:\ return\ BUG_bb_strtou}|True}", color="black", fontname="Calibri", style="filled", fillcolor="white"];
"658882774" -> "1310477761"[label="1", color="black", style="setlinewidth(1)"];
"658882774" -> "2141196255"[label="1", color="black", style="setlinewidth(1)"];
"1069850514"[label="{{Stmt\ -1:\ return\ bb_strtou(arg}|True}", color="black", fontname="Calibri", style="filled", fillcolor="white"];
"1069850514" -> "544336895"[label="1", color="black", style="setlinewidth(1)"];
"1069850514" -> "2141196255"[label="1", color="black", style="setlinewidth(1)"];
"1405532694"[label="{{Expr\ -1:\ (sizeof(uint32_t\ )\ =}|True}", color="black", fontname="Calibri", style="filled", fillcolor="white"];
"1405532694" -> "658882774"[label="1", color="black", style="setlinewidth(1)"];
"1405532694" -> "1996679453"[label="1", color="black", style="setlinewidth(1)"];
"1181048956"[label="{{Expr\ -1:\ (sizeof(uint32_t\ )\ =}|True}", color="black", fontname="Calibri", style="filled", fillcolor="white"];
"1181048956" -> "1405532694"[label="1", color="black", style="setlinewidth(1)"];
"1181048956" -> "1069850514"[label="1", color="black", style="setlinewidth(1)"];
"2141196255" -> "1181048956"[label="1", color="black", style="setlinewidth(1)"];
"344711843"[label="{{Stmt\ -1:\ return\ (b\ \<=\ ('z'\ -\ }|True}", color="black", fontname="Calibri", style="filled", fillcolor="white"];
"645119727"[label="{{Function\ -1:\ bb_ascii_isalnum}|True}", color="blue", fontname="Calibri", style="filled", fillcolor="white"];
"344711843" -> "645119727"[label="1", color="black", style="setlinewidth(1)"];
"561602570"[label="{{Stmt\ -1:\ return\ (b\ \<=\ 9);}|True}", color="black", fontname="Calibri", style="filled", fillcolor="white"];
"561602570" -> "645119727"[label="1", color="black", style="setlinewidth(1)"];
"1647043513"[label="{{Stmt\ -1:\ (b\ =\ ((a\ \|\ 0x20)\ -\ '}|True}", color="black", fontname="Calibri", style="filled", fillcolor="white"];
"1647043513" -> "344711843"[label="1", color="black", style="setlinewidth(1)"];
"872366460"[label="{{Expr\ -1:\ (b\ \<=\ 9)}|True}", color="black", fontname="Calibri", style="filled", fillcolor="white"];
"872366460" -> "1647043513"[label="1", color="black", style="setlinewidth(1)"];
"872366460" -> "561602570"[label="1", color="black", style="setlinewidth(1)"];
"1008564900"[label="{{Stmt\ -1:\ unsigned\ char\ b\ =\ \ (}|True}", color="black", fontname="Calibri", style="filled", fillcolor="white"];
"1008564900" -> "872366460"[label="1", color="black", style="setlinewidth(1)"];
"645119727" -> "1008564900"[label="1", color="black", style="setlinewidth(1)"];
"628274730"[label="{{Stmt\ -1:\ return\ (b\ \<=\ ('f'\ -\ }|True}", color="black", fontname="Calibri", style="filled", fillcolor="white"];
"1715345317"[label="{{Function\ -1:\ bb_ascii_isxdigit}|True}", color="blue", fontname="Calibri", style="filled", fillcolor="white"];
"628274730" -> "1715345317"[label="1", color="black", style="setlinewidth(1)"];
"1972100684"[label="{{Stmt\ -1:\ return\ (b\ \<=\ 9);}|True}", color="black", fontname="Calibri", style="filled", fillcolor="white"];
"1972100684" -> "1715345317"[label="1", color="black", style="setlinewidth(1)"];
"269961081"[label="{{Stmt\ -1:\ (b\ =\ ((a\ \|\ 0x20)\ -\ '}|True}", color="black", fontname="Calibri", style="filled", fillcolor="white"];
"269961081" -> "628274730"[label="1", color="black", style="setlinewidth(1)"];
"374535320"[label="{{Expr\ -1:\ (b\ \<=\ 9)}|True}", color="black", fontname="Calibri", style="filled", fillcolor="white"];
"374535320" -> "269961081"[label="1", color="black", style="setlinewidth(1)"];
"374535320" -> "1972100684"[label="1", color="black", style="setlinewidth(1)"];
"2141610468"[label="{{Stmt\ -1:\ unsigned\ char\ b\ =\ \ (}|True}", color="black", fontname="Calibri", style="filled", fillcolor="white"];
"2141610468" -> "374535320"[label="1", color="black", style="setlinewidth(1)"];
"1715345317" -> "2141610468"[label="1", color="black", style="setlinewidth(1)"];
"126108252"[label="{{Stmt\ -1:\ (a\ -=\ ('a'\ -\ 'A'));}|True}", color="black", fontname="Calibri", style="filled", fillcolor="white"];
"1693803282"[label="{{Stmt\ -1:\ return\ a;}|True}", color="black", fontname="Calibri", style="filled", fillcolor="white"];
"126108252" -> "1693803282"[label="1", color="black", style="setlinewidth(1)"];
"1782715448"[label="{{Function\ -1:\ bb_ascii_toupper}|True}", color="blue", fontname="Calibri", style="filled", fillcolor="white"];
"1693803282" -> "1782715448"[label="1", color="black", style="setlinewidth(1)"];
"258723644"[label="{{Expr\ -1:\ (b\ \<=\ ('z'\ -\ 'a'))}|True}", color="black", fontname="Calibri", style="filled", fillcolor="white"];
"258723644" -> "1693803282"[label="1", color="black", style="setlinewidth(1)"];
"258723644" -> "126108252"[label="1", color="black", style="setlinewidth(1)"];
"635134691"[label="{{Stmt\ -1:\ unsigned\ char\ b\ =\ \ (}|True}", color="black", fontname="Calibri", style="filled", fillcolor="white"];
"635134691" -> "258723644"[label="1", color="black", style="setlinewidth(1)"];
"1782715448" -> "635134691"[label="1", color="black", style="setlinewidth(1)"];
"121581329"[label="{{Stmt\ -1:\ (a\ +=\ ('a'\ -\ 'A'));}|True}", color="black", fontname="Calibri", style="filled", fillcolor="white"];
"1048098584"[label="{{Stmt\ -1:\ return\ a;}|True}", color="black", fontname="Calibri", style="filled", fillcolor="white"];
"121581329" -> "1048098584"[label="1", color="black", style="setlinewidth(1)"];
"566754579"[label="{{Function\ -1:\ bb_ascii_tolower}|True}", color="blue", fontname="Calibri", style="filled", fillcolor="white"];
"1048098584" -> "566754579"[label="1", color="black", style="setlinewidth(1)"];
"432779670"[label="{{Expr\ -1:\ (b\ \<=\ ('Z'\ -\ 'A'))}|True}", color="black", fontname="Calibri", style="filled", fillcolor="white"];
"432779670" -> "1048098584"[label="1", color="black", style="setlinewidth(1)"];
"432779670" -> "121581329"[label="1", color="black", style="setlinewidth(1)"];
"1704941767"[label="{{Stmt\ -1:\ unsigned\ char\ b\ =\ \ (}|True}", color="black", fontname="Calibri", style="filled", fillcolor="white"];
"1704941767" -> "432779670"[label="1", color="black", style="setlinewidth(1)"];
"566754579" -> "1704941767"[label="1", color="black", style="setlinewidth(1)"];
"1198363563"[label="{{Stmt\ -1:\ printf(\\\"%7\\\"\ \\\"ll\\\"\ \\\"l\\\"}|True}", color="black", fontname="Calibri", style="filled", fillcolor="white"];
"1431046902"[label="{{Decl\ -1:\ printf}|True}", color="blue", fontname="Calibri", style="filled", fillcolor="white"];
"1198363563" -> "1431046902"[label="1", color="black", style="setlinewidth(1)"];
"446804452"[label="{{Stmt\ -1:\ fputs(string\ ,\ stdou}|True}", color="black", fontname="Calibri", style="filled", fillcolor="white"];
"1198363563" -> "446804452"[label="1", color="black", style="setlinewidth(1)"];
"1795643656"[label="{{Decl\ -1:\ fputs}|True}", color="blue", fontname="Calibri", style="filled", fillcolor="white"];
"446804452" -> "1795643656"[label="1", color="black", style="setlinewidth(1)"];
"446804452" -> "1431046902"[label="1", color="black", style="setlinewidth(1)"];
"763209470"[label="{{Stmt\ -1:\ count++;}|True}", color="black", fontname="Calibri", style="filled", fillcolor="white"];
"446804452" -> "763209470"[label="1", color="black", style="setlinewidth(1)"];
"34841915"[label="{{Stmt\ -1:\ printf(fmt\ ,\ (*argv)}|True}", color="black", fontname="Calibri", style="filled", fillcolor="white"];
"34841915" -> "1431046902"[label="1", color="black", style="setlinewidth(1)"];
"182965708"[label="{{Expr\ -1:\ (option_mask32\ &\ 4)}|True}", color="black", fontname="Calibri", style="filled", fillcolor="white"];
"34841915" -> "182965708"[label="1", color="black", style="setlinewidth(1)"];
"182965708" -> "446804452"[label="1", color="black", style="setlinewidth(1)"];
"182965708" -> "1198363563"[label="1", color="black", style="setlinewidth(1)"];
"417351970"[label="{{Stmt\ -1:\ fclose_if_not_stdin(}|True}", color="black", fontname="Calibri", style="filled", fillcolor="white"];
"1222853199"[label="{{Decl\ -1:\ fclose_if_not_stdin}|True}", color="blue", fontname="Calibri", style="filled", fillcolor="white"];
"417351970" -> "1222853199"[label="1", color="black", style="setlinewidth(1)"];
"1912963079"[label="{{Decl\ -1:\ bb_putchar}|True}", color="blue", fontname="Calibri", style="filled", fillcolor="white"];
"417351970" -> "1912963079"[label="1", color="black", style="setlinewidth(1)"];
"417351970" -> "1795643656"[label="1", color="black", style="setlinewidth(1)"];
"417351970" -> "1431046902"[label="1", color="black", style="setlinewidth(1)"];
"2000720000"[label="{{Decl\ -1:\ fgetc}|True}", color="blue", fontname="Calibri", style="filled", fillcolor="white"];
"417351970" -> "2000720000"[label="1", color="black", style="setlinewidth(1)"];
"478858631"[label="{{Decl\ -1:\ fopen_or_warn_stdin}|True}", color="blue", fontname="Calibri", style="filled", fillcolor="white"];
"417351970" -> "478858631"[label="1", color="black", style="setlinewidth(1)"];
"119848814"[label="{{Expr\ -1:\ (*++argv)}|True}", color="black", fontname="Calibri", style="filled", fillcolor="white"];
"417351970" -> "119848814"[label="1", color="black", style="setlinewidth(1)"];
"1743726907"[label="{{Expr\ -1:\ (option_mask32\ &\ 2)}|True}", color="black", fontname="Calibri", style="filled", fillcolor="white"];
"1743726907" -> "182965708"[label="1", color="black", style="setlinewidth(1)"];
"1743726907" -> "34841915"[label="1", color="black", style="setlinewidth(1)"];
"763209470" -> "1795643656"[label="1", color="black", style="setlinewidth(1)"];
"763209470" -> "1431046902"[label="1", color="black", style="setlinewidth(1)"];
"763209470" -> "1912963079"[label="1", color="black", style="setlinewidth(1)"];
"1422876264"[label="{{Stmt\ -1:\ offset++;}|True}", color="black", fontname="Calibri", style="filled", fillcolor="white"];
"763209470" -> "1422876264"[label="1", color="black", style="setlinewidth(1)"];
"2056680725"[label="{{Expr\ -1:\ (c\ !=\ (-\ 1))}|True}", color="black", fontname="Calibri", style="filled", fillcolor="white"];
"1655388490"[label="{{Stmt\ -1:\ (c\ =\ fgetc(file));}|True}", color="black", fontname="Calibri", style="filled", fillcolor="white"];
"2056680725" -> "1655388490"[label="1", color="black", style="setlinewidth(1)"];
"2056680725" -> "417351970"[label="1", color="black", style="setlinewidth(1)"];
"547070780"[label="{{Expr\ -1:\ (count\ ==\ n)}|True}", color="black", fontname="Calibri", style="filled", fillcolor="white"];
"547070780" -> "763209470"[label="1", color="black", style="setlinewidth(1)"];
"547070780" -> "1743726907"[label="1", color="black", style="setlinewidth(1)"];
"1422876264" -> "1912963079"[label="1", color="black", style="setlinewidth(1)"];
"1422876264" -> "1795643656"[label="1", color="black", style="setlinewidth(1)"];
"1422876264" -> "1431046902"[label="1", color="black", style="setlinewidth(1)"];
"1422876264" -> "2000720000"[label="1", color="black", style="setlinewidth(1)"];
"1422876264" -> "2056680725"[label="1", color="black", style="setlinewidth(1)"];
"82188818"[label="{{Decl\ -1:\ free}|True}", color="blue", fontname="Calibri", style="filled", fillcolor="white"];
"214832555"[label="{{Decl\ -1:\ fflush_stdout_and_exit}|True}", color="blue", fontname="Calibri", style="filled", fillcolor="white"];
"192658880"[label="{{Stmt\ -1:\ bb_putchar(c);}|True}", color="black", fontname="Calibri", style="filled", fillcolor="white"];
"192658880" -> "1912963079"[label="1", color="black", style="setlinewidth(1)"];
"192658880" -> "1795643656"[label="1", color="black", style="setlinewidth(1)"];
"192658880" -> "1431046902"[label="1", color="black", style="setlinewidth(1)"];
"192658880" -> "1422876264"[label="1", color="black", style="setlinewidth(1)"];
"1065743328"[label="{{Stmt\ -1:\ (string[count]\ =\ c);}|True}", color="black", fontname="Calibri", style="filled", fillcolor="white"];
"1065743328" -> "547070780"[label="1", color="black", style="setlinewidth(1)"];
"1327512414"[label="{{Stmt\ -1:\ bb_putchar('\n');}|True}", color="black", fontname="Calibri", style="filled", fillcolor="white"];
"1327512414" -> "1912963079"[label="1", color="black", style="setlinewidth(1)"];
"78589352"[label="{{Stmt\ -1:\ (count\ =\ 0);}|True}", color="black", fontname="Calibri", style="filled", fillcolor="white"];
"1327512414" -> "78589352"[label="1", color="black", style="setlinewidth(1)"];
"78589352" -> "1912963079"[label="1", color="black", style="setlinewidth(1)"];
"78589352" -> "1795643656"[label="1", color="black", style="setlinewidth(1)"];
"78589352" -> "1431046902"[label="1", color="black", style="setlinewidth(1)"];
"78589352" -> "1422876264"[label="1", color="black", style="setlinewidth(1)"];
"935645254"[label="{{Stmt\ -1:\ free(string);}|True}", color="black", fontname="Calibri", style="filled", fillcolor="white"];
"935645254" -> "82188818"[label="1", color="black", style="setlinewidth(1)"];
"1905538239"[label="{{Stmt\ -1:\ fflush_stdout_and_ex}|True}", color="black", fontname="Calibri", style="filled", fillcolor="white"];
"935645254" -> "1905538239"[label="1", color="black", style="setlinewidth(1)"];
"1905538239" -> "214832555"[label="1", color="black", style="setlinewidth(1)"];
"1905538239" -> "82188818"[label="1", color="black", style="setlinewidth(1)"];
"1905538239" -> "1222853199"[label="1", color="black", style="setlinewidth(1)"];
"1905538239" -> "1912963079"[label="1", color="black", style="setlinewidth(1)"];
"1905538239" -> "1795643656"[label="1", color="black", style="setlinewidth(1)"];
"1905538239" -> "1431046902"[label="1", color="black", style="setlinewidth(1)"];
"1905538239" -> "2000720000"[label="1", color="black", style="setlinewidth(1)"];
"1905538239" -> "478858631"[label="1", color="black", style="setlinewidth(1)"];
"1912398567"[label="{{Decl\ -1:\ xzalloc}|True}", color="blue", fontname="Calibri", style="filled", fillcolor="white"];
"1905538239" -> "1912398567"[label="1", color="black", style="setlinewidth(1)"];
"592672743"[label="{{Decl\ -1:\ xatou_range}|True}", color="blue", fontname="Calibri", style="filled", fillcolor="white"];
"1905538239" -> "592672743"[label="1", color="black", style="setlinewidth(1)"];
"943030490"[label="{{Decl\ -1:\ getopt32}|True}", color="blue", fontname="Calibri", style="filled", fillcolor="white"];
"1905538239" -> "943030490"[label="1", color="black", style="setlinewidth(1)"];
"1481372187"[label="{{Function\ -1:\ strings_main}|True}", color="blue", fontname="Calibri", style="filled", fillcolor="white"];
"1905538239" -> "1481372187"[label="1", color="black", style="setlinewidth(1)"];
"1729492261"[label="{{Expr\ -1:\ (count\ \>\ n)}|True}", color="black", fontname="Calibri", style="filled", fillcolor="white"];
"1729492261" -> "1065743328"[label="1", color="black", style="setlinewidth(1)"];
"1729492261" -> "192658880"[label="1", color="black", style="setlinewidth(1)"];
"1554271787"[label="{{Expr\ -1:\ (count\ \>\ n)}|True}", color="black", fontname="Calibri", style="filled", fillcolor="white"];
"1554271787" -> "78589352"[label="1", color="black", style="setlinewidth(1)"];
"1554271787" -> "1327512414"[label="1", color="black", style="setlinewidth(1)"];
"285215488"[label="{{Expr\ 397:\ 0}|!def(CONFIG_FEATURE_CLEAN_UP)}", color="black", fontname="Calibri", style="filled", fillcolor="#CD5200"];
"285215488" -> "1905538239"[label="!definedEx(CONFIG_FEATURE_CLEAN_UP)", color="red", style="setlinewidth(1)"];
"285215488" -> "935645254"[label="!definedEx(CONFIG_FEATURE_CLEAN_UP)", color="red", style="setlinewidth(1)"];
"1000532843"[label="{{Expr\ 393:\ 1}|def(CONFIG_FEATURE_CLEAN_UP)}", color="black", fontname="Calibri", style="filled", fillcolor="#CD5200"];
"1000532843" -> "1905538239"[label="definedEx(CONFIG_FEATURE_CLEAN_UP)", color="red", style="setlinewidth(1)"];
"1000532843" -> "935645254"[label="definedEx(CONFIG_FEATURE_CLEAN_UP)", color="red", style="setlinewidth(1)"];
"2078337772"[label="{{Expr\ -1:\ ((((unsigned\ )\ (c\ -\ }|True}", color="black", fontname="Calibri", style="filled", fillcolor="white"];
"2078337772" -> "1554271787"[label="1", color="black", style="setlinewidth(1)"];
"330059117"[label="{{Stmt\ -1:\ (file\ =\ fopen_or_war}|True}", color="black", fontname="Calibri", style="filled", fillcolor="white"];
"119848814" -> "330059117"[label="1", color="black", style="setlinewidth(1)"];
"119848814" -> "1000532843"[label="definedEx(CONFIG_FEATURE_CLEAN_UP)", color="red", style="setlinewidth(1)"];
"119848814" -> "285215488"[label="!definedEx(CONFIG_FEATURE_CLEAN_UP)", color="red", style="setlinewidth(1)"];
"1655388490" -> "2000720000"[label="1", color="black", style="setlinewidth(1)"];
"1655388490" -> "2078337772"[label="1", color="black", style="setlinewidth(1)"];
"45956808"[label="{{Stmt\ 46:\ continue;}|True}", color="black", fontname="Calibri", style="filled", fillcolor="white"];
"45956808" -> "119848814"[label="1", color="black", style="setlinewidth(1)"];
"1371042633"[label="{{Stmt\ -1:\ (count\ =\ 0);}|True}", color="black", fontname="Calibri", style="filled", fillcolor="white"];
"1371042633" -> "1655388490"[label="1", color="black", style="setlinewidth(1)"];
"1166841461"[label="{{Stmt\ -1:\ (status\ =\ 1);}|True}", color="black", fontname="Calibri", style="filled", fillcolor="white"];
"1166841461" -> "45956808"[label="1", color="black", style="setlinewidth(1)"];
"1449442783"[label="{{Stmt\ -1:\ (offset\ =\ 0);}|True}", color="black", fontname="Calibri", style="filled", fillcolor="white"];
"1449442783" -> "1371042633"[label="1", color="black", style="setlinewidth(1)"];
"1777450295"[label="{{Stmt\ -1:\ ((*--argv)\ =\ ((char\ }|True}", color="black", fontname="Calibri", style="filled", fillcolor="white"];
"1777450295" -> "330059117"[label="1", color="black", style="setlinewidth(1)"];
"257896782"[label="{{Expr\ -1:\ (!\ file)}|True}", color="black", fontname="Calibri", style="filled", fillcolor="white"];
"257896782" -> "1449442783"[label="1", color="black", style="setlinewidth(1)"];
"257896782" -> "1166841461"[label="1", color="black", style="setlinewidth(1)"];
"1938199749"[label="{{Stmt\ -1:\ (fmt\ =\ \\\"\{%s\}:\ \\\");}|True}", color="black", fontname="Calibri", style="filled", fillcolor="white"];
"1938199749" -> "1777450295"[label="1", color="black", style="setlinewidth(1)"];
"330059117" -> "478858631"[label="1", color="black", style="setlinewidth(1)"];
"330059117" -> "257896782"[label="1", color="black", style="setlinewidth(1)"];
"1895913392"[label="{{Expr\ -1:\ (!\ (*argv))}|True}", color="black", fontname="Calibri", style="filled", fillcolor="white"];
"1895913392" -> "330059117"[label="1", color="black", style="setlinewidth(1)"];
"1895913392" -> "1938199749"[label="1", color="black", style="setlinewidth(1)"];
"1247811181"[label="{{Stmt\ -1:\ n--;}|True}", color="black", fontname="Calibri", style="filled", fillcolor="white"];
"1247811181" -> "1895913392"[label="1", color="black", style="setlinewidth(1)"];
"1021913279"[label="{{Stmt\ -1:\ (string\ =\ xzalloc((n}|True}", color="black", fontname="Calibri", style="filled", fillcolor="white"];
"1021913279" -> "1912398567"[label="1", color="black", style="setlinewidth(1)"];
"1021913279" -> "1247811181"[label="1", color="black", style="setlinewidth(1)"];
"1373003619"[label="{{Stmt\ -1:\ (n\ =\ xatou_range(n_a}|True}", color="black", fontname="Calibri", style="filled", fillcolor="white"];
"1373003619" -> "592672743"[label="1", color="black", style="setlinewidth(1)"];
"1373003619" -> "1021913279"[label="1", color="black", style="setlinewidth(1)"];
"313802473"[label="{{Stmt\ -1:\ (argv\ +=\ optind);}|True}", color="black", fontname="Calibri", style="filled", fillcolor="white"];
"313802473" -> "1373003619"[label="1", color="black", style="setlinewidth(1)"];
"1416055722"[label="{{Stmt\ -1:\ getopt32(argv\ ,\ \\\"afo}|True}", color="black", fontname="Calibri", style="filled", fillcolor="white"];
"1416055722" -> "943030490"[label="1", color="black", style="setlinewidth(1)"];
"1416055722" -> "313802473"[label="1", color="black", style="setlinewidth(1)"];
"764951757"[label="{{Stmt\ -1:\ const\ char\ *n_arg\ =\ }|True}", color="black", fontname="Calibri", style="filled", fillcolor="white"];
"764951757" -> "1416055722"[label="1", color="black", style="setlinewidth(1)"];
"1851087051"[label="{{Stmt\ -1:\ const\ char\ *fmt\ =\ \ \\\"}|True}", color="black", fontname="Calibri", style="filled", fillcolor="white"];
"1851087051" -> "764951757"[label="1", color="black", style="setlinewidth(1)"];
"1663080942"[label="{{Stmt\ -1:\ char\ *string;}|True}", color="black", fontname="Calibri", style="filled", fillcolor="white"];
"1663080942" -> "1851087051"[label="1", color="black", style="setlinewidth(1)"];
"332651170"[label="{{Stmt\ -1:\ FILE\ *file;}|True}", color="black", fontname="Calibri", style="filled", fillcolor="white"];
"332651170" -> "1663080942"[label="1", color="black", style="setlinewidth(1)"];
"343802177"[label="{{Stmt\ -1:\ off_t\ offset;}|True}", color="black", fontname="Calibri", style="filled", fillcolor="white"];
"343802177" -> "332651170"[label="1", color="black", style="setlinewidth(1)"];
"828477420"[label="{{Stmt\ -1:\ unsigned\ count;}|True}", color="black", fontname="Calibri", style="filled", fillcolor="white"];
"828477420" -> "343802177"[label="1", color="black", style="setlinewidth(1)"];
"1392629912"[label="{{Stmt\ -1:\ int\ n,\ c,\ status\ =\ \ }|True}", color="black", fontname="Calibri", style="filled", fillcolor="white"];
"1392629912" -> "828477420"[label="1", color="black", style="setlinewidth(1)"];
"1481372187" -> "1392629912"[label="1", color="black", style="setlinewidth(1)"];
}
