digraph "busybox-1.18.5/runit/runsv.c" {
node [shape=record];
"1737792542"[label="{{Decl\ -1:\ xstrtoull_range_sfx}|True}", color="blue", fontname="Calibri", style="filled", fillcolor="white"];
"1989199870"[label="{{Stmt\ -1:\ return\ xstrtoull_ran}|True}", color="black", fontname="Calibri", style="filled", fillcolor="white"];
"1989199870" -> "1737792542"[label="1", color="black", style="setlinewidth(1)"];
"932855071"[label="{{Function\ -1:\ xstrtoul_range_sfx}|True}", color="blue", fontname="Calibri", style="filled", fillcolor="white"];
"1989199870" -> "932855071"[label="1", color="black", style="setlinewidth(1)"];
"932855071" -> "1989199870"[label="1", color="black", style="setlinewidth(1)"];
"1553588734"[label="{{Decl\ -1:\ xstrtoull_range}|True}", color="blue", fontname="Calibri", style="filled", fillcolor="white"];
"1367806648"[label="{{Stmt\ -1:\ return\ xstrtoull_ran}|True}", color="black", fontname="Calibri", style="filled", fillcolor="white"];
"1367806648" -> "1553588734"[label="1", color="black", style="setlinewidth(1)"];
"1031988271"[label="{{Function\ -1:\ xstrtoul_range}|True}", color="blue", fontname="Calibri", style="filled", fillcolor="white"];
"1367806648" -> "1031988271"[label="1", color="black", style="setlinewidth(1)"];
"1031988271" -> "1367806648"[label="1", color="black", style="setlinewidth(1)"];
"30819992"[label="{{Decl\ -1:\ xstrtoull_sfx}|True}", color="blue", fontname="Calibri", style="filled", fillcolor="white"];
"190467395"[label="{{Stmt\ -1:\ return\ xstrtoull_sfx}|True}", color="black", fontname="Calibri", style="filled", fillcolor="white"];
"190467395" -> "30819992"[label="1", color="black", style="setlinewidth(1)"];
"1439059988"[label="{{Function\ -1:\ xstrtoul_sfx}|True}", color="blue", fontname="Calibri", style="filled", fillcolor="white"];
"190467395" -> "1439059988"[label="1", color="black", style="setlinewidth(1)"];
"1439059988" -> "190467395"[label="1", color="black", style="setlinewidth(1)"];
"1952179534"[label="{{Decl\ -1:\ xstrtoull}|True}", color="blue", fontname="Calibri", style="filled", fillcolor="white"];
"1012986369"[label="{{Stmt\ -1:\ return\ xstrtoull(str}|True}", color="black", fontname="Calibri", style="filled", fillcolor="white"];
"1012986369" -> "1952179534"[label="1", color="black", style="setlinewidth(1)"];
"1452948073"[label="{{Function\ -1:\ xstrtoul}|True}", color="blue", fontname="Calibri", style="filled", fillcolor="white"];
"1012986369" -> "1452948073"[label="1", color="black", style="setlinewidth(1)"];
"1452948073" -> "1012986369"[label="1", color="black", style="setlinewidth(1)"];
"1292030534"[label="{{Decl\ -1:\ xatoull_range_sfx}|True}", color="blue", fontname="Calibri", style="filled", fillcolor="white"];
"451579021"[label="{{Stmt\ -1:\ return\ xatoull_range}|True}", color="black", fontname="Calibri", style="filled", fillcolor="white"];
"451579021" -> "1292030534"[label="1", color="black", style="setlinewidth(1)"];
"1338269234"[label="{{Function\ -1:\ xatoul_range_sfx}|True}", color="blue", fontname="Calibri", style="filled", fillcolor="white"];
"451579021" -> "1338269234"[label="1", color="black", style="setlinewidth(1)"];
"1338269234" -> "451579021"[label="1", color="black", style="setlinewidth(1)"];
"1454833039"[label="{{Decl\ -1:\ xatoull_range}|True}", color="blue", fontname="Calibri", style="filled", fillcolor="white"];
"1740351657"[label="{{Stmt\ -1:\ return\ xatoull_range}|True}", color="black", fontname="Calibri", style="filled", fillcolor="white"];
"1740351657" -> "1454833039"[label="1", color="black", style="setlinewidth(1)"];
"1035834833"[label="{{Function\ -1:\ xatoul_range}|True}", color="blue", fontname="Calibri", style="filled", fillcolor="white"];
"1740351657" -> "1035834833"[label="1", color="black", style="setlinewidth(1)"];
"1035834833" -> "1740351657"[label="1", color="black", style="setlinewidth(1)"];
"54285458"[label="{{Decl\ -1:\ xatoull_sfx}|True}", color="blue", fontname="Calibri", style="filled", fillcolor="white"];
"571935180"[label="{{Stmt\ -1:\ return\ xatoull_sfx(s}|True}", color="black", fontname="Calibri", style="filled", fillcolor="white"];
"571935180" -> "54285458"[label="1", color="black", style="setlinewidth(1)"];
"48145108"[label="{{Function\ -1:\ xatoul_sfx}|True}", color="blue", fontname="Calibri", style="filled", fillcolor="white"];
"571935180" -> "48145108"[label="1", color="black", style="setlinewidth(1)"];
"48145108" -> "571935180"[label="1", color="black", style="setlinewidth(1)"];
"1858362382"[label="{{Decl\ -1:\ xatoull}|True}", color="blue", fontname="Calibri", style="filled", fillcolor="white"];
"410171685"[label="{{Stmt\ -1:\ return\ xatoull(str);}|True}", color="black", fontname="Calibri", style="filled", fillcolor="white"];
"410171685" -> "1858362382"[label="1", color="black", style="setlinewidth(1)"];
"312492876"[label="{{Function\ -1:\ xatoul}|True}", color="blue", fontname="Calibri", style="filled", fillcolor="white"];
"410171685" -> "312492876"[label="1", color="black", style="setlinewidth(1)"];
"312492876" -> "410171685"[label="1", color="black", style="setlinewidth(1)"];
"2065407546"[label="{{Decl\ -1:\ xstrtoll_range_sfx}|True}", color="blue", fontname="Calibri", style="filled", fillcolor="white"];
"143652957"[label="{{Stmt\ -1:\ return\ xstrtoll_rang}|True}", color="black", fontname="Calibri", style="filled", fillcolor="white"];
"143652957" -> "2065407546"[label="1", color="black", style="setlinewidth(1)"];
"1079913897"[label="{{Function\ -1:\ xstrtol_range_sfx}|True}", color="blue", fontname="Calibri", style="filled", fillcolor="white"];
"143652957" -> "1079913897"[label="1", color="black", style="setlinewidth(1)"];
"1079913897" -> "143652957"[label="1", color="black", style="setlinewidth(1)"];
"879753110"[label="{{Decl\ -1:\ xstrtoll_range}|True}", color="blue", fontname="Calibri", style="filled", fillcolor="white"];
"1506407533"[label="{{Stmt\ -1:\ return\ xstrtoll_rang}|True}", color="black", fontname="Calibri", style="filled", fillcolor="white"];
"1506407533" -> "879753110"[label="1", color="black", style="setlinewidth(1)"];
"2062015672"[label="{{Function\ -1:\ xstrtol_range}|True}", color="blue", fontname="Calibri", style="filled", fillcolor="white"];
"1506407533" -> "2062015672"[label="1", color="black", style="setlinewidth(1)"];
"2062015672" -> "1506407533"[label="1", color="black", style="setlinewidth(1)"];
"120587685"[label="{{Decl\ -1:\ xstrtoll}|True}", color="blue", fontname="Calibri", style="filled", fillcolor="white"];
"1512390832"[label="{{Stmt\ -1:\ return\ xstrtoll(str\ }|True}", color="black", fontname="Calibri", style="filled", fillcolor="white"];
"1512390832" -> "120587685"[label="1", color="black", style="setlinewidth(1)"];
"97967557"[label="{{Function\ -1:\ xstrtol}|True}", color="blue", fontname="Calibri", style="filled", fillcolor="white"];
"1512390832" -> "97967557"[label="1", color="black", style="setlinewidth(1)"];
"97967557" -> "1512390832"[label="1", color="black", style="setlinewidth(1)"];
"596424864"[label="{{Decl\ -1:\ xatoll_range_sfx}|True}", color="blue", fontname="Calibri", style="filled", fillcolor="white"];
"2064733956"[label="{{Stmt\ -1:\ return\ xatoll_range_}|True}", color="black", fontname="Calibri", style="filled", fillcolor="white"];
"2064733956" -> "596424864"[label="1", color="black", style="setlinewidth(1)"];
"854362504"[label="{{Function\ -1:\ xatol_range_sfx}|True}", color="blue", fontname="Calibri", style="filled", fillcolor="white"];
"2064733956" -> "854362504"[label="1", color="black", style="setlinewidth(1)"];
"854362504" -> "2064733956"[label="1", color="black", style="setlinewidth(1)"];
"1804775408"[label="{{Decl\ -1:\ xatoll_range}|True}", color="blue", fontname="Calibri", style="filled", fillcolor="white"];
"1041289693"[label="{{Stmt\ -1:\ return\ xatoll_range(}|True}", color="black", fontname="Calibri", style="filled", fillcolor="white"];
"1041289693" -> "1804775408"[label="1", color="black", style="setlinewidth(1)"];
"810661550"[label="{{Function\ -1:\ xatol_range}|True}", color="blue", fontname="Calibri", style="filled", fillcolor="white"];
"1041289693" -> "810661550"[label="1", color="black", style="setlinewidth(1)"];
"810661550" -> "1041289693"[label="1", color="black", style="setlinewidth(1)"];
"1021725169"[label="{{Decl\ -1:\ xatoll_sfx}|True}", color="blue", fontname="Calibri", style="filled", fillcolor="white"];
"1479452433"[label="{{Stmt\ -1:\ return\ xatoll_sfx(st}|True}", color="black", fontname="Calibri", style="filled", fillcolor="white"];
"1479452433" -> "1021725169"[label="1", color="black", style="setlinewidth(1)"];
"1147353200"[label="{{Function\ -1:\ xatol_sfx}|True}", color="blue", fontname="Calibri", style="filled", fillcolor="white"];
"1479452433" -> "1147353200"[label="1", color="black", style="setlinewidth(1)"];
"1147353200" -> "1479452433"[label="1", color="black", style="setlinewidth(1)"];
"1952285354"[label="{{Decl\ -1:\ xatoll}|True}", color="blue", fontname="Calibri", style="filled", fillcolor="white"];
"516462290"[label="{{Stmt\ -1:\ return\ xatoll(str);}|True}", color="black", fontname="Calibri", style="filled", fillcolor="white"];
"516462290" -> "1952285354"[label="1", color="black", style="setlinewidth(1)"];
"736868819"[label="{{Function\ -1:\ xatol}|True}", color="blue", fontname="Calibri", style="filled", fillcolor="white"];
"516462290" -> "736868819"[label="1", color="black", style="setlinewidth(1)"];
"736868819" -> "516462290"[label="1", color="black", style="setlinewidth(1)"];
"410171685" -> "1858362382"[label="1", color="black", style="setlinewidth(1)"];
"410171685" -> "312492876"[label="1", color="black", style="setlinewidth(1)"];
"312492876" -> "410171685"[label="1", color="black", style="setlinewidth(1)"];
"758275488"[label="{{Decl\ -1:\ BUG_xatou32_unimplemented}|True}", color="blue", fontname="Calibri", style="filled", fillcolor="white"];
"1003630585"[label="{{Decl\ -1:\ xatou}|True}", color="blue", fontname="Calibri", style="filled", fillcolor="white"];
"1669554494"[label="{{Stmt\ -1:\ return\ xatoul(numstr}|True}", color="black", fontname="Calibri", style="filled", fillcolor="white"];
"1669554494" -> "312492876"[label="1", color="black", style="setlinewidth(1)"];
"2107542095"[label="{{Function\ -1:\ xatou32}|True}", color="blue", fontname="Calibri", style="filled", fillcolor="white"];
"1669554494" -> "2107542095"[label="1", color="black", style="setlinewidth(1)"];
"900655886"[label="{{Stmt\ -1:\ return\ BUG_xatou32_u}|True}", color="black", fontname="Calibri", style="filled", fillcolor="white"];
"900655886" -> "758275488"[label="1", color="black", style="setlinewidth(1)"];
"900655886" -> "2107542095"[label="1", color="black", style="setlinewidth(1)"];
"1397074904"[label="{{Stmt\ -1:\ return\ xatou(numstr)}|True}", color="black", fontname="Calibri", style="filled", fillcolor="white"];
"1397074904" -> "1003630585"[label="1", color="black", style="setlinewidth(1)"];
"1397074904" -> "2107542095"[label="1", color="black", style="setlinewidth(1)"];
"2086774272"[label="{{Expr\ -1:\ (((92233720368547758}|True}", color="black", fontname="Calibri", style="filled", fillcolor="white"];
"2086774272" -> "900655886"[label="1", color="black", style="setlinewidth(1)"];
"2086774272" -> "1669554494"[label="1", color="black", style="setlinewidth(1)"];
"1639720277"[label="{{Expr\ -1:\ (((2147483647\ *\ 2U)\ }|True}", color="black", fontname="Calibri", style="filled", fillcolor="white"];
"1639720277" -> "2086774272"[label="1", color="black", style="setlinewidth(1)"];
"1639720277" -> "1397074904"[label="1", color="black", style="setlinewidth(1)"];
"2107542095" -> "1639720277"[label="1", color="black", style="setlinewidth(1)"];
"522331624"[label="{{Decl\ -1:\ bb_strtoull}|True}", color="blue", fontname="Calibri", style="filled", fillcolor="white"];
"1109231645"[label="{{Stmt\ -1:\ return\ bb_strtoull(a}|True}", color="black", fontname="Calibri", style="filled", fillcolor="white"];
"1109231645" -> "522331624"[label="1", color="black", style="setlinewidth(1)"];
"14493862"[label="{{Function\ -1:\ bb_strtoul}|True}", color="blue", fontname="Calibri", style="filled", fillcolor="white"];
"1109231645" -> "14493862"[label="1", color="black", style="setlinewidth(1)"];
"14493862" -> "1109231645"[label="1", color="black", style="setlinewidth(1)"];
"65955247"[label="{{Decl\ -1:\ bb_strtoll}|True}", color="blue", fontname="Calibri", style="filled", fillcolor="white"];
"831336638"[label="{{Stmt\ -1:\ return\ bb_strtoll(ar}|True}", color="black", fontname="Calibri", style="filled", fillcolor="white"];
"831336638" -> "65955247"[label="1", color="black", style="setlinewidth(1)"];
"590545720"[label="{{Function\ -1:\ bb_strtol}|True}", color="blue", fontname="Calibri", style="filled", fillcolor="white"];
"831336638" -> "590545720"[label="1", color="black", style="setlinewidth(1)"];
"590545720" -> "831336638"[label="1", color="black", style="setlinewidth(1)"];
"1109231645" -> "522331624"[label="1", color="black", style="setlinewidth(1)"];
"1109231645" -> "14493862"[label="1", color="black", style="setlinewidth(1)"];
"14493862" -> "1109231645"[label="1", color="black", style="setlinewidth(1)"];
"583523773"[label="{{Decl\ -1:\ BUG_bb_strtou32_unimplemented}|True}", color="blue", fontname="Calibri", style="filled", fillcolor="white"];
"1645907151"[label="{{Decl\ -1:\ bb_strtou}|True}", color="blue", fontname="Calibri", style="filled", fillcolor="white"];
"1791554164"[label="{{Stmt\ -1:\ return\ bb_strtoul(ar}|True}", color="black", fontname="Calibri", style="filled", fillcolor="white"];
"1791554164" -> "14493862"[label="1", color="black", style="setlinewidth(1)"];
"806503210"[label="{{Function\ -1:\ bb_strtou32}|True}", color="blue", fontname="Calibri", style="filled", fillcolor="white"];
"1791554164" -> "806503210"[label="1", color="black", style="setlinewidth(1)"];
"1781570439"[label="{{Stmt\ -1:\ return\ BUG_bb_strtou}|True}", color="black", fontname="Calibri", style="filled", fillcolor="white"];
"1781570439" -> "583523773"[label="1", color="black", style="setlinewidth(1)"];
"1781570439" -> "806503210"[label="1", color="black", style="setlinewidth(1)"];
"258048383"[label="{{Stmt\ -1:\ return\ bb_strtou(arg}|True}", color="black", fontname="Calibri", style="filled", fillcolor="white"];
"258048383" -> "1645907151"[label="1", color="black", style="setlinewidth(1)"];
"258048383" -> "806503210"[label="1", color="black", style="setlinewidth(1)"];
"1918414275"[label="{{Expr\ -1:\ (sizeof(uint32_t\ )\ =}|True}", color="black", fontname="Calibri", style="filled", fillcolor="white"];
"1918414275" -> "1781570439"[label="1", color="black", style="setlinewidth(1)"];
"1918414275" -> "1791554164"[label="1", color="black", style="setlinewidth(1)"];
"401068907"[label="{{Expr\ -1:\ (sizeof(uint32_t\ )\ =}|True}", color="black", fontname="Calibri", style="filled", fillcolor="white"];
"401068907" -> "1918414275"[label="1", color="black", style="setlinewidth(1)"];
"401068907" -> "258048383"[label="1", color="black", style="setlinewidth(1)"];
"806503210" -> "401068907"[label="1", color="black", style="setlinewidth(1)"];
"571805386"[label="{{Stmt\ -1:\ return\ (b\ \<=\ ('z'\ -\ }|True}", color="black", fontname="Calibri", style="filled", fillcolor="white"];
"409601146"[label="{{Function\ -1:\ bb_ascii_isalnum}|True}", color="blue", fontname="Calibri", style="filled", fillcolor="white"];
"571805386" -> "409601146"[label="1", color="black", style="setlinewidth(1)"];
"1586675995"[label="{{Stmt\ -1:\ return\ (b\ \<=\ 9);}|True}", color="black", fontname="Calibri", style="filled", fillcolor="white"];
"1586675995" -> "409601146"[label="1", color="black", style="setlinewidth(1)"];
"1785660892"[label="{{Stmt\ -1:\ (b\ =\ ((a\ \|\ 0x20)\ -\ '}|True}", color="black", fontname="Calibri", style="filled", fillcolor="white"];
"1785660892" -> "571805386"[label="1", color="black", style="setlinewidth(1)"];
"506662331"[label="{{Expr\ -1:\ (b\ \<=\ 9)}|True}", color="black", fontname="Calibri", style="filled", fillcolor="white"];
"506662331" -> "1785660892"[label="1", color="black", style="setlinewidth(1)"];
"506662331" -> "1586675995"[label="1", color="black", style="setlinewidth(1)"];
"1118278384"[label="{{Stmt\ -1:\ unsigned\ char\ b\ =\ \ (}|True}", color="black", fontname="Calibri", style="filled", fillcolor="white"];
"1118278384" -> "506662331"[label="1", color="black", style="setlinewidth(1)"];
"409601146" -> "1118278384"[label="1", color="black", style="setlinewidth(1)"];
"455858476"[label="{{Stmt\ -1:\ return\ (b\ \<=\ ('f'\ -\ }|True}", color="black", fontname="Calibri", style="filled", fillcolor="white"];
"332651170"[label="{{Function\ -1:\ bb_ascii_isxdigit}|True}", color="blue", fontname="Calibri", style="filled", fillcolor="white"];
"455858476" -> "332651170"[label="1", color="black", style="setlinewidth(1)"];
"919010403"[label="{{Stmt\ -1:\ return\ (b\ \<=\ 9);}|True}", color="black", fontname="Calibri", style="filled", fillcolor="white"];
"919010403" -> "332651170"[label="1", color="black", style="setlinewidth(1)"];
"145879426"[label="{{Stmt\ -1:\ (b\ =\ ((a\ \|\ 0x20)\ -\ '}|True}", color="black", fontname="Calibri", style="filled", fillcolor="white"];
"145879426" -> "455858476"[label="1", color="black", style="setlinewidth(1)"];
"629133446"[label="{{Expr\ -1:\ (b\ \<=\ 9)}|True}", color="black", fontname="Calibri", style="filled", fillcolor="white"];
"629133446" -> "145879426"[label="1", color="black", style="setlinewidth(1)"];
"629133446" -> "919010403"[label="1", color="black", style="setlinewidth(1)"];
"1249639854"[label="{{Stmt\ -1:\ unsigned\ char\ b\ =\ \ (}|True}", color="black", fontname="Calibri", style="filled", fillcolor="white"];
"1249639854" -> "629133446"[label="1", color="black", style="setlinewidth(1)"];
"332651170" -> "1249639854"[label="1", color="black", style="setlinewidth(1)"];
"1540094975"[label="{{Stmt\ -1:\ (a\ -=\ ('a'\ -\ 'A'));}|True}", color="black", fontname="Calibri", style="filled", fillcolor="white"];
"330059117"[label="{{Stmt\ -1:\ return\ a;}|True}", color="black", fontname="Calibri", style="filled", fillcolor="white"];
"1540094975" -> "330059117"[label="1", color="black", style="setlinewidth(1)"];
"153786171"[label="{{Function\ -1:\ bb_ascii_toupper}|True}", color="blue", fontname="Calibri", style="filled", fillcolor="white"];
"330059117" -> "153786171"[label="1", color="black", style="setlinewidth(1)"];
"2080052978"[label="{{Expr\ -1:\ (b\ \<=\ ('z'\ -\ 'a'))}|True}", color="black", fontname="Calibri", style="filled", fillcolor="white"];
"2080052978" -> "330059117"[label="1", color="black", style="setlinewidth(1)"];
"2080052978" -> "1540094975"[label="1", color="black", style="setlinewidth(1)"];
"254025158"[label="{{Stmt\ -1:\ unsigned\ char\ b\ =\ \ (}|True}", color="black", fontname="Calibri", style="filled", fillcolor="white"];
"254025158" -> "2080052978"[label="1", color="black", style="setlinewidth(1)"];
"153786171" -> "254025158"[label="1", color="black", style="setlinewidth(1)"];
"1801415549"[label="{{Stmt\ -1:\ (a\ +=\ ('a'\ -\ 'A'));}|True}", color="black", fontname="Calibri", style="filled", fillcolor="white"];
"1361659990"[label="{{Stmt\ -1:\ return\ a;}|True}", color="black", fontname="Calibri", style="filled", fillcolor="white"];
"1801415549" -> "1361659990"[label="1", color="black", style="setlinewidth(1)"];
"443812971"[label="{{Function\ -1:\ bb_ascii_tolower}|True}", color="blue", fontname="Calibri", style="filled", fillcolor="white"];
"1361659990" -> "443812971"[label="1", color="black", style="setlinewidth(1)"];
"1057111430"[label="{{Expr\ -1:\ (b\ \<=\ ('Z'\ -\ 'A'))}|True}", color="black", fontname="Calibri", style="filled", fillcolor="white"];
"1057111430" -> "1361659990"[label="1", color="black", style="setlinewidth(1)"];
"1057111430" -> "1801415549"[label="1", color="black", style="setlinewidth(1)"];
"1371042633"[label="{{Stmt\ -1:\ unsigned\ char\ b\ =\ \ (}|True}", color="black", fontname="Calibri", style="filled", fillcolor="white"];
"1371042633" -> "1057111430"[label="1", color="black", style="setlinewidth(1)"];
"443812971" -> "1371042633"[label="1", color="black", style="setlinewidth(1)"];
"1855412068"[label="{{Decl\ -1:\ syscall}|True}", color="blue", fontname="Calibri", style="filled", fillcolor="white"];
"417351970"[label="{{Stmt\ -1:\ syscall(\l#if\ defined}|def(CONFIG_MONOTONIC_SYSCALL)}", color="black", fontname="Calibri", style="filled", fillcolor="#CD5200"];
"417351970" -> "1855412068"[label="definedEx(CONFIG_MONOTONIC_SYSCALL)", color="red", style="setlinewidth(1)"];
"847794453"[label="{{Function\ -1:\ gettimeofday_ns}|def(CONFIG_MONOTONIC_SYSCALL)}", color="blue", fontname="Calibri", style="filled", fillcolor="#CD5200"];
"417351970" -> "847794453"[label="definedEx(CONFIG_MONOTONIC_SYSCALL)", color="red", style="setlinewidth(1)"];
"847794453" -> "417351970"[label="definedEx(CONFIG_MONOTONIC_SYSCALL)", color="red", style="setlinewidth(1)"];
"833867033"[label="{{Stmt\ -1:\ (ts-\>tv_nsec\ *=\ 1000}|!def(CONFIG_MONOTONIC_SYSCALL)}", color="black", fontname="Calibri", style="filled", fillcolor="#CD5200"];
"275019586"[label="{{Decl\ -1:\ gettimeofday}|!def(CONFIG_MONOTONIC_SYSCALL)}", color="blue", fontname="Calibri", style="filled", fillcolor="#CD5200"];
"833867033" -> "275019586"[label="!definedEx(CONFIG_MONOTONIC_SYSCALL)", color="red", style="setlinewidth(1)"];
"1158536291"[label="{{Function\ -1:\ gettimeofday_ns}|!def(CONFIG_MONOTONIC_SYSCALL)}", color="blue", fontname="Calibri", style="filled", fillcolor="#CD5200"];
"833867033" -> "1158536291"[label="!definedEx(CONFIG_MONOTONIC_SYSCALL)", color="red", style="setlinewidth(1)"];
"1280276237"[label="{{Stmt\ -1:\ BUG_need_to_implemen}|!def(CONFIG_MONOTONIC_SYSCALL)}", color="black", fontname="Calibri", style="filled", fillcolor="#CD5200"];
"1280276237" -> "275019586"[label="!definedEx(CONFIG_MONOTONIC_SYSCALL)", color="red", style="setlinewidth(1)"];
"1280276237" -> "1158536291"[label="!definedEx(CONFIG_MONOTONIC_SYSCALL)", color="red", style="setlinewidth(1)"];
"1356358287"[label="{{Stmt\ -1:\ gettimeofday(\l#if\ !d}|!def(CONFIG_MONOTONIC_SYSCALL)}", color="black", fontname="Calibri", style="filled", fillcolor="#CD5200"];
"1356358287" -> "275019586"[label="!definedEx(CONFIG_MONOTONIC_SYSCALL)", color="red", style="setlinewidth(1)"];
"1356358287" -> "833867033"[label="!definedEx(CONFIG_MONOTONIC_SYSCALL)", color="red", style="setlinewidth(1)"];
"1086208387"[label="{{Stmt\ -1:\ extern\ void\ \l#if\ !de}|!def(CONFIG_MONOTONIC_SYSCALL)}", color="black", fontname="Calibri", style="filled", fillcolor="#CD5200"];
"1086208387" -> "1280276237"[label="!definedEx(CONFIG_MONOTONIC_SYSCALL)", color="red", style="setlinewidth(1)"];
"2014638009"[label="{{Expr\ -1:\ ((sizeof(struct\ time}|!def(CONFIG_MONOTONIC_SYSCALL)}", color="black", fontname="Calibri", style="filled", fillcolor="#CD5200"];
"2014638009" -> "1086208387"[label="!definedEx(CONFIG_MONOTONIC_SYSCALL)", color="red", style="setlinewidth(1)"];
"2014638009" -> "1356358287"[label="!definedEx(CONFIG_MONOTONIC_SYSCALL)", color="red", style="setlinewidth(1)"];
"1158536291" -> "2014638009"[label="!definedEx(CONFIG_MONOTONIC_SYSCALL)", color="red", style="setlinewidth(1)"];
"1261134540"[label="{{Decl\ -1:\ bb_perror_msg_and_die}|True}", color="blue", fontname="Calibri", style="filled", fillcolor="white"];
"1497679044"[label="{{Stmt\ -1:\ bb_perror_msg_and_di}|True}", color="black", fontname="Calibri", style="filled", fillcolor="white"];
"1497679044" -> "1261134540"[label="1", color="black", style="setlinewidth(1)"];
"955268116"[label="{{Function\ -1:\ fatal2_cannot}|True}", color="blue", fontname="Calibri", style="filled", fillcolor="white"];
"1497679044" -> "955268116"[label="1", color="black", style="setlinewidth(1)"];
"955268116" -> "1497679044"[label="1", color="black", style="setlinewidth(1)"];
"1497679044" -> "1261134540"[label="1", color="black", style="setlinewidth(1)"];
"1497679044" -> "955268116"[label="1", color="black", style="setlinewidth(1)"];
"955268116" -> "1497679044"[label="1", color="black", style="setlinewidth(1)"];
"1169931082"[label="{{Stmt\ -1:\ fatal2_cannot(m\ ,\ \\\"\\\"}|True}", color="black", fontname="Calibri", style="filled", fillcolor="white"];
"1169931082" -> "955268116"[label="1", color="black", style="setlinewidth(1)"];
"1441704173"[label="{{Function\ -1:\ fatal_cannot}|True}", color="blue", fontname="Calibri", style="filled", fillcolor="white"];
"1169931082" -> "1441704173"[label="1", color="black", style="setlinewidth(1)"];
"1441704173" -> "1169931082"[label="1", color="black", style="setlinewidth(1)"];
"2119839122"[label="{{Decl\ -1:\ bb_error_msg_and_die}|True}", color="blue", fontname="Calibri", style="filled", fillcolor="white"];
"1560298204"[label="{{Stmt\ -1:\ bb_error_msg_and_die}|True}", color="black", fontname="Calibri", style="filled", fillcolor="white"];
"1560298204" -> "2119839122"[label="1", color="black", style="setlinewidth(1)"];
"184180801"[label="{{Function\ -1:\ fatal2x_cannot}|True}", color="blue", fontname="Calibri", style="filled", fillcolor="white"];
"1560298204" -> "184180801"[label="1", color="black", style="setlinewidth(1)"];
"184180801" -> "1560298204"[label="1", color="black", style="setlinewidth(1)"];
"525232874"[label="{{Decl\ -1:\ bb_perror_msg}|True}", color="blue", fontname="Calibri", style="filled", fillcolor="white"];
"1679751443"[label="{{Stmt\ -1:\ bb_perror_msg(\\\"%s:\ w}|True}", color="black", fontname="Calibri", style="filled", fillcolor="white"];
"1679751443" -> "525232874"[label="1", color="black", style="setlinewidth(1)"];
"1889948705"[label="{{Function\ -1:\ warn_cannot}|True}", color="blue", fontname="Calibri", style="filled", fillcolor="white"];
"1679751443" -> "1889948705"[label="1", color="black", style="setlinewidth(1)"];
"1889948705" -> "1679751443"[label="1", color="black", style="setlinewidth(1)"];
"1964975706"[label="{{Decl\ -1:\ write}|True}", color="blue", fontname="Calibri", style="filled", fillcolor="white"];
"189487829"[label="{{Stmt\ -1:\ write((*((struct\ glo}|True}", color="black", fontname="Calibri", style="filled", fillcolor="white"];
"189487829" -> "1964975706"[label="1", color="black", style="setlinewidth(1)"];
"752904495"[label="{{Function\ -1:\ s_child}|True}", color="blue", fontname="Calibri", style="filled", fillcolor="white"];
"189487829" -> "752904495"[label="1", color="black", style="setlinewidth(1)"];
"752904495" -> "189487829"[label="1", color="black", style="setlinewidth(1)"];
"688876300"[label="{{Stmt\ -1:\ write((*((struct\ glo}|True}", color="black", fontname="Calibri", style="filled", fillcolor="white"];
"688876300" -> "1964975706"[label="1", color="black", style="setlinewidth(1)"];
"1090798914"[label="{{Function\ -1:\ s_term}|True}", color="blue", fontname="Calibri", style="filled", fillcolor="white"];
"688876300" -> "1090798914"[label="1", color="black", style="setlinewidth(1)"];
"341212375"[label="{{Stmt\ -1:\ ((*((struct\ globals\ }|True}", color="black", fontname="Calibri", style="filled", fillcolor="white"];
"341212375" -> "688876300"[label="1", color="black", style="setlinewidth(1)"];
"1090798914" -> "341212375"[label="1", color="black", style="setlinewidth(1)"];
"836189957"[label="{{Stmt\ -1:\ to_add++;}|True}", color="black", fontname="Calibri", style="filled", fillcolor="white"];
"68997075"[label="{{Expr\ -1:\ (((*p)\ =\ (*to_add))\ }|True}", color="black", fontname="Calibri", style="filled", fillcolor="white"];
"836189957" -> "68997075"[label="1", color="black", style="setlinewidth(1)"];
"195664508"[label="{{Stmt\ -1:\ return\ p;}|True}", color="black", fontname="Calibri", style="filled", fillcolor="white"];
"533165475"[label="{{Function\ -1:\ bb_stpcpy}|True}", color="blue", fontname="Calibri", style="filled", fillcolor="white"];
"195664508" -> "533165475"[label="1", color="black", style="setlinewidth(1)"];
"661673734"[label="{{Stmt\ -1:\ p++;}|True}", color="black", fontname="Calibri", style="filled", fillcolor="white"];
"661673734" -> "836189957"[label="1", color="black", style="setlinewidth(1)"];
"68997075" -> "661673734"[label="1", color="black", style="setlinewidth(1)"];
"68997075" -> "195664508"[label="1", color="black", style="setlinewidth(1)"];
"533165475" -> "68997075"[label="1", color="black", style="setlinewidth(1)"];
"2093442047"[label="{{Stmt\ -1:\ bb_perror_msg(\\\"%s:\ w}|True}", color="black", fontname="Calibri", style="filled", fillcolor="white"];
"2093442047" -> "525232874"[label="1", color="black", style="setlinewidth(1)"];
"794336811"[label="{{Stmt\ -1:\ return\ fd;}|True}", color="black", fontname="Calibri", style="filled", fillcolor="white"];
"2093442047" -> "794336811"[label="1", color="black", style="setlinewidth(1)"];
"1289436920"[label="{{Function\ -1:\ open_trunc_or_warn}|True}", color="blue", fontname="Calibri", style="filled", fillcolor="white"];
"794336811" -> "1289436920"[label="1", color="black", style="setlinewidth(1)"];
"961541717"[label="{{Expr\ -1:\ (fd\ \<\ 0)}|True}", color="black", fontname="Calibri", style="filled", fillcolor="white"];
"961541717" -> "794336811"[label="1", color="black", style="setlinewidth(1)"];
"961541717" -> "2093442047"[label="1", color="black", style="setlinewidth(1)"];
"1906471682"[label="{{Decl\ -1:\ open}|True}", color="blue", fontname="Calibri", style="filled", fillcolor="white"];
"681288764"[label="{{Stmt\ -1:\ int\ fd\ =\ \ open(name\ }|True}", color="black", fontname="Calibri", style="filled", fillcolor="white"];
"681288764" -> "1906471682"[label="1", color="black", style="setlinewidth(1)"];
"681288764" -> "961541717"[label="1", color="black", style="setlinewidth(1)"];
"1289436920" -> "681288764"[label="1", color="black", style="setlinewidth(1)"];
"1738625253"[label="{{Expr\ -1:\ (\\\"log/supervise/stat}|True}", color="black", fontname="Calibri", style="filled", fillcolor="white"];
"932741097"[label="{{Expr\ 223:\ \\\"log/supervise/stat\\\"}|True}", color="black", fontname="Calibri", style="filled", fillcolor="white"];
"192947437"[label="{{Expr\ -1:\ s-\>islog}|True}", color="black", fontname="Calibri", style="filled", fillcolor="white"];
"192947437" -> "932741097"[label="1", color="black", style="setlinewidth(1)"];
"192947437" -> "1738625253"[label="1", color="black", style="setlinewidth(1)"];
"1435290012"[label="{{Stmt\ 215:\ break;}|True}", color="black", fontname="Calibri", style="filled", fillcolor="white"];
"1435290012" -> "533165475"[label="1", color="black", style="setlinewidth(1)"];
"235424933"[label="{{Stmt\ -1:\ ((*p++)\ =\ '\n');}|True}", color="black", fontname="Calibri", style="filled", fillcolor="white"];
"1435290012" -> "235424933"[label="1", color="black", style="setlinewidth(1)"];
"2038062932"[label="{{Stmt\ 212:\ break;}|True}", color="black", fontname="Calibri", style="filled", fillcolor="white"];
"2038062932" -> "533165475"[label="1", color="black", style="setlinewidth(1)"];
"2038062932" -> "235424933"[label="1", color="black", style="setlinewidth(1)"];
"1534775188"[label="{{Stmt\ -1:\ rename_or_warn(\\\"supe}|True}", color="black", fontname="Calibri", style="filled", fillcolor="white"];
"2116503295"[label="{{Decl\ -1:\ rename_or_warn}|True}", color="blue", fontname="Calibri", style="filled", fillcolor="white"];
"1534775188" -> "2116503295"[label="1", color="black", style="setlinewidth(1)"];
"1534775188" -> "192947437"[label="1", color="black", style="setlinewidth(1)"];
"832394930"[label="{{Stmt\ -1:\ (p\ =\ bb_stpcpy(p\ ,\ \\\"}|True}", color="black", fontname="Calibri", style="filled", fillcolor="white"];
"832394930" -> "533165475"[label="1", color="black", style="setlinewidth(1)"];
"832394930" -> "1435290012"[label="1", color="black", style="setlinewidth(1)"];
"1386399599"[label="{{Stmt\ -1:\ (p\ =\ bb_stpcpy(p\ ,\ \\\"}|True}", color="black", fontname="Calibri", style="filled", fillcolor="white"];
"1386399599" -> "533165475"[label="1", color="black", style="setlinewidth(1)"];
"1386399599" -> "2038062932"[label="1", color="black", style="setlinewidth(1)"];
"1704453584"[label="{{Stmt\ -1:\ close(fd);}|True}", color="black", fontname="Calibri", style="filled", fillcolor="white"];
"815027791"[label="{{Decl\ -1:\ close}|True}", color="blue", fontname="Calibri", style="filled", fillcolor="white"];
"1704453584" -> "815027791"[label="1", color="black", style="setlinewidth(1)"];
"1704453584" -> "1964975706"[label="1", color="black", style="setlinewidth(1)"];
"1704453584" -> "533165475"[label="1", color="black", style="setlinewidth(1)"];
"1704453584" -> "1534775188"[label="1", color="black", style="setlinewidth(1)"];
"836189957" -> "68997075"[label="1", color="black", style="setlinewidth(1)"];
"1359528474"[label="{{Stmt\ -1:\ case\ 2:}|True}", color="black", fontname="Calibri", style="filled", fillcolor="white"];
"1359528474" -> "832394930"[label="1", color="black", style="setlinewidth(1)"];
"86728953"[label="{{Stmt\ -1:\ case\ 1:}|True}", color="black", fontname="Calibri", style="filled", fillcolor="white"];
"86728953" -> "1386399599"[label="1", color="black", style="setlinewidth(1)"];
"1332097227"[label="{{Stmt\ -1:\ write(fd\ ,\ stat_buf\ }|True}", color="black", fontname="Calibri", style="filled", fillcolor="white"];
"1332097227" -> "1964975706"[label="1", color="black", style="setlinewidth(1)"];
"1332097227" -> "1704453584"[label="1", color="black", style="setlinewidth(1)"];
"195664508" -> "533165475"[label="1", color="black", style="setlinewidth(1)"];
"661673734" -> "836189957"[label="1", color="black", style="setlinewidth(1)"];
"881830446"[label="{{Expr\ -1:\ s-\>sd_want}|True}", color="black", fontname="Calibri", style="filled", fillcolor="white"];
"881830446" -> "86728953"[label="1", color="black", style="setlinewidth(1)"];
"881830446" -> "1359528474"[label="1", color="black", style="setlinewidth(1)"];
"881830446" -> "533165475"[label="1", color="black", style="setlinewidth(1)"];
"881830446" -> "235424933"[label="1", color="black", style="setlinewidth(1)"];
"235424933" -> "1332097227"[label="1", color="black", style="setlinewidth(1)"];
"68997075" -> "661673734"[label="1", color="black", style="setlinewidth(1)"];
"68997075" -> "195664508"[label="1", color="black", style="setlinewidth(1)"];
"583346360"[label="{{Stmt\ -1:\ (p\ =\ bb_stpcpy(p\ ,\ \\\"}|True}", color="black", fontname="Calibri", style="filled", fillcolor="white"];
"583346360" -> "533165475"[label="1", color="black", style="setlinewidth(1)"];
"1790383562"[label="{{Expr\ -1:\ (s-\>state\ !=\ 0)}|True}", color="black", fontname="Calibri", style="filled", fillcolor="white"];
"583346360" -> "1790383562"[label="1", color="black", style="setlinewidth(1)"];
"1790383562" -> "235424933"[label="1", color="black", style="setlinewidth(1)"];
"1790383562" -> "881830446"[label="1", color="black", style="setlinewidth(1)"];
"991349462"[label="{{Stmt\ 202:\ break;}|True}", color="black", fontname="Calibri", style="filled", fillcolor="white"];
"1379506663"[label="{{Expr\ -1:\ (s-\>ctrl\ &\ 2)}|True}", color="black", fontname="Calibri", style="filled", fillcolor="white"];
"991349462" -> "1379506663"[label="1", color="black", style="setlinewidth(1)"];
"597852730"[label="{{Stmt\ 199:\ break;}|True}", color="black", fontname="Calibri", style="filled", fillcolor="white"];
"597852730" -> "1379506663"[label="1", color="black", style="setlinewidth(1)"];
"1704257122"[label="{{Stmt\ 196:\ break;}|True}", color="black", fontname="Calibri", style="filled", fillcolor="white"];
"1704257122" -> "1379506663"[label="1", color="black", style="setlinewidth(1)"];
"533165475" -> "68997075"[label="1", color="black", style="setlinewidth(1)"];
"7642003"[label="{{Stmt\ -1:\ (p\ =\ bb_stpcpy(p\ ,\ \\\"}|True}", color="black", fontname="Calibri", style="filled", fillcolor="white"];
"7642003" -> "533165475"[label="1", color="black", style="setlinewidth(1)"];
"370155726"[label="{{Expr\ -1:\ (s-\>ctrl\ &\ 1)}|True}", color="black", fontname="Calibri", style="filled", fillcolor="white"];
"7642003" -> "370155726"[label="1", color="black", style="setlinewidth(1)"];
"370155726" -> "1790383562"[label="1", color="black", style="setlinewidth(1)"];
"370155726" -> "583346360"[label="1", color="black", style="setlinewidth(1)"];
"1453481802"[label="{{Stmt\ -1:\ (p\ =\ bb_stpcpy(p\ ,\ \\\"}|True}", color="black", fontname="Calibri", style="filled", fillcolor="white"];
"1453481802" -> "533165475"[label="1", color="black", style="setlinewidth(1)"];
"1453481802" -> "991349462"[label="1", color="black", style="setlinewidth(1)"];
"1657836009"[label="{{Stmt\ -1:\ (p\ =\ bb_stpcpy(p\ ,\ \\\"}|True}", color="black", fontname="Calibri", style="filled", fillcolor="white"];
"1657836009" -> "533165475"[label="1", color="black", style="setlinewidth(1)"];
"1657836009" -> "597852730"[label="1", color="black", style="setlinewidth(1)"];
"2051811335"[label="{{Stmt\ -1:\ (p\ =\ bb_stpcpy(p\ ,\ \\\"}|True}", color="black", fontname="Calibri", style="filled", fillcolor="white"];
"2051811335" -> "533165475"[label="1", color="black", style="setlinewidth(1)"];
"2051811335" -> "1704257122"[label="1", color="black", style="setlinewidth(1)"];
"1702995540"[label="{{Stmt\ -1:\ write(fd\ ,\ spid\ ,\ si}|True}", color="black", fontname="Calibri", style="filled", fillcolor="white"];
"1702995540" -> "1964975706"[label="1", color="black", style="setlinewidth(1)"];
"1236290877"[label="{{Decl\ -1:\ sprintf}|True}", color="blue", fontname="Calibri", style="filled", fillcolor="white"];
"1702995540" -> "1236290877"[label="1", color="black", style="setlinewidth(1)"];
"1172451031"[label="{{Stmt\ -1:\ close(fd);}|True}", color="black", fontname="Calibri", style="filled", fillcolor="white"];
"1702995540" -> "1172451031"[label="1", color="black", style="setlinewidth(1)"];
"1379506663" -> "370155726"[label="1", color="black", style="setlinewidth(1)"];
"1379506663" -> "7642003"[label="1", color="black", style="setlinewidth(1)"];
"34848797"[label="{{Stmt\ -1:\ case\ 2:}|True}", color="black", fontname="Calibri", style="filled", fillcolor="white"];
"34848797" -> "1453481802"[label="1", color="black", style="setlinewidth(1)"];
"312565768"[label="{{Stmt\ -1:\ case\ 1:}|True}", color="black", fontname="Calibri", style="filled", fillcolor="white"];
"312565768" -> "1657836009"[label="1", color="black", style="setlinewidth(1)"];
"1408957453"[label="{{Stmt\ -1:\ case\ 0:}|True}", color="black", fontname="Calibri", style="filled", fillcolor="white"];
"1408957453" -> "2051811335"[label="1", color="black", style="setlinewidth(1)"];
"124305131"[label="{{Stmt\ -1:\ int\ size\ =\ \ sprintf(}|True}", color="black", fontname="Calibri", style="filled", fillcolor="white"];
"124305131" -> "1236290877"[label="1", color="black", style="setlinewidth(1)"];
"124305131" -> "1702995540"[label="1", color="black", style="setlinewidth(1)"];
"1319940432"[label="{{Expr\ -1:\ s-\>state}|True}", color="black", fontname="Calibri", style="filled", fillcolor="white"];
"1319940432" -> "1408957453"[label="1", color="black", style="setlinewidth(1)"];
"1319940432" -> "312565768"[label="1", color="black", style="setlinewidth(1)"];
"1319940432" -> "34848797"[label="1", color="black", style="setlinewidth(1)"];
"1319940432" -> "1379506663"[label="1", color="black", style="setlinewidth(1)"];
"2093442047" -> "525232874"[label="1", color="black", style="setlinewidth(1)"];
"2093442047" -> "794336811"[label="1", color="black", style="setlinewidth(1)"];
"794336811" -> "1289436920"[label="1", color="black", style="setlinewidth(1)"];
"982395363"[label="{{Stmt\ -1:\ char\ spid[((sizeof(i}|True}", color="black", fontname="Calibri", style="filled", fillcolor="white"];
"982395363" -> "124305131"[label="1", color="black", style="setlinewidth(1)"];
"1172451031" -> "815027791"[label="1", color="black", style="setlinewidth(1)"];
"1172451031" -> "2116503295"[label="1", color="black", style="setlinewidth(1)"];
"1476476951"[label="{{Stmt\ -1:\ char\ *p\ =\ \ stat_buf;}|True}", color="black", fontname="Calibri", style="filled", fillcolor="white"];
"1476476951" -> "1319940432"[label="1", color="black", style="setlinewidth(1)"];
"961541717" -> "794336811"[label="1", color="black", style="setlinewidth(1)"];
"961541717" -> "2093442047"[label="1", color="black", style="setlinewidth(1)"];
"904764206"[label="{{Stmt\ 172:\ return;}|True}", color="black", fontname="Calibri", style="filled", fillcolor="white"];
"342816310"[label="{{Function\ -1:\ update_status}|True}", color="blue", fontname="Calibri", style="filled", fillcolor="white"];
"904764206" -> "342816310"[label="1", color="black", style="setlinewidth(1)"];
"827132135"[label="{{Expr\ -1:\ s-\>pid}|True}", color="black", fontname="Calibri", style="filled", fillcolor="white"];
"827132135" -> "1172451031"[label="1", color="black", style="setlinewidth(1)"];
"827132135" -> "982395363"[label="1", color="black", style="setlinewidth(1)"];
"317389876"[label="{{Stmt\ 188:\ return;}|True}", color="black", fontname="Calibri", style="filled", fillcolor="white"];
"317389876" -> "342816310"[label="1", color="black", style="setlinewidth(1)"];
"1761471068"[label="{{Stmt\ -1:\ char\ stat_buf[sizeof}|True}", color="black", fontname="Calibri", style="filled", fillcolor="white"];
"1761471068" -> "1476476951"[label="1", color="black", style="setlinewidth(1)"];
"681288764" -> "1906471682"[label="1", color="black", style="setlinewidth(1)"];
"681288764" -> "961541717"[label="1", color="black", style="setlinewidth(1)"];
"820359015"[label="{{Expr\ -1:\ (fd\ \<\ 0)}|True}", color="black", fontname="Calibri", style="filled", fillcolor="white"];
"820359015" -> "827132135"[label="1", color="black", style="setlinewidth(1)"];
"820359015" -> "904764206"[label="1", color="black", style="setlinewidth(1)"];
"1732873232"[label="{{Expr\ -1:\ (fd\ \<\ (-\ 1))}|True}", color="black", fontname="Calibri", style="filled", fillcolor="white"];
"1732873232" -> "1761471068"[label="1", color="black", style="setlinewidth(1)"];
"1732873232" -> "317389876"[label="1", color="black", style="setlinewidth(1)"];
"1289436920" -> "681288764"[label="1", color="black", style="setlinewidth(1)"];
"1579379751"[label="{{Stmt\ -1:\ (fd\ =\ open_trunc_or_}|True}", color="black", fontname="Calibri", style="filled", fillcolor="white"];
"1579379751" -> "1289436920"[label="1", color="black", style="setlinewidth(1)"];
"1579379751" -> "820359015"[label="1", color="black", style="setlinewidth(1)"];
"1496031607"[label="{{Stmt\ -1:\ (fd\ =\ open_trunc_or_}|True}", color="black", fontname="Calibri", style="filled", fillcolor="white"];
"1496031607" -> "1289436920"[label="1", color="black", style="setlinewidth(1)"];
"1496031607" -> "1732873232"[label="1", color="black", style="setlinewidth(1)"];
"1978162506"[label="{{Expr\ -1:\ (*((struct\ globals\ \ }|True}", color="black", fontname="Calibri", style="filled", fillcolor="white"];
"1978162506" -> "1496031607"[label="1", color="black", style="setlinewidth(1)"];
"1978162506" -> "1579379751"[label="1", color="black", style="setlinewidth(1)"];
"1727675655"[label="{{Stmt\ -1:\ svstatus_t\ status;}|True}", color="black", fontname="Calibri", style="filled", fillcolor="white"];
"1727675655" -> "1978162506"[label="1", color="black", style="setlinewidth(1)"];
"1561692961"[label="{{Stmt\ -1:\ int\ fd;}|True}", color="black", fontname="Calibri", style="filled", fillcolor="white"];
"1561692961" -> "1727675655"[label="1", color="black", style="setlinewidth(1)"];
"403828297"[label="{{Stmt\ -1:\ ssize_t\ sz;}|True}", color="black", fontname="Calibri", style="filled", fillcolor="white"];
"403828297" -> "1561692961"[label="1", color="black", style="setlinewidth(1)"];
"342816310" -> "403828297"[label="1", color="black", style="setlinewidth(1)"];
"1245490623"[label="{{Decl\ -1:\ stat}|True}", color="blue", fontname="Calibri", style="filled", fillcolor="white"];
"332811400"[label="{{Stmt\ -1:\ (a[8]\ =\ c);}|True}", color="black", fontname="Calibri", style="filled", fillcolor="white"];
"332811400" -> "1245490623"[label="1", color="black", style="setlinewidth(1)"];
"2005144462"[label="{{Decl\ -1:\ strcpy}|True}", color="blue", fontname="Calibri", style="filled", fillcolor="white"];
"762678790"[label="{{Stmt\ -1:\ return\ 0;}|True}", color="black", fontname="Calibri", style="filled", fillcolor="white"];
"721956116"[label="{{Function\ -1:\ custom}|True}", color="blue", fontname="Calibri", style="filled", fillcolor="white"];
"762678790" -> "721956116"[label="1", color="black", style="setlinewidth(1)"];
"215406303"[label="{{Stmt\ -1:\ strcpy(a\ ,\ \\\"control/}|True}", color="black", fontname="Calibri", style="filled", fillcolor="white"];
"215406303" -> "2005144462"[label="1", color="black", style="setlinewidth(1)"];
"215406303" -> "332811400"[label="1", color="black", style="setlinewidth(1)"];
"752219360"[label="{{Expr\ -1:\ s-\>islog}|True}", color="black", fontname="Calibri", style="filled", fillcolor="white"];
"752219360" -> "215406303"[label="1", color="black", style="setlinewidth(1)"];
"752219360" -> "762678790"[label="1", color="black", style="setlinewidth(1)"];
"1122077573"[label="{{Stmt\ -1:\ struct\ stat\ \ st;}|True}", color="black", fontname="Calibri", style="filled", fillcolor="white"];
"1122077573" -> "752219360"[label="1", color="black", style="setlinewidth(1)"];
"1653072092"[label="{{Stmt\ -1:\ char\ a[10];}|True}", color="black", fontname="Calibri", style="filled", fillcolor="white"];
"1653072092" -> "1122077573"[label="1", color="black", style="setlinewidth(1)"];
"281176476"[label="{{Stmt\ -1:\ int\ w;}|True}", color="black", fontname="Calibri", style="filled", fillcolor="white"];
"281176476" -> "1653072092"[label="1", color="black", style="setlinewidth(1)"];
"2070622107"[label="{{Stmt\ -1:\ pid_t\ pid;}|True}", color="black", fontname="Calibri", style="filled", fillcolor="white"];
"2070622107" -> "281176476"[label="1", color="black", style="setlinewidth(1)"];
"721956116" -> "2070622107"[label="1", color="black", style="setlinewidth(1)"];
"332811400" -> "1245490623"[label="1", color="black", style="setlinewidth(1)"];
"762678790" -> "721956116"[label="1", color="black", style="setlinewidth(1)"];
"215406303" -> "2005144462"[label="1", color="black", style="setlinewidth(1)"];
"215406303" -> "332811400"[label="1", color="black", style="setlinewidth(1)"];
"752219360" -> "215406303"[label="1", color="black", style="setlinewidth(1)"];
"752219360" -> "762678790"[label="1", color="black", style="setlinewidth(1)"];
"1122077573" -> "752219360"[label="1", color="black", style="setlinewidth(1)"];
"1653072092" -> "1122077573"[label="1", color="black", style="setlinewidth(1)"];
"281176476" -> "1653072092"[label="1", color="black", style="setlinewidth(1)"];
"2070622107" -> "281176476"[label="1", color="black", style="setlinewidth(1)"];
"721956116" -> "2070622107"[label="1", color="black", style="setlinewidth(1)"];
"1243443694"[label="{{Function\ -1:\ stopservice}|True}", color="blue", fontname="Calibri", style="filled", fillcolor="white"];
"1243443694" -> "721956116"[label="1", color="black", style="setlinewidth(1)"];
"332811400" -> "1245490623"[label="1", color="black", style="setlinewidth(1)"];
"762678790" -> "721956116"[label="1", color="black", style="setlinewidth(1)"];
"215406303" -> "2005144462"[label="1", color="black", style="setlinewidth(1)"];
"215406303" -> "332811400"[label="1", color="black", style="setlinewidth(1)"];
"752219360" -> "215406303"[label="1", color="black", style="setlinewidth(1)"];
"752219360" -> "762678790"[label="1", color="black", style="setlinewidth(1)"];
"1122077573" -> "752219360"[label="1", color="black", style="setlinewidth(1)"];
"1653072092" -> "1122077573"[label="1", color="black", style="setlinewidth(1)"];
"1243443694" -> "721956116"[label="1", color="black", style="setlinewidth(1)"];
"281176476" -> "1653072092"[label="1", color="black", style="setlinewidth(1)"];
"305273715"[label="{{Stmt\ -1:\ (arg[1]\ =\ exitcode);}|True}", color="black", fontname="Calibri", style="filled", fillcolor="white"];
"959119566"[label="{{Decl\ -1:\ utoa_to_buf}|True}", color="blue", fontname="Calibri", style="filled", fillcolor="white"];
"305273715" -> "959119566"[label="1", color="black", style="setlinewidth(1)"];
"1637553812"[label="{{Stmt\ -1:\ (arg[2]\ =\ utoa((((un}|True}", color="black", fontname="Calibri", style="filled", fillcolor="white"];
"305273715" -> "1637553812"[label="1", color="black", style="setlinewidth(1)"];
"573226686"[label="{{Stmt\ -1:\ (arg[3]\ =\ ((void\ *)\ }|True}", color="black", fontname="Calibri", style="filled", fillcolor="white"];
"1206986925"[label="{{Decl\ -1:\ utoa}|True}", color="blue", fontname="Calibri", style="filled", fillcolor="white"];
"573226686" -> "1206986925"[label="1", color="black", style="setlinewidth(1)"];
"573226686" -> "959119566"[label="1", color="black", style="setlinewidth(1)"];
"573226686" -> "721956116"[label="1", color="black", style="setlinewidth(1)"];
"967579346"[label="{{Expr\ -1:\ (s-\>pid\ !=\ 0)}|True}", color="black", fontname="Calibri", style="filled", fillcolor="white"];
"573226686" -> "967579346"[label="1", color="black", style="setlinewidth(1)"];
"213760074"[label="{{Stmt\ -1:\ stopservice(s);}|True}", color="black", fontname="Calibri", style="filled", fillcolor="white"];
"213760074" -> "1243443694"[label="1", color="black", style="setlinewidth(1)"];
"1807600627"[label="{{Decl\ -1:\ vfork}|True}", color="blue", fontname="Calibri", style="filled", fillcolor="white"];
"213760074" -> "1807600627"[label="1", color="black", style="setlinewidth(1)"];
"2070622107" -> "281176476"[label="1", color="black", style="setlinewidth(1)"];
"2115414970"[label="{{Stmt\ -1:\ ((*utoa_to_buf(((((u}|True}", color="black", fontname="Calibri", style="filled", fillcolor="white"];
"2115414970" -> "959119566"[label="1", color="black", style="setlinewidth(1)"];
"2115414970" -> "305273715"[label="1", color="black", style="setlinewidth(1)"];
"1637553812" -> "1206986925"[label="1", color="black", style="setlinewidth(1)"];
"1637553812" -> "573226686"[label="1", color="black", style="setlinewidth(1)"];
"967579346" -> "1807600627"[label="1", color="black", style="setlinewidth(1)"];
"967579346" -> "213760074"[label="1", color="black", style="setlinewidth(1)"];
"721956116" -> "2070622107"[label="1", color="black", style="setlinewidth(1)"];
"1695962336"[label="{{Expr\ -1:\ ((((union\ \ \{\l\ \ typeo}|True}", color="black", fontname="Calibri", style="filled", fillcolor="white"];
"1695962336" -> "1637553812"[label="1", color="black", style="setlinewidth(1)"];
"1695962336" -> "2115414970"[label="1", color="black", style="setlinewidth(1)"];
"1515823555"[label="{{Stmt\ -1:\ custom(s\ ,\ 'u');}|True}", color="black", fontname="Calibri", style="filled", fillcolor="white"];
"1515823555" -> "721956116"[label="1", color="black", style="setlinewidth(1)"];
"1515823555" -> "1206986925"[label="1", color="black", style="setlinewidth(1)"];
"1515823555" -> "959119566"[label="1", color="black", style="setlinewidth(1)"];
"1515823555" -> "967579346"[label="1", color="black", style="setlinewidth(1)"];
"1684223620"[label="{{Stmt\ -1:\ (arg[1]\ =\ \\\"-1\\\");}|True}", color="black", fontname="Calibri", style="filled", fillcolor="white"];
"1684223620" -> "1695962336"[label="1", color="black", style="setlinewidth(1)"];
"1196809251"[label="{{Stmt\ -1:\ (arg[1]\ =\ ((void\ *)\ }|True}", color="black", fontname="Calibri", style="filled", fillcolor="white"];
"1196809251" -> "1515823555"[label="1", color="black", style="setlinewidth(1)"];
"637462599"[label="{{Stmt\ -1:\ (arg[0]\ =\ \\\"./finish\\\"}|True}", color="black", fontname="Calibri", style="filled", fillcolor="white"];
"637462599" -> "1684223620"[label="1", color="black", style="setlinewidth(1)"];
"1809817186"[label="{{Stmt\ -1:\ (arg[0]\ =\ \\\"./run\\\");}|True}", color="black", fontname="Calibri", style="filled", fillcolor="white"];
"1809817186" -> "1196809251"[label="1", color="black", style="setlinewidth(1)"];
"894116655"[label="{{Expr\ -1:\ (s-\>state\ ==\ 2)}|True}", color="black", fontname="Calibri", style="filled", fillcolor="white"];
"894116655" -> "1809817186"[label="1", color="black", style="setlinewidth(1)"];
"894116655" -> "637462599"[label="1", color="black", style="setlinewidth(1)"];
"1855320316"[label="{{Stmt\ -1:\ char\ exitcode[((size}|True}", color="black", fontname="Calibri", style="filled", fillcolor="white"];
"1855320316" -> "894116655"[label="1", color="black", style="setlinewidth(1)"];
"535184527"[label="{{Stmt\ -1:\ const\ char\ *arg[4];}|True}", color="black", fontname="Calibri", style="filled", fillcolor="white"];
"535184527" -> "1855320316"[label="1", color="black", style="setlinewidth(1)"];
"1434116570"[label="{{Stmt\ -1:\ int\ p;}|True}", color="black", fontname="Calibri", style="filled", fillcolor="white"];
"1434116570" -> "535184527"[label="1", color="black", style="setlinewidth(1)"];
"2132242196"[label="{{Function\ -1:\ startservice}|True}", color="blue", fontname="Calibri", style="filled", fillcolor="white"];
"2132242196" -> "1434116570"[label="1", color="black", style="setlinewidth(1)"];
"192947437" -> "932741097"[label="1", color="black", style="setlinewidth(1)"];
"192947437" -> "1738625253"[label="1", color="black", style="setlinewidth(1)"];
"1435290012" -> "533165475"[label="1", color="black", style="setlinewidth(1)"];
"1435290012" -> "235424933"[label="1", color="black", style="setlinewidth(1)"];
"2038062932" -> "533165475"[label="1", color="black", style="setlinewidth(1)"];
"2038062932" -> "235424933"[label="1", color="black", style="setlinewidth(1)"];
"1534775188" -> "2116503295"[label="1", color="black", style="setlinewidth(1)"];
"1534775188" -> "192947437"[label="1", color="black", style="setlinewidth(1)"];
"832394930" -> "533165475"[label="1", color="black", style="setlinewidth(1)"];
"832394930" -> "1435290012"[label="1", color="black", style="setlinewidth(1)"];
"1386399599" -> "533165475"[label="1", color="black", style="setlinewidth(1)"];
"1386399599" -> "2038062932"[label="1", color="black", style="setlinewidth(1)"];
"1704453584" -> "815027791"[label="1", color="black", style="setlinewidth(1)"];
"1704453584" -> "1964975706"[label="1", color="black", style="setlinewidth(1)"];
"1704453584" -> "533165475"[label="1", color="black", style="setlinewidth(1)"];
"1704453584" -> "1534775188"[label="1", color="black", style="setlinewidth(1)"];
"836189957" -> "68997075"[label="1", color="black", style="setlinewidth(1)"];
"1359528474" -> "832394930"[label="1", color="black", style="setlinewidth(1)"];
"86728953" -> "1386399599"[label="1", color="black", style="setlinewidth(1)"];
"1332097227" -> "1964975706"[label="1", color="black", style="setlinewidth(1)"];
"1332097227" -> "1704453584"[label="1", color="black", style="setlinewidth(1)"];
"195664508" -> "533165475"[label="1", color="black", style="setlinewidth(1)"];
"661673734" -> "836189957"[label="1", color="black", style="setlinewidth(1)"];
"881830446" -> "86728953"[label="1", color="black", style="setlinewidth(1)"];
"881830446" -> "1359528474"[label="1", color="black", style="setlinewidth(1)"];
"881830446" -> "533165475"[label="1", color="black", style="setlinewidth(1)"];
"881830446" -> "235424933"[label="1", color="black", style="setlinewidth(1)"];
"235424933" -> "1332097227"[label="1", color="black", style="setlinewidth(1)"];
"68997075" -> "661673734"[label="1", color="black", style="setlinewidth(1)"];
"68997075" -> "195664508"[label="1", color="black", style="setlinewidth(1)"];
"583346360" -> "533165475"[label="1", color="black", style="setlinewidth(1)"];
"583346360" -> "1790383562"[label="1", color="black", style="setlinewidth(1)"];
"1790383562" -> "235424933"[label="1", color="black", style="setlinewidth(1)"];
"1790383562" -> "881830446"[label="1", color="black", style="setlinewidth(1)"];
"991349462" -> "1379506663"[label="1", color="black", style="setlinewidth(1)"];
"597852730" -> "1379506663"[label="1", color="black", style="setlinewidth(1)"];
"1704257122" -> "1379506663"[label="1", color="black", style="setlinewidth(1)"];
"533165475" -> "68997075"[label="1", color="black", style="setlinewidth(1)"];
"305273715" -> "959119566"[label="1", color="black", style="setlinewidth(1)"];
"305273715" -> "1637553812"[label="1", color="black", style="setlinewidth(1)"];
"573226686" -> "1206986925"[label="1", color="black", style="setlinewidth(1)"];
"573226686" -> "959119566"[label="1", color="black", style="setlinewidth(1)"];
"573226686" -> "721956116"[label="1", color="black", style="setlinewidth(1)"];
"573226686" -> "967579346"[label="1", color="black", style="setlinewidth(1)"];
"213760074" -> "1243443694"[label="1", color="black", style="setlinewidth(1)"];
"213760074" -> "1807600627"[label="1", color="black", style="setlinewidth(1)"];
"7642003" -> "533165475"[label="1", color="black", style="setlinewidth(1)"];
"7642003" -> "370155726"[label="1", color="black", style="setlinewidth(1)"];
"370155726" -> "1790383562"[label="1", color="black", style="setlinewidth(1)"];
"370155726" -> "583346360"[label="1", color="black", style="setlinewidth(1)"];
"1453481802" -> "533165475"[label="1", color="black", style="setlinewidth(1)"];
"1453481802" -> "991349462"[label="1", color="black", style="setlinewidth(1)"];
"1657836009" -> "533165475"[label="1", color="black", style="setlinewidth(1)"];
"1657836009" -> "597852730"[label="1", color="black", style="setlinewidth(1)"];
"2051811335" -> "533165475"[label="1", color="black", style="setlinewidth(1)"];
"2051811335" -> "1704257122"[label="1", color="black", style="setlinewidth(1)"];
"2115414970" -> "959119566"[label="1", color="black", style="setlinewidth(1)"];
"2115414970" -> "305273715"[label="1", color="black", style="setlinewidth(1)"];
"1637553812" -> "1206986925"[label="1", color="black", style="setlinewidth(1)"];
"1637553812" -> "573226686"[label="1", color="black", style="setlinewidth(1)"];
"967579346" -> "1807600627"[label="1", color="black", style="setlinewidth(1)"];
"967579346" -> "213760074"[label="1", color="black", style="setlinewidth(1)"];
"1702995540" -> "1964975706"[label="1", color="black", style="setlinewidth(1)"];
"1702995540" -> "1236290877"[label="1", color="black", style="setlinewidth(1)"];
"1702995540" -> "1172451031"[label="1", color="black", style="setlinewidth(1)"];
"1379506663" -> "370155726"[label="1", color="black", style="setlinewidth(1)"];
"1379506663" -> "7642003"[label="1", color="black", style="setlinewidth(1)"];
"34848797" -> "1453481802"[label="1", color="black", style="setlinewidth(1)"];
"312565768" -> "1657836009"[label="1", color="black", style="setlinewidth(1)"];
"1408957453" -> "2051811335"[label="1", color="black", style="setlinewidth(1)"];
"1695962336" -> "1637553812"[label="1", color="black", style="setlinewidth(1)"];
"1695962336" -> "2115414970"[label="1", color="black", style="setlinewidth(1)"];
"1515823555" -> "721956116"[label="1", color="black", style="setlinewidth(1)"];
"1515823555" -> "1206986925"[label="1", color="black", style="setlinewidth(1)"];
"1515823555" -> "959119566"[label="1", color="black", style="setlinewidth(1)"];
"1515823555" -> "967579346"[label="1", color="black", style="setlinewidth(1)"];
"124305131" -> "1236290877"[label="1", color="black", style="setlinewidth(1)"];
"124305131" -> "1702995540"[label="1", color="black", style="setlinewidth(1)"];
"1319940432" -> "1408957453"[label="1", color="black", style="setlinewidth(1)"];
"1319940432" -> "312565768"[label="1", color="black", style="setlinewidth(1)"];
"1319940432" -> "34848797"[label="1", color="black", style="setlinewidth(1)"];
"1319940432" -> "1379506663"[label="1", color="black", style="setlinewidth(1)"];
"2093442047" -> "525232874"[label="1", color="black", style="setlinewidth(1)"];
"2093442047" -> "794336811"[label="1", color="black", style="setlinewidth(1)"];
"794336811" -> "1289436920"[label="1", color="black", style="setlinewidth(1)"];
"1684223620" -> "1695962336"[label="1", color="black", style="setlinewidth(1)"];
"1196809251" -> "1515823555"[label="1", color="black", style="setlinewidth(1)"];
"982395363" -> "124305131"[label="1", color="black", style="setlinewidth(1)"];
"1172451031" -> "815027791"[label="1", color="black", style="setlinewidth(1)"];
"1172451031" -> "2116503295"[label="1", color="black", style="setlinewidth(1)"];
"1476476951" -> "1319940432"[label="1", color="black", style="setlinewidth(1)"];
"961541717" -> "794336811"[label="1", color="black", style="setlinewidth(1)"];
"961541717" -> "2093442047"[label="1", color="black", style="setlinewidth(1)"];
"637462599" -> "1684223620"[label="1", color="black", style="setlinewidth(1)"];
"1809817186" -> "1196809251"[label="1", color="black", style="setlinewidth(1)"];
"904764206" -> "342816310"[label="1", color="black", style="setlinewidth(1)"];
"827132135" -> "1172451031"[label="1", color="black", style="setlinewidth(1)"];
"827132135" -> "982395363"[label="1", color="black", style="setlinewidth(1)"];
"317389876" -> "342816310"[label="1", color="black", style="setlinewidth(1)"];
"1761471068" -> "1476476951"[label="1", color="black", style="setlinewidth(1)"];
"681288764" -> "1906471682"[label="1", color="black", style="setlinewidth(1)"];
"681288764" -> "961541717"[label="1", color="black", style="setlinewidth(1)"];
"894116655" -> "1809817186"[label="1", color="black", style="setlinewidth(1)"];
"894116655" -> "637462599"[label="1", color="black", style="setlinewidth(1)"];
"820359015" -> "827132135"[label="1", color="black", style="setlinewidth(1)"];
"820359015" -> "904764206"[label="1", color="black", style="setlinewidth(1)"];
"1732873232" -> "1761471068"[label="1", color="black", style="setlinewidth(1)"];
"1732873232" -> "317389876"[label="1", color="black", style="setlinewidth(1)"];
"1289436920" -> "681288764"[label="1", color="black", style="setlinewidth(1)"];
"332811400" -> "1245490623"[label="1", color="black", style="setlinewidth(1)"];
"1855320316" -> "894116655"[label="1", color="black", style="setlinewidth(1)"];
"1579379751" -> "1289436920"[label="1", color="black", style="setlinewidth(1)"];
"1579379751" -> "820359015"[label="1", color="black", style="setlinewidth(1)"];
"1496031607" -> "1289436920"[label="1", color="black", style="setlinewidth(1)"];
"1496031607" -> "1732873232"[label="1", color="black", style="setlinewidth(1)"];
"762678790" -> "721956116"[label="1", color="black", style="setlinewidth(1)"];
"215406303" -> "2005144462"[label="1", color="black", style="setlinewidth(1)"];
"215406303" -> "332811400"[label="1", color="black", style="setlinewidth(1)"];
"535184527" -> "1855320316"[label="1", color="black", style="setlinewidth(1)"];
"1978162506" -> "1496031607"[label="1", color="black", style="setlinewidth(1)"];
"1978162506" -> "1579379751"[label="1", color="black", style="setlinewidth(1)"];
"752219360" -> "215406303"[label="1", color="black", style="setlinewidth(1)"];
"752219360" -> "762678790"[label="1", color="black", style="setlinewidth(1)"];
"1434116570" -> "535184527"[label="1", color="black", style="setlinewidth(1)"];
"1727675655" -> "1978162506"[label="1", color="black", style="setlinewidth(1)"];
"1122077573" -> "752219360"[label="1", color="black", style="setlinewidth(1)"];
"2132242196" -> "1434116570"[label="1", color="black", style="setlinewidth(1)"];
"1561692961" -> "1727675655"[label="1", color="black", style="setlinewidth(1)"];
"497232417"[label="{{Stmt\ -1:\ startservice(s);}|True}", color="black", fontname="Calibri", style="filled", fillcolor="white"];
"497232417" -> "2132242196"[label="1", color="black", style="setlinewidth(1)"];
"487835972"[label="{{Stmt\ 430:\ break;}|True}", color="black", fontname="Calibri", style="filled", fillcolor="white"];
"497232417" -> "487835972"[label="1", color="black", style="setlinewidth(1)"];
"1525773611"[label="{{Stmt\ -1:\ return\ 1;}|True}", color="black", fontname="Calibri", style="filled", fillcolor="white"];
"487835972" -> "1525773611"[label="1", color="black", style="setlinewidth(1)"];
"1653072092" -> "1122077573"[label="1", color="black", style="setlinewidth(1)"];
"500410788"[label="{{Stmt\ -1:\ startservice(s);}|True}", color="black", fontname="Calibri", style="filled", fillcolor="white"];
"500410788" -> "2132242196"[label="1", color="black", style="setlinewidth(1)"];
"1011569121"[label="{{Stmt\ 397:\ break;}|True}", color="black", fontname="Calibri", style="filled", fillcolor="white"];
"500410788" -> "1011569121"[label="1", color="black", style="setlinewidth(1)"];
"1011569121" -> "1525773611"[label="1", color="black", style="setlinewidth(1)"];
"1238386646"[label="{{Stmt\ -1:\ stopservice(s);}|True}", color="black", fontname="Calibri", style="filled", fillcolor="white"];
"1238386646" -> "1243443694"[label="1", color="black", style="setlinewidth(1)"];
"1044138096"[label="{{Stmt\ 391:\ break;}|True}", color="black", fontname="Calibri", style="filled", fillcolor="white"];
"1238386646" -> "1044138096"[label="1", color="black", style="setlinewidth(1)"];
"1044138096" -> "1525773611"[label="1", color="black", style="setlinewidth(1)"];
"403828297" -> "1561692961"[label="1", color="black", style="setlinewidth(1)"];
"2143514544"[label="{{Stmt\ -1:\ sendsig:}|True}", color="black", fontname="Calibri", style="filled", fillcolor="white"];
"2143514544" -> "721956116"[label="1", color="black", style="setlinewidth(1)"];
"1425666100"[label="{{Expr\ -1:\ (!\ s-\>pid)}|True}", color="black", fontname="Calibri", style="filled", fillcolor="white"];
"1425666100" -> "487835972"[label="1", color="black", style="setlinewidth(1)"];
"1425666100" -> "497232417"[label="1", color="black", style="setlinewidth(1)"];
"281176476" -> "1653072092"[label="1", color="black", style="setlinewidth(1)"];
"1243443694" -> "721956116"[label="1", color="black", style="setlinewidth(1)"];
"985490400"[label="{{Stmt\ -1:\ update_status(s);}|True}", color="black", fontname="Calibri", style="filled", fillcolor="white"];
"985490400" -> "342816310"[label="1", color="black", style="setlinewidth(1)"];
"1398141601"[label="{{Stmt\ -1:\ case\ 't':}|True}", color="black", fontname="Calibri", style="filled", fillcolor="white"];
"985490400" -> "1398141601"[label="1", color="black", style="setlinewidth(1)"];
"1193607751"[label="{{Expr\ -1:\ (s-\>pid\ ==\ 0)}|True}", color="black", fontname="Calibri", style="filled", fillcolor="white"];
"1193607751" -> "1011569121"[label="1", color="black", style="setlinewidth(1)"];
"1193607751" -> "500410788"[label="1", color="black", style="setlinewidth(1)"];
"1409797189"[label="{{Expr\ -1:\ (s-\>pid\ &&\ (s-\>state}|True}", color="black", fontname="Calibri", style="filled", fillcolor="white"];
"1409797189" -> "1044138096"[label="1", color="black", style="setlinewidth(1)"];
"1409797189" -> "1238386646"[label="1", color="black", style="setlinewidth(1)"];
"342816310" -> "403828297"[label="1", color="black", style="setlinewidth(1)"];
"1404227624"[label="{{Stmt\ -1:\ goto\ sendsig;}|True}", color="black", fontname="Calibri", style="filled", fillcolor="white"];
"1404227624" -> "2143514544"[label="1", color="black", style="setlinewidth(1)"];
"559076946"[label="{{Stmt\ -1:\ goto\ sendsig;}|True}", color="black", fontname="Calibri", style="filled", fillcolor="white"];
"559076946" -> "2143514544"[label="1", color="black", style="setlinewidth(1)"];
"373167475"[label="{{Stmt\ -1:\ goto\ sendsig;}|True}", color="black", fontname="Calibri", style="filled", fillcolor="white"];
"373167475" -> "2143514544"[label="1", color="black", style="setlinewidth(1)"];
"114585677"[label="{{Stmt\ -1:\ goto\ sendsig;}|True}", color="black", fontname="Calibri", style="filled", fillcolor="white"];
"114585677" -> "2143514544"[label="1", color="black", style="setlinewidth(1)"];
"1496055688"[label="{{Stmt\ -1:\ goto\ sendsig;}|True}", color="black", fontname="Calibri", style="filled", fillcolor="white"];
"1496055688" -> "2143514544"[label="1", color="black", style="setlinewidth(1)"];
"168278536"[label="{{Stmt\ -1:\ goto\ sendsig;}|True}", color="black", fontname="Calibri", style="filled", fillcolor="white"];
"168278536" -> "2143514544"[label="1", color="black", style="setlinewidth(1)"];
"1534129122"[label="{{Stmt\ -1:\ update_status(s);}|True}", color="black", fontname="Calibri", style="filled", fillcolor="white"];
"1534129122" -> "342816310"[label="1", color="black", style="setlinewidth(1)"];
"1534129122" -> "1425666100"[label="1", color="black", style="setlinewidth(1)"];
"2070622107" -> "281176476"[label="1", color="black", style="setlinewidth(1)"];
"2101577748"[label="{{Stmt\ -1:\ stopservice(s);}|True}", color="black", fontname="Calibri", style="filled", fillcolor="white"];
"2101577748" -> "1243443694"[label="1", color="black", style="setlinewidth(1)"];
"1287553966"[label="{{Stmt\ 407:\ break;}|True}", color="black", fontname="Calibri", style="filled", fillcolor="white"];
"2101577748" -> "1287553966"[label="1", color="black", style="setlinewidth(1)"];
"1287553966" -> "1525773611"[label="1", color="black", style="setlinewidth(1)"];
"326004052"[label="{{Stmt\ 400:\ break;}|True}", color="black", fontname="Calibri", style="filled", fillcolor="white"];
"326004052" -> "1525773611"[label="1", color="black", style="setlinewidth(1)"];
"919318467"[label="{{Stmt\ -1:\ (s-\>sd_want\ =\ 2);}|True}", color="black", fontname="Calibri", style="filled", fillcolor="white"];
"919318467" -> "985490400"[label="1", color="black", style="setlinewidth(1)"];
"1529828444"[label="{{Stmt\ -1:\ update_status(s);}|True}", color="black", fontname="Calibri", style="filled", fillcolor="white"];
"1529828444" -> "342816310"[label="1", color="black", style="setlinewidth(1)"];
"1529828444" -> "1193607751"[label="1", color="black", style="setlinewidth(1)"];
"701249398"[label="{{Stmt\ -1:\ update_status(s);}|True}", color="black", fontname="Calibri", style="filled", fillcolor="white"];
"701249398" -> "342816310"[label="1", color="black", style="setlinewidth(1)"];
"701249398" -> "1409797189"[label="1", color="black", style="setlinewidth(1)"];
"82160863"[label="{{Stmt\ -1:\ (sig\ =\ 12);}|True}", color="black", fontname="Calibri", style="filled", fillcolor="white"];
"82160863" -> "1404227624"[label="1", color="black", style="setlinewidth(1)"];
"1370718333"[label="{{Stmt\ -1:\ (sig\ =\ 10);}|True}", color="black", fontname="Calibri", style="filled", fillcolor="white"];
"1370718333" -> "559076946"[label="1", color="black", style="setlinewidth(1)"];
"1873867921"[label="{{Stmt\ -1:\ (sig\ =\ 3);}|True}", color="black", fontname="Calibri", style="filled", fillcolor="white"];
"1873867921" -> "373167475"[label="1", color="black", style="setlinewidth(1)"];
"1430281418"[label="{{Stmt\ -1:\ (sig\ =\ 2);}|True}", color="black", fontname="Calibri", style="filled", fillcolor="white"];
"1430281418" -> "114585677"[label="1", color="black", style="setlinewidth(1)"];
"1581159804"[label="{{Stmt\ -1:\ (sig\ =\ 1);}|True}", color="black", fontname="Calibri", style="filled", fillcolor="white"];
"1581159804" -> "1496055688"[label="1", color="black", style="setlinewidth(1)"];
"1720965924"[label="{{Stmt\ -1:\ (sig\ =\ 14);}|True}", color="black", fontname="Calibri", style="filled", fillcolor="white"];
"1720965924" -> "168278536"[label="1", color="black", style="setlinewidth(1)"];
"470032333"[label="{{Stmt\ -1:\ (s-\>sd_want\ =\ 1);}|True}", color="black", fontname="Calibri", style="filled", fillcolor="white"];
"470032333" -> "1534129122"[label="1", color="black", style="setlinewidth(1)"];
"721956116" -> "2070622107"[label="1", color="black", style="setlinewidth(1)"];
"1602694095"[label="{{Expr\ -1:\ (s-\>pid\ &&\ (s-\>state}|True}", color="black", fontname="Calibri", style="filled", fillcolor="white"];
"1602694095" -> "1287553966"[label="1", color="black", style="setlinewidth(1)"];
"1602694095" -> "2101577748"[label="1", color="black", style="setlinewidth(1)"];
"100129288"[label="{{Expr\ -1:\ s-\>islog}|True}", color="black", fontname="Calibri", style="filled", fillcolor="white"];
"100129288" -> "919318467"[label="1", color="black", style="setlinewidth(1)"];
"100129288" -> "326004052"[label="1", color="black", style="setlinewidth(1)"];
"953887614"[label="{{Stmt\ -1:\ (s-\>sd_want\ =\ 0);}|True}", color="black", fontname="Calibri", style="filled", fillcolor="white"];
"953887614" -> "1529828444"[label="1", color="black", style="setlinewidth(1)"];
"1045378840"[label="{{Stmt\ -1:\ (s-\>sd_want\ =\ 1);}|True}", color="black", fontname="Calibri", style="filled", fillcolor="white"];
"1045378840" -> "701249398"[label="1", color="black", style="setlinewidth(1)"];
"1233228555"[label="{{Function\ -1:\ ctrl}|True}", color="blue", fontname="Calibri", style="filled", fillcolor="white"];
"1525773611" -> "1233228555"[label="1", color="black", style="setlinewidth(1)"];
"1886943186"[label="{{Stmt\ -1:\ case\ '2':}|True}", color="black", fontname="Calibri", style="filled", fillcolor="white"];
"1886943186" -> "82160863"[label="1", color="black", style="setlinewidth(1)"];
"576535547"[label="{{Stmt\ -1:\ case\ '1':}|True}", color="black", fontname="Calibri", style="filled", fillcolor="white"];
"576535547" -> "1370718333"[label="1", color="black", style="setlinewidth(1)"];
"1085482711"[label="{{Stmt\ -1:\ case\ 'q':}|True}", color="black", fontname="Calibri", style="filled", fillcolor="white"];
"1085482711" -> "1873867921"[label="1", color="black", style="setlinewidth(1)"];
"297475480"[label="{{Stmt\ -1:\ case\ 'i':}|True}", color="black", fontname="Calibri", style="filled", fillcolor="white"];
"297475480" -> "1430281418"[label="1", color="black", style="setlinewidth(1)"];
"896381522"[label="{{Stmt\ -1:\ case\ 'h':}|True}", color="black", fontname="Calibri", style="filled", fillcolor="white"];
"896381522" -> "1581159804"[label="1", color="black", style="setlinewidth(1)"];
"2114100805"[label="{{Stmt\ -1:\ case\ 'a':}|True}", color="black", fontname="Calibri", style="filled", fillcolor="white"];
"2114100805" -> "1720965924"[label="1", color="black", style="setlinewidth(1)"];
"961735331"[label="{{Stmt\ -1:\ case\ 'o':}|True}", color="black", fontname="Calibri", style="filled", fillcolor="white"];
"961735331" -> "470032333"[label="1", color="black", style="setlinewidth(1)"];
"1647708849"[label="{{Stmt\ -1:\ case\ 'c':}|True}", color="black", fontname="Calibri", style="filled", fillcolor="white"];
"1647708849" -> "721956116"[label="1", color="black", style="setlinewidth(1)"];
"1738237653"[label="{{Stmt\ -1:\ case\ 'p':}|True}", color="black", fontname="Calibri", style="filled", fillcolor="white"];
"1738237653" -> "721956116"[label="1", color="black", style="setlinewidth(1)"];
"1874279390"[label="{{Stmt\ -1:\ case\ 'k':}|True}", color="black", fontname="Calibri", style="filled", fillcolor="white"];
"1874279390" -> "721956116"[label="1", color="black", style="setlinewidth(1)"];
"1398141601" -> "1602694095"[label="1", color="black", style="setlinewidth(1)"];
"1961666995"[label="{{Stmt\ -1:\ case\ 'x':}|True}", color="black", fontname="Calibri", style="filled", fillcolor="white"];
"1961666995" -> "100129288"[label="1", color="black", style="setlinewidth(1)"];
"1740099835"[label="{{Stmt\ -1:\ case\ 'u':}|True}", color="black", fontname="Calibri", style="filled", fillcolor="white"];
"1740099835" -> "953887614"[label="1", color="black", style="setlinewidth(1)"];
"448983249"[label="{{Stmt\ -1:\ case\ 'd':}|True}", color="black", fontname="Calibri", style="filled", fillcolor="white"];
"448983249" -> "1045378840"[label="1", color="black", style="setlinewidth(1)"];
"2114379895"[label="{{Expr\ 385:\ c}|True}", color="black", fontname="Calibri", style="filled", fillcolor="white"];
"2114379895" -> "448983249"[label="1", color="black", style="setlinewidth(1)"];
"2114379895" -> "1740099835"[label="1", color="black", style="setlinewidth(1)"];
"2114379895" -> "1961666995"[label="1", color="black", style="setlinewidth(1)"];
"2114379895" -> "1398141601"[label="1", color="black", style="setlinewidth(1)"];
"2114379895" -> "1874279390"[label="1", color="black", style="setlinewidth(1)"];
"2114379895" -> "1738237653"[label="1", color="black", style="setlinewidth(1)"];
"2114379895" -> "1647708849"[label="1", color="black", style="setlinewidth(1)"];
"2114379895" -> "961735331"[label="1", color="black", style="setlinewidth(1)"];
"2114379895" -> "2114100805"[label="1", color="black", style="setlinewidth(1)"];
"2114379895" -> "896381522"[label="1", color="black", style="setlinewidth(1)"];
"2114379895" -> "297475480"[label="1", color="black", style="setlinewidth(1)"];
"2114379895" -> "1085482711"[label="1", color="black", style="setlinewidth(1)"];
"2114379895" -> "576535547"[label="1", color="black", style="setlinewidth(1)"];
"2114379895" -> "1886943186"[label="1", color="black", style="setlinewidth(1)"];
"2114379895" -> "1525773611"[label="1", color="black", style="setlinewidth(1)"];
"797062461"[label="{{Stmt\ -1:\ int\ sig;}|True}", color="black", fontname="Calibri", style="filled", fillcolor="white"];
"797062461" -> "2114379895"[label="1", color="black", style="setlinewidth(1)"];
"1233228555" -> "797062461"[label="1", color="black", style="setlinewidth(1)"];
"833867033" -> "275019586"[label="!definedEx(CONFIG_MONOTONIC_SYSCALL)", color="red", style="setlinewidth(1)"];
"833867033" -> "1158536291"[label="!definedEx(CONFIG_MONOTONIC_SYSCALL)", color="red", style="setlinewidth(1)"];
"1280276237" -> "275019586"[label="!definedEx(CONFIG_MONOTONIC_SYSCALL)", color="red", style="setlinewidth(1)"];
"1280276237" -> "1158536291"[label="!definedEx(CONFIG_MONOTONIC_SYSCALL)", color="red", style="setlinewidth(1)"];
"1356358287" -> "275019586"[label="!definedEx(CONFIG_MONOTONIC_SYSCALL)", color="red", style="setlinewidth(1)"];
"1356358287" -> "833867033"[label="!definedEx(CONFIG_MONOTONIC_SYSCALL)", color="red", style="setlinewidth(1)"];
"1086208387" -> "1280276237"[label="!definedEx(CONFIG_MONOTONIC_SYSCALL)", color="red", style="setlinewidth(1)"];
"2014638009" -> "1086208387"[label="!definedEx(CONFIG_MONOTONIC_SYSCALL)", color="red", style="setlinewidth(1)"];
"2014638009" -> "1356358287"[label="!definedEx(CONFIG_MONOTONIC_SYSCALL)", color="red", style="setlinewidth(1)"];
"417351970" -> "1855412068"[label="definedEx(CONFIG_MONOTONIC_SYSCALL)", color="red", style="setlinewidth(1)"];
"417351970" -> "847794453"[label="definedEx(CONFIG_MONOTONIC_SYSCALL)", color="red", style="setlinewidth(1)"];
"1158536291" -> "2014638009"[label="!definedEx(CONFIG_MONOTONIC_SYSCALL)", color="red", style="setlinewidth(1)"];
"847794453" -> "417351970"[label="definedEx(CONFIG_MONOTONIC_SYSCALL)", color="red", style="setlinewidth(1)"];
"1196020983"[label="{{Stmt\ -1:\ ((*((struct\ globals\ }|True}", color="black", fontname="Calibri", style="filled", fillcolor="white"];
"759489266"[label="{{Stmt\ -1:\ gettimeofday_ns((&(*}|True}", color="black", fontname="Calibri", style="filled", fillcolor="white"];
"1196020983" -> "759489266"[label="1", color="black", style="setlinewidth(1)"];
"759489266" -> "847794453"[label="definedEx(CONFIG_MONOTONIC_SYSCALL)", color="red", style="setlinewidth(1)"];
"759489266" -> "1158536291"[label="!definedEx(CONFIG_MONOTONIC_SYSCALL)", color="red", style="setlinewidth(1)"];
"759489266" -> "1245490623"[label="1", color="black", style="setlinewidth(1)"];
"744168693"[label="{{Stmt\ -1:\ ((*((struct\ globals\ }|True}", color="black", fontname="Calibri", style="filled", fillcolor="white"];
"2082283604"[label="{{Expr\ 73:\ 0}|True}", color="black", fontname="Calibri", style="filled", fillcolor="white"];
"744168693" -> "2082283604"[label="1", color="black", style="setlinewidth(1)"];
"2082283604" -> "759489266"[label="1", color="black", style="setlinewidth(1)"];
"2082283604" -> "1196020983"[label="1", color="black", style="setlinewidth(1)"];
"1583031863"[label="{{Stmt\ -1:\ ((*((struct\ globals\ }|True}", color="black", fontname="Calibri", style="filled", fillcolor="white"];
"194783877"[label="{{Expr\ 69:\ 0}|True}", color="black", fontname="Calibri", style="filled", fillcolor="white"];
"1583031863" -> "194783877"[label="1", color="black", style="setlinewidth(1)"];
"194783877" -> "2082283604"[label="1", color="black", style="setlinewidth(1)"];
"194783877" -> "744168693"[label="1", color="black", style="setlinewidth(1)"];
"383111009"[label="{{Expr\ 65:\ 0}|True}", color="black", fontname="Calibri", style="filled", fillcolor="white"];
"383111009" -> "194783877"[label="1", color="black", style="setlinewidth(1)"];
"383111009" -> "1583031863"[label="1", color="black", style="setlinewidth(1)"];
"1150919980"[label="{{Decl\ -1:\ xchdir}|True}", color="blue", fontname="Calibri", style="filled", fillcolor="white"];
"2075758513"[label="{{Stmt\ -1:\ xchdir((*((struct\ gl}|True}", color="black", fontname="Calibri", style="filled", fillcolor="white"];
"2075758513" -> "1150919980"[label="1", color="black", style="setlinewidth(1)"];
"2075758513" -> "383111009"[label="1", color="black", style="setlinewidth(1)"];
"1167634201"[label="{{Stmt\ -1:\ bb_signals_recursive}|True}", color="black", fontname="Calibri", style="filled", fillcolor="white"];
"1127049604"[label="{{Decl\ -1:\ bb_signals_recursive_norestart}|True}", color="blue", fontname="Calibri", style="filled", fillcolor="white"];
"1167634201" -> "1127049604"[label="1", color="black", style="setlinewidth(1)"];
"1167634201" -> "2075758513"[label="1", color="black", style="setlinewidth(1)"];
"1962827141"[label="{{Stmt\ -1:\ sig_block(15);}|True}", color="black", fontname="Calibri", style="filled", fillcolor="white"];
"735834306"[label="{{Decl\ -1:\ sig_block}|True}", color="blue", fontname="Calibri", style="filled", fillcolor="white"];
"1962827141" -> "735834306"[label="1", color="black", style="setlinewidth(1)"];
"1962827141" -> "1167634201"[label="1", color="black", style="setlinewidth(1)"];
"1907565370"[label="{{Stmt\ -1:\ bb_signals_recursive}|True}", color="black", fontname="Calibri", style="filled", fillcolor="white"];
"1907565370" -> "1127049604"[label="1", color="black", style="setlinewidth(1)"];
"1907565370" -> "1962827141"[label="1", color="black", style="setlinewidth(1)"];
"1670717230"[label="{{Stmt\ -1:\ sig_block(17);}|True}", color="black", fontname="Calibri", style="filled", fillcolor="white"];
"1670717230" -> "735834306"[label="1", color="black", style="setlinewidth(1)"];
"1670717230" -> "1907565370"[label="1", color="black", style="setlinewidth(1)"];
"51071957"[label="{{Stmt\ -1:\ ndelay_on((*((struct}|True}", color="black", fontname="Calibri", style="filled", fillcolor="white"];
"549815979"[label="{{Decl\ -1:\ ndelay_on}|True}", color="blue", fontname="Calibri", style="filled", fillcolor="white"];
"51071957" -> "549815979"[label="1", color="black", style="setlinewidth(1)"];
"51071957" -> "1670717230"[label="1", color="black", style="setlinewidth(1)"];
"1509166723"[label="{{Stmt\ -1:\ ndelay_on((*((struct}|True}", color="black", fontname="Calibri", style="filled", fillcolor="white"];
"1509166723" -> "549815979"[label="1", color="black", style="setlinewidth(1)"];
"1509166723" -> "51071957"[label="1", color="black", style="setlinewidth(1)"];
"131096351"[label="{{Stmt\ -1:\ close_on_exec_on((*(}|True}", color="black", fontname="Calibri", style="filled", fillcolor="white"];
"322450894"[label="{{Decl\ -1:\ close_on_exec_on}|True}", color="blue", fontname="Calibri", style="filled", fillcolor="white"];
"131096351" -> "322450894"[label="1", color="black", style="setlinewidth(1)"];
"131096351" -> "1509166723"[label="1", color="black", style="setlinewidth(1)"];
"1294515632"[label="{{Stmt\ -1:\ close_on_exec_on((*(}|True}", color="black", fontname="Calibri", style="filled", fillcolor="white"];
"1294515632" -> "322450894"[label="1", color="black", style="setlinewidth(1)"];
"1294515632" -> "131096351"[label="1", color="black", style="setlinewidth(1)"];
"149032581"[label="{{Decl\ -1:\ xpipe}|True}", color="blue", fontname="Calibri", style="filled", fillcolor="white"];
"1851503240"[label="{{Stmt\ -1:\ xpipe((&(*((struct\ g}|True}", color="black", fontname="Calibri", style="filled", fillcolor="white"];
"1851503240" -> "149032581"[label="1", color="black", style="setlinewidth(1)"];
"1851503240" -> "1294515632"[label="1", color="black", style="setlinewidth(1)"];
"1933036522"[label="{{Decl\ -1:\ single_argv}|True}", color="blue", fontname="Calibri", style="filled", fillcolor="white"];
"570017697"[label="{{Stmt\ -1:\ ((*((struct\ globals\ }|True}", color="black", fontname="Calibri", style="filled", fillcolor="white"];
"570017697" -> "1933036522"[label="1", color="black", style="setlinewidth(1)"];
"570017697" -> "1851503240"[label="1", color="black", style="setlinewidth(1)"];
"792096620"[label="{{Expr\ 107:\ 0}|True}", color="black", fontname="Calibri", style="filled", fillcolor="white"];
"556452267"[label="{{Stmt\ -1:\ ((*((struct\ globals\ }|True}", color="black", fontname="Calibri", style="filled", fillcolor="white"];
"792096620" -> "556452267"[label="1", color="black", style="setlinewidth(1)"];
"792096620" -> "570017697"[label="1", color="black", style="setlinewidth(1)"];
"556452267" -> "792096620"[label="1", color="black", style="setlinewidth(1)"];
"1145882701"[label="{{Stmt\ -1:\ char\ buf[256];}|True}", color="black", fontname="Calibri", style="filled", fillcolor="white"];
"1145882701" -> "556452267"[label="1", color="black", style="setlinewidth(1)"];
"1609827025"[label="{{Stmt\ -1:\ int\ r;}|True}", color="black", fontname="Calibri", style="filled", fillcolor="white"];
"1609827025" -> "1145882701"[label="1", color="black", style="setlinewidth(1)"];
"1694897032"[label="{{Stmt\ -1:\ int\ fd;}|True}", color="black", fontname="Calibri", style="filled", fillcolor="white"];
"1694897032" -> "1609827025"[label="1", color="black", style="setlinewidth(1)"];
"432175971"[label="{{Stmt\ -1:\ struct\ stat\ \ s;}|True}", color="black", fontname="Calibri", style="filled", fillcolor="white"];
"432175971" -> "1694897032"[label="1", color="black", style="setlinewidth(1)"];
"532276857"[label="{{Function\ -1:\ runsv_main}|True}", color="blue", fontname="Calibri", style="filled", fillcolor="white"];
"532276857" -> "432175971"[label="1", color="black", style="setlinewidth(1)"];
}
