digraph "busybox-1.18.5/networking/brctl.c" {
node [shape=record];
"1418433905"[label="{{Decl\ -1:\ xstrtoull_range_sfx}|True}", color="blue", fontname="Calibri", style="filled", fillcolor="white"];
"343776873"[label="{{Stmt\ -1:\ return\ xstrtoull_ran}|True}", color="black", fontname="Calibri", style="filled", fillcolor="white"];
"343776873" -> "1418433905"[label="1", color="black", style="setlinewidth(1)"];
"928970580"[label="{{Function\ -1:\ xstrtoul_range_sfx}|True}", color="blue", fontname="Calibri", style="filled", fillcolor="white"];
"343776873" -> "928970580"[label="1", color="black", style="setlinewidth(1)"];
"928970580" -> "343776873"[label="1", color="black", style="setlinewidth(1)"];
"1346528950"[label="{{Decl\ -1:\ xstrtoull_range}|True}", color="blue", fontname="Calibri", style="filled", fillcolor="white"];
"240573377"[label="{{Stmt\ -1:\ return\ xstrtoull_ran}|True}", color="black", fontname="Calibri", style="filled", fillcolor="white"];
"240573377" -> "1346528950"[label="1", color="black", style="setlinewidth(1)"];
"1548494820"[label="{{Function\ -1:\ xstrtoul_range}|True}", color="blue", fontname="Calibri", style="filled", fillcolor="white"];
"240573377" -> "1548494820"[label="1", color="black", style="setlinewidth(1)"];
"1548494820" -> "240573377"[label="1", color="black", style="setlinewidth(1)"];
"432744645"[label="{{Decl\ -1:\ xstrtoull_sfx}|True}", color="blue", fontname="Calibri", style="filled", fillcolor="white"];
"664739753"[label="{{Stmt\ -1:\ return\ xstrtoull_sfx}|True}", color="black", fontname="Calibri", style="filled", fillcolor="white"];
"664739753" -> "432744645"[label="1", color="black", style="setlinewidth(1)"];
"1039866551"[label="{{Function\ -1:\ xstrtoul_sfx}|True}", color="blue", fontname="Calibri", style="filled", fillcolor="white"];
"664739753" -> "1039866551"[label="1", color="black", style="setlinewidth(1)"];
"1039866551" -> "664739753"[label="1", color="black", style="setlinewidth(1)"];
"790130154"[label="{{Decl\ -1:\ xstrtoull}|True}", color="blue", fontname="Calibri", style="filled", fillcolor="white"];
"1219890618"[label="{{Stmt\ -1:\ return\ xstrtoull(str}|True}", color="black", fontname="Calibri", style="filled", fillcolor="white"];
"1219890618" -> "790130154"[label="1", color="black", style="setlinewidth(1)"];
"570363148"[label="{{Function\ -1:\ xstrtoul}|True}", color="blue", fontname="Calibri", style="filled", fillcolor="white"];
"1219890618" -> "570363148"[label="1", color="black", style="setlinewidth(1)"];
"570363148" -> "1219890618"[label="1", color="black", style="setlinewidth(1)"];
"1916772819"[label="{{Decl\ -1:\ xatoull_range_sfx}|True}", color="blue", fontname="Calibri", style="filled", fillcolor="white"];
"1901886303"[label="{{Stmt\ -1:\ return\ xatoull_range}|True}", color="black", fontname="Calibri", style="filled", fillcolor="white"];
"1901886303" -> "1916772819"[label="1", color="black", style="setlinewidth(1)"];
"689779550"[label="{{Function\ -1:\ xatoul_range_sfx}|True}", color="blue", fontname="Calibri", style="filled", fillcolor="white"];
"1901886303" -> "689779550"[label="1", color="black", style="setlinewidth(1)"];
"689779550" -> "1901886303"[label="1", color="black", style="setlinewidth(1)"];
"538455663"[label="{{Decl\ -1:\ xatoull_range}|True}", color="blue", fontname="Calibri", style="filled", fillcolor="white"];
"373773594"[label="{{Stmt\ -1:\ return\ xatoull_range}|True}", color="black", fontname="Calibri", style="filled", fillcolor="white"];
"373773594" -> "538455663"[label="1", color="black", style="setlinewidth(1)"];
"83241406"[label="{{Function\ -1:\ xatoul_range}|True}", color="blue", fontname="Calibri", style="filled", fillcolor="white"];
"373773594" -> "83241406"[label="1", color="black", style="setlinewidth(1)"];
"83241406" -> "373773594"[label="1", color="black", style="setlinewidth(1)"];
"479865064"[label="{{Decl\ -1:\ xatoull_sfx}|True}", color="blue", fontname="Calibri", style="filled", fillcolor="white"];
"1460074866"[label="{{Stmt\ -1:\ return\ xatoull_sfx(s}|True}", color="black", fontname="Calibri", style="filled", fillcolor="white"];
"1460074866" -> "479865064"[label="1", color="black", style="setlinewidth(1)"];
"1739142357"[label="{{Function\ -1:\ xatoul_sfx}|True}", color="blue", fontname="Calibri", style="filled", fillcolor="white"];
"1460074866" -> "1739142357"[label="1", color="black", style="setlinewidth(1)"];
"1739142357" -> "1460074866"[label="1", color="black", style="setlinewidth(1)"];
"1950030121"[label="{{Decl\ -1:\ xatoull}|True}", color="blue", fontname="Calibri", style="filled", fillcolor="white"];
"1055406501"[label="{{Stmt\ -1:\ return\ xatoull(str);}|True}", color="black", fontname="Calibri", style="filled", fillcolor="white"];
"1055406501" -> "1950030121"[label="1", color="black", style="setlinewidth(1)"];
"1559444942"[label="{{Function\ -1:\ xatoul}|True}", color="blue", fontname="Calibri", style="filled", fillcolor="white"];
"1055406501" -> "1559444942"[label="1", color="black", style="setlinewidth(1)"];
"1559444942" -> "1055406501"[label="1", color="black", style="setlinewidth(1)"];
"292651271"[label="{{Decl\ -1:\ xstrtoll_range_sfx}|True}", color="blue", fontname="Calibri", style="filled", fillcolor="white"];
"508412303"[label="{{Stmt\ -1:\ return\ xstrtoll_rang}|True}", color="black", fontname="Calibri", style="filled", fillcolor="white"];
"508412303" -> "292651271"[label="1", color="black", style="setlinewidth(1)"];
"1696122673"[label="{{Function\ -1:\ xstrtol_range_sfx}|True}", color="blue", fontname="Calibri", style="filled", fillcolor="white"];
"508412303" -> "1696122673"[label="1", color="black", style="setlinewidth(1)"];
"1696122673" -> "508412303"[label="1", color="black", style="setlinewidth(1)"];
"475420932"[label="{{Decl\ -1:\ xstrtoll_range}|True}", color="blue", fontname="Calibri", style="filled", fillcolor="white"];
"492456547"[label="{{Stmt\ -1:\ return\ xstrtoll_rang}|True}", color="black", fontname="Calibri", style="filled", fillcolor="white"];
"492456547" -> "475420932"[label="1", color="black", style="setlinewidth(1)"];
"2137030917"[label="{{Function\ -1:\ xstrtol_range}|True}", color="blue", fontname="Calibri", style="filled", fillcolor="white"];
"492456547" -> "2137030917"[label="1", color="black", style="setlinewidth(1)"];
"2137030917" -> "492456547"[label="1", color="black", style="setlinewidth(1)"];
"550216269"[label="{{Decl\ -1:\ xstrtoll}|True}", color="blue", fontname="Calibri", style="filled", fillcolor="white"];
"435657897"[label="{{Stmt\ -1:\ return\ xstrtoll(str\ }|True}", color="black", fontname="Calibri", style="filled", fillcolor="white"];
"435657897" -> "550216269"[label="1", color="black", style="setlinewidth(1)"];
"49725849"[label="{{Function\ -1:\ xstrtol}|True}", color="blue", fontname="Calibri", style="filled", fillcolor="white"];
"435657897" -> "49725849"[label="1", color="black", style="setlinewidth(1)"];
"49725849" -> "435657897"[label="1", color="black", style="setlinewidth(1)"];
"153796018"[label="{{Decl\ -1:\ xatoll_range_sfx}|True}", color="blue", fontname="Calibri", style="filled", fillcolor="white"];
"752298821"[label="{{Stmt\ -1:\ return\ xatoll_range_}|True}", color="black", fontname="Calibri", style="filled", fillcolor="white"];
"752298821" -> "153796018"[label="1", color="black", style="setlinewidth(1)"];
"1302313510"[label="{{Function\ -1:\ xatol_range_sfx}|True}", color="blue", fontname="Calibri", style="filled", fillcolor="white"];
"752298821" -> "1302313510"[label="1", color="black", style="setlinewidth(1)"];
"1302313510" -> "752298821"[label="1", color="black", style="setlinewidth(1)"];
"1011702487"[label="{{Decl\ -1:\ xatoll_range}|True}", color="blue", fontname="Calibri", style="filled", fillcolor="white"];
"1626868248"[label="{{Stmt\ -1:\ return\ xatoll_range(}|True}", color="black", fontname="Calibri", style="filled", fillcolor="white"];
"1626868248" -> "1011702487"[label="1", color="black", style="setlinewidth(1)"];
"369774182"[label="{{Function\ -1:\ xatol_range}|True}", color="blue", fontname="Calibri", style="filled", fillcolor="white"];
"1626868248" -> "369774182"[label="1", color="black", style="setlinewidth(1)"];
"369774182" -> "1626868248"[label="1", color="black", style="setlinewidth(1)"];
"1082217009"[label="{{Decl\ -1:\ xatoll_sfx}|True}", color="blue", fontname="Calibri", style="filled", fillcolor="white"];
"534225626"[label="{{Stmt\ -1:\ return\ xatoll_sfx(st}|True}", color="black", fontname="Calibri", style="filled", fillcolor="white"];
"534225626" -> "1082217009"[label="1", color="black", style="setlinewidth(1)"];
"1954828376"[label="{{Function\ -1:\ xatol_sfx}|True}", color="blue", fontname="Calibri", style="filled", fillcolor="white"];
"534225626" -> "1954828376"[label="1", color="black", style="setlinewidth(1)"];
"1954828376" -> "534225626"[label="1", color="black", style="setlinewidth(1)"];
"1662304180"[label="{{Decl\ -1:\ xatoll}|True}", color="blue", fontname="Calibri", style="filled", fillcolor="white"];
"1904693648"[label="{{Stmt\ -1:\ return\ xatoll(str);}|True}", color="black", fontname="Calibri", style="filled", fillcolor="white"];
"1904693648" -> "1662304180"[label="1", color="black", style="setlinewidth(1)"];
"1390740889"[label="{{Function\ -1:\ xatol}|True}", color="blue", fontname="Calibri", style="filled", fillcolor="white"];
"1904693648" -> "1390740889"[label="1", color="black", style="setlinewidth(1)"];
"1390740889" -> "1904693648"[label="1", color="black", style="setlinewidth(1)"];
"1055406501" -> "1950030121"[label="1", color="black", style="setlinewidth(1)"];
"1055406501" -> "1559444942"[label="1", color="black", style="setlinewidth(1)"];
"1559444942" -> "1055406501"[label="1", color="black", style="setlinewidth(1)"];
"562611813"[label="{{Decl\ -1:\ BUG_xatou32_unimplemented}|True}", color="blue", fontname="Calibri", style="filled", fillcolor="white"];
"1197072187"[label="{{Decl\ -1:\ xatou}|True}", color="blue", fontname="Calibri", style="filled", fillcolor="white"];
"1446063932"[label="{{Stmt\ -1:\ return\ xatoul(numstr}|True}", color="black", fontname="Calibri", style="filled", fillcolor="white"];
"1446063932" -> "1559444942"[label="1", color="black", style="setlinewidth(1)"];
"1681676127"[label="{{Function\ -1:\ xatou32}|True}", color="blue", fontname="Calibri", style="filled", fillcolor="white"];
"1446063932" -> "1681676127"[label="1", color="black", style="setlinewidth(1)"];
"1508716274"[label="{{Stmt\ -1:\ return\ BUG_xatou32_u}|True}", color="black", fontname="Calibri", style="filled", fillcolor="white"];
"1508716274" -> "562611813"[label="1", color="black", style="setlinewidth(1)"];
"1508716274" -> "1681676127"[label="1", color="black", style="setlinewidth(1)"];
"1939841071"[label="{{Stmt\ -1:\ return\ xatou(numstr)}|True}", color="black", fontname="Calibri", style="filled", fillcolor="white"];
"1939841071" -> "1197072187"[label="1", color="black", style="setlinewidth(1)"];
"1939841071" -> "1681676127"[label="1", color="black", style="setlinewidth(1)"];
"911702184"[label="{{Expr\ -1:\ (((92233720368547758}|True}", color="black", fontname="Calibri", style="filled", fillcolor="white"];
"911702184" -> "1508716274"[label="1", color="black", style="setlinewidth(1)"];
"911702184" -> "1446063932"[label="1", color="black", style="setlinewidth(1)"];
"1912542477"[label="{{Expr\ -1:\ (((2147483647\ *\ 2U)\ }|True}", color="black", fontname="Calibri", style="filled", fillcolor="white"];
"1912542477" -> "911702184"[label="1", color="black", style="setlinewidth(1)"];
"1912542477" -> "1939841071"[label="1", color="black", style="setlinewidth(1)"];
"1681676127" -> "1912542477"[label="1", color="black", style="setlinewidth(1)"];
"725336973"[label="{{Decl\ -1:\ bb_strtoull}|True}", color="blue", fontname="Calibri", style="filled", fillcolor="white"];
"409867889"[label="{{Stmt\ -1:\ return\ bb_strtoull(a}|True}", color="black", fontname="Calibri", style="filled", fillcolor="white"];
"409867889" -> "725336973"[label="1", color="black", style="setlinewidth(1)"];
"1701985006"[label="{{Function\ -1:\ bb_strtoul}|True}", color="blue", fontname="Calibri", style="filled", fillcolor="white"];
"409867889" -> "1701985006"[label="1", color="black", style="setlinewidth(1)"];
"1701985006" -> "409867889"[label="1", color="black", style="setlinewidth(1)"];
"758275488"[label="{{Decl\ -1:\ bb_strtoll}|True}", color="blue", fontname="Calibri", style="filled", fillcolor="white"];
"1223496786"[label="{{Stmt\ -1:\ return\ bb_strtoll(ar}|True}", color="black", fontname="Calibri", style="filled", fillcolor="white"];
"1223496786" -> "758275488"[label="1", color="black", style="setlinewidth(1)"];
"1992613818"[label="{{Function\ -1:\ bb_strtol}|True}", color="blue", fontname="Calibri", style="filled", fillcolor="white"];
"1223496786" -> "1992613818"[label="1", color="black", style="setlinewidth(1)"];
"1992613818" -> "1223496786"[label="1", color="black", style="setlinewidth(1)"];
"409867889" -> "725336973"[label="1", color="black", style="setlinewidth(1)"];
"409867889" -> "1701985006"[label="1", color="black", style="setlinewidth(1)"];
"1701985006" -> "409867889"[label="1", color="black", style="setlinewidth(1)"];
"550717908"[label="{{Decl\ -1:\ BUG_bb_strtou32_unimplemented}|True}", color="blue", fontname="Calibri", style="filled", fillcolor="white"];
"500720167"[label="{{Decl\ -1:\ bb_strtou}|True}", color="blue", fontname="Calibri", style="filled", fillcolor="white"];
"1629578636"[label="{{Stmt\ -1:\ return\ bb_strtoul(ar}|True}", color="black", fontname="Calibri", style="filled", fillcolor="white"];
"1629578636" -> "1701985006"[label="1", color="black", style="setlinewidth(1)"];
"826412576"[label="{{Function\ -1:\ bb_strtou32}|True}", color="blue", fontname="Calibri", style="filled", fillcolor="white"];
"1629578636" -> "826412576"[label="1", color="black", style="setlinewidth(1)"];
"728193416"[label="{{Stmt\ -1:\ return\ BUG_bb_strtou}|True}", color="black", fontname="Calibri", style="filled", fillcolor="white"];
"728193416" -> "550717908"[label="1", color="black", style="setlinewidth(1)"];
"728193416" -> "826412576"[label="1", color="black", style="setlinewidth(1)"];
"1640496723"[label="{{Stmt\ -1:\ return\ bb_strtou(arg}|True}", color="black", fontname="Calibri", style="filled", fillcolor="white"];
"1640496723" -> "500720167"[label="1", color="black", style="setlinewidth(1)"];
"1640496723" -> "826412576"[label="1", color="black", style="setlinewidth(1)"];
"480813947"[label="{{Expr\ -1:\ (sizeof(uint32_t\ )\ =}|True}", color="black", fontname="Calibri", style="filled", fillcolor="white"];
"480813947" -> "728193416"[label="1", color="black", style="setlinewidth(1)"];
"480813947" -> "1629578636"[label="1", color="black", style="setlinewidth(1)"];
"501851344"[label="{{Expr\ -1:\ (sizeof(uint32_t\ )\ =}|True}", color="black", fontname="Calibri", style="filled", fillcolor="white"];
"501851344" -> "480813947"[label="1", color="black", style="setlinewidth(1)"];
"501851344" -> "1640496723"[label="1", color="black", style="setlinewidth(1)"];
"826412576" -> "501851344"[label="1", color="black", style="setlinewidth(1)"];
"1109353689"[label="{{Stmt\ -1:\ return\ (b\ \<=\ ('z'\ -\ }|True}", color="black", fontname="Calibri", style="filled", fillcolor="white"];
"1381417618"[label="{{Function\ -1:\ bb_ascii_isalnum}|True}", color="blue", fontname="Calibri", style="filled", fillcolor="white"];
"1109353689" -> "1381417618"[label="1", color="black", style="setlinewidth(1)"];
"395674180"[label="{{Stmt\ -1:\ return\ (b\ \<=\ 9);}|True}", color="black", fontname="Calibri", style="filled", fillcolor="white"];
"395674180" -> "1381417618"[label="1", color="black", style="setlinewidth(1)"];
"1081976048"[label="{{Stmt\ -1:\ (b\ =\ ((a\ \|\ 0x20)\ -\ '}|True}", color="black", fontname="Calibri", style="filled", fillcolor="white"];
"1081976048" -> "1109353689"[label="1", color="black", style="setlinewidth(1)"];
"2033952371"[label="{{Expr\ -1:\ (b\ \<=\ 9)}|True}", color="black", fontname="Calibri", style="filled", fillcolor="white"];
"2033952371" -> "1081976048"[label="1", color="black", style="setlinewidth(1)"];
"2033952371" -> "395674180"[label="1", color="black", style="setlinewidth(1)"];
"530810224"[label="{{Stmt\ -1:\ unsigned\ char\ b\ =\ \ (}|True}", color="black", fontname="Calibri", style="filled", fillcolor="white"];
"530810224" -> "2033952371"[label="1", color="black", style="setlinewidth(1)"];
"1381417618" -> "530810224"[label="1", color="black", style="setlinewidth(1)"];
"537293063"[label="{{Stmt\ -1:\ return\ (b\ \<=\ ('f'\ -\ }|True}", color="black", fontname="Calibri", style="filled", fillcolor="white"];
"416719737"[label="{{Function\ -1:\ bb_ascii_isxdigit}|True}", color="blue", fontname="Calibri", style="filled", fillcolor="white"];
"537293063" -> "416719737"[label="1", color="black", style="setlinewidth(1)"];
"2022857180"[label="{{Stmt\ -1:\ return\ (b\ \<=\ 9);}|True}", color="black", fontname="Calibri", style="filled", fillcolor="white"];
"2022857180" -> "416719737"[label="1", color="black", style="setlinewidth(1)"];
"409601146"[label="{{Stmt\ -1:\ (b\ =\ ((a\ \|\ 0x20)\ -\ '}|True}", color="black", fontname="Calibri", style="filled", fillcolor="white"];
"409601146" -> "537293063"[label="1", color="black", style="setlinewidth(1)"];
"1847747152"[label="{{Expr\ -1:\ (b\ \<=\ 9)}|True}", color="black", fontname="Calibri", style="filled", fillcolor="white"];
"1847747152" -> "409601146"[label="1", color="black", style="setlinewidth(1)"];
"1847747152" -> "2022857180"[label="1", color="black", style="setlinewidth(1)"];
"812135312"[label="{{Stmt\ -1:\ unsigned\ char\ b\ =\ \ (}|True}", color="black", fontname="Calibri", style="filled", fillcolor="white"];
"812135312" -> "1847747152"[label="1", color="black", style="setlinewidth(1)"];
"416719737" -> "812135312"[label="1", color="black", style="setlinewidth(1)"];
"1176427357"[label="{{Stmt\ -1:\ (a\ -=\ ('a'\ -\ 'A'));}|True}", color="black", fontname="Calibri", style="filled", fillcolor="white"];
"1344216918"[label="{{Stmt\ -1:\ return\ a;}|True}", color="black", fontname="Calibri", style="filled", fillcolor="white"];
"1176427357" -> "1344216918"[label="1", color="black", style="setlinewidth(1)"];
"52371844"[label="{{Function\ -1:\ bb_ascii_toupper}|True}", color="blue", fontname="Calibri", style="filled", fillcolor="white"];
"1344216918" -> "52371844"[label="1", color="black", style="setlinewidth(1)"];
"1663001813"[label="{{Expr\ -1:\ (b\ \<=\ ('z'\ -\ 'a'))}|True}", color="black", fontname="Calibri", style="filled", fillcolor="white"];
"1663001813" -> "1344216918"[label="1", color="black", style="setlinewidth(1)"];
"1663001813" -> "1176427357"[label="1", color="black", style="setlinewidth(1)"];
"832536600"[label="{{Stmt\ -1:\ unsigned\ char\ b\ =\ \ (}|True}", color="black", fontname="Calibri", style="filled", fillcolor="white"];
"832536600" -> "1663001813"[label="1", color="black", style="setlinewidth(1)"];
"52371844" -> "832536600"[label="1", color="black", style="setlinewidth(1)"];
"490491463"[label="{{Stmt\ -1:\ (a\ +=\ ('a'\ -\ 'A'));}|True}", color="black", fontname="Calibri", style="filled", fillcolor="white"];
"334626358"[label="{{Stmt\ -1:\ return\ a;}|True}", color="black", fontname="Calibri", style="filled", fillcolor="white"];
"490491463" -> "334626358"[label="1", color="black", style="setlinewidth(1)"];
"382990542"[label="{{Function\ -1:\ bb_ascii_tolower}|True}", color="blue", fontname="Calibri", style="filled", fillcolor="white"];
"334626358" -> "382990542"[label="1", color="black", style="setlinewidth(1)"];
"1234743600"[label="{{Expr\ -1:\ (b\ \<=\ ('Z'\ -\ 'A'))}|True}", color="black", fontname="Calibri", style="filled", fillcolor="white"];
"1234743600" -> "334626358"[label="1", color="black", style="setlinewidth(1)"];
"1234743600" -> "490491463"[label="1", color="black", style="setlinewidth(1)"];
"39369868"[label="{{Stmt\ -1:\ unsigned\ char\ b\ =\ \ (}|True}", color="black", fontname="Calibri", style="filled", fillcolor="white"];
"39369868" -> "1234743600"[label="1", color="black", style="setlinewidth(1)"];
"382990542" -> "39369868"[label="1", color="black", style="setlinewidth(1)"];
"1647988829"[label="{{Decl\ -1:\ bb_error_msg_and_die}|True}", color="blue", fontname="Calibri", style="filled", fillcolor="white"];
"1399076855"[label="{{Stmt\ -1:\ (tv-\>tv_usec\ =\ (1000}|def(CONFIG_FEATURE_BRCTL_FANCY)}", color="black", fontname="Calibri", style="filled", fillcolor="#CD5200"];
"1399076855" -> "1647988829"[label="definedEx(CONFIG_FEATURE_BRCTL_FANCY)", color="red", style="setlinewidth(1)"];
"1066845336"[label="{{Decl\ -1:\ strtod}|def(CONFIG_FEATURE_BRCTL_FANCY)}", color="blue", fontname="Calibri", style="filled", fillcolor="#CD5200"];
"1399076855" -> "1066845336"[label="definedEx(CONFIG_FEATURE_BRCTL_FANCY)", color="red", style="setlinewidth(1)"];
"1127636614"[label="{{Function\ -1:\ strtotimeval}|def(CONFIG_FEATURE_BRCTL_FANCY)}", color="blue", fontname="Calibri", style="filled", fillcolor="#CD5200"];
"1399076855" -> "1127636614"[label="definedEx(CONFIG_FEATURE_BRCTL_FANCY)", color="red", style="setlinewidth(1)"];
"646587731"[label="{{Stmt\ -1:\ bb_error_msg_and_die}|def(CONFIG_FEATURE_BRCTL_FANCY)}", color="black", fontname="Calibri", style="filled", fillcolor="#CD5200"];
"646587731" -> "1647988829"[label="definedEx(CONFIG_FEATURE_BRCTL_FANCY)", color="red", style="setlinewidth(1)"];
"987134924"[label="{{Stmt\ -1:\ (tv-\>tv_sec\ =\ secs);}|def(CONFIG_FEATURE_BRCTL_FANCY)}", color="black", fontname="Calibri", style="filled", fillcolor="#CD5200"];
"646587731" -> "987134924"[label="definedEx(CONFIG_FEATURE_BRCTL_FANCY)", color="red", style="setlinewidth(1)"];
"987134924" -> "1399076855"[label="definedEx(CONFIG_FEATURE_BRCTL_FANCY)", color="red", style="setlinewidth(1)"];
"1492449149"[label="{{Expr\ -1:\ (endptr\ ==\ time_str)}|def(CONFIG_FEATURE_BRCTL_FANCY)}", color="black", fontname="Calibri", style="filled", fillcolor="#CD5200"];
"1492449149" -> "987134924"[label="definedEx(CONFIG_FEATURE_BRCTL_FANCY)", color="red", style="setlinewidth(1)"];
"1492449149" -> "646587731"[label="definedEx(CONFIG_FEATURE_BRCTL_FANCY)", color="red", style="setlinewidth(1)"];
"1704453584"[label="{{Stmt\ -1:\ (secs\ =\ strtod(\l#if\ }|def(CONFIG_FEATURE_BRCTL_FANCY)}", color="black", fontname="Calibri", style="filled", fillcolor="#CD5200"];
"1704453584" -> "1066845336"[label="definedEx(CONFIG_FEATURE_BRCTL_FANCY)", color="red", style="setlinewidth(1)"];
"1704453584" -> "1492449149"[label="definedEx(CONFIG_FEATURE_BRCTL_FANCY)", color="red", style="setlinewidth(1)"];
"1273890037"[label="{{Stmt\ -1:\ char\ \l#if\ definedEx(}|def(CONFIG_FEATURE_BRCTL_FANCY)}", color="black", fontname="Calibri", style="filled", fillcolor="#CD5200"];
"1273890037" -> "1704453584"[label="definedEx(CONFIG_FEATURE_BRCTL_FANCY)", color="red", style="setlinewidth(1)"];
"1242360542"[label="{{Stmt\ -1:\ double\ \l#if\ definedE}|def(CONFIG_FEATURE_BRCTL_FANCY)}", color="black", fontname="Calibri", style="filled", fillcolor="#CD5200"];
"1242360542" -> "1273890037"[label="definedEx(CONFIG_FEATURE_BRCTL_FANCY)", color="red", style="setlinewidth(1)"];
"1127636614" -> "1242360542"[label="definedEx(CONFIG_FEATURE_BRCTL_FANCY)", color="red", style="setlinewidth(1)"];
"194396582"[label="{{Stmt\ -1:\ return\ (jif\ /\ 10000)}|def(CONFIG_FEATURE_BRCTL_FANCY)}", color="black", fontname="Calibri", style="filled", fillcolor="#CD5200"];
"329631257"[label="{{Function\ -1:\ tv_to_jiffies}|def(CONFIG_FEATURE_BRCTL_FANCY)}", color="blue", fontname="Calibri", style="filled", fillcolor="#CD5200"];
"194396582" -> "329631257"[label="definedEx(CONFIG_FEATURE_BRCTL_FANCY)", color="red", style="setlinewidth(1)"];
"562634882"[label="{{Stmt\ -1:\ (jif\ =\ ((1000000ULL\ }|def(CONFIG_FEATURE_BRCTL_FANCY)}", color="black", fontname="Calibri", style="filled", fillcolor="#CD5200"];
"562634882" -> "194396582"[label="definedEx(CONFIG_FEATURE_BRCTL_FANCY)", color="red", style="setlinewidth(1)"];
"1113914983"[label="{{Stmt\ -1:\ unsigned\ long\ long\ \l}|def(CONFIG_FEATURE_BRCTL_FANCY)}", color="black", fontname="Calibri", style="filled", fillcolor="#CD5200"];
"1113914983" -> "562634882"[label="definedEx(CONFIG_FEATURE_BRCTL_FANCY)", color="red", style="setlinewidth(1)"];
"329631257" -> "1113914983"[label="definedEx(CONFIG_FEATURE_BRCTL_FANCY)", color="red", style="setlinewidth(1)"];
"1399076855" -> "1647988829"[label="definedEx(CONFIG_FEATURE_BRCTL_FANCY)", color="red", style="setlinewidth(1)"];
"1399076855" -> "1066845336"[label="definedEx(CONFIG_FEATURE_BRCTL_FANCY)", color="red", style="setlinewidth(1)"];
"1399076855" -> "1127636614"[label="definedEx(CONFIG_FEATURE_BRCTL_FANCY)", color="red", style="setlinewidth(1)"];
"646587731" -> "1647988829"[label="definedEx(CONFIG_FEATURE_BRCTL_FANCY)", color="red", style="setlinewidth(1)"];
"646587731" -> "987134924"[label="definedEx(CONFIG_FEATURE_BRCTL_FANCY)", color="red", style="setlinewidth(1)"];
"987134924" -> "1399076855"[label="definedEx(CONFIG_FEATURE_BRCTL_FANCY)", color="red", style="setlinewidth(1)"];
"194396582" -> "329631257"[label="definedEx(CONFIG_FEATURE_BRCTL_FANCY)", color="red", style="setlinewidth(1)"];
"1492449149" -> "987134924"[label="definedEx(CONFIG_FEATURE_BRCTL_FANCY)", color="red", style="setlinewidth(1)"];
"1492449149" -> "646587731"[label="definedEx(CONFIG_FEATURE_BRCTL_FANCY)", color="red", style="setlinewidth(1)"];
"562634882" -> "194396582"[label="definedEx(CONFIG_FEATURE_BRCTL_FANCY)", color="red", style="setlinewidth(1)"];
"1704453584" -> "1066845336"[label="definedEx(CONFIG_FEATURE_BRCTL_FANCY)", color="red", style="setlinewidth(1)"];
"1704453584" -> "1492449149"[label="definedEx(CONFIG_FEATURE_BRCTL_FANCY)", color="red", style="setlinewidth(1)"];
"1113914983" -> "562634882"[label="definedEx(CONFIG_FEATURE_BRCTL_FANCY)", color="red", style="setlinewidth(1)"];
"1273890037" -> "1704453584"[label="definedEx(CONFIG_FEATURE_BRCTL_FANCY)", color="red", style="setlinewidth(1)"];
"329631257" -> "1113914983"[label="definedEx(CONFIG_FEATURE_BRCTL_FANCY)", color="red", style="setlinewidth(1)"];
"1242360542" -> "1273890037"[label="definedEx(CONFIG_FEATURE_BRCTL_FANCY)", color="red", style="setlinewidth(1)"];
"1297912179"[label="{{Stmt\ -1:\ return\ tv_to_jiffies}|def(CONFIG_FEATURE_BRCTL_FANCY)}", color="black", fontname="Calibri", style="filled", fillcolor="#CD5200"];
"1297912179" -> "329631257"[label="definedEx(CONFIG_FEATURE_BRCTL_FANCY)", color="red", style="setlinewidth(1)"];
"901260005"[label="{{Function\ -1:\ str_to_jiffies}|def(CONFIG_FEATURE_BRCTL_FANCY)}", color="blue", fontname="Calibri", style="filled", fillcolor="#CD5200"];
"1297912179" -> "901260005"[label="definedEx(CONFIG_FEATURE_BRCTL_FANCY)", color="red", style="setlinewidth(1)"];
"1127636614" -> "1242360542"[label="definedEx(CONFIG_FEATURE_BRCTL_FANCY)", color="red", style="setlinewidth(1)"];
"1850025386"[label="{{Stmt\ -1:\ strtotimeval(\l#if\ de}|def(CONFIG_FEATURE_BRCTL_FANCY)}", color="black", fontname="Calibri", style="filled", fillcolor="#CD5200"];
"1850025386" -> "1127636614"[label="definedEx(CONFIG_FEATURE_BRCTL_FANCY)", color="red", style="setlinewidth(1)"];
"1850025386" -> "1297912179"[label="definedEx(CONFIG_FEATURE_BRCTL_FANCY)", color="red", style="setlinewidth(1)"];
"2084328175"[label="{{Stmt\ -1:\ struct\ timeval\ \ \l#if}|def(CONFIG_FEATURE_BRCTL_FANCY)}", color="black", fontname="Calibri", style="filled", fillcolor="#CD5200"];
"2084328175" -> "1850025386"[label="definedEx(CONFIG_FEATURE_BRCTL_FANCY)", color="red", style="setlinewidth(1)"];
"901260005" -> "2084328175"[label="definedEx(CONFIG_FEATURE_BRCTL_FANCY)", color="red", style="setlinewidth(1)"];
"575418003"[label="{{Stmt\ -1:\ (args[3]\ =\ 0);}|def(CONFIG_FEATURE_BRCTL_FANCY)}", color="black", fontname="Calibri", style="filled", fillcolor="#CD5200"];
"1968765561"[label="{{Function\ -1:\ arm_ioctl}|def(CONFIG_FEATURE_BRCTL_FANCY)}", color="blue", fontname="Calibri", style="filled", fillcolor="#CD5200"];
"575418003" -> "1968765561"[label="definedEx(CONFIG_FEATURE_BRCTL_FANCY)", color="red", style="setlinewidth(1)"];
"1950258173"[label="{{Stmt\ -1:\ (args[2]\ =\ arg2);}|def(CONFIG_FEATURE_BRCTL_FANCY)}", color="black", fontname="Calibri", style="filled", fillcolor="#CD5200"];
"1950258173" -> "575418003"[label="definedEx(CONFIG_FEATURE_BRCTL_FANCY)", color="red", style="setlinewidth(1)"];
"1141504602"[label="{{Stmt\ -1:\ (args[1]\ =\ arg1);}|def(CONFIG_FEATURE_BRCTL_FANCY)}", color="black", fontname="Calibri", style="filled", fillcolor="#CD5200"];
"1141504602" -> "1950258173"[label="definedEx(CONFIG_FEATURE_BRCTL_FANCY)", color="red", style="setlinewidth(1)"];
"666682929"[label="{{Stmt\ -1:\ (args[0]\ =\ arg0);}|def(CONFIG_FEATURE_BRCTL_FANCY)}", color="black", fontname="Calibri", style="filled", fillcolor="#CD5200"];
"666682929" -> "1141504602"[label="definedEx(CONFIG_FEATURE_BRCTL_FANCY)", color="red", style="setlinewidth(1)"];
"1968765561" -> "666682929"[label="definedEx(CONFIG_FEATURE_BRCTL_FANCY)", color="red", style="setlinewidth(1)"];
"982213969"[label="{{Stmt\ 269:\ break;}|def(CONFIG_FEATURE_BRCTL_FANCY)}", color="black", fontname="Calibri", style="filled", fillcolor="#CD5200"];
"966958056"[label="{{Decl\ -1:\ bb_xioctl}|def(CONFIG_FEATURE_BRCTL_FANCY)}", color="blue", fontname="Calibri", style="filled", fillcolor="#CD5200"];
"982213969" -> "966958056"[label="(definedEx(CONFIG_FEATURE_BRCTL_FANCY) && !definedEx(CONFIG_IOCTL_HEX2STR_ERROR))", color="red", style="setlinewidth(1)"];
"1586346393"[label="{{Decl\ -1:\ bb_xioctl}|def(CONFIG_FEATURE_BRCTL_FANCY)}", color="blue", fontname="Calibri", style="filled", fillcolor="#CD5200"];
"982213969" -> "1586346393"[label="(definedEx(CONFIG_FEATURE_BRCTL_FANCY) && definedEx(CONFIG_IOCTL_HEX2STR_ERROR))", color="red", style="setlinewidth(1)"];
"982213969" -> "1968765561"[label="definedEx(CONFIG_FEATURE_BRCTL_FANCY)", color="red", style="setlinewidth(1)"];
"344644089"[label="{{Decl\ -1:\ memset}|def(CONFIG_FEATURE_BRCTL_FANCY)}", color="blue", fontname="Calibri", style="filled", fillcolor="#CD5200"];
"982213969" -> "344644089"[label="definedEx(CONFIG_FEATURE_BRCTL_FANCY)", color="red", style="setlinewidth(1)"];
"982213969" -> "1647988829"[label="definedEx(CONFIG_FEATURE_BRCTL_FANCY)", color="red", style="setlinewidth(1)"];
"276401243"[label="{{Decl\ -1:\ if_nametoindex}|def(CONFIG_FEATURE_BRCTL_FANCY)}", color="blue", fontname="Calibri", style="filled", fillcolor="#CD5200"];
"982213969" -> "276401243"[label="definedEx(CONFIG_FEATURE_BRCTL_FANCY)", color="red", style="setlinewidth(1)"];
"363382494"[label="{{Stmt\ -1:\ (arg1\ =\ port);}|def(CONFIG_FEATURE_BRCTL_FANCY)}", color="black", fontname="Calibri", style="filled", fillcolor="#CD5200"];
"982213969" -> "363382494"[label="definedEx(CONFIG_FEATURE_BRCTL_FANCY)", color="red", style="setlinewidth(1)"];
"326004052"[label="{{Stmt\ -1:\ (port\ =\ i);}|def(CONFIG_FEATURE_BRCTL_FANCY)}", color="black", fontname="Calibri", style="filled", fillcolor="#CD5200"];
"326004052" -> "982213969"[label="definedEx(CONFIG_FEATURE_BRCTL_FANCY)", color="red", style="setlinewidth(1)"];
"2048402765"[label="{{Expr\ -1:\ i++}|def(CONFIG_FEATURE_BRCTL_FANCY)}", color="black", fontname="Calibri", style="filled", fillcolor="#CD5200"];
"1320724430"[label="{{Expr\ -1:\ (i\ \<\ 32)}|def(CONFIG_FEATURE_BRCTL_FANCY)}", color="black", fontname="Calibri", style="filled", fillcolor="#CD5200"];
"2048402765" -> "1320724430"[label="definedEx(CONFIG_FEATURE_BRCTL_FANCY)", color="red", style="setlinewidth(1)"];
"201877809"[label="{{Expr\ -1:\ (ifidx[i]\ ==\ port)}|def(CONFIG_FEATURE_BRCTL_FANCY)}", color="black", fontname="Calibri", style="filled", fillcolor="#CD5200"];
"201877809" -> "2048402765"[label="definedEx(CONFIG_FEATURE_BRCTL_FANCY)", color="red", style="setlinewidth(1)"];
"201877809" -> "326004052"[label="definedEx(CONFIG_FEATURE_BRCTL_FANCY)", color="red", style="setlinewidth(1)"];
"1320724430" -> "966958056"[label="(definedEx(CONFIG_FEATURE_BRCTL_FANCY) && !definedEx(CONFIG_IOCTL_HEX2STR_ERROR))", color="red", style="setlinewidth(1)"];
"1320724430" -> "1586346393"[label="(definedEx(CONFIG_FEATURE_BRCTL_FANCY) && definedEx(CONFIG_IOCTL_HEX2STR_ERROR))", color="red", style="setlinewidth(1)"];
"1320724430" -> "1968765561"[label="definedEx(CONFIG_FEATURE_BRCTL_FANCY)", color="red", style="setlinewidth(1)"];
"1320724430" -> "344644089"[label="definedEx(CONFIG_FEATURE_BRCTL_FANCY)", color="red", style="setlinewidth(1)"];
"1320724430" -> "1647988829"[label="definedEx(CONFIG_FEATURE_BRCTL_FANCY)", color="red", style="setlinewidth(1)"];
"1320724430" -> "276401243"[label="definedEx(CONFIG_FEATURE_BRCTL_FANCY)", color="red", style="setlinewidth(1)"];
"1320724430" -> "363382494"[label="definedEx(CONFIG_FEATURE_BRCTL_FANCY)", color="red", style="setlinewidth(1)"];
"1320724430" -> "201877809"[label="definedEx(CONFIG_FEATURE_BRCTL_FANCY)", color="red", style="setlinewidth(1)"];
"47211312"[label="{{Expr\ -1:\ (i\ =\ 0)}|def(CONFIG_FEATURE_BRCTL_FANCY)}", color="black", fontname="Calibri", style="filled", fillcolor="#CD5200"];
"47211312" -> "1320724430"[label="definedEx(CONFIG_FEATURE_BRCTL_FANCY)", color="red", style="setlinewidth(1)"];
"1023703643"[label="{{Stmt\ -1:\ bb_xioctl(\l#if\ (defi}|(def(CONFIG_FEATURE_BRCTL_FANCY)&!def(CONFIG_IOCTL_HEX2STR_ERROR))}", color="black", fontname="Calibri", style="filled", fillcolor="#CD5200"];
"1023703643" -> "966958056"[label="(definedEx(CONFIG_FEATURE_BRCTL_FANCY) && !definedEx(CONFIG_IOCTL_HEX2STR_ERROR))", color="red", style="setlinewidth(1)"];
"1023703643" -> "47211312"[label="(definedEx(CONFIG_FEATURE_BRCTL_FANCY) && !definedEx(CONFIG_IOCTL_HEX2STR_ERROR))", color="red", style="setlinewidth(1)"];
"562598758"[label="{{Stmt\ -1:\ bb_xioctl(\l#if\ (defi}|(def(CONFIG_FEATURE_BRCTL_FANCY)&def(CONFIG_IOCTL_HEX2STR_ERROR))}", color="black", fontname="Calibri", style="filled", fillcolor="#CD5200"];
"562598758" -> "1586346393"[label="(definedEx(CONFIG_FEATURE_BRCTL_FANCY) && definedEx(CONFIG_IOCTL_HEX2STR_ERROR))", color="red", style="setlinewidth(1)"];
"562598758" -> "47211312"[label="(definedEx(CONFIG_FEATURE_BRCTL_FANCY) && definedEx(CONFIG_IOCTL_HEX2STR_ERROR))", color="red", style="setlinewidth(1)"];
"1609854384"[label="{{Stmt\ -1:\ arm_ioctl(\l#if\ defin}|def(CONFIG_FEATURE_BRCTL_FANCY)}", color="black", fontname="Calibri", style="filled", fillcolor="#CD5200"];
"1609854384" -> "1968765561"[label="definedEx(CONFIG_FEATURE_BRCTL_FANCY)", color="red", style="setlinewidth(1)"];
"1609854384" -> "562598758"[label="(definedEx(CONFIG_FEATURE_BRCTL_FANCY) && definedEx(CONFIG_IOCTL_HEX2STR_ERROR))", color="red", style="setlinewidth(1)"];
"1609854384" -> "1023703643"[label="(definedEx(CONFIG_FEATURE_BRCTL_FANCY) && !definedEx(CONFIG_IOCTL_HEX2STR_ERROR))", color="red", style="setlinewidth(1)"];
"1707046803"[label="{{Stmt\ -1:\ (arg2\ =\ 0);}|def(CONFIG_FEATURE_BRCTL_FANCY)}", color="black", fontname="Calibri", style="filled", fillcolor="#CD5200"];
"849227447"[label="{{Stmt\ -1:\ arm_ioctl(\l#if\ defin}|def(CONFIG_FEATURE_BRCTL_FANCY)}", color="black", fontname="Calibri", style="filled", fillcolor="#CD5200"];
"1707046803" -> "849227447"[label="definedEx(CONFIG_FEATURE_BRCTL_FANCY)", color="red", style="setlinewidth(1)"];
"671099301"[label="{{Stmt\ -1:\ bb_error_msg_and_die}|def(CONFIG_FEATURE_BRCTL_FANCY)}", color="black", fontname="Calibri", style="filled", fillcolor="#CD5200"];
"671099301" -> "1647988829"[label="definedEx(CONFIG_FEATURE_BRCTL_FANCY)", color="red", style="setlinewidth(1)"];
"1999804578"[label="{{Stmt\ -1:\ memset(\l#if\ definedE}|def(CONFIG_FEATURE_BRCTL_FANCY)}", color="black", fontname="Calibri", style="filled", fillcolor="#CD5200"];
"671099301" -> "1999804578"[label="definedEx(CONFIG_FEATURE_BRCTL_FANCY)", color="red", style="setlinewidth(1)"];
"1999804578" -> "344644089"[label="definedEx(CONFIG_FEATURE_BRCTL_FANCY)", color="red", style="setlinewidth(1)"];
"1999804578" -> "1609854384"[label="definedEx(CONFIG_FEATURE_BRCTL_FANCY)", color="red", style="setlinewidth(1)"];
"28411595"[label="{{Stmt\ -1:\ (arg1\ =\ arg2);}|def(CONFIG_FEATURE_BRCTL_FANCY)}", color="black", fontname="Calibri", style="filled", fillcolor="#CD5200"];
"28411595" -> "1707046803"[label="definedEx(CONFIG_FEATURE_BRCTL_FANCY)", color="red", style="setlinewidth(1)"];
"849227447" -> "1968765561"[label="definedEx(CONFIG_FEATURE_BRCTL_FANCY)", color="red", style="setlinewidth(1)"];
"1811141631"[label="{{Decl\ -1:\ xatoi_positive}|def(CONFIG_FEATURE_BRCTL_FANCY)}", color="blue", fontname="Calibri", style="filled", fillcolor="#CD5200"];
"849227447" -> "1811141631"[label="definedEx(CONFIG_FEATURE_BRCTL_FANCY)", color="red", style="setlinewidth(1)"];
"849227447" -> "966958056"[label="(definedEx(CONFIG_FEATURE_BRCTL_FANCY) && !definedEx(CONFIG_IOCTL_HEX2STR_ERROR))", color="red", style="setlinewidth(1)"];
"849227447" -> "1586346393"[label="(definedEx(CONFIG_FEATURE_BRCTL_FANCY) && definedEx(CONFIG_IOCTL_HEX2STR_ERROR))", color="red", style="setlinewidth(1)"];
"849227447" -> "344644089"[label="definedEx(CONFIG_FEATURE_BRCTL_FANCY)", color="red", style="setlinewidth(1)"];
"849227447" -> "1647988829"[label="definedEx(CONFIG_FEATURE_BRCTL_FANCY)", color="red", style="setlinewidth(1)"];
"849227447" -> "276401243"[label="definedEx(CONFIG_FEATURE_BRCTL_FANCY)", color="red", style="setlinewidth(1)"];
"1545448050"[label="{{Stmt\ -1:\ fire:}|def(CONFIG_FEATURE_BRCTL_FANCY)}", color="black", fontname="Calibri", style="filled", fillcolor="#CD5200"];
"849227447" -> "1545448050"[label="definedEx(CONFIG_FEATURE_BRCTL_FANCY)", color="red", style="setlinewidth(1)"];
"533197015"[label="{{Expr\ -1:\ (!\ port)}|def(CONFIG_FEATURE_BRCTL_FANCY)}", color="black", fontname="Calibri", style="filled", fillcolor="#CD5200"];
"533197015" -> "1999804578"[label="definedEx(CONFIG_FEATURE_BRCTL_FANCY)", color="red", style="setlinewidth(1)"];
"533197015" -> "671099301"[label="definedEx(CONFIG_FEATURE_BRCTL_FANCY)", color="red", style="setlinewidth(1)"];
"700967763"[label="{{Expr\ -1:\ (key\ ==\ ARG_setbridg}|def(CONFIG_FEATURE_BRCTL_FANCY)}", color="black", fontname="Calibri", style="filled", fillcolor="#CD5200"];
"700967763" -> "849227447"[label="definedEx(CONFIG_FEATURE_BRCTL_FANCY)", color="red", style="setlinewidth(1)"];
"700967763" -> "28411595"[label="definedEx(CONFIG_FEATURE_BRCTL_FANCY)", color="red", style="setlinewidth(1)"];
"912947424"[label="{{Stmt\ -1:\ (port\ =\ if_nametoind}|def(CONFIG_FEATURE_BRCTL_FANCY)}", color="black", fontname="Calibri", style="filled", fillcolor="#CD5200"];
"912947424" -> "276401243"[label="definedEx(CONFIG_FEATURE_BRCTL_FANCY)", color="red", style="setlinewidth(1)"];
"912947424" -> "533197015"[label="definedEx(CONFIG_FEATURE_BRCTL_FANCY)", color="red", style="setlinewidth(1)"];
"1743267136"[label="{{Stmt\ -1:\ (arg2\ =\ xatoi_positi}|def(CONFIG_FEATURE_BRCTL_FANCY)}", color="black", fontname="Calibri", style="filled", fillcolor="#CD5200"];
"1743267136" -> "1811141631"[label="definedEx(CONFIG_FEATURE_BRCTL_FANCY)", color="red", style="setlinewidth(1)"];
"1743267136" -> "700967763"[label="definedEx(CONFIG_FEATURE_BRCTL_FANCY)", color="red", style="setlinewidth(1)"];
"328170625"[label="{{Stmt\ -1:\ unsigned\ \l#if\ define}|def(CONFIG_FEATURE_BRCTL_FANCY)}", color="black", fontname="Calibri", style="filled", fillcolor="#CD5200"];
"328170625" -> "912947424"[label="definedEx(CONFIG_FEATURE_BRCTL_FANCY)", color="red", style="setlinewidth(1)"];
"363382494" -> "1743267136"[label="definedEx(CONFIG_FEATURE_BRCTL_FANCY)", color="red", style="setlinewidth(1)"];
"754495289"[label="{{Stmt\ -1:\ goto\ fire;}|def(CONFIG_FEATURE_BRCTL_FANCY)}", color="black", fontname="Calibri", style="filled", fillcolor="#CD5200"];
"754495289" -> "1545448050"[label="definedEx(CONFIG_FEATURE_BRCTL_FANCY)", color="red", style="setlinewidth(1)"];
"1726953788"[label="{{Expr\ -1:\ (key\ !=\ ARG_setbridg}|def(CONFIG_FEATURE_BRCTL_FANCY)}", color="black", fontname="Calibri", style="filled", fillcolor="#CD5200"];
"1726953788" -> "363382494"[label="definedEx(CONFIG_FEATURE_BRCTL_FANCY)", color="red", style="setlinewidth(1)"];
"1726953788" -> "328170625"[label="definedEx(CONFIG_FEATURE_BRCTL_FANCY)", color="red", style="setlinewidth(1)"];
"1366638936"[label="{{Stmt\ -1:\ unsigned\ char\ \l#if\ d}|def(CONFIG_FEATURE_BRCTL_SHOW)}", color="black", fontname="Calibri", style="filled", fillcolor="#CD5200"];
"688938155"[label="{{Decl\ -1:\ if_indextoname}|def(CONFIG_FEATURE_BRCTL_SHOW)}", color="blue", fontname="Calibri", style="filled", fillcolor="#CD5200"];
"1366638936" -> "688938155"[label="definedEx(CONFIG_FEATURE_BRCTL_SHOW)", color="red", style="setlinewidth(1)"];
"786883320"[label="{{Expr\ 125:\ 0x89a3}|True}", color="black", fontname="Calibri", style="filled", fillcolor="white"];
"1451805562"[label="{{Expr\ 124:\ 0x89a2}|True}", color="black", fontname="Calibri", style="filled", fillcolor="white"];
"801907825"[label="{{Stmt\ -1:\ arm_ioctl(\l#if\ defin}|def(CONFIG_FEATURE_BRCTL_FANCY)}", color="black", fontname="Calibri", style="filled", fillcolor="#CD5200"];
"801907825" -> "1968765561"[label="definedEx(CONFIG_FEATURE_BRCTL_FANCY)", color="red", style="setlinewidth(1)"];
"801907825" -> "754495289"[label="definedEx(CONFIG_FEATURE_BRCTL_FANCY)", color="red", style="setlinewidth(1)"];
"1568232485"[label="{{Stmt\ -1:\ unsigned\ \l#if\ define}|def(CONFIG_FEATURE_BRCTL_FANCY)}", color="black", fontname="Calibri", style="filled", fillcolor="#CD5200"];
"1568232485" -> "1726953788"[label="definedEx(CONFIG_FEATURE_BRCTL_FANCY)", color="red", style="setlinewidth(1)"];
"1034842245"[label="{{Stmt\ -1:\ struct\ __bridge_info}|def(CONFIG_FEATURE_BRCTL_SHOW)}", color="black", fontname="Calibri", style="filled", fillcolor="#CD5200"];
"1034842245" -> "1366638936"[label="definedEx(CONFIG_FEATURE_BRCTL_SHOW)", color="red", style="setlinewidth(1)"];
"74076711"[label="{{Expr\ -1:\ (key\ ==\ ARG_addif)}|True}", color="black", fontname="Calibri", style="filled", fillcolor="white"];
"74076711" -> "1451805562"[label="1", color="black", style="setlinewidth(1)"];
"74076711" -> "786883320"[label="1", color="black", style="setlinewidth(1)"];
"2033918955"[label="{{Decl\ -1:\ bb_putchar}|True}", color="blue", fontname="Calibri", style="filled", fillcolor="white"];
"170388441"[label="{{Decl\ -1:\ bb_perror_msg_and_die}|True}", color="blue", fontname="Calibri", style="filled", fillcolor="white"];
"1104346505"[label="{{Decl\ -1:\ close}|True}", color="blue", fontname="Calibri", style="filled", fillcolor="white"];
"1323698745"[label="{{Stmt\ -1:\ bb_error_msg_and_die}|def(CONFIG_FEATURE_BRCTL_FANCY)}", color="black", fontname="Calibri", style="filled", fillcolor="#CD5200"];
"1323698745" -> "1647988829"[label="definedEx(CONFIG_FEATURE_BRCTL_FANCY)", color="red", style="setlinewidth(1)"];
"1801318972"[label="{{Stmt\ -1:\ (onoff\ =\ (((unsigned}|def(CONFIG_FEATURE_BRCTL_FANCY)}", color="black", fontname="Calibri", style="filled", fillcolor="#CD5200"];
"1323698745" -> "1801318972"[label="definedEx(CONFIG_FEATURE_BRCTL_FANCY)", color="red", style="setlinewidth(1)"];
"1801318972" -> "801907825"[label="definedEx(CONFIG_FEATURE_BRCTL_FANCY)", color="red", style="setlinewidth(1)"];
"543692472"[label="{{Stmt\ -1:\ goto\ fire;}|def(CONFIG_FEATURE_BRCTL_FANCY)}", color="black", fontname="Calibri", style="filled", fillcolor="#CD5200"];
"543692472" -> "1545448050"[label="definedEx(CONFIG_FEATURE_BRCTL_FANCY)", color="red", style="setlinewidth(1)"];
"123038514"[label="{{Stmt\ -1:\ int\ \l#if\ definedEx(C}|def(CONFIG_FEATURE_BRCTL_FANCY)}", color="black", fontname="Calibri", style="filled", fillcolor="#CD5200"];
"123038514" -> "1568232485"[label="definedEx(CONFIG_FEATURE_BRCTL_FANCY)", color="red", style="setlinewidth(1)"];
"1891664968"[label="{{Stmt\ -1:\ bb_xioctl(\l#if\ (defi}|(def(CONFIG_FEATURE_BRCTL_FANCY)&!def(CONFIG_IOCTL_HEX2STR_ERROR))}", color="black", fontname="Calibri", style="filled", fillcolor="#CD5200"];
"1891664968" -> "966958056"[label="(definedEx(CONFIG_FEATURE_BRCTL_FANCY) && !definedEx(CONFIG_IOCTL_HEX2STR_ERROR))", color="red", style="setlinewidth(1)"];
"1818066882"[label="{{Stmt\ -1:\ done_next_argv:}|(def(CONFIG_FEATURE_BRCTL_FANCY)&!def(CONFIG_IOCTL_HEX2STR_ERROR))}", color="black", fontname="Calibri", style="filled", fillcolor="#CD5200"];
"1891664968" -> "1818066882"[label="(definedEx(CONFIG_FEATURE_BRCTL_FANCY) && !definedEx(CONFIG_IOCTL_HEX2STR_ERROR))", color="red", style="setlinewidth(1)"];
"401943204"[label="{{Stmt\ -1:\ bb_xioctl(\l#if\ (defi}|(def(CONFIG_FEATURE_BRCTL_FANCY)&def(CONFIG_IOCTL_HEX2STR_ERROR))}", color="black", fontname="Calibri", style="filled", fillcolor="#CD5200"];
"401943204" -> "1586346393"[label="(definedEx(CONFIG_FEATURE_BRCTL_FANCY) && definedEx(CONFIG_IOCTL_HEX2STR_ERROR))", color="red", style="setlinewidth(1)"];
"401943204" -> "1818066882"[label="(definedEx(CONFIG_FEATURE_BRCTL_FANCY) && definedEx(CONFIG_IOCTL_HEX2STR_ERROR))", color="red", style="setlinewidth(1)"];
"2076711774"[label="{{Stmt\ -1:\ int\ \l#if\ definedEx(C}|def(CONFIG_FEATURE_BRCTL_SHOW)}", color="black", fontname="Calibri", style="filled", fillcolor="#CD5200"];
"2076711774" -> "1034842245"[label="definedEx(CONFIG_FEATURE_BRCTL_SHOW)", color="red", style="setlinewidth(1)"];
"1750973011"[label="{{Stmt\ -1:\ bb_perror_msg_and_di}|True}", color="black", fontname="Calibri", style="filled", fillcolor="white"];
"1750973011" -> "170388441"[label="1", color="black", style="setlinewidth(1)"];
"785593801"[label="{{Stmt\ -1:\ ioctl_or_perror_and_}|True}", color="black", fontname="Calibri", style="filled", fillcolor="white"];
"1750973011" -> "785593801"[label="1", color="black", style="setlinewidth(1)"];
"451731406"[label="{{Decl\ -1:\ ioctl_or_perror_and_die}|True}", color="blue", fontname="Calibri", style="filled", fillcolor="white"];
"785593801" -> "451731406"[label="1", color="black", style="setlinewidth(1)"];
"785593801" -> "74076711"[label="1", color="black", style="setlinewidth(1)"];
"207441423"[label="{{Stmt\ -1:\ close(fd);}|True}", color="black", fontname="Calibri", style="filled", fillcolor="white"];
"207441423" -> "1104346505"[label="1", color="black", style="setlinewidth(1)"];
"207441423" -> "966958056"[label="(definedEx(CONFIG_FEATURE_BRCTL_FANCY) && !definedEx(CONFIG_IOCTL_HEX2STR_ERROR))", color="red", style="setlinewidth(1)"];
"207441423" -> "1586346393"[label="(definedEx(CONFIG_FEATURE_BRCTL_FANCY) && definedEx(CONFIG_IOCTL_HEX2STR_ERROR))", color="red", style="setlinewidth(1)"];
"207441423" -> "1968765561"[label="definedEx(CONFIG_FEATURE_BRCTL_FANCY)", color="red", style="setlinewidth(1)"];
"207441423" -> "1811141631"[label="definedEx(CONFIG_FEATURE_BRCTL_FANCY)", color="red", style="setlinewidth(1)"];
"207441423" -> "344644089"[label="definedEx(CONFIG_FEATURE_BRCTL_FANCY)", color="red", style="setlinewidth(1)"];
"207441423" -> "1647988829"[label="definedEx(CONFIG_FEATURE_BRCTL_FANCY)", color="red", style="setlinewidth(1)"];
"207441423" -> "276401243"[label="definedEx(CONFIG_FEATURE_BRCTL_FANCY)", color="red", style="setlinewidth(1)"];
"73092426"[label="{{Decl\ -1:\ index_in_strings}|True}", color="blue", fontname="Calibri", style="filled", fillcolor="white"];
"207441423" -> "73092426"[label="definedEx(CONFIG_FEATURE_BRCTL_FANCY)", color="red", style="setlinewidth(1)"];
"207441423" -> "451731406"[label="1", color="black", style="setlinewidth(1)"];
"207441423" -> "170388441"[label="1", color="black", style="setlinewidth(1)"];
"207441423" -> "276401243"[label="1", color="black", style="setlinewidth(1)"];
"1336655826"[label="{{Decl\ -1:\ strncpy_IFNAMSIZ}|True}", color="blue", fontname="Calibri", style="filled", fillcolor="white"];
"207441423" -> "1336655826"[label="1", color="black", style="setlinewidth(1)"];
"1551980018"[label="{{Decl\ -1:\ bb_show_usage}|True}", color="blue", fontname="Calibri", style="filled", fillcolor="white"];
"207441423" -> "1551980018"[label="1", color="black", style="setlinewidth(1)"];
"207441423" -> "2033918955"[label="definedEx(CONFIG_FEATURE_BRCTL_SHOW)", color="red", style="setlinewidth(1)"];
"527200248"[label="{{Decl\ -1:\ printf}|True}", color="blue", fontname="Calibri", style="filled", fillcolor="white"];
"207441423" -> "527200248"[label="definedEx(CONFIG_FEATURE_BRCTL_SHOW)", color="red", style="setlinewidth(1)"];
"207441423" -> "170388441"[label="definedEx(CONFIG_FEATURE_BRCTL_SHOW)", color="red", style="setlinewidth(1)"];
"207441423" -> "688938155"[label="definedEx(CONFIG_FEATURE_BRCTL_SHOW)", color="red", style="setlinewidth(1)"];
"207441423" -> "966958056"[label="(definedEx(CONFIG_FEATURE_BRCTL_SHOW) && !definedEx(CONFIG_IOCTL_HEX2STR_ERROR))", color="red", style="setlinewidth(1)"];
"207441423" -> "1586346393"[label="(definedEx(CONFIG_FEATURE_BRCTL_SHOW) && definedEx(CONFIG_IOCTL_HEX2STR_ERROR))", color="red", style="setlinewidth(1)"];
"207441423" -> "1968765561"[label="(definedEx(CONFIG_FEATURE_BRCTL_SHOW) && definedEx(CONFIG_FEATURE_BRCTL_FANCY))", color="red", style="setlinewidth(1)"];
"207441423" -> "1336655826"[label="definedEx(CONFIG_FEATURE_BRCTL_SHOW)", color="red", style="setlinewidth(1)"];
"380750143"[label="{{Decl\ -1:\ xsocket}|True}", color="blue", fontname="Calibri", style="filled", fillcolor="white"];
"207441423" -> "380750143"[label="1", color="black", style="setlinewidth(1)"];
"207441423" -> "1647988829"[label="1", color="black", style="setlinewidth(1)"];
"207441423" -> "73092426"[label="1", color="black", style="setlinewidth(1)"];
"1300210073"[label="{{Expr\ -1:\ (*argv)}|True}", color="black", fontname="Calibri", style="filled", fillcolor="white"];
"207441423" -> "1300210073"[label="1", color="black", style="setlinewidth(1)"];
"1837484110"[label="{{Expr\ -1:\ (onoff\ \<\ 0)}|def(CONFIG_FEATURE_BRCTL_FANCY)}", color="black", fontname="Calibri", style="filled", fillcolor="#CD5200"];
"1837484110" -> "1801318972"[label="definedEx(CONFIG_FEATURE_BRCTL_FANCY)", color="red", style="setlinewidth(1)"];
"1837484110" -> "1323698745"[label="definedEx(CONFIG_FEATURE_BRCTL_FANCY)", color="red", style="setlinewidth(1)"];
"680538123"[label="{{Stmt\ -1:\ arm_ioctl(\l#if\ defin}|def(CONFIG_FEATURE_BRCTL_FANCY)}", color="black", fontname="Calibri", style="filled", fillcolor="#CD5200"];
"680538123" -> "1968765561"[label="definedEx(CONFIG_FEATURE_BRCTL_FANCY)", color="red", style="setlinewidth(1)"];
"680538123" -> "543692472"[label="definedEx(CONFIG_FEATURE_BRCTL_FANCY)", color="red", style="setlinewidth(1)"];
"1696498618"[label="{{Stmt\ -1:\ static\ const\ uint8_t}|def(CONFIG_FEATURE_BRCTL_FANCY)}", color="black", fontname="Calibri", style="filled", fillcolor="#CD5200"];
"1696498618" -> "123038514"[label="definedEx(CONFIG_FEATURE_BRCTL_FANCY)", color="red", style="setlinewidth(1)"];
"1545448050" -> "401943204"[label="(definedEx(CONFIG_FEATURE_BRCTL_FANCY) && definedEx(CONFIG_IOCTL_HEX2STR_ERROR))", color="red", style="setlinewidth(1)"];
"1545448050" -> "1891664968"[label="(definedEx(CONFIG_FEATURE_BRCTL_FANCY) && !definedEx(CONFIG_IOCTL_HEX2STR_ERROR))", color="red", style="setlinewidth(1)"];
"628098394"[label="{{Stmt\ -1:\ char\ \l#if\ definedEx(}|def(CONFIG_FEATURE_BRCTL_SHOW)}", color="black", fontname="Calibri", style="filled", fillcolor="#CD5200"];
"628098394" -> "2076711774"[label="definedEx(CONFIG_FEATURE_BRCTL_SHOW)", color="red", style="setlinewidth(1)"];
"1051197858"[label="{{Stmt\ -1:\ goto\ done;}|def(CONFIG_FEATURE_BRCTL_SHOW)}", color="black", fontname="Calibri", style="filled", fillcolor="#CD5200"];
"371016989"[label="{{Stmt\ -1:\ done:}|def(CONFIG_FEATURE_BRCTL_SHOW)}", color="black", fontname="Calibri", style="filled", fillcolor="#CD5200"];
"1051197858" -> "371016989"[label="1", color="black", style="setlinewidth(1)"];
"575418003" -> "1968765561"[label="definedEx(CONFIG_FEATURE_BRCTL_FANCY)", color="red", style="setlinewidth(1)"];
"995114056"[label="{{Expr\ -1:\ (!\ ifr.ifr_ifru.ifru}|True}", color="black", fontname="Calibri", style="filled", fillcolor="white"];
"995114056" -> "785593801"[label="1", color="black", style="setlinewidth(1)"];
"995114056" -> "1750973011"[label="1", color="black", style="setlinewidth(1)"];
"371016989" -> "207441423"[label="1", color="black", style="setlinewidth(1)"];
"1272126817"[label="{{Stmt\ -1:\ int\ \l#if\ definedEx(C}|def(CONFIG_FEATURE_BRCTL_FANCY)}", color="black", fontname="Calibri", style="filled", fillcolor="#CD5200"];
"1272126817" -> "73092426"[label="definedEx(CONFIG_FEATURE_BRCTL_FANCY)", color="red", style="setlinewidth(1)"];
"1272126817" -> "1837484110"[label="definedEx(CONFIG_FEATURE_BRCTL_FANCY)", color="red", style="setlinewidth(1)"];
"192728769"[label="{{Stmt\ -1:\ static\ const\ uint8_t}|def(CONFIG_FEATURE_BRCTL_FANCY)}", color="black", fontname="Calibri", style="filled", fillcolor="#CD5200"];
"192728769" -> "680538123"[label="definedEx(CONFIG_FEATURE_BRCTL_FANCY)", color="red", style="setlinewidth(1)"];
"18438848"[label="{{Expr\ -1:\ ((key\ ==\ ARG_setpath}|def(CONFIG_FEATURE_BRCTL_FANCY)}", color="black", fontname="Calibri", style="filled", fillcolor="#CD5200"];
"18438848" -> "1545448050"[label="definedEx(CONFIG_FEATURE_BRCTL_FANCY)", color="red", style="setlinewidth(1)"];
"18438848" -> "1696498618"[label="definedEx(CONFIG_FEATURE_BRCTL_FANCY)", color="red", style="setlinewidth(1)"];
"848144836"[label="{{Expr\ -1:\ (i\ \<\ num)}|def(CONFIG_FEATURE_BRCTL_SHOW)}", color="black", fontname="Calibri", style="filled", fillcolor="#CD5200"];
"848144836" -> "1051197858"[label="definedEx(CONFIG_FEATURE_BRCTL_SHOW)", color="red", style="setlinewidth(1)"];
"848144836" -> "628098394"[label="definedEx(CONFIG_FEATURE_BRCTL_SHOW)", color="red", style="setlinewidth(1)"];
"1950258173" -> "575418003"[label="definedEx(CONFIG_FEATURE_BRCTL_FANCY)", color="red", style="setlinewidth(1)"];
"1038500617"[label="{{Stmt\ -1:\ (ifr.ifr_ifru.ifru_i}|True}", color="black", fontname="Calibri", style="filled", fillcolor="white"];
"1038500617" -> "276401243"[label="1", color="black", style="setlinewidth(1)"];
"1038500617" -> "995114056"[label="1", color="black", style="setlinewidth(1)"];
"761546706"[label="{{Stmt\ -1:\ argv++;}|True}", color="black", fontname="Calibri", style="filled", fillcolor="white"];
"761546706" -> "371016989"[label="1", color="black", style="setlinewidth(1)"];
"286981168"[label="{{Stmt\ -1:\ static\ const\ char\ \l#}|def(CONFIG_FEATURE_BRCTL_FANCY)}", color="black", fontname="Calibri", style="filled", fillcolor="#CD5200"];
"286981168" -> "1272126817"[label="definedEx(CONFIG_FEATURE_BRCTL_FANCY)", color="red", style="setlinewidth(1)"];
"1794160301"[label="{{Expr\ -1:\ (((unsigned\ )\ (key\ -}|def(CONFIG_FEATURE_BRCTL_FANCY)}", color="black", fontname="Calibri", style="filled", fillcolor="#CD5200"];
"1794160301" -> "18438848"[label="definedEx(CONFIG_FEATURE_BRCTL_FANCY)", color="red", style="setlinewidth(1)"];
"1794160301" -> "192728769"[label="definedEx(CONFIG_FEATURE_BRCTL_FANCY)", color="red", style="setlinewidth(1)"];
"530164064"[label="{{Expr\ -1:\ (i\ =\ 0)}|def(CONFIG_FEATURE_BRCTL_SHOW)}", color="black", fontname="Calibri", style="filled", fillcolor="#CD5200"];
"530164064" -> "848144836"[label="definedEx(CONFIG_FEATURE_BRCTL_SHOW)", color="red", style="setlinewidth(1)"];
"1141504602" -> "1950258173"[label="definedEx(CONFIG_FEATURE_BRCTL_FANCY)", color="red", style="setlinewidth(1)"];
"1705050941"[label="{{Stmt\ -1:\ (brif\ =\ (*argv));}|True}", color="black", fontname="Calibri", style="filled", fillcolor="white"];
"1705050941" -> "1038500617"[label="1", color="black", style="setlinewidth(1)"];
"1818066882" -> "761546706"[label="1", color="black", style="setlinewidth(1)"];
"297067777"[label="{{Expr\ -1:\ (key\ ==\ ARG_stp)}|def(CONFIG_FEATURE_BRCTL_FANCY)}", color="black", fontname="Calibri", style="filled", fillcolor="#CD5200"];
"297067777" -> "1794160301"[label="definedEx(CONFIG_FEATURE_BRCTL_FANCY)", color="red", style="setlinewidth(1)"];
"297067777" -> "286981168"[label="definedEx(CONFIG_FEATURE_BRCTL_FANCY)", color="red", style="setlinewidth(1)"];
"1660875280"[label="{{Stmt\ -1:\ printf(\l#if\ definedE}|def(CONFIG_FEATURE_BRCTL_SHOW)}", color="black", fontname="Calibri", style="filled", fillcolor="#CD5200"];
"1660875280" -> "527200248"[label="definedEx(CONFIG_FEATURE_BRCTL_SHOW)", color="red", style="setlinewidth(1)"];
"1660875280" -> "530164064"[label="definedEx(CONFIG_FEATURE_BRCTL_SHOW)", color="red", style="setlinewidth(1)"];
"666682929" -> "1141504602"[label="definedEx(CONFIG_FEATURE_BRCTL_FANCY)", color="red", style="setlinewidth(1)"];
"1937506982"[label="{{Expr\ 123:\ 0x89a1}|True}", color="black", fontname="Calibri", style="filled", fillcolor="white"];
"898360656"[label="{{Expr\ 122:\ 0x89a0}|True}", color="black", fontname="Calibri", style="filled", fillcolor="white"];
"1520099290"[label="{{Expr\ -1:\ ((key\ ==\ ARG_addif)\ }|True}", color="black", fontname="Calibri", style="filled", fillcolor="white"];
"1520099290" -> "297067777"[label="definedEx(CONFIG_FEATURE_BRCTL_FANCY)", color="red", style="setlinewidth(1)"];
"1520099290" -> "1818066882"[label="!definedEx(CONFIG_FEATURE_BRCTL_FANCY)", color="red", style="setlinewidth(1)"];
"1520099290" -> "1705050941"[label="1", color="black", style="setlinewidth(1)"];
"809676129"[label="{{Stmt\ -1:\ (num\ =\ bb_xioctl(\l#i}|(def(CONFIG_FEATURE_BRCTL_SHOW)&!def(CONFIG_IOCTL_HEX2STR_ERROR))}", color="black", fontname="Calibri", style="filled", fillcolor="#CD5200"];
"809676129" -> "966958056"[label="(definedEx(CONFIG_FEATURE_BRCTL_SHOW) && !definedEx(CONFIG_IOCTL_HEX2STR_ERROR))", color="red", style="setlinewidth(1)"];
"809676129" -> "1660875280"[label="(definedEx(CONFIG_FEATURE_BRCTL_SHOW) && !definedEx(CONFIG_IOCTL_HEX2STR_ERROR))", color="red", style="setlinewidth(1)"];
"1290939690"[label="{{Stmt\ -1:\ (num\ =\ bb_xioctl(\l#i}|(def(CONFIG_FEATURE_BRCTL_SHOW)&def(CONFIG_IOCTL_HEX2STR_ERROR))}", color="black", fontname="Calibri", style="filled", fillcolor="#CD5200"];
"1290939690" -> "1586346393"[label="(definedEx(CONFIG_FEATURE_BRCTL_SHOW) && definedEx(CONFIG_IOCTL_HEX2STR_ERROR))", color="red", style="setlinewidth(1)"];
"1290939690" -> "1660875280"[label="(definedEx(CONFIG_FEATURE_BRCTL_SHOW) && definedEx(CONFIG_IOCTL_HEX2STR_ERROR))", color="red", style="setlinewidth(1)"];
"1968765561" -> "666682929"[label="definedEx(CONFIG_FEATURE_BRCTL_FANCY)", color="red", style="setlinewidth(1)"];
"1442312662"[label="{{Expr\ -1:\ (key\ ==\ ARG_addbr)}|True}", color="black", fontname="Calibri", style="filled", fillcolor="white"];
"1442312662" -> "898360656"[label="1", color="black", style="setlinewidth(1)"];
"1442312662" -> "1937506982"[label="1", color="black", style="setlinewidth(1)"];
"1917176271"[label="{{Stmt\ -1:\ bb_show_usage();}|True}", color="black", fontname="Calibri", style="filled", fillcolor="white"];
"1917176271" -> "1551980018"[label="1", color="black", style="setlinewidth(1)"];
"1144252895"[label="{{Stmt\ -1:\ strncpy_IFNAMSIZ(ifr}|True}", color="black", fontname="Calibri", style="filled", fillcolor="white"];
"1917176271" -> "1144252895"[label="1", color="black", style="setlinewidth(1)"];
"1144252895" -> "1336655826"[label="1", color="black", style="setlinewidth(1)"];
"1144252895" -> "1520099290"[label="1", color="black", style="setlinewidth(1)"];
"607705111"[label="{{Stmt\ -1:\ arm_ioctl(\l#if\ defin}|def(CONFIG_FEATURE_BRCTL_SHOW)}", color="black", fontname="Calibri", style="filled", fillcolor="#CD5200"];
"607705111" -> "1968765561"[label="(definedEx(CONFIG_FEATURE_BRCTL_SHOW) && definedEx(CONFIG_FEATURE_BRCTL_FANCY))", color="red", style="setlinewidth(1)"];
"607705111" -> "1290939690"[label="(definedEx(CONFIG_FEATURE_BRCTL_SHOW) && definedEx(CONFIG_IOCTL_HEX2STR_ERROR))", color="red", style="setlinewidth(1)"];
"607705111" -> "809676129"[label="(definedEx(CONFIG_FEATURE_BRCTL_SHOW) && !definedEx(CONFIG_IOCTL_HEX2STR_ERROR))", color="red", style="setlinewidth(1)"];
"1871124510"[label="{{Stmt\ -1:\ ioctl_or_perror_and_}|True}", color="black", fontname="Calibri", style="filled", fillcolor="white"];
"1871124510" -> "451731406"[label="1", color="black", style="setlinewidth(1)"];
"1871124510" -> "1442312662"[label="1", color="black", style="setlinewidth(1)"];
"334882123"[label="{{Expr\ -1:\ (!\ (*argv))}|True}", color="black", fontname="Calibri", style="filled", fillcolor="white"];
"334882123" -> "1144252895"[label="1", color="black", style="setlinewidth(1)"];
"334882123" -> "1917176271"[label="1", color="black", style="setlinewidth(1)"];
"1283565292"[label="{{Stmt\ -1:\ int\ \l#if\ definedEx(C}|def(CONFIG_FEATURE_BRCTL_SHOW)}", color="black", fontname="Calibri", style="filled", fillcolor="#CD5200"];
"1283565292" -> "607705111"[label="definedEx(CONFIG_FEATURE_BRCTL_SHOW)", color="red", style="setlinewidth(1)"];
"356919414"[label="{{Expr\ -1:\ ((key\ ==\ ARG_addbr)\ }|True}", color="black", fontname="Calibri", style="filled", fillcolor="white"];
"356919414" -> "334882123"[label="1", color="black", style="setlinewidth(1)"];
"356919414" -> "1871124510"[label="1", color="black", style="setlinewidth(1)"];
"943967884"[label="{{Stmt\ -1:\ int\ \l#if\ definedEx(C}|def(CONFIG_FEATURE_BRCTL_SHOW)}", color="black", fontname="Calibri", style="filled", fillcolor="#CD5200"];
"943967884" -> "1283565292"[label="definedEx(CONFIG_FEATURE_BRCTL_SHOW)", color="red", style="setlinewidth(1)"];
"523456332"[label="{{Stmt\ -1:\ bb_show_usage();}|True}", color="black", fontname="Calibri", style="filled", fillcolor="white"];
"523456332" -> "1551980018"[label="1", color="black", style="setlinewidth(1)"];
"1944647959"[label="{{Stmt\ -1:\ (br\ =\ (*argv++));}|True}", color="black", fontname="Calibri", style="filled", fillcolor="white"];
"523456332" -> "1944647959"[label="1", color="black", style="setlinewidth(1)"];
"1944647959" -> "356919414"[label="1", color="black", style="setlinewidth(1)"];
"6411617"[label="{{Stmt\ -1:\ char\ \l#if\ definedEx(}|def(CONFIG_FEATURE_BRCTL_SHOW)}", color="black", fontname="Calibri", style="filled", fillcolor="#CD5200"];
"6411617" -> "943967884"[label="definedEx(CONFIG_FEATURE_BRCTL_SHOW)", color="red", style="setlinewidth(1)"];
"535469272"[label="{{Expr\ -1:\ (!\ (*argv))}|True}", color="black", fontname="Calibri", style="filled", fillcolor="white"];
"535469272" -> "1944647959"[label="1", color="black", style="setlinewidth(1)"];
"535469272" -> "523456332"[label="1", color="black", style="setlinewidth(1)"];
"1415902736"[label="{{Expr\ -1:\ (key\ ==\ ARG_show)}|def(CONFIG_FEATURE_BRCTL_SHOW)}", color="black", fontname="Calibri", style="filled", fillcolor="#CD5200"];
"1415902736" -> "535469272"[label="definedEx(CONFIG_FEATURE_BRCTL_SHOW)", color="red", style="setlinewidth(1)"];
"1415902736" -> "6411617"[label="definedEx(CONFIG_FEATURE_BRCTL_SHOW)", color="red", style="setlinewidth(1)"];
"1896970745"[label="{{Stmt\ -1:\ (fd\ =\ xsocket(2\ ,\ SO}|True}", color="black", fontname="Calibri", style="filled", fillcolor="white"];
"1896970745" -> "380750143"[label="1", color="black", style="setlinewidth(1)"];
"1896970745" -> "1415902736"[label="definedEx(CONFIG_FEATURE_BRCTL_SHOW)", color="red", style="setlinewidth(1)"];
"1896970745" -> "535469272"[label="!definedEx(CONFIG_FEATURE_BRCTL_SHOW)", color="red", style="setlinewidth(1)"];
"1956765861"[label="{{Stmt\ -1:\ bb_error_msg_and_die}|True}", color="black", fontname="Calibri", style="filled", fillcolor="white"];
"1956765861" -> "1647988829"[label="1", color="black", style="setlinewidth(1)"];
"1088876137"[label="{{Stmt\ -1:\ argv++;}|True}", color="black", fontname="Calibri", style="filled", fillcolor="white"];
"1956765861" -> "1088876137"[label="1", color="black", style="setlinewidth(1)"];
"1088876137" -> "1896970745"[label="1", color="black", style="setlinewidth(1)"];
"109855678"[label="{{Stmt\ -1:\ (ifr.ifr_ifru.ifru_d}|def(CONFIG_FEATURE_BRCTL_FANCY)}", color="black", fontname="Calibri", style="filled", fillcolor="#CD5200"];
"999859479"[label="{{Stmt\ -1:\ (key\ =\ index_in_stri}|def(CONFIG_FEATURE_BRCTL_FANCY)}", color="black", fontname="Calibri", style="filled", fillcolor="#CD5200"];
"109855678" -> "999859479"[label="definedEx(CONFIG_FEATURE_BRCTL_FANCY)", color="red", style="setlinewidth(1)"];
"901767074"[label="{{Expr\ -1:\ (key\ ==\ (-\ 1))}|True}", color="black", fontname="Calibri", style="filled", fillcolor="white"];
"901767074" -> "1088876137"[label="1", color="black", style="setlinewidth(1)"];
"901767074" -> "1956765861"[label="1", color="black", style="setlinewidth(1)"];
"839563490"[label="{{Stmt\ -1:\ unsigned\ long\ \l#if\ d}|def(CONFIG_FEATURE_BRCTL_FANCY)}", color="black", fontname="Calibri", style="filled", fillcolor="#CD5200"];
"839563490" -> "109855678"[label="definedEx(CONFIG_FEATURE_BRCTL_FANCY)", color="red", style="setlinewidth(1)"];
"283514818"[label="{{Stmt\ -1:\ return\ 0;}|True}", color="black", fontname="Calibri", style="filled", fillcolor="white"];
"246628038"[label="{{Function\ -1:\ brctl_main}|True}", color="blue", fontname="Calibri", style="filled", fillcolor="white"];
"283514818" -> "246628038"[label="1", color="black", style="setlinewidth(1)"];
"999859479" -> "73092426"[label="1", color="black", style="setlinewidth(1)"];
"999859479" -> "901767074"[label="1", color="black", style="setlinewidth(1)"];
"1517579707"[label="{{Stmt\ -1:\ int\ \l#if\ definedEx(C}|def(CONFIG_FEATURE_BRCTL_FANCY)}", color="black", fontname="Calibri", style="filled", fillcolor="#CD5200"];
"1517579707" -> "839563490"[label="definedEx(CONFIG_FEATURE_BRCTL_FANCY)", color="red", style="setlinewidth(1)"];
"1300210073" -> "1517579707"[label="definedEx(CONFIG_FEATURE_BRCTL_FANCY)", color="red", style="setlinewidth(1)"];
"1300210073" -> "999859479"[label="!definedEx(CONFIG_FEATURE_BRCTL_FANCY)", color="red", style="setlinewidth(1)"];
"1300210073" -> "283514818"[label="1", color="black", style="setlinewidth(1)"];
"575785803"[label="{{Stmt\ -1:\ argv++;}|True}", color="black", fontname="Calibri", style="filled", fillcolor="white"];
"575785803" -> "1300210073"[label="1", color="black", style="setlinewidth(1)"];
"618673911"[label="{{Stmt\ -1:\ char\ *br,\ *brif;}|True}", color="black", fontname="Calibri", style="filled", fillcolor="white"];
"618673911" -> "575785803"[label="1", color="black", style="setlinewidth(1)"];
"1745620950"[label="{{Stmt\ -1:\ struct\ ifreq\ \ ifr;}|True}", color="black", fontname="Calibri", style="filled", fillcolor="white"];
"1745620950" -> "618673911"[label="1", color="black", style="setlinewidth(1)"];
"1900080212"[label="{{Stmt\ -1:\ smallint\ key;}|True}", color="black", fontname="Calibri", style="filled", fillcolor="white"];
"1900080212" -> "1745620950"[label="1", color="black", style="setlinewidth(1)"];
"307128174"[label="{{Stmt\ -1:\ int\ fd;}|True}", color="black", fontname="Calibri", style="filled", fillcolor="white"];
"307128174" -> "1900080212"[label="1", color="black", style="setlinewidth(1)"];
"735534550"[label="{{Stmt\ -1:\ enum\ \ \{\l\ \ ARG_addbr\ }|True}", color="black", fontname="Calibri", style="filled", fillcolor="white"];
"735534550" -> "307128174"[label="1", color="black", style="setlinewidth(1)"];
"1921183354"[label="{{Stmt\ -1:\ static\ const\ char\ ke}|True}", color="black", fontname="Calibri", style="filled", fillcolor="white"];
"1921183354" -> "735534550"[label="1", color="black", style="setlinewidth(1)"];
"246628038" -> "1921183354"[label="1", color="black", style="setlinewidth(1)"];
}
