digraph "busybox-1.18.5/networking/dnsd.c" {
node [shape=record];
"1593853606"[label="{{Decl\ -1:\ xstrtoull_range_sfx}|True}", color="blue", fontname="Calibri", style="filled", fillcolor="white"];
"975409706"[label="{{Stmt\ -1:\ return\ xstrtoull_ran}|True}", color="black", fontname="Calibri", style="filled", fillcolor="white"];
"975409706" -> "1593853606"[label="1", color="black", style="setlinewidth(1)"];
"826989472"[label="{{Function\ -1:\ xstrtoul_range_sfx}|True}", color="blue", fontname="Calibri", style="filled", fillcolor="white"];
"975409706" -> "826989472"[label="1", color="black", style="setlinewidth(1)"];
"826989472" -> "975409706"[label="1", color="black", style="setlinewidth(1)"];
"1839729081"[label="{{Decl\ -1:\ xstrtoull_range}|True}", color="blue", fontname="Calibri", style="filled", fillcolor="white"];
"928970580"[label="{{Stmt\ -1:\ return\ xstrtoull_ran}|True}", color="black", fontname="Calibri", style="filled", fillcolor="white"];
"928970580" -> "1839729081"[label="1", color="black", style="setlinewidth(1)"];
"1548463763"[label="{{Function\ -1:\ xstrtoul_range}|True}", color="blue", fontname="Calibri", style="filled", fillcolor="white"];
"928970580" -> "1548463763"[label="1", color="black", style="setlinewidth(1)"];
"1548463763" -> "928970580"[label="1", color="black", style="setlinewidth(1)"];
"1148074682"[label="{{Decl\ -1:\ xstrtoull_sfx}|True}", color="blue", fontname="Calibri", style="filled", fillcolor="white"];
"429131828"[label="{{Stmt\ -1:\ return\ xstrtoull_sfx}|True}", color="black", fontname="Calibri", style="filled", fillcolor="white"];
"429131828" -> "1148074682"[label="1", color="black", style="setlinewidth(1)"];
"1155142087"[label="{{Function\ -1:\ xstrtoul_sfx}|True}", color="blue", fontname="Calibri", style="filled", fillcolor="white"];
"429131828" -> "1155142087"[label="1", color="black", style="setlinewidth(1)"];
"1155142087" -> "429131828"[label="1", color="black", style="setlinewidth(1)"];
"463053456"[label="{{Decl\ -1:\ xstrtoull}|True}", color="blue", fontname="Calibri", style="filled", fillcolor="white"];
"912659216"[label="{{Stmt\ -1:\ return\ xstrtoull(str}|True}", color="black", fontname="Calibri", style="filled", fillcolor="white"];
"912659216" -> "463053456"[label="1", color="black", style="setlinewidth(1)"];
"1191898611"[label="{{Function\ -1:\ xstrtoul}|True}", color="blue", fontname="Calibri", style="filled", fillcolor="white"];
"912659216" -> "1191898611"[label="1", color="black", style="setlinewidth(1)"];
"1191898611" -> "912659216"[label="1", color="black", style="setlinewidth(1)"];
"1897568563"[label="{{Decl\ -1:\ xatoull_range_sfx}|True}", color="blue", fontname="Calibri", style="filled", fillcolor="white"];
"7611598"[label="{{Stmt\ -1:\ return\ xatoull_range}|True}", color="black", fontname="Calibri", style="filled", fillcolor="white"];
"7611598" -> "1897568563"[label="1", color="black", style="setlinewidth(1)"];
"391830493"[label="{{Function\ -1:\ xatoul_range_sfx}|True}", color="blue", fontname="Calibri", style="filled", fillcolor="white"];
"7611598" -> "391830493"[label="1", color="black", style="setlinewidth(1)"];
"391830493" -> "7611598"[label="1", color="black", style="setlinewidth(1)"];
"1961512153"[label="{{Decl\ -1:\ xatoull_range}|True}", color="blue", fontname="Calibri", style="filled", fillcolor="white"];
"764159952"[label="{{Stmt\ -1:\ return\ xatoull_range}|True}", color="black", fontname="Calibri", style="filled", fillcolor="white"];
"764159952" -> "1961512153"[label="1", color="black", style="setlinewidth(1)"];
"357638038"[label="{{Function\ -1:\ xatoul_range}|True}", color="blue", fontname="Calibri", style="filled", fillcolor="white"];
"764159952" -> "357638038"[label="1", color="black", style="setlinewidth(1)"];
"357638038" -> "764159952"[label="1", color="black", style="setlinewidth(1)"];
"1316683903"[label="{{Decl\ -1:\ xatoull_sfx}|True}", color="blue", fontname="Calibri", style="filled", fillcolor="white"];
"1859343171"[label="{{Stmt\ -1:\ return\ xatoull_sfx(s}|True}", color="black", fontname="Calibri", style="filled", fillcolor="white"];
"1859343171" -> "1316683903"[label="1", color="black", style="setlinewidth(1)"];
"271766817"[label="{{Function\ -1:\ xatoul_sfx}|True}", color="blue", fontname="Calibri", style="filled", fillcolor="white"];
"1859343171" -> "271766817"[label="1", color="black", style="setlinewidth(1)"];
"271766817" -> "1859343171"[label="1", color="black", style="setlinewidth(1)"];
"349168734"[label="{{Decl\ -1:\ xatoull}|True}", color="blue", fontname="Calibri", style="filled", fillcolor="white"];
"917334764"[label="{{Stmt\ -1:\ return\ xatoull(str);}|True}", color="black", fontname="Calibri", style="filled", fillcolor="white"];
"917334764" -> "349168734"[label="1", color="black", style="setlinewidth(1)"];
"595173782"[label="{{Function\ -1:\ xatoul}|True}", color="blue", fontname="Calibri", style="filled", fillcolor="white"];
"917334764" -> "595173782"[label="1", color="black", style="setlinewidth(1)"];
"595173782" -> "917334764"[label="1", color="black", style="setlinewidth(1)"];
"1593194890"[label="{{Decl\ -1:\ xstrtoll_range_sfx}|True}", color="blue", fontname="Calibri", style="filled", fillcolor="white"];
"747999167"[label="{{Stmt\ -1:\ return\ xstrtoll_rang}|True}", color="black", fontname="Calibri", style="filled", fillcolor="white"];
"747999167" -> "1593194890"[label="1", color="black", style="setlinewidth(1)"];
"1959763949"[label="{{Function\ -1:\ xstrtol_range_sfx}|True}", color="blue", fontname="Calibri", style="filled", fillcolor="white"];
"747999167" -> "1959763949"[label="1", color="black", style="setlinewidth(1)"];
"1959763949" -> "747999167"[label="1", color="black", style="setlinewidth(1)"];
"423975229"[label="{{Decl\ -1:\ xstrtoll_range}|True}", color="blue", fontname="Calibri", style="filled", fillcolor="white"];
"451579021"[label="{{Stmt\ -1:\ return\ xstrtoll_rang}|True}", color="black", fontname="Calibri", style="filled", fillcolor="white"];
"451579021" -> "423975229"[label="1", color="black", style="setlinewidth(1)"];
"1030282903"[label="{{Function\ -1:\ xstrtol_range}|True}", color="blue", fontname="Calibri", style="filled", fillcolor="white"];
"451579021" -> "1030282903"[label="1", color="black", style="setlinewidth(1)"];
"1030282903" -> "451579021"[label="1", color="black", style="setlinewidth(1)"];
"1950030121"[label="{{Decl\ -1:\ xstrtoll}|True}", color="blue", fontname="Calibri", style="filled", fillcolor="white"];
"712629000"[label="{{Stmt\ -1:\ return\ xstrtoll(str\ }|True}", color="black", fontname="Calibri", style="filled", fillcolor="white"];
"712629000" -> "1950030121"[label="1", color="black", style="setlinewidth(1)"];
"1035834833"[label="{{Function\ -1:\ xstrtol}|True}", color="blue", fontname="Calibri", style="filled", fillcolor="white"];
"712629000" -> "1035834833"[label="1", color="black", style="setlinewidth(1)"];
"1035834833" -> "712629000"[label="1", color="black", style="setlinewidth(1)"];
"111057350"[label="{{Decl\ -1:\ xatoll_range_sfx}|True}", color="blue", fontname="Calibri", style="filled", fillcolor="white"];
"2014436626"[label="{{Stmt\ -1:\ return\ xatoll_range_}|True}", color="black", fontname="Calibri", style="filled", fillcolor="white"];
"2014436626" -> "111057350"[label="1", color="black", style="setlinewidth(1)"];
"848125254"[label="{{Function\ -1:\ xatol_range_sfx}|True}", color="blue", fontname="Calibri", style="filled", fillcolor="white"];
"2014436626" -> "848125254"[label="1", color="black", style="setlinewidth(1)"];
"848125254" -> "2014436626"[label="1", color="black", style="setlinewidth(1)"];
"484672687"[label="{{Decl\ -1:\ xatoll_range}|True}", color="blue", fontname="Calibri", style="filled", fillcolor="white"];
"183779345"[label="{{Stmt\ -1:\ return\ xatoll_range(}|True}", color="black", fontname="Calibri", style="filled", fillcolor="white"];
"183779345" -> "484672687"[label="1", color="black", style="setlinewidth(1)"];
"312492876"[label="{{Function\ -1:\ xatol_range}|True}", color="blue", fontname="Calibri", style="filled", fillcolor="white"];
"183779345" -> "312492876"[label="1", color="black", style="setlinewidth(1)"];
"312492876" -> "183779345"[label="1", color="black", style="setlinewidth(1)"];
"1283954375"[label="{{Decl\ -1:\ xatoll_sfx}|True}", color="blue", fontname="Calibri", style="filled", fillcolor="white"];
"1983289893"[label="{{Stmt\ -1:\ return\ xatoll_sfx(st}|True}", color="black", fontname="Calibri", style="filled", fillcolor="white"];
"1983289893" -> "1283954375"[label="1", color="black", style="setlinewidth(1)"];
"1304007080"[label="{{Function\ -1:\ xatol_sfx}|True}", color="blue", fontname="Calibri", style="filled", fillcolor="white"];
"1983289893" -> "1304007080"[label="1", color="black", style="setlinewidth(1)"];
"1304007080" -> "1983289893"[label="1", color="black", style="setlinewidth(1)"];
"1440060721"[label="{{Decl\ -1:\ xatoll}|True}", color="blue", fontname="Calibri", style="filled", fillcolor="white"];
"1229653422"[label="{{Stmt\ -1:\ return\ xatoll(str);}|True}", color="black", fontname="Calibri", style="filled", fillcolor="white"];
"1229653422" -> "1440060721"[label="1", color="black", style="setlinewidth(1)"];
"100886927"[label="{{Function\ -1:\ xatol}|True}", color="blue", fontname="Calibri", style="filled", fillcolor="white"];
"1229653422" -> "100886927"[label="1", color="black", style="setlinewidth(1)"];
"100886927" -> "1229653422"[label="1", color="black", style="setlinewidth(1)"];
"917334764" -> "349168734"[label="1", color="black", style="setlinewidth(1)"];
"917334764" -> "595173782"[label="1", color="black", style="setlinewidth(1)"];
"595173782" -> "917334764"[label="1", color="black", style="setlinewidth(1)"];
"1167618388"[label="{{Decl\ -1:\ BUG_xatou32_unimplemented}|True}", color="blue", fontname="Calibri", style="filled", fillcolor="white"];
"179331370"[label="{{Decl\ -1:\ xatou}|True}", color="blue", fontname="Calibri", style="filled", fillcolor="white"];
"540520315"[label="{{Stmt\ -1:\ return\ xatoul(numstr}|True}", color="black", fontname="Calibri", style="filled", fillcolor="white"];
"540520315" -> "595173782"[label="1", color="black", style="setlinewidth(1)"];
"2069814239"[label="{{Function\ -1:\ xatou32}|True}", color="blue", fontname="Calibri", style="filled", fillcolor="white"];
"540520315" -> "2069814239"[label="1", color="black", style="setlinewidth(1)"];
"1664961570"[label="{{Stmt\ -1:\ return\ BUG_xatou32_u}|True}", color="black", fontname="Calibri", style="filled", fillcolor="white"];
"1664961570" -> "1167618388"[label="1", color="black", style="setlinewidth(1)"];
"1664961570" -> "2069814239"[label="1", color="black", style="setlinewidth(1)"];
"2017600524"[label="{{Stmt\ -1:\ return\ xatou(numstr)}|True}", color="black", fontname="Calibri", style="filled", fillcolor="white"];
"2017600524" -> "179331370"[label="1", color="black", style="setlinewidth(1)"];
"2017600524" -> "2069814239"[label="1", color="black", style="setlinewidth(1)"];
"788696404"[label="{{Expr\ -1:\ (((92233720368547758}|True}", color="black", fontname="Calibri", style="filled", fillcolor="white"];
"788696404" -> "1664961570"[label="1", color="black", style="setlinewidth(1)"];
"788696404" -> "540520315"[label="1", color="black", style="setlinewidth(1)"];
"683487429"[label="{{Expr\ -1:\ (((2147483647\ *\ 2U)\ }|True}", color="black", fontname="Calibri", style="filled", fillcolor="white"];
"683487429" -> "788696404"[label="1", color="black", style="setlinewidth(1)"];
"683487429" -> "2017600524"[label="1", color="black", style="setlinewidth(1)"];
"2069814239" -> "683487429"[label="1", color="black", style="setlinewidth(1)"];
"99488628"[label="{{Decl\ -1:\ bb_strtoull}|True}", color="blue", fontname="Calibri", style="filled", fillcolor="white"];
"1326198179"[label="{{Stmt\ -1:\ return\ bb_strtoull(a}|True}", color="black", fontname="Calibri", style="filled", fillcolor="white"];
"1326198179" -> "99488628"[label="1", color="black", style="setlinewidth(1)"];
"1942865373"[label="{{Function\ -1:\ bb_strtoul}|True}", color="blue", fontname="Calibri", style="filled", fillcolor="white"];
"1326198179" -> "1942865373"[label="1", color="black", style="setlinewidth(1)"];
"1942865373" -> "1326198179"[label="1", color="black", style="setlinewidth(1)"];
"1682530609"[label="{{Decl\ -1:\ bb_strtoll}|True}", color="blue", fontname="Calibri", style="filled", fillcolor="white"];
"1007827786"[label="{{Stmt\ -1:\ return\ bb_strtoll(ar}|True}", color="black", fontname="Calibri", style="filled", fillcolor="white"];
"1007827786" -> "1682530609"[label="1", color="black", style="setlinewidth(1)"];
"1738964628"[label="{{Function\ -1:\ bb_strtol}|True}", color="blue", fontname="Calibri", style="filled", fillcolor="white"];
"1007827786" -> "1738964628"[label="1", color="black", style="setlinewidth(1)"];
"1738964628" -> "1007827786"[label="1", color="black", style="setlinewidth(1)"];
"1326198179" -> "99488628"[label="1", color="black", style="setlinewidth(1)"];
"1326198179" -> "1942865373"[label="1", color="black", style="setlinewidth(1)"];
"1942865373" -> "1326198179"[label="1", color="black", style="setlinewidth(1)"];
"1992613818"[label="{{Decl\ -1:\ BUG_bb_strtou32_unimplemented}|True}", color="blue", fontname="Calibri", style="filled", fillcolor="white"];
"1466743137"[label="{{Decl\ -1:\ bb_strtou}|True}", color="blue", fontname="Calibri", style="filled", fillcolor="white"];
"216309538"[label="{{Stmt\ -1:\ return\ bb_strtoul(ar}|True}", color="black", fontname="Calibri", style="filled", fillcolor="white"];
"216309538" -> "1942865373"[label="1", color="black", style="setlinewidth(1)"];
"331663701"[label="{{Function\ -1:\ bb_strtou32}|True}", color="blue", fontname="Calibri", style="filled", fillcolor="white"];
"216309538" -> "331663701"[label="1", color="black", style="setlinewidth(1)"];
"437811141"[label="{{Stmt\ -1:\ return\ BUG_bb_strtou}|True}", color="black", fontname="Calibri", style="filled", fillcolor="white"];
"437811141" -> "1992613818"[label="1", color="black", style="setlinewidth(1)"];
"437811141" -> "331663701"[label="1", color="black", style="setlinewidth(1)"];
"1826801639"[label="{{Stmt\ -1:\ return\ bb_strtou(arg}|True}", color="black", fontname="Calibri", style="filled", fillcolor="white"];
"1826801639" -> "1466743137"[label="1", color="black", style="setlinewidth(1)"];
"1826801639" -> "331663701"[label="1", color="black", style="setlinewidth(1)"];
"494504556"[label="{{Expr\ -1:\ (sizeof(uint32_t\ )\ =}|True}", color="black", fontname="Calibri", style="filled", fillcolor="white"];
"494504556" -> "437811141"[label="1", color="black", style="setlinewidth(1)"];
"494504556" -> "216309538"[label="1", color="black", style="setlinewidth(1)"];
"860523288"[label="{{Expr\ -1:\ (sizeof(uint32_t\ )\ =}|True}", color="black", fontname="Calibri", style="filled", fillcolor="white"];
"860523288" -> "494504556"[label="1", color="black", style="setlinewidth(1)"];
"860523288" -> "1826801639"[label="1", color="black", style="setlinewidth(1)"];
"331663701" -> "860523288"[label="1", color="black", style="setlinewidth(1)"];
"1265135150"[label="{{Stmt\ -1:\ return\ (b\ \<=\ ('z'\ -\ }|True}", color="black", fontname="Calibri", style="filled", fillcolor="white"];
"1808549342"[label="{{Function\ -1:\ bb_ascii_isalnum}|True}", color="blue", fontname="Calibri", style="filled", fillcolor="white"];
"1265135150" -> "1808549342"[label="1", color="black", style="setlinewidth(1)"];
"532040857"[label="{{Stmt\ -1:\ return\ (b\ \<=\ 9);}|True}", color="black", fontname="Calibri", style="filled", fillcolor="white"];
"532040857" -> "1808549342"[label="1", color="black", style="setlinewidth(1)"];
"304985353"[label="{{Stmt\ -1:\ (b\ =\ ((a\ \|\ 0x20)\ -\ '}|True}", color="black", fontname="Calibri", style="filled", fillcolor="white"];
"304985353" -> "1265135150"[label="1", color="black", style="setlinewidth(1)"];
"1319553393"[label="{{Expr\ -1:\ (b\ \<=\ 9)}|True}", color="black", fontname="Calibri", style="filled", fillcolor="white"];
"1319553393" -> "304985353"[label="1", color="black", style="setlinewidth(1)"];
"1319553393" -> "532040857"[label="1", color="black", style="setlinewidth(1)"];
"671710124"[label="{{Stmt\ -1:\ unsigned\ char\ b\ =\ \ (}|True}", color="black", fontname="Calibri", style="filled", fillcolor="white"];
"671710124" -> "1319553393"[label="1", color="black", style="setlinewidth(1)"];
"1808549342" -> "671710124"[label="1", color="black", style="setlinewidth(1)"];
"894288614"[label="{{Stmt\ -1:\ return\ (b\ \<=\ ('f'\ -\ }|True}", color="black", fontname="Calibri", style="filled", fillcolor="white"];
"236294811"[label="{{Function\ -1:\ bb_ascii_isxdigit}|True}", color="blue", fontname="Calibri", style="filled", fillcolor="white"];
"894288614" -> "236294811"[label="1", color="black", style="setlinewidth(1)"];
"1582860960"[label="{{Stmt\ -1:\ return\ (b\ \<=\ 9);}|True}", color="black", fontname="Calibri", style="filled", fillcolor="white"];
"1582860960" -> "236294811"[label="1", color="black", style="setlinewidth(1)"];
"1872820411"[label="{{Stmt\ -1:\ (b\ =\ ((a\ \|\ 0x20)\ -\ '}|True}", color="black", fontname="Calibri", style="filled", fillcolor="white"];
"1872820411" -> "894288614"[label="1", color="black", style="setlinewidth(1)"];
"384318494"[label="{{Expr\ -1:\ (b\ \<=\ 9)}|True}", color="black", fontname="Calibri", style="filled", fillcolor="white"];
"384318494" -> "1872820411"[label="1", color="black", style="setlinewidth(1)"];
"384318494" -> "1582860960"[label="1", color="black", style="setlinewidth(1)"];
"1437124522"[label="{{Stmt\ -1:\ unsigned\ char\ b\ =\ \ (}|True}", color="black", fontname="Calibri", style="filled", fillcolor="white"];
"1437124522" -> "384318494"[label="1", color="black", style="setlinewidth(1)"];
"236294811" -> "1437124522"[label="1", color="black", style="setlinewidth(1)"];
"1256875558"[label="{{Stmt\ -1:\ (a\ -=\ ('a'\ -\ 'A'));}|True}", color="black", fontname="Calibri", style="filled", fillcolor="white"];
"1761753481"[label="{{Stmt\ -1:\ return\ a;}|True}", color="black", fontname="Calibri", style="filled", fillcolor="white"];
"1256875558" -> "1761753481"[label="1", color="black", style="setlinewidth(1)"];
"916049868"[label="{{Function\ -1:\ bb_ascii_toupper}|True}", color="blue", fontname="Calibri", style="filled", fillcolor="white"];
"1761753481" -> "916049868"[label="1", color="black", style="setlinewidth(1)"];
"1587606416"[label="{{Expr\ -1:\ (b\ \<=\ ('z'\ -\ 'a'))}|True}", color="black", fontname="Calibri", style="filled", fillcolor="white"];
"1587606416" -> "1761753481"[label="1", color="black", style="setlinewidth(1)"];
"1587606416" -> "1256875558"[label="1", color="black", style="setlinewidth(1)"];
"765253084"[label="{{Stmt\ -1:\ unsigned\ char\ b\ =\ \ (}|True}", color="black", fontname="Calibri", style="filled", fillcolor="white"];
"765253084" -> "1587606416"[label="1", color="black", style="setlinewidth(1)"];
"916049868" -> "765253084"[label="1", color="black", style="setlinewidth(1)"];
"1920295739"[label="{{Stmt\ -1:\ (a\ +=\ ('a'\ -\ 'A'));}|True}", color="black", fontname="Calibri", style="filled", fillcolor="white"];
"342897961"[label="{{Stmt\ -1:\ return\ a;}|True}", color="black", fontname="Calibri", style="filled", fillcolor="white"];
"1920295739" -> "342897961"[label="1", color="black", style="setlinewidth(1)"];
"309803837"[label="{{Function\ -1:\ bb_ascii_tolower}|True}", color="blue", fontname="Calibri", style="filled", fillcolor="white"];
"342897961" -> "309803837"[label="1", color="black", style="setlinewidth(1)"];
"17671586"[label="{{Expr\ -1:\ (b\ \<=\ ('Z'\ -\ 'A'))}|True}", color="black", fontname="Calibri", style="filled", fillcolor="white"];
"17671586" -> "342897961"[label="1", color="black", style="setlinewidth(1)"];
"17671586" -> "1920295739"[label="1", color="black", style="setlinewidth(1)"];
"906055117"[label="{{Stmt\ -1:\ unsigned\ char\ b\ =\ \ (}|True}", color="black", fontname="Calibri", style="filled", fillcolor="white"];
"906055117" -> "17671586"[label="1", color="black", style="setlinewidth(1)"];
"309803837" -> "906055117"[label="1", color="black", style="setlinewidth(1)"];
"1942770783"[label="{{Stmt\ -1:\ (s\ =\ 0);}|True}", color="black", fontname="Calibri", style="filled", fillcolor="white"];
"424795817"[label="{{Expr\ -1:\ i--}|True}", color="black", fontname="Calibri", style="filled", fillcolor="white"];
"1942770783" -> "424795817"[label="1", color="black", style="setlinewidth(1)"];
"1158536291"[label="{{Expr\ -1:\ (i\ \>=\ 0)}|True}", color="black", fontname="Calibri", style="filled", fillcolor="white"];
"424795817" -> "1158536291"[label="1", color="black", style="setlinewidth(1)"];
"1925874610"[label="{{Stmt\ -1:\ (rip[i]\ =\ s);}|True}", color="black", fontname="Calibri", style="filled", fillcolor="white"];
"1925874610" -> "1942770783"[label="1", color="black", style="setlinewidth(1)"];
"1887534417"[label="{{Stmt\ -1:\ s++;}|True}", color="black", fontname="Calibri", style="filled", fillcolor="white"];
"1887534417" -> "424795817"[label="1", color="black", style="setlinewidth(1)"];
"74198202"[label="{{Expr\ -1:\ (rip[i]\ ==\ '.')}|True}", color="black", fontname="Calibri", style="filled", fillcolor="white"];
"74198202" -> "1887534417"[label="1", color="black", style="setlinewidth(1)"];
"74198202" -> "1925874610"[label="1", color="black", style="setlinewidth(1)"];
"978743356"[label="{{Function\ -1:\ undot}|True}", color="blue", fontname="Calibri", style="filled", fillcolor="white"];
"1158536291" -> "978743356"[label="1", color="black", style="setlinewidth(1)"];
"1158536291" -> "74198202"[label="1", color="black", style="setlinewidth(1)"];
"407655939"[label="{{Expr\ -1:\ --i}|True}", color="black", fontname="Calibri", style="filled", fillcolor="white"];
"407655939" -> "1158536291"[label="1", color="black", style="setlinewidth(1)"];
"212625468"[label="{{Stmt\ -1:\ i++;}|True}", color="black", fontname="Calibri", style="filled", fillcolor="white"];
"1940004853"[label="{{Expr\ -1:\ rip[i]}|True}", color="black", fontname="Calibri", style="filled", fillcolor="white"];
"212625468" -> "1940004853"[label="1", color="black", style="setlinewidth(1)"];
"1940004853" -> "212625468"[label="1", color="black", style="setlinewidth(1)"];
"1940004853" -> "407655939"[label="1", color="black", style="setlinewidth(1)"];
"640758307"[label="{{Stmt\ -1:\ int\ s\ =\ \ 0;}|True}", color="black", fontname="Calibri", style="filled", fillcolor="white"];
"640758307" -> "1940004853"[label="1", color="black", style="setlinewidth(1)"];
"654842001"[label="{{Stmt\ -1:\ int\ i\ =\ \ 0;}|True}", color="black", fontname="Calibri", style="filled", fillcolor="white"];
"654842001" -> "640758307"[label="1", color="black", style="setlinewidth(1)"];
"978743356" -> "654842001"[label="1", color="black", style="setlinewidth(1)"];
"1238698398"[label="{{Decl\ -1:\ config_read}|True}", color="blue", fontname="Calibri", style="filled", fillcolor="white"];
"1977983209"[label="{{Decl\ -1:\ config_open}|True}", color="blue", fontname="Calibri", style="filled", fillcolor="white"];
"252863187"[label="{{Stmt\ -1:\ (parser\ =\ config_ope}|True}", color="black", fontname="Calibri", style="filled", fillcolor="white"];
"252863187" -> "1977983209"[label="1", color="black", style="setlinewidth(1)"];
"252863187" -> "1238698398"[label="1", color="black", style="setlinewidth(1)"];
"762190410"[label="{{Stmt\ -1:\ (nextp\ =\ (&conf_data}|True}", color="black", fontname="Calibri", style="filled", fillcolor="white"];
"762190410" -> "252863187"[label="1", color="black", style="setlinewidth(1)"];
"1956957770"[label="{{Stmt\ -1:\ (conf_data\ =\ ((void\ }|True}", color="black", fontname="Calibri", style="filled", fillcolor="white"];
"1956957770" -> "762190410"[label="1", color="black", style="setlinewidth(1)"];
"2144277938"[label="{{Stmt\ -1:\ struct\ dns_entry\ \ **}|True}", color="black", fontname="Calibri", style="filled", fillcolor="white"];
"2144277938" -> "1956957770"[label="1", color="black", style="setlinewidth(1)"];
"494098065"[label="{{Stmt\ -1:\ struct\ dns_entry\ \ *m}|True}", color="black", fontname="Calibri", style="filled", fillcolor="white"];
"494098065" -> "2144277938"[label="1", color="black", style="setlinewidth(1)"];
"295883313"[label="{{Stmt\ -1:\ parser_t\ *parser;}|True}", color="black", fontname="Calibri", style="filled", fillcolor="white"];
"295883313" -> "494098065"[label="1", color="black", style="setlinewidth(1)"];
"879029953"[label="{{Stmt\ -1:\ char\ *token[2];}|True}", color="black", fontname="Calibri", style="filled", fillcolor="white"];
"879029953" -> "295883313"[label="1", color="black", style="setlinewidth(1)"];
"788343263"[label="{{Function\ -1:\ parse_conf_file}|True}", color="blue", fontname="Calibri", style="filled", fillcolor="white"];
"788343263" -> "879029953"[label="1", color="black", style="setlinewidth(1)"];
"911693650"[label="{{Decl\ -1:\ htons}|True}", color="blue", fontname="Calibri", style="filled", fillcolor="white"];
"103236397"[label="{{Stmt\ -1:\ return\ ((void\ *)\ 0);}|True}", color="black", fontname="Calibri", style="filled", fillcolor="white"];
"1774282845"[label="{{Function\ -1:\ table_lookup}|True}", color="blue", fontname="Calibri", style="filled", fillcolor="white"];
"103236397" -> "1774282845"[label="1", color="black", style="setlinewidth(1)"];
"1360538992"[label="{{Stmt\ -1:\ unsigned\ len\ =\ \ d-\>n}|True}", color="black", fontname="Calibri", style="filled", fillcolor="white"];
"1360538992" -> "911693650"[label="1", color="black", style="setlinewidth(1)"];
"1947145998"[label="{{Expr\ 145:\ d}|True}", color="black", fontname="Calibri", style="filled", fillcolor="white"];
"1947145998" -> "1360538992"[label="1", color="black", style="setlinewidth(1)"];
"1947145998" -> "103236397"[label="1", color="black", style="setlinewidth(1)"];
"1774282845" -> "1947145998"[label="1", color="black", style="setlinewidth(1)"];
"370507118"[label="{{Stmt\ -1:\ return\ 0;}|True}", color="black", fontname="Calibri", style="filled", fillcolor="white"];
"931195320"[label="{{Function\ -1:\ process_packet}|True}", color="blue", fontname="Calibri", style="filled", fillcolor="white"];
"370507118" -> "931195320"[label="1", color="black", style="setlinewidth(1)"];
"1848758524"[label="{{Decl\ -1:\ bb_error_msg}|True}", color="blue", fontname="Calibri", style="filled", fillcolor="white"];
"232552973"[label="{{Stmt\ -1:\ bb_error_msg(\\\"packet}|True}", color="black", fontname="Calibri", style="filled", fillcolor="white"];
"232552973" -> "1848758524"[label="1", color="black", style="setlinewidth(1)"];
"232552973" -> "370507118"[label="1", color="black", style="setlinewidth(1)"];
"513308283"[label="{{Expr\ -1:\ (head-\>nquer\ ==\ 0)}|True}", color="black", fontname="Calibri", style="filled", fillcolor="white"];
"513308283" -> "911693650"[label="1", color="black", style="setlinewidth(1)"];
"513308283" -> "232552973"[label="1", color="black", style="setlinewidth(1)"];
"1792027802"[label="{{Stmt\ -1:\ (head\ =\ ((struct\ dns}|True}", color="black", fontname="Calibri", style="filled", fillcolor="white"];
"1792027802" -> "513308283"[label="1", color="black", style="setlinewidth(1)"];
"1271385829"[label="{{Stmt\ -1:\ int\ query_len;}|True}", color="black", fontname="Calibri", style="filled", fillcolor="white"];
"1271385829" -> "1792027802"[label="1", color="black", style="setlinewidth(1)"];
"1157019956"[label="{{Stmt\ -1:\ uint16_t\ class;}|True}", color="black", fontname="Calibri", style="filled", fillcolor="white"];
"1157019956" -> "1271385829"[label="1", color="black", style="setlinewidth(1)"];
"231323268"[label="{{Stmt\ -1:\ uint16_t\ type;}|True}", color="black", fontname="Calibri", style="filled", fillcolor="white"];
"231323268" -> "1157019956"[label="1", color="black", style="setlinewidth(1)"];
"1052634389"[label="{{Stmt\ -1:\ uint16_t\ outr_flags;}|True}", color="black", fontname="Calibri", style="filled", fillcolor="white"];
"1052634389" -> "231323268"[label="1", color="black", style="setlinewidth(1)"];
"973469971"[label="{{Stmt\ -1:\ uint16_t\ outr_rlen;}|True}", color="black", fontname="Calibri", style="filled", fillcolor="white"];
"973469971" -> "1052634389"[label="1", color="black", style="setlinewidth(1)"];
"804672427"[label="{{Stmt\ -1:\ uint8_t\ *answb;}|True}", color="black", fontname="Calibri", style="filled", fillcolor="white"];
"804672427" -> "973469971"[label="1", color="black", style="setlinewidth(1)"];
"1978162506"[label="{{Stmt\ -1:\ char\ *answstr;}|True}", color="black", fontname="Calibri", style="filled", fillcolor="white"];
"1978162506" -> "804672427"[label="1", color="black", style="setlinewidth(1)"];
"918342498"[label="{{Stmt\ -1:\ char\ *query_string;}|True}", color="black", fontname="Calibri", style="filled", fillcolor="white"];
"918342498" -> "1978162506"[label="1", color="black", style="setlinewidth(1)"];
"703039779"[label="{{Stmt\ -1:\ const\ char\ *err_msg;}|True}", color="black", fontname="Calibri", style="filled", fillcolor="white"];
"703039779" -> "918342498"[label="1", color="black", style="setlinewidth(1)"];
"467318468"[label="{{Stmt\ -1:\ struct\ type_and_clas}|True}", color="black", fontname="Calibri", style="filled", fillcolor="white"];
"467318468" -> "703039779"[label="1", color="black", style="setlinewidth(1)"];
"103772883"[label="{{Stmt\ -1:\ struct\ dns_head\ \ *he}|True}", color="black", fontname="Calibri", style="filled", fillcolor="white"];
"103772883" -> "467318468"[label="1", color="black", style="setlinewidth(1)"];
"931195320" -> "103772883"[label="1", color="black", style="setlinewidth(1)"];
"370507118" -> "931195320"[label="1", color="black", style="setlinewidth(1)"];
"232552973" -> "1848758524"[label="1", color="black", style="setlinewidth(1)"];
"232552973" -> "370507118"[label="1", color="black", style="setlinewidth(1)"];
"513308283" -> "911693650"[label="1", color="black", style="setlinewidth(1)"];
"513308283" -> "232552973"[label="1", color="black", style="setlinewidth(1)"];
"1792027802" -> "513308283"[label="1", color="black", style="setlinewidth(1)"];
"1271385829" -> "1792027802"[label="1", color="black", style="setlinewidth(1)"];
"1157019956" -> "1271385829"[label="1", color="black", style="setlinewidth(1)"];
"231323268" -> "1157019956"[label="1", color="black", style="setlinewidth(1)"];
"1052634389" -> "231323268"[label="1", color="black", style="setlinewidth(1)"];
"973469971" -> "1052634389"[label="1", color="black", style="setlinewidth(1)"];
"804672427" -> "973469971"[label="1", color="black", style="setlinewidth(1)"];
"1978162506" -> "804672427"[label="1", color="black", style="setlinewidth(1)"];
"918342498" -> "1978162506"[label="1", color="black", style="setlinewidth(1)"];
"703039779" -> "918342498"[label="1", color="black", style="setlinewidth(1)"];
"2034340790"[label="{{Decl\ -1:\ send_to_from}|True}", color="blue", fontname="Calibri", style="filled", fillcolor="white"];
"467318468" -> "703039779"[label="1", color="black", style="setlinewidth(1)"];
"1901500342"[label="{{Stmt\ 540:\ continue;}|True}", color="black", fontname="Calibri", style="filled", fillcolor="white"];
"1686699763"[label="{{Expr\ 522:\ 1}|True}", color="black", fontname="Calibri", style="filled", fillcolor="white"];
"1901500342" -> "1686699763"[label="1", color="black", style="setlinewidth(1)"];
"1812096987"[label="{{Stmt\ -1:\ send_to_from(udps\ ,\ }|True}", color="black", fontname="Calibri", style="filled", fillcolor="white"];
"1812096987" -> "2034340790"[label="1", color="black", style="setlinewidth(1)"];
"1812096987" -> "931195320"[label="1", color="black", style="setlinewidth(1)"];
"1812096987" -> "1848758524"[label="1", color="black", style="setlinewidth(1)"];
"1223310277"[label="{{Decl\ -1:\ recv_from_to}|True}", color="blue", fontname="Calibri", style="filled", fillcolor="white"];
"1812096987" -> "1223310277"[label="1", color="black", style="setlinewidth(1)"];
"786572348"[label="{{Decl\ -1:\ memcpy}|True}", color="blue", fontname="Calibri", style="filled", fillcolor="white"];
"1812096987" -> "786572348"[label="1", color="black", style="setlinewidth(1)"];
"1812096987" -> "1686699763"[label="1", color="black", style="setlinewidth(1)"];
"103772883" -> "467318468"[label="1", color="black", style="setlinewidth(1)"];
"1475542526"[label="{{Expr\ -1:\ (r\ \<=\ 0)}|True}", color="black", fontname="Calibri", style="filled", fillcolor="white"];
"1475542526" -> "1812096987"[label="1", color="black", style="setlinewidth(1)"];
"1475542526" -> "1901500342"[label="1", color="black", style="setlinewidth(1)"];
"931195320" -> "103772883"[label="1", color="black", style="setlinewidth(1)"];
"128615851"[label="{{Stmt\ -1:\ (r\ =\ process_packet(}|True}", color="black", fontname="Calibri", style="filled", fillcolor="white"];
"128615851" -> "931195320"[label="1", color="black", style="setlinewidth(1)"];
"128615851" -> "1475542526"[label="1", color="black", style="setlinewidth(1)"];
"1184831653"[label="{{Stmt\ 533:\ continue;}|True}", color="black", fontname="Calibri", style="filled", fillcolor="white"];
"1184831653" -> "1686699763"[label="1", color="black", style="setlinewidth(1)"];
"868339418"[label="{{Stmt\ -1:\ bb_error_msg(\\\"got\ UD}|True}", color="black", fontname="Calibri", style="filled", fillcolor="white"];
"868339418" -> "1848758524"[label="1", color="black", style="setlinewidth(1)"];
"313899533"[label="{{Stmt\ -1:\ (buf[r]\ =\ '\0');}|True}", color="black", fontname="Calibri", style="filled", fillcolor="white"];
"868339418" -> "313899533"[label="1", color="black", style="setlinewidth(1)"];
"313899533" -> "128615851"[label="1", color="black", style="setlinewidth(1)"];
"1960892376"[label="{{Stmt\ -1:\ bb_error_msg(\\\"packet}|True}", color="black", fontname="Calibri", style="filled", fillcolor="white"];
"1960892376" -> "1848758524"[label="1", color="black", style="setlinewidth(1)"];
"1960892376" -> "1184831653"[label="1", color="black", style="setlinewidth(1)"];
"1958373675"[label="{{Expr\ -1:\ (option_mask32\ &\ 1)}|True}", color="black", fontname="Calibri", style="filled", fillcolor="white"];
"1958373675" -> "313899533"[label="1", color="black", style="setlinewidth(1)"];
"1958373675" -> "868339418"[label="1", color="black", style="setlinewidth(1)"];
"847247454"[label="{{Expr\ -1:\ ((r\ \<\ 12)\ \|\|\ (r\ \>\ MA}|True}", color="black", fontname="Calibri", style="filled", fillcolor="white"];
"847247454" -> "1958373675"[label="1", color="black", style="setlinewidth(1)"];
"847247454" -> "1960892376"[label="1", color="black", style="setlinewidth(1)"];
"87766948"[label="{{Stmt\ -1:\ (r\ =\ recv_from_to(ud}|True}", color="black", fontname="Calibri", style="filled", fillcolor="white"];
"87766948" -> "1223310277"[label="1", color="black", style="setlinewidth(1)"];
"87766948" -> "847247454"[label="1", color="black", style="setlinewidth(1)"];
"388580414"[label="{{Stmt\ -1:\ memcpy(to\ ,\ lsa\ ,\ ls}|True}", color="black", fontname="Calibri", style="filled", fillcolor="white"];
"388580414" -> "786572348"[label="1", color="black", style="setlinewidth(1)"];
"388580414" -> "87766948"[label="1", color="black", style="setlinewidth(1)"];
"430688727"[label="{{Stmt\ -1:\ return\ 0;}|True}", color="black", fontname="Calibri", style="filled", fillcolor="white"];
"1634739226"[label="{{Function\ -1:\ dnsd_main}|True}", color="blue", fontname="Calibri", style="filled", fillcolor="white"];
"430688727" -> "1634739226"[label="1", color="black", style="setlinewidth(1)"];
"1428804158"[label="{{Stmt\ -1:\ int\ r;}|True}", color="black", fontname="Calibri", style="filled", fillcolor="white"];
"1428804158" -> "388580414"[label="1", color="black", style="setlinewidth(1)"];
"1686699763" -> "1428804158"[label="1", color="black", style="setlinewidth(1)"];
"1686699763" -> "430688727"[label="1", color="black", style="setlinewidth(1)"];
"1843187481"[label="{{Decl\ -1:\ free}|True}", color="blue", fontname="Calibri", style="filled", fillcolor="white"];
"623622491"[label="{{Stmt\ -1:\ free(p);}|True}", color="black", fontname="Calibri", style="filled", fillcolor="white"];
"623622491" -> "1843187481"[label="1", color="black", style="setlinewidth(1)"];
"623622491" -> "1848758524"[label="1", color="black", style="setlinewidth(1)"];
"993769467"[label="{{Decl\ -1:\ xmalloc_sockaddr2dotted}|True}", color="blue", fontname="Calibri", style="filled", fillcolor="white"];
"623622491" -> "993769467"[label="1", color="black", style="setlinewidth(1)"];
"623622491" -> "1686699763"[label="1", color="black", style="setlinewidth(1)"];
"975531064"[label="{{Stmt\ -1:\ bb_error_msg(\\\"accept}|True}", color="black", fontname="Calibri", style="filled", fillcolor="white"];
"975531064" -> "1848758524"[label="1", color="black", style="setlinewidth(1)"];
"975531064" -> "623622491"[label="1", color="black", style="setlinewidth(1)"];
"1203787837"[label="{{Stmt\ -1:\ char\ *p\ =\ \ xmalloc_s}|True}", color="black", fontname="Calibri", style="filled", fillcolor="white"];
"1203787837" -> "993769467"[label="1", color="black", style="setlinewidth(1)"];
"1203787837" -> "975531064"[label="1", color="black", style="setlinewidth(1)"];
"252863187" -> "1977983209"[label="1", color="black", style="setlinewidth(1)"];
"252863187" -> "1238698398"[label="1", color="black", style="setlinewidth(1)"];
"1453098047"[label="{{Stmt\ -1:\ (to\ =\ xzalloc(lsa_si}|True}", color="black", fontname="Calibri", style="filled", fillcolor="white"];
"489517981"[label="{{Decl\ -1:\ xzalloc}|True}", color="blue", fontname="Calibri", style="filled", fillcolor="white"];
"1453098047" -> "489517981"[label="1", color="black", style="setlinewidth(1)"];
"1453098047" -> "1203787837"[label="1", color="black", style="setlinewidth(1)"];
"762190410" -> "252863187"[label="1", color="black", style="setlinewidth(1)"];
"779173495"[label="{{Stmt\ -1:\ (from\ =\ xzalloc(lsa_}|True}", color="black", fontname="Calibri", style="filled", fillcolor="white"];
"779173495" -> "489517981"[label="1", color="black", style="setlinewidth(1)"];
"779173495" -> "1453098047"[label="1", color="black", style="setlinewidth(1)"];
"1956957770" -> "762190410"[label="1", color="black", style="setlinewidth(1)"];
"1037309675"[label="{{Stmt\ -1:\ (lsa_size\ =\ (LSA_LEN}|True}", color="black", fontname="Calibri", style="filled", fillcolor="white"];
"1037309675" -> "779173495"[label="1", color="black", style="setlinewidth(1)"];
"1717072661"[label="{{Decl\ -1:\ socket_want_pktinfo}|True}", color="blue", fontname="Calibri", style="filled", fillcolor="white"];
"2144277938" -> "1956957770"[label="1", color="black", style="setlinewidth(1)"];
"492511776"[label="{{Stmt\ -1:\ socket_want_pktinfo(}|True}", color="black", fontname="Calibri", style="filled", fillcolor="white"];
"492511776" -> "1717072661"[label="1", color="black", style="setlinewidth(1)"];
"492511776" -> "1037309675"[label="1", color="black", style="setlinewidth(1)"];
"382310888"[label="{{Decl\ -1:\ xbind}|True}", color="blue", fontname="Calibri", style="filled", fillcolor="white"];
"494098065" -> "2144277938"[label="1", color="black", style="setlinewidth(1)"];
"158556484"[label="{{Stmt\ -1:\ xbind(udps\ ,\ (&lsa-\>}|True}", color="black", fontname="Calibri", style="filled", fillcolor="white"];
"158556484" -> "382310888"[label="1", color="black", style="setlinewidth(1)"];
"158556484" -> "492511776"[label="1", color="black", style="setlinewidth(1)"];
"2049741805"[label="{{Decl\ -1:\ xsocket}|True}", color="blue", fontname="Calibri", style="filled", fillcolor="white"];
"295883313" -> "494098065"[label="1", color="black", style="setlinewidth(1)"];
"2036334527"[label="{{Stmt\ -1:\ (logmode\ =\ LOGMODE_S}|True}", color="black", fontname="Calibri", style="filled", fillcolor="white"];
"2048253430"[label="{{Decl\ -1:\ openlog}|True}", color="blue", fontname="Calibri", style="filled", fillcolor="white"];
"2036334527" -> "2048253430"[label="1", color="black", style="setlinewidth(1)"];
"1838052722"[label="{{Decl\ -1:\ bb_daemonize_or_rexec,\ bb_daemonize_or_rexec}|True}", color="blue", fontname="Calibri", style="filled", fillcolor="white"];
"2036334527" -> "1838052722"[label="definedEx(CONFIG_NOMMU)", color="red", style="setlinewidth(1)"];
"2036334527" -> "1838052722"[label="!definedEx(CONFIG_NOMMU)", color="red", style="setlinewidth(1)"];
"963843713"[label="{{Stmt\ -1:\ (conf_data\ =\ parse_c}|True}", color="black", fontname="Calibri", style="filled", fillcolor="white"];
"2036334527" -> "963843713"[label="1", color="black", style="setlinewidth(1)"];
"848509266"[label="{{Stmt\ -1:\ (udps\ =\ xsocket(lsa-}|True}", color="black", fontname="Calibri", style="filled", fillcolor="white"];
"848509266" -> "2049741805"[label="1", color="black", style="setlinewidth(1)"];
"848509266" -> "158556484"[label="1", color="black", style="setlinewidth(1)"];
"1297936204"[label="{{Decl\ -1:\ xdotted2sockaddr}|True}", color="blue", fontname="Calibri", style="filled", fillcolor="white"];
"879029953" -> "295883313"[label="1", color="black", style="setlinewidth(1)"];
"309747297"[label="{{Stmt\ -1:\ openlog(applet_name\ }|True}", color="black", fontname="Calibri", style="filled", fillcolor="white"];
"309747297" -> "2048253430"[label="1", color="black", style="setlinewidth(1)"];
"309747297" -> "2036334527"[label="1", color="black", style="setlinewidth(1)"];
"62524309"[label="{{Stmt\ -1:\ (lsa\ =\ xdotted2socka}|True}", color="black", fontname="Calibri", style="filled", fillcolor="white"];
"62524309" -> "1297936204"[label="1", color="black", style="setlinewidth(1)"];
"62524309" -> "848509266"[label="1", color="black", style="setlinewidth(1)"];
"788343263" -> "879029953"[label="1", color="black", style="setlinewidth(1)"];
"1410863062"[label="{{Stmt\ -1:\ bb_daemonize_or_rexe}|def(CONFIG_NOMMU)}", color="black", fontname="Calibri", style="filled", fillcolor="#CD5200"];
"1410863062" -> "1838052722"[label="definedEx(CONFIG_NOMMU)", color="red", style="setlinewidth(1)"];
"1410863062" -> "309747297"[label="definedEx(CONFIG_NOMMU)", color="red", style="setlinewidth(1)"];
"1774663402"[label="{{Stmt\ -1:\ bb_daemonize_or_rexe}|!def(CONFIG_NOMMU)}", color="black", fontname="Calibri", style="filled", fillcolor="#CD5200"];
"1774663402" -> "1838052722"[label="!definedEx(CONFIG_NOMMU)", color="red", style="setlinewidth(1)"];
"1774663402" -> "309747297"[label="!definedEx(CONFIG_NOMMU)", color="red", style="setlinewidth(1)"];
"963843713" -> "788343263"[label="1", color="black", style="setlinewidth(1)"];
"963843713" -> "62524309"[label="1", color="black", style="setlinewidth(1)"];
"279527946"[label="{{Decl\ -1:\ xatou_range}|True}", color="blue", fontname="Calibri", style="filled", fillcolor="white"];
"2135193422"[label="{{Stmt\ -1:\ (port\ =\ xatou_range(}|True}", color="black", fontname="Calibri", style="filled", fillcolor="white"];
"2135193422" -> "279527946"[label="1", color="black", style="setlinewidth(1)"];
"1023136157"[label="{{Expr\ -1:\ (opts\ &\ (1\ \<\<\ 6))}|True}", color="black", fontname="Calibri", style="filled", fillcolor="white"];
"2135193422" -> "1023136157"[label="1", color="black", style="setlinewidth(1)"];
"1023136157" -> "963843713"[label="1", color="black", style="setlinewidth(1)"];
"1023136157" -> "1774663402"[label="!definedEx(CONFIG_NOMMU)", color="red", style="setlinewidth(1)"];
"1023136157" -> "1410863062"[label="definedEx(CONFIG_NOMMU)", color="red", style="setlinewidth(1)"];
"1088876137"[label="{{Stmt\ -1:\ (conf_ttl\ =\ xatou_ra}|True}", color="black", fontname="Calibri", style="filled", fillcolor="white"];
"1088876137" -> "279527946"[label="1", color="black", style="setlinewidth(1)"];
"1385097813"[label="{{Expr\ -1:\ (opts\ &\ (1\ \<\<\ 5))}|True}", color="black", fontname="Calibri", style="filled", fillcolor="white"];
"1088876137" -> "1385097813"[label="1", color="black", style="setlinewidth(1)"];
"1385097813" -> "1023136157"[label="1", color="black", style="setlinewidth(1)"];
"1385097813" -> "2135193422"[label="1", color="black", style="setlinewidth(1)"];
"579816898"[label="{{Expr\ -1:\ (opts\ &\ (1\ \<\<\ 4))}|True}", color="black", fontname="Calibri", style="filled", fillcolor="white"];
"579816898" -> "1385097813"[label="1", color="black", style="setlinewidth(1)"];
"579816898" -> "1088876137"[label="1", color="black", style="setlinewidth(1)"];
"122830635"[label="{{Decl\ -1:\ getopt32}|True}", color="blue", fontname="Calibri", style="filled", fillcolor="white"];
"353915778"[label="{{Stmt\ -1:\ (opts\ =\ getopt32(arg}|True}", color="black", fontname="Calibri", style="filled", fillcolor="white"];
"353915778" -> "122830635"[label="1", color="black", style="setlinewidth(1)"];
"353915778" -> "579816898"[label="1", color="black", style="setlinewidth(1)"];
"839563490"[label="{{Stmt\ -1:\ uint8_t\ buf[(MAX_PAC}|True}", color="black", fontname="Calibri", style="filled", fillcolor="white"];
"839563490" -> "353915778"[label="1", color="black", style="setlinewidth(1)"];
"1517579707"[label="{{Stmt\ -1:\ uint16_t\ port\ =\ \ 53;}|True}", color="black", fontname="Calibri", style="filled", fillcolor="white"];
"1517579707" -> "839563490"[label="1", color="black", style="setlinewidth(1)"];
"95403750"[label="{{Stmt\ -1:\ int\ udps,\ opts;}|True}", color="black", fontname="Calibri", style="filled", fillcolor="white"];
"95403750" -> "1517579707"[label="1", color="black", style="setlinewidth(1)"];
"164242373"[label="{{Stmt\ -1:\ unsigned\ lsa_size;}|True}", color="black", fontname="Calibri", style="filled", fillcolor="white"];
"164242373" -> "95403750"[label="1", color="black", style="setlinewidth(1)"];
"332811400"[label="{{Stmt\ -1:\ len_and_sockaddr\ *ls}|True}", color="black", fontname="Calibri", style="filled", fillcolor="white"];
"332811400" -> "164242373"[label="1", color="black", style="setlinewidth(1)"];
"314553631"[label="{{Stmt\ -1:\ char\ *sttl,\ *sport;}|True}", color="black", fontname="Calibri", style="filled", fillcolor="white"];
"314553631" -> "332811400"[label="1", color="black", style="setlinewidth(1)"];
"1703865104"[label="{{Stmt\ -1:\ uint32_t\ conf_ttl\ =\ }|True}", color="black", fontname="Calibri", style="filled", fillcolor="white"];
"1703865104" -> "314553631"[label="1", color="black", style="setlinewidth(1)"];
"1186709005"[label="{{Stmt\ -1:\ struct\ dns_entry\ \ *c}|True}", color="black", fontname="Calibri", style="filled", fillcolor="white"];
"1186709005" -> "1703865104"[label="1", color="black", style="setlinewidth(1)"];
"652606463"[label="{{Stmt\ -1:\ const\ char\ *fileconf}|True}", color="black", fontname="Calibri", style="filled", fillcolor="white"];
"652606463" -> "1186709005"[label="1", color="black", style="setlinewidth(1)"];
"2127230531"[label="{{Stmt\ -1:\ const\ char\ *listen_i}|True}", color="black", fontname="Calibri", style="filled", fillcolor="white"];
"2127230531" -> "652606463"[label="1", color="black", style="setlinewidth(1)"];
"1634739226" -> "2127230531"[label="1", color="black", style="setlinewidth(1)"];
}
