digraph "busybox-1.18.5/networking/ifenslave.c" {
node [shape=record];
"1247828628"[label="{{Decl\ -1:\ xstrtoull_range_sfx}|True}", color="blue", fontname="Calibri", style="filled", fillcolor="white"];
"382102884"[label="{{Stmt\ -1:\ return\ xstrtoull_ran}|True}", color="black", fontname="Calibri", style="filled", fillcolor="white"];
"382102884" -> "1247828628"[label="1", color="black", style="setlinewidth(1)"];
"610596711"[label="{{Function\ -1:\ xstrtoul_range_sfx}|True}", color="blue", fontname="Calibri", style="filled", fillcolor="white"];
"382102884" -> "610596711"[label="1", color="black", style="setlinewidth(1)"];
"610596711" -> "382102884"[label="1", color="black", style="setlinewidth(1)"];
"1609434137"[label="{{Decl\ -1:\ xstrtoull_range}|True}", color="blue", fontname="Calibri", style="filled", fillcolor="white"];
"270022253"[label="{{Stmt\ -1:\ return\ xstrtoull_ran}|True}", color="black", fontname="Calibri", style="filled", fillcolor="white"];
"270022253" -> "1609434137"[label="1", color="black", style="setlinewidth(1)"];
"2005467440"[label="{{Function\ -1:\ xstrtoul_range}|True}", color="blue", fontname="Calibri", style="filled", fillcolor="white"];
"270022253" -> "2005467440"[label="1", color="black", style="setlinewidth(1)"];
"2005467440" -> "270022253"[label="1", color="black", style="setlinewidth(1)"];
"22364268"[label="{{Decl\ -1:\ xstrtoull_sfx}|True}", color="blue", fontname="Calibri", style="filled", fillcolor="white"];
"292651271"[label="{{Stmt\ -1:\ return\ xstrtoull_sfx}|True}", color="black", fontname="Calibri", style="filled", fillcolor="white"];
"292651271" -> "22364268"[label="1", color="black", style="setlinewidth(1)"];
"1980378778"[label="{{Function\ -1:\ xstrtoul_sfx}|True}", color="blue", fontname="Calibri", style="filled", fillcolor="white"];
"292651271" -> "1980378778"[label="1", color="black", style="setlinewidth(1)"];
"1980378778" -> "292651271"[label="1", color="black", style="setlinewidth(1)"];
"2024801471"[label="{{Decl\ -1:\ xstrtoull}|True}", color="blue", fontname="Calibri", style="filled", fillcolor="white"];
"176044382"[label="{{Stmt\ -1:\ return\ xstrtoull(str}|True}", color="black", fontname="Calibri", style="filled", fillcolor="white"];
"176044382" -> "2024801471"[label="1", color="black", style="setlinewidth(1)"];
"877349850"[label="{{Function\ -1:\ xstrtoul}|True}", color="blue", fontname="Calibri", style="filled", fillcolor="white"];
"176044382" -> "877349850"[label="1", color="black", style="setlinewidth(1)"];
"877349850" -> "176044382"[label="1", color="black", style="setlinewidth(1)"];
"1475151813"[label="{{Decl\ -1:\ xatoull_range_sfx}|True}", color="blue", fontname="Calibri", style="filled", fillcolor="white"];
"1212721986"[label="{{Stmt\ -1:\ return\ xatoull_range}|True}", color="black", fontname="Calibri", style="filled", fillcolor="white"];
"1212721986" -> "1475151813"[label="1", color="black", style="setlinewidth(1)"];
"2062287781"[label="{{Function\ -1:\ xatoul_range_sfx}|True}", color="blue", fontname="Calibri", style="filled", fillcolor="white"];
"1212721986" -> "2062287781"[label="1", color="black", style="setlinewidth(1)"];
"2062287781" -> "1212721986"[label="1", color="black", style="setlinewidth(1)"];
"1889071491"[label="{{Decl\ -1:\ xatoull_range}|True}", color="blue", fontname="Calibri", style="filled", fillcolor="white"];
"725266641"[label="{{Stmt\ -1:\ return\ xatoull_range}|True}", color="black", fontname="Calibri", style="filled", fillcolor="white"];
"725266641" -> "1889071491"[label="1", color="black", style="setlinewidth(1)"];
"1792215344"[label="{{Function\ -1:\ xatoul_range}|True}", color="blue", fontname="Calibri", style="filled", fillcolor="white"];
"725266641" -> "1792215344"[label="1", color="black", style="setlinewidth(1)"];
"1792215344" -> "725266641"[label="1", color="black", style="setlinewidth(1)"];
"1674524443"[label="{{Decl\ -1:\ xatoull_sfx}|True}", color="blue", fontname="Calibri", style="filled", fillcolor="white"];
"722226418"[label="{{Stmt\ -1:\ return\ xatoull_sfx(s}|True}", color="black", fontname="Calibri", style="filled", fillcolor="white"];
"722226418" -> "1674524443"[label="1", color="black", style="setlinewidth(1)"];
"1197419879"[label="{{Function\ -1:\ xatoul_sfx}|True}", color="blue", fontname="Calibri", style="filled", fillcolor="white"];
"722226418" -> "1197419879"[label="1", color="black", style="setlinewidth(1)"];
"1197419879" -> "722226418"[label="1", color="black", style="setlinewidth(1)"];
"812993545"[label="{{Decl\ -1:\ xatoull}|True}", color="blue", fontname="Calibri", style="filled", fillcolor="white"];
"1540159731"[label="{{Stmt\ -1:\ return\ xatoull(str);}|True}", color="black", fontname="Calibri", style="filled", fillcolor="white"];
"1540159731" -> "812993545"[label="1", color="black", style="setlinewidth(1)"];
"2035064391"[label="{{Function\ -1:\ xatoul}|True}", color="blue", fontname="Calibri", style="filled", fillcolor="white"];
"1540159731" -> "2035064391"[label="1", color="black", style="setlinewidth(1)"];
"2035064391" -> "1540159731"[label="1", color="black", style="setlinewidth(1)"];
"1714491829"[label="{{Decl\ -1:\ xstrtoll_range_sfx}|True}", color="blue", fontname="Calibri", style="filled", fillcolor="white"];
"538490295"[label="{{Stmt\ -1:\ return\ xstrtoll_rang}|True}", color="black", fontname="Calibri", style="filled", fillcolor="white"];
"538490295" -> "1714491829"[label="1", color="black", style="setlinewidth(1)"];
"974745383"[label="{{Function\ -1:\ xstrtol_range_sfx}|True}", color="blue", fontname="Calibri", style="filled", fillcolor="white"];
"538490295" -> "974745383"[label="1", color="black", style="setlinewidth(1)"];
"974745383" -> "538490295"[label="1", color="black", style="setlinewidth(1)"];
"937148019"[label="{{Decl\ -1:\ xstrtoll_range}|True}", color="blue", fontname="Calibri", style="filled", fillcolor="white"];
"1012231933"[label="{{Stmt\ -1:\ return\ xstrtoll_rang}|True}", color="black", fontname="Calibri", style="filled", fillcolor="white"];
"1012231933" -> "937148019"[label="1", color="black", style="setlinewidth(1)"];
"1344987728"[label="{{Function\ -1:\ xstrtol_range}|True}", color="blue", fontname="Calibri", style="filled", fillcolor="white"];
"1012231933" -> "1344987728"[label="1", color="black", style="setlinewidth(1)"];
"1344987728" -> "1012231933"[label="1", color="black", style="setlinewidth(1)"];
"2140118453"[label="{{Decl\ -1:\ xstrtoll}|True}", color="blue", fontname="Calibri", style="filled", fillcolor="white"];
"1039866551"[label="{{Stmt\ -1:\ return\ xstrtoll(str\ }|True}", color="black", fontname="Calibri", style="filled", fillcolor="white"];
"1039866551" -> "2140118453"[label="1", color="black", style="setlinewidth(1)"];
"1183980310"[label="{{Function\ -1:\ xstrtol}|True}", color="blue", fontname="Calibri", style="filled", fillcolor="white"];
"1039866551" -> "1183980310"[label="1", color="black", style="setlinewidth(1)"];
"1183980310" -> "1039866551"[label="1", color="black", style="setlinewidth(1)"];
"1585662774"[label="{{Decl\ -1:\ xatoll_range_sfx}|True}", color="blue", fontname="Calibri", style="filled", fillcolor="white"];
"1989199870"[label="{{Stmt\ -1:\ return\ xatoll_range_}|True}", color="black", fontname="Calibri", style="filled", fillcolor="white"];
"1989199870" -> "1585662774"[label="1", color="black", style="setlinewidth(1)"];
"1383009903"[label="{{Function\ -1:\ xatol_range_sfx}|True}", color="blue", fontname="Calibri", style="filled", fillcolor="white"];
"1989199870" -> "1383009903"[label="1", color="black", style="setlinewidth(1)"];
"1383009903" -> "1989199870"[label="1", color="black", style="setlinewidth(1)"];
"1448359561"[label="{{Decl\ -1:\ xatoll_range}|True}", color="blue", fontname="Calibri", style="filled", fillcolor="white"];
"322682835"[label="{{Stmt\ -1:\ return\ xatoll_range(}|True}", color="black", fontname="Calibri", style="filled", fillcolor="white"];
"322682835" -> "1448359561"[label="1", color="black", style="setlinewidth(1)"];
"990467814"[label="{{Function\ -1:\ xatol_range}|True}", color="blue", fontname="Calibri", style="filled", fillcolor="white"];
"322682835" -> "990467814"[label="1", color="black", style="setlinewidth(1)"];
"990467814" -> "322682835"[label="1", color="black", style="setlinewidth(1)"];
"981983873"[label="{{Decl\ -1:\ xatoll_sfx}|True}", color="blue", fontname="Calibri", style="filled", fillcolor="white"];
"1624862555"[label="{{Stmt\ -1:\ return\ xatoll_sfx(st}|True}", color="black", fontname="Calibri", style="filled", fillcolor="white"];
"1624862555" -> "981983873"[label="1", color="black", style="setlinewidth(1)"];
"1273065961"[label="{{Function\ -1:\ xatol_sfx}|True}", color="blue", fontname="Calibri", style="filled", fillcolor="white"];
"1624862555" -> "1273065961"[label="1", color="black", style="setlinewidth(1)"];
"1273065961" -> "1624862555"[label="1", color="black", style="setlinewidth(1)"];
"7180697"[label="{{Decl\ -1:\ xatoll}|True}", color="blue", fontname="Calibri", style="filled", fillcolor="white"];
"385089492"[label="{{Stmt\ -1:\ return\ xatoll(str);}|True}", color="black", fontname="Calibri", style="filled", fillcolor="white"];
"385089492" -> "7180697"[label="1", color="black", style="setlinewidth(1)"];
"1267003694"[label="{{Function\ -1:\ xatol}|True}", color="blue", fontname="Calibri", style="filled", fillcolor="white"];
"385089492" -> "1267003694"[label="1", color="black", style="setlinewidth(1)"];
"1267003694" -> "385089492"[label="1", color="black", style="setlinewidth(1)"];
"1540159731" -> "812993545"[label="1", color="black", style="setlinewidth(1)"];
"1540159731" -> "2035064391"[label="1", color="black", style="setlinewidth(1)"];
"2035064391" -> "1540159731"[label="1", color="black", style="setlinewidth(1)"];
"1223889623"[label="{{Decl\ -1:\ BUG_xatou32_unimplemented}|True}", color="blue", fontname="Calibri", style="filled", fillcolor="white"];
"2059546564"[label="{{Decl\ -1:\ xatou}|True}", color="blue", fontname="Calibri", style="filled", fillcolor="white"];
"547554034"[label="{{Stmt\ -1:\ return\ xatoul(numstr}|True}", color="black", fontname="Calibri", style="filled", fillcolor="white"];
"547554034" -> "2035064391"[label="1", color="black", style="setlinewidth(1)"];
"686698957"[label="{{Function\ -1:\ xatou32}|True}", color="blue", fontname="Calibri", style="filled", fillcolor="white"];
"547554034" -> "686698957"[label="1", color="black", style="setlinewidth(1)"];
"829409053"[label="{{Stmt\ -1:\ return\ BUG_xatou32_u}|True}", color="black", fontname="Calibri", style="filled", fillcolor="white"];
"829409053" -> "1223889623"[label="1", color="black", style="setlinewidth(1)"];
"829409053" -> "686698957"[label="1", color="black", style="setlinewidth(1)"];
"1596203472"[label="{{Stmt\ -1:\ return\ xatou(numstr)}|True}", color="black", fontname="Calibri", style="filled", fillcolor="white"];
"1596203472" -> "2059546564"[label="1", color="black", style="setlinewidth(1)"];
"1596203472" -> "686698957"[label="1", color="black", style="setlinewidth(1)"];
"1102778849"[label="{{Expr\ -1:\ (((92233720368547758}|True}", color="black", fontname="Calibri", style="filled", fillcolor="white"];
"1102778849" -> "829409053"[label="1", color="black", style="setlinewidth(1)"];
"1102778849" -> "547554034"[label="1", color="black", style="setlinewidth(1)"];
"801324603"[label="{{Expr\ -1:\ (((2147483647\ *\ 2U)\ }|True}", color="black", fontname="Calibri", style="filled", fillcolor="white"];
"801324603" -> "1102778849"[label="1", color="black", style="setlinewidth(1)"];
"801324603" -> "1596203472"[label="1", color="black", style="setlinewidth(1)"];
"686698957" -> "801324603"[label="1", color="black", style="setlinewidth(1)"];
"1828482347"[label="{{Decl\ -1:\ bb_strtoull}|True}", color="blue", fontname="Calibri", style="filled", fillcolor="white"];
"1306632456"[label="{{Stmt\ -1:\ return\ bb_strtoull(a}|True}", color="black", fontname="Calibri", style="filled", fillcolor="white"];
"1306632456" -> "1828482347"[label="1", color="black", style="setlinewidth(1)"];
"131025634"[label="{{Function\ -1:\ bb_strtoul}|True}", color="blue", fontname="Calibri", style="filled", fillcolor="white"];
"1306632456" -> "131025634"[label="1", color="black", style="setlinewidth(1)"];
"131025634" -> "1306632456"[label="1", color="black", style="setlinewidth(1)"];
"1430305405"[label="{{Decl\ -1:\ bb_strtoll}|True}", color="blue", fontname="Calibri", style="filled", fillcolor="white"];
"1701443810"[label="{{Stmt\ -1:\ return\ bb_strtoll(ar}|True}", color="black", fontname="Calibri", style="filled", fillcolor="white"];
"1701443810" -> "1430305405"[label="1", color="black", style="setlinewidth(1)"];
"841120773"[label="{{Function\ -1:\ bb_strtol}|True}", color="blue", fontname="Calibri", style="filled", fillcolor="white"];
"1701443810" -> "841120773"[label="1", color="black", style="setlinewidth(1)"];
"841120773" -> "1701443810"[label="1", color="black", style="setlinewidth(1)"];
"1306632456" -> "1828482347"[label="1", color="black", style="setlinewidth(1)"];
"1306632456" -> "131025634"[label="1", color="black", style="setlinewidth(1)"];
"131025634" -> "1306632456"[label="1", color="black", style="setlinewidth(1)"];
"705985363"[label="{{Decl\ -1:\ BUG_bb_strtou32_unimplemented}|True}", color="blue", fontname="Calibri", style="filled", fillcolor="white"];
"1862430355"[label="{{Decl\ -1:\ bb_strtou}|True}", color="blue", fontname="Calibri", style="filled", fillcolor="white"];
"446243350"[label="{{Stmt\ -1:\ return\ bb_strtoul(ar}|True}", color="black", fontname="Calibri", style="filled", fillcolor="white"];
"446243350" -> "131025634"[label="1", color="black", style="setlinewidth(1)"];
"871858"[label="{{Function\ -1:\ bb_strtou32}|True}", color="blue", fontname="Calibri", style="filled", fillcolor="white"];
"446243350" -> "871858"[label="1", color="black", style="setlinewidth(1)"];
"1698733603"[label="{{Stmt\ -1:\ return\ BUG_bb_strtou}|True}", color="black", fontname="Calibri", style="filled", fillcolor="white"];
"1698733603" -> "705985363"[label="1", color="black", style="setlinewidth(1)"];
"1698733603" -> "871858"[label="1", color="black", style="setlinewidth(1)"];
"155731814"[label="{{Stmt\ -1:\ return\ bb_strtou(arg}|True}", color="black", fontname="Calibri", style="filled", fillcolor="white"];
"155731814" -> "1862430355"[label="1", color="black", style="setlinewidth(1)"];
"155731814" -> "871858"[label="1", color="black", style="setlinewidth(1)"];
"1548800708"[label="{{Expr\ -1:\ (sizeof(uint32_t\ )\ =}|True}", color="black", fontname="Calibri", style="filled", fillcolor="white"];
"1548800708" -> "1698733603"[label="1", color="black", style="setlinewidth(1)"];
"1548800708" -> "446243350"[label="1", color="black", style="setlinewidth(1)"];
"669107395"[label="{{Expr\ -1:\ (sizeof(uint32_t\ )\ =}|True}", color="black", fontname="Calibri", style="filled", fillcolor="white"];
"669107395" -> "1548800708"[label="1", color="black", style="setlinewidth(1)"];
"669107395" -> "155731814"[label="1", color="black", style="setlinewidth(1)"];
"871858" -> "669107395"[label="1", color="black", style="setlinewidth(1)"];
"1530573702"[label="{{Stmt\ -1:\ return\ (b\ \<=\ ('z'\ -\ }|True}", color="black", fontname="Calibri", style="filled", fillcolor="white"];
"61140134"[label="{{Function\ -1:\ bb_ascii_isalnum}|True}", color="blue", fontname="Calibri", style="filled", fillcolor="white"];
"1530573702" -> "61140134"[label="1", color="black", style="setlinewidth(1)"];
"841502730"[label="{{Stmt\ -1:\ return\ (b\ \<=\ 9);}|True}", color="black", fontname="Calibri", style="filled", fillcolor="white"];
"841502730" -> "61140134"[label="1", color="black", style="setlinewidth(1)"];
"115248369"[label="{{Stmt\ -1:\ (b\ =\ ((a\ \|\ 0x20)\ -\ '}|True}", color="black", fontname="Calibri", style="filled", fillcolor="white"];
"115248369" -> "1530573702"[label="1", color="black", style="setlinewidth(1)"];
"345465416"[label="{{Expr\ -1:\ (b\ \<=\ 9)}|True}", color="black", fontname="Calibri", style="filled", fillcolor="white"];
"345465416" -> "115248369"[label="1", color="black", style="setlinewidth(1)"];
"345465416" -> "841502730"[label="1", color="black", style="setlinewidth(1)"];
"2074789921"[label="{{Stmt\ -1:\ unsigned\ char\ b\ =\ \ (}|True}", color="black", fontname="Calibri", style="filled", fillcolor="white"];
"2074789921" -> "345465416"[label="1", color="black", style="setlinewidth(1)"];
"61140134" -> "2074789921"[label="1", color="black", style="setlinewidth(1)"];
"1447214873"[label="{{Stmt\ -1:\ return\ (b\ \<=\ ('f'\ -\ }|True}", color="black", fontname="Calibri", style="filled", fillcolor="white"];
"2090045563"[label="{{Function\ -1:\ bb_ascii_isxdigit}|True}", color="blue", fontname="Calibri", style="filled", fillcolor="white"];
"1447214873" -> "2090045563"[label="1", color="black", style="setlinewidth(1)"];
"1360403657"[label="{{Stmt\ -1:\ return\ (b\ \<=\ 9);}|True}", color="black", fontname="Calibri", style="filled", fillcolor="white"];
"1360403657" -> "2090045563"[label="1", color="black", style="setlinewidth(1)"];
"1749079285"[label="{{Stmt\ -1:\ (b\ =\ ((a\ \|\ 0x20)\ -\ '}|True}", color="black", fontname="Calibri", style="filled", fillcolor="white"];
"1749079285" -> "1447214873"[label="1", color="black", style="setlinewidth(1)"];
"271032034"[label="{{Expr\ -1:\ (b\ \<=\ 9)}|True}", color="black", fontname="Calibri", style="filled", fillcolor="white"];
"271032034" -> "1749079285"[label="1", color="black", style="setlinewidth(1)"];
"271032034" -> "1360403657"[label="1", color="black", style="setlinewidth(1)"];
"986033842"[label="{{Stmt\ -1:\ unsigned\ char\ b\ =\ \ (}|True}", color="black", fontname="Calibri", style="filled", fillcolor="white"];
"986033842" -> "271032034"[label="1", color="black", style="setlinewidth(1)"];
"2090045563" -> "986033842"[label="1", color="black", style="setlinewidth(1)"];
"1275486301"[label="{{Stmt\ -1:\ (a\ -=\ ('a'\ -\ 'A'));}|True}", color="black", fontname="Calibri", style="filled", fillcolor="white"];
"1283732316"[label="{{Stmt\ -1:\ return\ a;}|True}", color="black", fontname="Calibri", style="filled", fillcolor="white"];
"1275486301" -> "1283732316"[label="1", color="black", style="setlinewidth(1)"];
"1488221337"[label="{{Function\ -1:\ bb_ascii_toupper}|True}", color="blue", fontname="Calibri", style="filled", fillcolor="white"];
"1283732316" -> "1488221337"[label="1", color="black", style="setlinewidth(1)"];
"1802109772"[label="{{Expr\ -1:\ (b\ \<=\ ('z'\ -\ 'a'))}|True}", color="black", fontname="Calibri", style="filled", fillcolor="white"];
"1802109772" -> "1283732316"[label="1", color="black", style="setlinewidth(1)"];
"1802109772" -> "1275486301"[label="1", color="black", style="setlinewidth(1)"];
"252975933"[label="{{Stmt\ -1:\ unsigned\ char\ b\ =\ \ (}|True}", color="black", fontname="Calibri", style="filled", fillcolor="white"];
"252975933" -> "1802109772"[label="1", color="black", style="setlinewidth(1)"];
"1488221337" -> "252975933"[label="1", color="black", style="setlinewidth(1)"];
"2024057327"[label="{{Stmt\ -1:\ (a\ +=\ ('a'\ -\ 'A'));}|True}", color="black", fontname="Calibri", style="filled", fillcolor="white"];
"470516818"[label="{{Stmt\ -1:\ return\ a;}|True}", color="black", fontname="Calibri", style="filled", fillcolor="white"];
"2024057327" -> "470516818"[label="1", color="black", style="setlinewidth(1)"];
"890226761"[label="{{Function\ -1:\ bb_ascii_tolower}|True}", color="blue", fontname="Calibri", style="filled", fillcolor="white"];
"470516818" -> "890226761"[label="1", color="black", style="setlinewidth(1)"];
"1901374404"[label="{{Expr\ -1:\ (b\ \<=\ ('Z'\ -\ 'A'))}|True}", color="black", fontname="Calibri", style="filled", fillcolor="white"];
"1901374404" -> "470516818"[label="1", color="black", style="setlinewidth(1)"];
"1901374404" -> "2024057327"[label="1", color="black", style="setlinewidth(1)"];
"435699890"[label="{{Stmt\ -1:\ unsigned\ char\ b\ =\ \ (}|True}", color="black", fontname="Calibri", style="filled", fillcolor="white"];
"435699890" -> "1901374404"[label="1", color="black", style="setlinewidth(1)"];
"890226761" -> "435699890"[label="1", color="black", style="setlinewidth(1)"];
"807507959"[label="{{Stmt\ -1:\ (ep-\>speed_hi\ =\ ((__}|True}", color="black", fontname="Calibri", style="filled", fillcolor="white"];
"1070664932"[label="{{Function\ -1:\ ethtool_cmd_speed_set}|True}", color="blue", fontname="Calibri", style="filled", fillcolor="white"];
"807507959" -> "1070664932"[label="1", color="black", style="setlinewidth(1)"];
"257855760"[label="{{Stmt\ -1:\ (ep-\>speed\ =\ ((__u16}|True}", color="black", fontname="Calibri", style="filled", fillcolor="white"];
"257855760" -> "807507959"[label="1", color="black", style="setlinewidth(1)"];
"1070664932" -> "257855760"[label="1", color="black", style="setlinewidth(1)"];
"654612051"[label="{{Stmt\ -1:\ return\ ((ep-\>speed_h}|True}", color="black", fontname="Calibri", style="filled", fillcolor="white"];
"4257443"[label="{{Function\ -1:\ ethtool_cmd_speed}|True}", color="blue", fontname="Calibri", style="filled", fillcolor="white"];
"654612051" -> "4257443"[label="1", color="black", style="setlinewidth(1)"];
"4257443" -> "654612051"[label="1", color="black", style="setlinewidth(1)"];
"1868536069"[label="{{Decl\ -1:\ ioctl}|True}", color="blue", fontname="Calibri", style="filled", fillcolor="white"];
"414261248"[label="{{Stmt\ -1:\ return\ ioctl(skfd\ ,\ }|True}", color="black", fontname="Calibri", style="filled", fillcolor="white"];
"414261248" -> "1868536069"[label="1", color="black", style="setlinewidth(1)"];
"2016839031"[label="{{Function\ -1:\ ioctl_on_skfd}|True}", color="blue", fontname="Calibri", style="filled", fillcolor="white"];
"414261248" -> "2016839031"[label="1", color="black", style="setlinewidth(1)"];
"2016839031" -> "414261248"[label="1", color="black", style="setlinewidth(1)"];
"414261248" -> "1868536069"[label="1", color="black", style="setlinewidth(1)"];
"414261248" -> "2016839031"[label="1", color="black", style="setlinewidth(1)"];
"2016839031" -> "414261248"[label="1", color="black", style="setlinewidth(1)"];
"410069961"[label="{{Stmt\ -1:\ return\ ioctl_on_skfd}|True}", color="black", fontname="Calibri", style="filled", fillcolor="white"];
"410069961" -> "2016839031"[label="1", color="black", style="setlinewidth(1)"];
"497232417"[label="{{Function\ -1:\ set_ifrname_and_do_ioctl}|True}", color="blue", fontname="Calibri", style="filled", fillcolor="white"];
"410069961" -> "497232417"[label="1", color="black", style="setlinewidth(1)"];
"1011148933"[label="{{Decl\ -1:\ strncpy_IFNAMSIZ}|True}", color="blue", fontname="Calibri", style="filled", fillcolor="white"];
"425506855"[label="{{Stmt\ -1:\ strncpy_IFNAMSIZ(ifr}|True}", color="black", fontname="Calibri", style="filled", fillcolor="white"];
"425506855" -> "1011148933"[label="1", color="black", style="setlinewidth(1)"];
"425506855" -> "410069961"[label="1", color="black", style="setlinewidth(1)"];
"497232417" -> "425506855"[label="1", color="black", style="setlinewidth(1)"];
"414261248" -> "1868536069"[label="1", color="black", style="setlinewidth(1)"];
"414261248" -> "2016839031"[label="1", color="black", style="setlinewidth(1)"];
"2016839031" -> "414261248"[label="1", color="black", style="setlinewidth(1)"];
"1736476493"[label="{{Stmt\ -1:\ return\ res;}|True}", color="black", fontname="Calibri", style="filled", fillcolor="white"];
"1393415653"[label="{{Function\ -1:\ get_if_settings}|True}", color="blue", fontname="Calibri", style="filled", fillcolor="white"];
"1736476493" -> "1393415653"[label="1", color="black", style="setlinewidth(1)"];
"410069961" -> "2016839031"[label="1", color="black", style="setlinewidth(1)"];
"410069961" -> "497232417"[label="1", color="black", style="setlinewidth(1)"];
"1379376520"[label="{{Stmt\ -1:\ (res\ \|=\ set_ifrname_}|True}", color="black", fontname="Calibri", style="filled", fillcolor="white"];
"1379376520" -> "497232417"[label="1", color="black", style="setlinewidth(1)"];
"1379376520" -> "1736476493"[label="1", color="black", style="setlinewidth(1)"];
"425506855" -> "1011148933"[label="1", color="black", style="setlinewidth(1)"];
"425506855" -> "410069961"[label="1", color="black", style="setlinewidth(1)"];
"2031171380"[label="{{Stmt\ -1:\ (res\ \|=\ set_ifrname_}|True}", color="black", fontname="Calibri", style="filled", fillcolor="white"];
"2031171380" -> "497232417"[label="1", color="black", style="setlinewidth(1)"];
"2031171380" -> "1379376520"[label="1", color="black", style="setlinewidth(1)"];
"497232417" -> "425506855"[label="1", color="black", style="setlinewidth(1)"];
"934800679"[label="{{Stmt\ -1:\ (res\ =\ set_ifrname_a}|True}", color="black", fontname="Calibri", style="filled", fillcolor="white"];
"934800679" -> "497232417"[label="1", color="black", style="setlinewidth(1)"];
"934800679" -> "2031171380"[label="1", color="black", style="setlinewidth(1)"];
"394378065"[label="{{Stmt\ -1:\ int\ res;}|True}", color="black", fontname="Calibri", style="filled", fillcolor="white"];
"394378065" -> "934800679"[label="1", color="black", style="setlinewidth(1)"];
"1393415653" -> "394378065"[label="1", color="black", style="setlinewidth(1)"];
"414261248" -> "1868536069"[label="1", color="black", style="setlinewidth(1)"];
"414261248" -> "2016839031"[label="1", color="black", style="setlinewidth(1)"];
"2016839031" -> "414261248"[label="1", color="black", style="setlinewidth(1)"];
"410069961" -> "2016839031"[label="1", color="black", style="setlinewidth(1)"];
"410069961" -> "497232417"[label="1", color="black", style="setlinewidth(1)"];
"425506855" -> "1011148933"[label="1", color="black", style="setlinewidth(1)"];
"425506855" -> "410069961"[label="1", color="black", style="setlinewidth(1)"];
"497232417" -> "425506855"[label="1", color="black", style="setlinewidth(1)"];
"1724816119"[label="{{Stmt\ -1:\ return\ set_ifrname_a}|True}", color="black", fontname="Calibri", style="filled", fillcolor="white"];
"1724816119" -> "497232417"[label="1", color="black", style="setlinewidth(1)"];
"111287538"[label="{{Function\ -1:\ get_slave_flags}|True}", color="blue", fontname="Calibri", style="filled", fillcolor="white"];
"1724816119" -> "111287538"[label="1", color="black", style="setlinewidth(1)"];
"111287538" -> "1724816119"[label="1", color="black", style="setlinewidth(1)"];
"414261248" -> "1868536069"[label="1", color="black", style="setlinewidth(1)"];
"414261248" -> "2016839031"[label="1", color="black", style="setlinewidth(1)"];
"2016839031" -> "414261248"[label="1", color="black", style="setlinewidth(1)"];
"410069961" -> "2016839031"[label="1", color="black", style="setlinewidth(1)"];
"410069961" -> "497232417"[label="1", color="black", style="setlinewidth(1)"];
"425506855" -> "1011148933"[label="1", color="black", style="setlinewidth(1)"];
"425506855" -> "410069961"[label="1", color="black", style="setlinewidth(1)"];
"497232417" -> "425506855"[label="1", color="black", style="setlinewidth(1)"];
"884096470"[label="{{Stmt\ -1:\ return\ set_ifrname_a}|True}", color="black", fontname="Calibri", style="filled", fillcolor="white"];
"884096470" -> "497232417"[label="1", color="black", style="setlinewidth(1)"];
"1500913342"[label="{{Function\ -1:\ set_hwaddr}|True}", color="blue", fontname="Calibri", style="filled", fillcolor="white"];
"884096470" -> "1500913342"[label="1", color="black", style="setlinewidth(1)"];
"2053675953"[label="{{Decl\ -1:\ memcpy}|True}", color="blue", fontname="Calibri", style="filled", fillcolor="white"];
"792096620"[label="{{Stmt\ -1:\ memcpy((&ifr.ifr_ifr}|True}", color="black", fontname="Calibri", style="filled", fillcolor="white"];
"792096620" -> "2053675953"[label="1", color="black", style="setlinewidth(1)"];
"792096620" -> "884096470"[label="1", color="black", style="setlinewidth(1)"];
"1045437824"[label="{{Stmt\ -1:\ struct\ ifreq\ \ ifr;}|True}", color="black", fontname="Calibri", style="filled", fillcolor="white"];
"1045437824" -> "792096620"[label="1", color="black", style="setlinewidth(1)"];
"1500913342" -> "1045437824"[label="1", color="black", style="setlinewidth(1)"];
"414261248" -> "1868536069"[label="1", color="black", style="setlinewidth(1)"];
"414261248" -> "2016839031"[label="1", color="black", style="setlinewidth(1)"];
"2016839031" -> "414261248"[label="1", color="black", style="setlinewidth(1)"];
"410069961" -> "2016839031"[label="1", color="black", style="setlinewidth(1)"];
"410069961" -> "497232417"[label="1", color="black", style="setlinewidth(1)"];
"425506855" -> "1011148933"[label="1", color="black", style="setlinewidth(1)"];
"425506855" -> "410069961"[label="1", color="black", style="setlinewidth(1)"];
"497232417" -> "425506855"[label="1", color="black", style="setlinewidth(1)"];
"461920282"[label="{{Stmt\ -1:\ return\ set_ifrname_a}|True}", color="black", fontname="Calibri", style="filled", fillcolor="white"];
"461920282" -> "497232417"[label="1", color="black", style="setlinewidth(1)"];
"11779443"[label="{{Function\ -1:\ set_mtu}|True}", color="blue", fontname="Calibri", style="filled", fillcolor="white"];
"461920282" -> "11779443"[label="1", color="black", style="setlinewidth(1)"];
"767399267"[label="{{Stmt\ -1:\ (ifr.ifr_ifru.ifru_m}|True}", color="black", fontname="Calibri", style="filled", fillcolor="white"];
"767399267" -> "461920282"[label="1", color="black", style="setlinewidth(1)"];
"405186992"[label="{{Stmt\ -1:\ struct\ ifreq\ \ ifr;}|True}", color="black", fontname="Calibri", style="filled", fillcolor="white"];
"405186992" -> "767399267"[label="1", color="black", style="setlinewidth(1)"];
"11779443" -> "405186992"[label="1", color="black", style="setlinewidth(1)"];
"414261248" -> "1868536069"[label="1", color="black", style="setlinewidth(1)"];
"414261248" -> "2016839031"[label="1", color="black", style="setlinewidth(1)"];
"2016839031" -> "414261248"[label="1", color="black", style="setlinewidth(1)"];
"410069961" -> "2016839031"[label="1", color="black", style="setlinewidth(1)"];
"410069961" -> "497232417"[label="1", color="black", style="setlinewidth(1)"];
"425506855" -> "1011148933"[label="1", color="black", style="setlinewidth(1)"];
"425506855" -> "410069961"[label="1", color="black", style="setlinewidth(1)"];
"497232417" -> "425506855"[label="1", color="black", style="setlinewidth(1)"];
"51071957"[label="{{Stmt\ -1:\ return\ set_ifrname_a}|True}", color="black", fontname="Calibri", style="filled", fillcolor="white"];
"51071957" -> "497232417"[label="1", color="black", style="setlinewidth(1)"];
"131096351"[label="{{Function\ -1:\ set_if_flags}|True}", color="blue", fontname="Calibri", style="filled", fillcolor="white"];
"51071957" -> "131096351"[label="1", color="black", style="setlinewidth(1)"];
"684960260"[label="{{Stmt\ -1:\ (ifr.ifr_ifru.ifru_f}|True}", color="black", fontname="Calibri", style="filled", fillcolor="white"];
"684960260" -> "51071957"[label="1", color="black", style="setlinewidth(1)"];
"1285117882"[label="{{Stmt\ -1:\ struct\ ifreq\ \ ifr;}|True}", color="black", fontname="Calibri", style="filled", fillcolor="white"];
"1285117882" -> "684960260"[label="1", color="black", style="setlinewidth(1)"];
"131096351" -> "1285117882"[label="1", color="black", style="setlinewidth(1)"];
"414261248" -> "1868536069"[label="1", color="black", style="setlinewidth(1)"];
"414261248" -> "2016839031"[label="1", color="black", style="setlinewidth(1)"];
"2016839031" -> "414261248"[label="1", color="black", style="setlinewidth(1)"];
"410069961" -> "2016839031"[label="1", color="black", style="setlinewidth(1)"];
"410069961" -> "497232417"[label="1", color="black", style="setlinewidth(1)"];
"425506855" -> "1011148933"[label="1", color="black", style="setlinewidth(1)"];
"425506855" -> "410069961"[label="1", color="black", style="setlinewidth(1)"];
"497232417" -> "425506855"[label="1", color="black", style="setlinewidth(1)"];
"51071957" -> "497232417"[label="1", color="black", style="setlinewidth(1)"];
"51071957" -> "131096351"[label="1", color="black", style="setlinewidth(1)"];
"1185469424"[label="{{Decl\ -1:\ bb_perror_msg}|True}", color="blue", fontname="Calibri", style="filled", fillcolor="white"];
"684960260" -> "51071957"[label="1", color="black", style="setlinewidth(1)"];
"1401482476"[label="{{Stmt\ -1:\ bb_perror_msg(\\\"%s:\ c}|True}", color="black", fontname="Calibri", style="filled", fillcolor="white"];
"1401482476" -> "1185469424"[label="1", color="black", style="setlinewidth(1)"];
"220678526"[label="{{Stmt\ -1:\ return\ res;}|True}", color="black", fontname="Calibri", style="filled", fillcolor="white"];
"1401482476" -> "220678526"[label="1", color="black", style="setlinewidth(1)"];
"1330045235"[label="{{Function\ -1:\ set_if_up}|True}", color="blue", fontname="Calibri", style="filled", fillcolor="white"];
"220678526" -> "1330045235"[label="1", color="black", style="setlinewidth(1)"];
"1285117882" -> "684960260"[label="1", color="black", style="setlinewidth(1)"];
"1258178125"[label="{{Expr\ 196:\ res}|True}", color="black", fontname="Calibri", style="filled", fillcolor="white"];
"1258178125" -> "220678526"[label="1", color="black", style="setlinewidth(1)"];
"1258178125" -> "1401482476"[label="1", color="black", style="setlinewidth(1)"];
"131096351" -> "1285117882"[label="1", color="black", style="setlinewidth(1)"];
"1587822057"[label="{{Stmt\ -1:\ int\ res\ =\ \ set_if_fl}|True}", color="black", fontname="Calibri", style="filled", fillcolor="white"];
"1587822057" -> "131096351"[label="1", color="black", style="setlinewidth(1)"];
"1587822057" -> "1258178125"[label="1", color="black", style="setlinewidth(1)"];
"1330045235" -> "1587822057"[label="1", color="black", style="setlinewidth(1)"];
"414261248" -> "1868536069"[label="1", color="black", style="setlinewidth(1)"];
"414261248" -> "2016839031"[label="1", color="black", style="setlinewidth(1)"];
"2016839031" -> "414261248"[label="1", color="black", style="setlinewidth(1)"];
"410069961" -> "2016839031"[label="1", color="black", style="setlinewidth(1)"];
"410069961" -> "497232417"[label="1", color="black", style="setlinewidth(1)"];
"425506855" -> "1011148933"[label="1", color="black", style="setlinewidth(1)"];
"425506855" -> "410069961"[label="1", color="black", style="setlinewidth(1)"];
"497232417" -> "425506855"[label="1", color="black", style="setlinewidth(1)"];
"51071957" -> "497232417"[label="1", color="black", style="setlinewidth(1)"];
"51071957" -> "131096351"[label="1", color="black", style="setlinewidth(1)"];
"684960260" -> "51071957"[label="1", color="black", style="setlinewidth(1)"];
"164770666"[label="{{Stmt\ -1:\ bb_perror_msg(\\\"%s:\ c}|True}", color="black", fontname="Calibri", style="filled", fillcolor="white"];
"164770666" -> "1185469424"[label="1", color="black", style="setlinewidth(1)"];
"2082283604"[label="{{Stmt\ -1:\ return\ res;}|True}", color="black", fontname="Calibri", style="filled", fillcolor="white"];
"164770666" -> "2082283604"[label="1", color="black", style="setlinewidth(1)"];
"431073419"[label="{{Function\ -1:\ set_if_down}|True}", color="blue", fontname="Calibri", style="filled", fillcolor="white"];
"2082283604" -> "431073419"[label="1", color="black", style="setlinewidth(1)"];
"1285117882" -> "684960260"[label="1", color="black", style="setlinewidth(1)"];
"1169802391"[label="{{Expr\ 204:\ res}|True}", color="black", fontname="Calibri", style="filled", fillcolor="white"];
"1169802391" -> "2082283604"[label="1", color="black", style="setlinewidth(1)"];
"1169802391" -> "164770666"[label="1", color="black", style="setlinewidth(1)"];
"131096351" -> "1285117882"[label="1", color="black", style="setlinewidth(1)"];
"1904436988"[label="{{Stmt\ -1:\ int\ res\ =\ \ set_if_fl}|True}", color="black", fontname="Calibri", style="filled", fillcolor="white"];
"1904436988" -> "131096351"[label="1", color="black", style="setlinewidth(1)"];
"1904436988" -> "1169802391"[label="1", color="black", style="setlinewidth(1)"];
"431073419" -> "1904436988"[label="1", color="black", style="setlinewidth(1)"];
"414261248" -> "1868536069"[label="1", color="black", style="setlinewidth(1)"];
"414261248" -> "2016839031"[label="1", color="black", style="setlinewidth(1)"];
"2016839031" -> "414261248"[label="1", color="black", style="setlinewidth(1)"];
"410069961" -> "2016839031"[label="1", color="black", style="setlinewidth(1)"];
"410069961" -> "497232417"[label="1", color="black", style="setlinewidth(1)"];
"425506855" -> "1011148933"[label="1", color="black", style="setlinewidth(1)"];
"425506855" -> "410069961"[label="1", color="black", style="setlinewidth(1)"];
"497232417" -> "425506855"[label="1", color="black", style="setlinewidth(1)"];
"519723534"[label="{{Stmt\ -1:\ return\ set_ifrname_a}|True}", color="black", fontname="Calibri", style="filled", fillcolor="white"];
"519723534" -> "497232417"[label="1", color="black", style="setlinewidth(1)"];
"1196020983"[label="{{Function\ -1:\ clear_if_addr}|True}", color="blue", fontname="Calibri", style="filled", fillcolor="white"];
"519723534" -> "1196020983"[label="1", color="black", style="setlinewidth(1)"];
"1253100016"[label="{{Decl\ -1:\ memset}|True}", color="blue", fontname="Calibri", style="filled", fillcolor="white"];
"657676546"[label="{{Stmt\ -1:\ memset(ifr.ifr_ifru.}|True}", color="black", fontname="Calibri", style="filled", fillcolor="white"];
"657676546" -> "1253100016"[label="1", color="black", style="setlinewidth(1)"];
"657676546" -> "519723534"[label="1", color="black", style="setlinewidth(1)"];
"1133049693"[label="{{Stmt\ -1:\ (ifr.ifr_ifru.ifru_a}|True}", color="black", fontname="Calibri", style="filled", fillcolor="white"];
"1133049693" -> "657676546"[label="1", color="black", style="setlinewidth(1)"];
"1148853749"[label="{{Stmt\ -1:\ struct\ ifreq\ \ ifr;}|True}", color="black", fontname="Calibri", style="filled", fillcolor="white"];
"1148853749" -> "1133049693"[label="1", color="black", style="setlinewidth(1)"];
"1196020983" -> "1148853749"[label="1", color="black", style="setlinewidth(1)"];
"414261248" -> "1868536069"[label="1", color="black", style="setlinewidth(1)"];
"414261248" -> "2016839031"[label="1", color="black", style="setlinewidth(1)"];
"301199554"[label="{{Stmt\ -1:\ return\ res;}|True}", color="black", fontname="Calibri", style="filled", fillcolor="white"];
"1092245046"[label="{{Function\ -1:\ set_if_addr}|True}", color="blue", fontname="Calibri", style="filled", fillcolor="white"];
"301199554" -> "1092245046"[label="1", color="black", style="setlinewidth(1)"];
"1069768164"[label="{{Expr\ -1:\ i++}|True}", color="black", fontname="Calibri", style="filled", fillcolor="white"];
"1239329400"[label="{{Expr\ -1:\ (i\ \<\ ((unsigned\ )\ (s}|True}", color="black", fontname="Calibri", style="filled", fillcolor="white"];
"1069768164" -> "1239329400"[label="1", color="black", style="setlinewidth(1)"];
"2016839031" -> "414261248"[label="1", color="black", style="setlinewidth(1)"];
"779010319"[label="{{Stmt\ -1:\ memset(ifr.ifr_ifru.}|True}", color="black", fontname="Calibri", style="filled", fillcolor="white"];
"779010319" -> "1253100016"[label="1", color="black", style="setlinewidth(1)"];
"1413241789"[label="{{Stmt\ -1:\ (res\ =\ set_ifrname_a}|True}", color="black", fontname="Calibri", style="filled", fillcolor="white"];
"779010319" -> "1413241789"[label="1", color="black", style="setlinewidth(1)"];
"1401726629"[label="{{Expr\ -1:\ (res\ \<\ 0)}|True}", color="black", fontname="Calibri", style="filled", fillcolor="white"];
"1401726629" -> "497232417"[label="1", color="black", style="setlinewidth(1)"];
"1401726629" -> "1253100016"[label="1", color="black", style="setlinewidth(1)"];
"1401726629" -> "1069768164"[label="1", color="black", style="setlinewidth(1)"];
"1401726629" -> "301199554"[label="1", color="black", style="setlinewidth(1)"];
"410069961" -> "2016839031"[label="1", color="black", style="setlinewidth(1)"];
"410069961" -> "497232417"[label="1", color="black", style="setlinewidth(1)"];
"43709331"[label="{{Stmt\ -1:\ (ifr.ifr_ifru.ifru_a}|True}", color="black", fontname="Calibri", style="filled", fillcolor="white"];
"43709331" -> "779010319"[label="1", color="black", style="setlinewidth(1)"];
"1413241789" -> "497232417"[label="1", color="black", style="setlinewidth(1)"];
"1413241789" -> "1401726629"[label="1", color="black", style="setlinewidth(1)"];
"425506855" -> "1011148933"[label="1", color="black", style="setlinewidth(1)"];
"425506855" -> "410069961"[label="1", color="black", style="setlinewidth(1)"];
"1039117687"[label="{{Expr\ -1:\ (res\ \<\ 0)}|True}", color="black", fontname="Calibri", style="filled", fillcolor="white"];
"1039117687" -> "1413241789"[label="1", color="black", style="setlinewidth(1)"];
"1039117687" -> "43709331"[label="1", color="black", style="setlinewidth(1)"];
"497232417" -> "425506855"[label="1", color="black", style="setlinewidth(1)"];
"1897584176"[label="{{Stmt\ -1:\ (res\ =\ set_ifrname_a}|True}", color="black", fontname="Calibri", style="filled", fillcolor="white"];
"1897584176" -> "497232417"[label="1", color="black", style="setlinewidth(1)"];
"1897584176" -> "1039117687"[label="1", color="black", style="setlinewidth(1)"];
"263857365"[label="{{Stmt\ -1:\ return\ 0;}|True}", color="black", fontname="Calibri", style="filled", fillcolor="white"];
"263857365" -> "1092245046"[label="1", color="black", style="setlinewidth(1)"];
"1239329400" -> "263857365"[label="1", color="black", style="setlinewidth(1)"];
"1239329400" -> "1897584176"[label="1", color="black", style="setlinewidth(1)"];
"2076344"[label="{{Expr\ -1:\ (i\ =\ 0)}|True}", color="black", fontname="Calibri", style="filled", fillcolor="white"];
"2076344" -> "1239329400"[label="1", color="black", style="setlinewidth(1)"];
"1192845141"[label="{{Stmt\ -1:\ unsigned\ i;}|True}", color="black", fontname="Calibri", style="filled", fillcolor="white"];
"1192845141" -> "2076344"[label="1", color="black", style="setlinewidth(1)"];
"449495135"[label="{{Stmt\ -1:\ int\ res;}|True}", color="black", fontname="Calibri", style="filled", fillcolor="white"];
"449495135" -> "1192845141"[label="1", color="black", style="setlinewidth(1)"];
"1462352993"[label="{{Stmt\ -1:\ struct\ ifreq\ \ ifr;}|True}", color="black", fontname="Calibri", style="filled", fillcolor="white"];
"1462352993" -> "449495135"[label="1", color="black", style="setlinewidth(1)"];
"1970024292"[label="{{Stmt\ -1:\ static\ const\ struct\ }|True}", color="black", fontname="Calibri", style="filled", fillcolor="white"];
"1970024292" -> "1462352993"[label="1", color="black", style="setlinewidth(1)"];
"1092245046" -> "1970024292"[label="1", color="black", style="setlinewidth(1)"];
"414261248" -> "1868536069"[label="1", color="black", style="setlinewidth(1)"];
"414261248" -> "2016839031"[label="1", color="black", style="setlinewidth(1)"];
"2004456817"[label="{{Decl\ -1:\ bb_error_msg_and_die}|True}", color="blue", fontname="Calibri", style="filled", fillcolor="white"];
"2016839031" -> "414261248"[label="1", color="black", style="setlinewidth(1)"];
"1879220176"[label="{{Stmt\ -1:\ bb_error_msg_and_die}|True}", color="black", fontname="Calibri", style="filled", fillcolor="white"];
"1879220176" -> "2004456817"[label="1", color="black", style="setlinewidth(1)"];
"893077828"[label="{{Stmt\ -1:\ strncpy_IFNAMSIZ(ifr}|True}", color="black", fontname="Calibri", style="filled", fillcolor="white"];
"1879220176" -> "893077828"[label="1", color="black", style="setlinewidth(1)"];
"893077828" -> "1011148933"[label="1", color="black", style="setlinewidth(1)"];
"893077828" -> "2016839031"[label="1", color="black", style="setlinewidth(1)"];
"297395402"[label="{{Expr\ -1:\ (!\ ((*ptr_to_globals}|True}", color="black", fontname="Calibri", style="filled", fillcolor="white"];
"297395402" -> "893077828"[label="1", color="black", style="setlinewidth(1)"];
"297395402" -> "1879220176"[label="1", color="black", style="setlinewidth(1)"];
"772177288"[label="{{Stmt\ -1:\ struct\ ifreq\ \ ifr;}|True}", color="black", fontname="Calibri", style="filled", fillcolor="white"];
"772177288" -> "297395402"[label="1", color="black", style="setlinewidth(1)"];
"380929427"[label="{{Function\ -1:\ change_active}|True}", color="blue", fontname="Calibri", style="filled", fillcolor="white"];
"380929427" -> "772177288"[label="1", color="black", style="setlinewidth(1)"];
"301199554" -> "1092245046"[label="1", color="black", style="setlinewidth(1)"];
"1069768164" -> "1239329400"[label="1", color="black", style="setlinewidth(1)"];
"779010319" -> "1253100016"[label="1", color="black", style="setlinewidth(1)"];
"779010319" -> "1413241789"[label="1", color="black", style="setlinewidth(1)"];
"1401726629" -> "497232417"[label="1", color="black", style="setlinewidth(1)"];
"1401726629" -> "1253100016"[label="1", color="black", style="setlinewidth(1)"];
"1401726629" -> "1069768164"[label="1", color="black", style="setlinewidth(1)"];
"1401726629" -> "301199554"[label="1", color="black", style="setlinewidth(1)"];
"43709331" -> "779010319"[label="1", color="black", style="setlinewidth(1)"];
"1413241789" -> "497232417"[label="1", color="black", style="setlinewidth(1)"];
"1413241789" -> "1401726629"[label="1", color="black", style="setlinewidth(1)"];
"1039117687" -> "1413241789"[label="1", color="black", style="setlinewidth(1)"];
"1039117687" -> "43709331"[label="1", color="black", style="setlinewidth(1)"];
"1897584176" -> "497232417"[label="1", color="black", style="setlinewidth(1)"];
"1897584176" -> "1039117687"[label="1", color="black", style="setlinewidth(1)"];
"263857365" -> "1092245046"[label="1", color="black", style="setlinewidth(1)"];
"1401482476" -> "1185469424"[label="1", color="black", style="setlinewidth(1)"];
"1401482476" -> "220678526"[label="1", color="black", style="setlinewidth(1)"];
"220678526" -> "1330045235"[label="1", color="black", style="setlinewidth(1)"];
"884096470" -> "497232417"[label="1", color="black", style="setlinewidth(1)"];
"884096470" -> "1500913342"[label="1", color="black", style="setlinewidth(1)"];
"1239329400" -> "263857365"[label="1", color="black", style="setlinewidth(1)"];
"1239329400" -> "1897584176"[label="1", color="black", style="setlinewidth(1)"];
"461920282" -> "497232417"[label="1", color="black", style="setlinewidth(1)"];
"461920282" -> "11779443"[label="1", color="black", style="setlinewidth(1)"];
"414261248" -> "1868536069"[label="1", color="black", style="setlinewidth(1)"];
"414261248" -> "2016839031"[label="1", color="black", style="setlinewidth(1)"];
"1258178125" -> "220678526"[label="1", color="black", style="setlinewidth(1)"];
"1258178125" -> "1401482476"[label="1", color="black", style="setlinewidth(1)"];
"792096620" -> "2053675953"[label="1", color="black", style="setlinewidth(1)"];
"792096620" -> "884096470"[label="1", color="black", style="setlinewidth(1)"];
"2076344" -> "1239329400"[label="1", color="black", style="setlinewidth(1)"];
"1865652910"[label="{{Stmt\ -1:\ return\ res;}|True}", color="black", fontname="Calibri", style="filled", fillcolor="white"];
"215782958"[label="{{Function\ -1:\ enslave}|True}", color="blue", fontname="Calibri", style="filled", fillcolor="white"];
"1865652910" -> "215782958"[label="1", color="black", style="setlinewidth(1)"];
"767399267" -> "461920282"[label="1", color="black", style="setlinewidth(1)"];
"2016839031" -> "414261248"[label="1", color="black", style="setlinewidth(1)"];
"1587822057" -> "131096351"[label="1", color="black", style="setlinewidth(1)"];
"1587822057" -> "1258178125"[label="1", color="black", style="setlinewidth(1)"];
"1045437824" -> "792096620"[label="1", color="black", style="setlinewidth(1)"];
"410069961" -> "2016839031"[label="1", color="black", style="setlinewidth(1)"];
"410069961" -> "497232417"[label="1", color="black", style="setlinewidth(1)"];
"1192845141" -> "2076344"[label="1", color="black", style="setlinewidth(1)"];
"791016657"[label="{{Stmt\ -1:\ bb_perror_msg(\\\"%s:\ c}|True}", color="black", fontname="Calibri", style="filled", fillcolor="white"];
"791016657" -> "1185469424"[label="1", color="black", style="setlinewidth(1)"];
"791016657" -> "1865652910"[label="1", color="black", style="setlinewidth(1)"];
"405186992" -> "767399267"[label="1", color="black", style="setlinewidth(1)"];
"2083332010"[label="{{Stmt\ -1:\ strncpy_IFNAMSIZ(ifr}|True}", color="black", fontname="Calibri", style="filled", fillcolor="white"];
"2083332010" -> "1011148933"[label="1", color="black", style="setlinewidth(1)"];
"2083332010" -> "2016839031"[label="1", color="black", style="setlinewidth(1)"];
"1330045235" -> "1587822057"[label="1", color="black", style="setlinewidth(1)"];
"1500913342" -> "1045437824"[label="1", color="black", style="setlinewidth(1)"];
"519723534" -> "497232417"[label="1", color="black", style="setlinewidth(1)"];
"519723534" -> "1196020983"[label="1", color="black", style="setlinewidth(1)"];
"425506855" -> "1011148933"[label="1", color="black", style="setlinewidth(1)"];
"425506855" -> "410069961"[label="1", color="black", style="setlinewidth(1)"];
"449495135" -> "1192845141"[label="1", color="black", style="setlinewidth(1)"];
"1412968960"[label="{{Expr\ 312:\ res}|True}", color="black", fontname="Calibri", style="filled", fillcolor="white"];
"1412968960" -> "1185469424"[label="1", color="black", style="setlinewidth(1)"];
"1412968960" -> "11779443"[label="1", color="black", style="setlinewidth(1)"];
"633222189"[label="{{Expr\ -1:\ (*ptr_to_globals).hw}|True}", color="black", fontname="Calibri", style="filled", fillcolor="white"];
"1412968960" -> "633222189"[label="1", color="black", style="setlinewidth(1)"];
"1412968960" -> "791016657"[label="1", color="black", style="setlinewidth(1)"];
"11779443" -> "405186992"[label="1", color="black", style="setlinewidth(1)"];
"1310824194"[label="{{Expr\ -1:\ ((*ptr_to_globals).a}|True}", color="black", fontname="Calibri", style="filled", fillcolor="white"];
"1310824194" -> "1330045235"[label="1", color="black", style="setlinewidth(1)"];
"1310824194" -> "1185469424"[label="1", color="black", style="setlinewidth(1)"];
"1310824194" -> "1500913342"[label="1", color="black", style="setlinewidth(1)"];
"975578175"[label="{{Decl\ -1:\ bb_error_msg}|True}", color="blue", fontname="Calibri", style="filled", fillcolor="white"];
"1310824194" -> "975578175"[label="1", color="black", style="setlinewidth(1)"];
"1310824194" -> "431073419"[label="1", color="black", style="setlinewidth(1)"];
"1310824194" -> "2083332010"[label="1", color="black", style="setlinewidth(1)"];
"1229839835"[label="{{Expr\ -1:\ ((*ptr_to_globals).a}|True}", color="black", fontname="Calibri", style="filled", fillcolor="white"];
"1229839835" -> "1500913342"[label="1", color="black", style="setlinewidth(1)"];
"1229839835" -> "431073419"[label="1", color="black", style="setlinewidth(1)"];
"657676546" -> "1253100016"[label="1", color="black", style="setlinewidth(1)"];
"657676546" -> "519723534"[label="1", color="black", style="setlinewidth(1)"];
"497232417" -> "425506855"[label="1", color="black", style="setlinewidth(1)"];
"581817677"[label="{{Stmt\ -1:\ return\ res;}|True}", color="black", fontname="Calibri", style="filled", fillcolor="white"];
"581817677" -> "215782958"[label="1", color="black", style="setlinewidth(1)"];
"1462352993" -> "449495135"[label="1", color="black", style="setlinewidth(1)"];
"1854895278"[label="{{Stmt\ -1:\ return\ res;}|True}", color="black", fontname="Calibri", style="filled", fillcolor="white"];
"1854895278" -> "215782958"[label="1", color="black", style="setlinewidth(1)"];
"1607539760"[label="{{Stmt\ -1:\ (res\ =\ set_mtu(slave}|True}", color="black", fontname="Calibri", style="filled", fillcolor="white"];
"1607539760" -> "11779443"[label="1", color="black", style="setlinewidth(1)"];
"1607539760" -> "1412968960"[label="1", color="black", style="setlinewidth(1)"];
"633222189" -> "1229839835"[label="1", color="black", style="setlinewidth(1)"];
"1133049693" -> "657676546"[label="1", color="black", style="setlinewidth(1)"];
"51071957" -> "497232417"[label="1", color="black", style="setlinewidth(1)"];
"51071957" -> "131096351"[label="1", color="black", style="setlinewidth(1)"];
"1613536387"[label="{{Stmt\ -1:\ bb_perror_msg(\\\"%s:\ c}|True}", color="black", fontname="Calibri", style="filled", fillcolor="white"];
"1613536387" -> "1185469424"[label="1", color="black", style="setlinewidth(1)"];
"1613536387" -> "581817677"[label="1", color="black", style="setlinewidth(1)"];
"1970024292" -> "1462352993"[label="1", color="black", style="setlinewidth(1)"];
"284698325"[label="{{Stmt\ -1:\ bb_perror_msg(\\\"%s:\ c}|True}", color="black", fontname="Calibri", style="filled", fillcolor="white"];
"284698325" -> "1185469424"[label="1", color="black", style="setlinewidth(1)"];
"284698325" -> "1854895278"[label="1", color="black", style="setlinewidth(1)"];
"2059185863"[label="{{Expr\ -1:\ ((*ptr_to_globals).m}|True}", color="black", fontname="Calibri", style="filled", fillcolor="white"];
"2059185863" -> "633222189"[label="1", color="black", style="setlinewidth(1)"];
"2059185863" -> "1607539760"[label="1", color="black", style="setlinewidth(1)"];
"1148853749" -> "1133049693"[label="1", color="black", style="setlinewidth(1)"];
"684960260" -> "51071957"[label="1", color="black", style="setlinewidth(1)"];
"967595234"[label="{{Expr\ 298:\ res}|True}", color="black", fontname="Calibri", style="filled", fillcolor="white"];
"967595234" -> "1185469424"[label="1", color="black", style="setlinewidth(1)"];
"967595234" -> "1092245046"[label="1", color="black", style="setlinewidth(1)"];
"967595234" -> "1196020983"[label="1", color="black", style="setlinewidth(1)"];
"967595234" -> "2059185863"[label="1", color="black", style="setlinewidth(1)"];
"967595234" -> "1613536387"[label="1", color="black", style="setlinewidth(1)"];
"1092245046" -> "1970024292"[label="1", color="black", style="setlinewidth(1)"];
"1210755354"[label="{{Expr\ 304:\ res}|True}", color="black", fontname="Calibri", style="filled", fillcolor="white"];
"1210755354" -> "1185469424"[label="1", color="black", style="setlinewidth(1)"];
"1210755354" -> "1196020983"[label="1", color="black", style="setlinewidth(1)"];
"1210755354" -> "1092245046"[label="1", color="black", style="setlinewidth(1)"];
"1210755354" -> "2059185863"[label="1", color="black", style="setlinewidth(1)"];
"1210755354" -> "284698325"[label="1", color="black", style="setlinewidth(1)"];
"1196020983" -> "1148853749"[label="1", color="black", style="setlinewidth(1)"];
"164770666" -> "1185469424"[label="1", color="black", style="setlinewidth(1)"];
"164770666" -> "2082283604"[label="1", color="black", style="setlinewidth(1)"];
"2082283604" -> "431073419"[label="1", color="black", style="setlinewidth(1)"];
"1285117882" -> "684960260"[label="1", color="black", style="setlinewidth(1)"];
"673424052"[label="{{Stmt\ -1:\ (res\ =\ set_if_addr(m}|True}", color="black", fontname="Calibri", style="filled", fillcolor="white"];
"673424052" -> "1092245046"[label="1", color="black", style="setlinewidth(1)"];
"673424052" -> "967595234"[label="1", color="black", style="setlinewidth(1)"];
"316151869"[label="{{Stmt\ -1:\ (res\ =\ clear_if_addr}|True}", color="black", fontname="Calibri", style="filled", fillcolor="white"];
"316151869" -> "1196020983"[label="1", color="black", style="setlinewidth(1)"];
"316151869" -> "1210755354"[label="1", color="black", style="setlinewidth(1)"];
"1169802391" -> "2082283604"[label="1", color="black", style="setlinewidth(1)"];
"1169802391" -> "164770666"[label="1", color="black", style="setlinewidth(1)"];
"131096351" -> "1285117882"[label="1", color="black", style="setlinewidth(1)"];
"1206959563"[label="{{Stmt\ -1:\ return\ res;}|True}", color="black", fontname="Calibri", style="filled", fillcolor="white"];
"1206959563" -> "215782958"[label="1", color="black", style="setlinewidth(1)"];
"1709866640"[label="{{Expr\ -1:\ ((*ptr_to_globals).a}|True}", color="black", fontname="Calibri", style="filled", fillcolor="white"];
"1709866640" -> "316151869"[label="1", color="black", style="setlinewidth(1)"];
"1709866640" -> "673424052"[label="1", color="black", style="setlinewidth(1)"];
"1904436988" -> "131096351"[label="1", color="black", style="setlinewidth(1)"];
"1904436988" -> "1169802391"[label="1", color="black", style="setlinewidth(1)"];
"1297660399"[label="{{Stmt\ -1:\ return\ 1;}|True}", color="black", fontname="Calibri", style="filled", fillcolor="white"];
"1297660399" -> "215782958"[label="1", color="black", style="setlinewidth(1)"];
"1139020495"[label="{{Expr\ 290:\ res}|True}", color="black", fontname="Calibri", style="filled", fillcolor="white"];
"1139020495" -> "1709866640"[label="1", color="black", style="setlinewidth(1)"];
"1139020495" -> "1206959563"[label="1", color="black", style="setlinewidth(1)"];
"431073419" -> "1904436988"[label="1", color="black", style="setlinewidth(1)"];
"965938749"[label="{{Stmt\ -1:\ bb_error_msg(\\\"%s\ is\ }|True}", color="black", fontname="Calibri", style="filled", fillcolor="white"];
"965938749" -> "975578175"[label="1", color="black", style="setlinewidth(1)"];
"965938749" -> "1297660399"[label="1", color="black", style="setlinewidth(1)"];
"1386068785"[label="{{Stmt\ -1:\ (res\ =\ set_if_down(s}|True}", color="black", fontname="Calibri", style="filled", fillcolor="white"];
"1386068785" -> "431073419"[label="1", color="black", style="setlinewidth(1)"];
"1386068785" -> "1139020495"[label="1", color="black", style="setlinewidth(1)"];
"898918567"[label="{{Expr\ -1:\ ((*ptr_to_globals).s}|True}", color="black", fontname="Calibri", style="filled", fillcolor="white"];
"898918567" -> "1386068785"[label="1", color="black", style="setlinewidth(1)"];
"898918567" -> "965938749"[label="1", color="black", style="setlinewidth(1)"];
"2019740371"[label="{{Stmt\ -1:\ int\ res;}|True}", color="black", fontname="Calibri", style="filled", fillcolor="white"];
"2019740371" -> "898918567"[label="1", color="black", style="setlinewidth(1)"];
"1777049732"[label="{{Stmt\ -1:\ struct\ ifreq\ \ ifr;}|True}", color="black", fontname="Calibri", style="filled", fillcolor="white"];
"1777049732" -> "2019740371"[label="1", color="black", style="setlinewidth(1)"];
"215782958" -> "1777049732"[label="1", color="black", style="setlinewidth(1)"];
"414261248" -> "1868536069"[label="1", color="black", style="setlinewidth(1)"];
"414261248" -> "2016839031"[label="1", color="black", style="setlinewidth(1)"];
"851038114"[label="{{Stmt\ -1:\ return\ 1;}|True}", color="black", fontname="Calibri", style="filled", fillcolor="white"];
"1782438693"[label="{{Function\ -1:\ release}|True}", color="blue", fontname="Calibri", style="filled", fillcolor="white"];
"851038114" -> "1782438693"[label="1", color="black", style="setlinewidth(1)"];
"2016839031" -> "414261248"[label="1", color="black", style="setlinewidth(1)"];
"1008026838"[label="{{Stmt\ -1:\ bb_error_msg(\\\"%s\ is\ }|True}", color="black", fontname="Calibri", style="filled", fillcolor="white"];
"1008026838" -> "975578175"[label="1", color="black", style="setlinewidth(1)"];
"1008026838" -> "851038114"[label="1", color="black", style="setlinewidth(1)"];
"302992249"[label="{{Stmt\ -1:\ strncpy_IFNAMSIZ(ifr}|True}", color="black", fontname="Calibri", style="filled", fillcolor="white"];
"302992249" -> "1011148933"[label="1", color="black", style="setlinewidth(1)"];
"302992249" -> "2016839031"[label="1", color="black", style="setlinewidth(1)"];
"333575324"[label="{{Expr\ -1:\ (!\ ((*ptr_to_globals}|True}", color="black", fontname="Calibri", style="filled", fillcolor="white"];
"333575324" -> "302992249"[label="1", color="black", style="setlinewidth(1)"];
"333575324" -> "1008026838"[label="1", color="black", style="setlinewidth(1)"];
"518103929"[label="{{Stmt\ -1:\ int\ res\ =\ \ 0;}|True}", color="black", fontname="Calibri", style="filled", fillcolor="white"];
"518103929" -> "333575324"[label="1", color="black", style="setlinewidth(1)"];
"1668500536"[label="{{Stmt\ -1:\ struct\ ifreq\ \ ifr;}|True}", color="black", fontname="Calibri", style="filled", fillcolor="white"];
"1668500536" -> "518103929"[label="1", color="black", style="setlinewidth(1)"];
"1782438693" -> "1668500536"[label="1", color="black", style="setlinewidth(1)"];
"414261248" -> "1868536069"[label="1", color="black", style="setlinewidth(1)"];
"414261248" -> "2016839031"[label="1", color="black", style="setlinewidth(1)"];
"2016839031" -> "414261248"[label="1", color="black", style="setlinewidth(1)"];
"410069961" -> "2016839031"[label="1", color="black", style="setlinewidth(1)"];
"410069961" -> "497232417"[label="1", color="black", style="setlinewidth(1)"];
"425506855" -> "1011148933"[label="1", color="black", style="setlinewidth(1)"];
"425506855" -> "410069961"[label="1", color="black", style="setlinewidth(1)"];
"497232417" -> "425506855"[label="1", color="black", style="setlinewidth(1)"];
"819123984"[label="{{Stmt\ -1:\ strcpy(info.fw_versi}|True}", color="black", fontname="Calibri", style="filled", fillcolor="white"];
"681387421"[label="{{Decl\ -1:\ strcpy}|True}", color="blue", fontname="Calibri", style="filled", fillcolor="white"];
"819123984" -> "681387421"[label="1", color="black", style="setlinewidth(1)"];
"819123984" -> "497232417"[label="1", color="black", style="setlinewidth(1)"];
"388211323"[label="{{Stmt\ -1:\ strcpy(info.driver\ ,}|True}", color="black", fontname="Calibri", style="filled", fillcolor="white"];
"388211323" -> "681387421"[label="1", color="black", style="setlinewidth(1)"];
"388211323" -> "819123984"[label="1", color="black", style="setlinewidth(1)"];
"1473161283"[label="{{Stmt\ -1:\ (info.cmd\ =\ 0x000000}|True}", color="black", fontname="Calibri", style="filled", fillcolor="white"];
"1473161283" -> "388211323"[label="1", color="black", style="setlinewidth(1)"];
"49233642"[label="{{Stmt\ -1:\ (ifr.ifr_ifru.ifru_d}|True}", color="black", fontname="Calibri", style="filled", fillcolor="white"];
"49233642" -> "1473161283"[label="1", color="black", style="setlinewidth(1)"];
"435497836"[label="{{Stmt\ -1:\ memset((&ifr)\ ,\ 0\ ,\ }|True}", color="black", fontname="Calibri", style="filled", fillcolor="white"];
"435497836" -> "1253100016"[label="1", color="black", style="setlinewidth(1)"];
"435497836" -> "49233642"[label="1", color="black", style="setlinewidth(1)"];
"663782819"[label="{{Stmt\ -1:\ struct\ ethtool_drvin}|True}", color="black", fontname="Calibri", style="filled", fillcolor="white"];
"663782819" -> "435497836"[label="1", color="black", style="setlinewidth(1)"];
"1407648361"[label="{{Stmt\ -1:\ struct\ ifreq\ \ ifr;}|True}", color="black", fontname="Calibri", style="filled", fillcolor="white"];
"1407648361" -> "663782819"[label="1", color="black", style="setlinewidth(1)"];
"1690034670"[label="{{Function\ -1:\ get_drv_info}|True}", color="blue", fontname="Calibri", style="filled", fillcolor="white"];
"1690034670" -> "1407648361"[label="1", color="black", style="setlinewidth(1)"];
"414261248" -> "1868536069"[label="1", color="black", style="setlinewidth(1)"];
"414261248" -> "2016839031"[label="1", color="black", style="setlinewidth(1)"];
"2016839031" -> "414261248"[label="1", color="black", style="setlinewidth(1)"];
"1736476493" -> "1393415653"[label="1", color="black", style="setlinewidth(1)"];
"410069961" -> "2016839031"[label="1", color="black", style="setlinewidth(1)"];
"410069961" -> "497232417"[label="1", color="black", style="setlinewidth(1)"];
"819123984" -> "681387421"[label="1", color="black", style="setlinewidth(1)"];
"819123984" -> "497232417"[label="1", color="black", style="setlinewidth(1)"];
"1379376520" -> "497232417"[label="1", color="black", style="setlinewidth(1)"];
"1379376520" -> "1736476493"[label="1", color="black", style="setlinewidth(1)"];
"425506855" -> "1011148933"[label="1", color="black", style="setlinewidth(1)"];
"425506855" -> "410069961"[label="1", color="black", style="setlinewidth(1)"];
"388211323" -> "681387421"[label="1", color="black", style="setlinewidth(1)"];
"388211323" -> "819123984"[label="1", color="black", style="setlinewidth(1)"];
"2031171380" -> "497232417"[label="1", color="black", style="setlinewidth(1)"];
"2031171380" -> "1379376520"[label="1", color="black", style="setlinewidth(1)"];
"497232417" -> "425506855"[label="1", color="black", style="setlinewidth(1)"];
"1473161283" -> "388211323"[label="1", color="black", style="setlinewidth(1)"];
"1166329983"[label="{{Stmt\ -1:\ return\ 2;}|True}", color="black", fontname="Calibri", style="filled", fillcolor="white"];
"1071051225"[label="{{Function\ -1:\ ifenslave_main}|True}", color="blue", fontname="Calibri", style="filled", fillcolor="white"];
"1166329983" -> "1071051225"[label="1", color="black", style="setlinewidth(1)"];
"1012274354"[label="{{Stmt\ -1:\ return\ 0;}|True}", color="black", fontname="Calibri", style="filled", fillcolor="white"];
"1012274354" -> "1071051225"[label="1", color="black", style="setlinewidth(1)"];
"934800679" -> "497232417"[label="1", color="black", style="setlinewidth(1)"];
"934800679" -> "2031171380"[label="1", color="black", style="setlinewidth(1)"];
"49233642" -> "1473161283"[label="1", color="black", style="setlinewidth(1)"];
"1238449715"[label="{{Stmt\ -1:\ display_interfaces(s}|True}", color="black", fontname="Calibri", style="filled", fillcolor="white"];
"1938149531"[label="{{Decl\ -1:\ display_interfaces}|True}", color="blue", fontname="Calibri", style="filled", fillcolor="white"];
"1238449715" -> "1938149531"[label="1", color="black", style="setlinewidth(1)"];
"1238449715" -> "1166329983"[label="1", color="black", style="setlinewidth(1)"];
"448559265"[label="{{Stmt\ -1:\ display_interfaces(m}|True}", color="black", fontname="Calibri", style="filled", fillcolor="white"];
"448559265" -> "1938149531"[label="1", color="black", style="setlinewidth(1)"];
"448559265" -> "1012274354"[label="1", color="black", style="setlinewidth(1)"];
"394378065" -> "934800679"[label="1", color="black", style="setlinewidth(1)"];
"435497836" -> "1253100016"[label="1", color="black", style="setlinewidth(1)"];
"435497836" -> "49233642"[label="1", color="black", style="setlinewidth(1)"];
"295385078"[label="{{Expr\ -1:\ (opt\ &\ (OPT_d\ \|\ OPT_}|True}", color="black", fontname="Calibri", style="filled", fillcolor="white"];
"295385078" -> "448559265"[label="1", color="black", style="setlinewidth(1)"];
"295385078" -> "1238449715"[label="1", color="black", style="setlinewidth(1)"];
"1393415653" -> "394378065"[label="1", color="black", style="setlinewidth(1)"];
"663782819" -> "435497836"[label="1", color="black", style="setlinewidth(1)"];
"458259092"[label="{{Expr\ -1:\ (!\ slave_ifname)}|True}", color="black", fontname="Calibri", style="filled", fillcolor="white"];
"458259092" -> "1393415653"[label="1", color="black", style="setlinewidth(1)"];
"458259092" -> "295385078"[label="1", color="black", style="setlinewidth(1)"];
"1407648361" -> "663782819"[label="1", color="black", style="setlinewidth(1)"];
"622834653"[label="{{Stmt\ -1:\ (slave_ifname\ =\ (*ar}|True}", color="black", fontname="Calibri", style="filled", fillcolor="white"];
"622834653" -> "458259092"[label="1", color="black", style="setlinewidth(1)"];
"1690034670" -> "1407648361"[label="1", color="black", style="setlinewidth(1)"];
"382364672"[label="{{Stmt\ -1:\ return\ 0;}|True}", color="black", fontname="Calibri", style="filled", fillcolor="white"];
"382364672" -> "1071051225"[label="1", color="black", style="setlinewidth(1)"];
"482176094"[label="{{Stmt\ -1:\ get_drv_info(master_}|True}", color="black", fontname="Calibri", style="filled", fillcolor="white"];
"482176094" -> "1690034670"[label="1", color="black", style="setlinewidth(1)"];
"482176094" -> "622834653"[label="1", color="black", style="setlinewidth(1)"];
"1537477200"[label="{{Decl\ -1:\ xmove_fd}|True}", color="blue", fontname="Calibri", style="filled", fillcolor="white"];
"960367813"[label="{{Stmt\ -1:\ display_interfaces((}|True}", color="black", fontname="Calibri", style="filled", fillcolor="white"];
"960367813" -> "1938149531"[label="1", color="black", style="setlinewidth(1)"];
"960367813" -> "382364672"[label="1", color="black", style="setlinewidth(1)"];
"470228587"[label="{{Stmt\ -1:\ xmove_fd(xsocket(2\ ,}|True}", color="black", fontname="Calibri", style="filled", fillcolor="white"];
"470228587" -> "1537477200"[label="1", color="black", style="setlinewidth(1)"];
"470228587" -> "482176094"[label="1", color="black", style="setlinewidth(1)"];
"1740880700"[label="{{Decl\ -1:\ bb_show_usage}|True}", color="blue", fontname="Calibri", style="filled", fillcolor="white"];
"2070337459"[label="{{Expr\ -1:\ (!\ master_ifname)}|True}", color="black", fontname="Calibri", style="filled", fillcolor="white"];
"2070337459" -> "470228587"[label="1", color="black", style="setlinewidth(1)"];
"2070337459" -> "960367813"[label="1", color="black", style="setlinewidth(1)"];
"1153580136"[label="{{Stmt\ -1:\ bb_show_usage();}|True}", color="black", fontname="Calibri", style="filled", fillcolor="white"];
"1153580136" -> "1740880700"[label="1", color="black", style="setlinewidth(1)"];
"408611286"[label="{{Stmt\ -1:\ (master_ifname\ =\ (*a}|True}", color="black", fontname="Calibri", style="filled", fillcolor="white"];
"1153580136" -> "408611286"[label="1", color="black", style="setlinewidth(1)"];
"408611286" -> "2070337459"[label="1", color="black", style="setlinewidth(1)"];
"347069860"[label="{{Expr\ -1:\ (opt\ &\ (opt\ -\ 1))}|True}", color="black", fontname="Calibri", style="filled", fillcolor="white"];
"347069860" -> "408611286"[label="1", color="black", style="setlinewidth(1)"];
"347069860" -> "1153580136"[label="1", color="black", style="setlinewidth(1)"];
"1448442559"[label="{{Stmt\ -1:\ (argv\ +=\ optind);}|True}", color="black", fontname="Calibri", style="filled", fillcolor="white"];
"1448442559" -> "347069860"[label="1", color="black", style="setlinewidth(1)"];
"346581145"[label="{{Decl\ -1:\ getopt32}|True}", color="blue", fontname="Calibri", style="filled", fillcolor="white"];
"180872367"[label="{{Stmt\ -1:\ (opt\ =\ getopt32(argv}|True}", color="black", fontname="Calibri", style="filled", fillcolor="white"];
"180872367" -> "346581145"[label="1", color="black", style="setlinewidth(1)"];
"180872367" -> "1448442559"[label="1", color="black", style="setlinewidth(1)"];
"1980867677"[label="{{Expr\ 135:\ 0}|True}", color="black", fontname="Calibri", style="filled", fillcolor="white"];
"1053791578"[label="{{Stmt\ -1:\ ((*((struct\ globals\ }|True}", color="black", fontname="Calibri", style="filled", fillcolor="white"];
"1980867677" -> "1053791578"[label="1", color="black", style="setlinewidth(1)"];
"1980867677" -> "180872367"[label="1", color="black", style="setlinewidth(1)"];
"2049453457"[label="{{Expr\ 1637:\ 0}|True}", color="black", fontname="Calibri", style="filled", fillcolor="white"];
"2049453457" -> "1053791578"[label="1", color="black", style="setlinewidth(1)"];
"2011802809"[label="{{Decl\ -1:\ xzalloc}|True}", color="blue", fontname="Calibri", style="filled", fillcolor="white"];
"2049453457" -> "2011802809"[label="1", color="black", style="setlinewidth(1)"];
"2049453457" -> "1980867677"[label="1", color="black", style="setlinewidth(1)"];
"2144346556"[label="{{Stmt\ -1:\ asm\ volatile\ (\\\"\\\");}|True}", color="black", fontname="Calibri", style="filled", fillcolor="white"];
"2144346556" -> "2011802809"[label="1", color="black", style="setlinewidth(1)"];
"2144346556" -> "2049453457"[label="1", color="black", style="setlinewidth(1)"];
"169721904"[label="{{Stmt\ -1:\ (applet_long_options}|macro(CONFIG_LONG_OPTS=(def(CONFIG_FEATURE_RUN_PARTS_LONG_OPTIONS)\|def(CONFIG_FEATURE_EXPAND_LONG_OPTIONS)\|def(CONFIG_FEATURE_GZIP_LONG_OPTIONS)\|def(CONFIG_FEATURE_RMDIR_LONG_OPTIONS)\|def(CONFIG_LONG_OPTS)\|def(CONFIG_FEATURE_ADDUSER_LONG_OPTIONS)\|def(CONFIG_FEATURE_ENV_LONG_OPTIONS)\|def(CONFIG_FEATURE_MKDIR_LONG_OPTIONS)\|def(CONFIG_FEATURE_TAR_LONG_OPTIONS)\|def(CONFIG_FEATURE_UNEXPAND_LONG_OPTIONS)\|def(CONFIG_FEATURE_ADDGROUP_LONG_OPTIONS)\|def(CONFIG_FEATURE_MV_LONG_OPTIONS)\|def(CONFIG_FEATURE_START_STOP_DAEMON_LONG_OPTIONS)\|def(CONFIG_FEATURE_INSTALL_LONG_OPTIONS)\|def(CONFIG_FEATURE_DIFF_LONG_OPTIONS)))}", color="black", fontname="Calibri", style="filled", fillcolor="#CD5200"];
"169721904" -> "1053791578"[label="defined(CONFIG_LONG_OPTS)", color="red", style="setlinewidth(1)"];
"1053791578" -> "2011802809"[label="1", color="black", style="setlinewidth(1)"];
"1053791578" -> "2144346556"[label="1", color="black", style="setlinewidth(1)"];
"1596601550"[label="{{Stmt\ -1:\ static\ const\ char\ \l#}|macro(CONFIG_LONG_OPTS=(def(CONFIG_FEATURE_RUN_PARTS_LONG_OPTIONS)\|def(CONFIG_FEATURE_EXPAND_LONG_OPTIONS)\|def(CONFIG_FEATURE_GZIP_LONG_OPTIONS)\|def(CONFIG_FEATURE_RMDIR_LONG_OPTIONS)\|def(CONFIG_LONG_OPTS)\|def(CONFIG_FEATURE_ADDUSER_LONG_OPTIONS)\|def(CONFIG_FEATURE_ENV_LONG_OPTIONS)\|def(CONFIG_FEATURE_MKDIR_LONG_OPTIONS)\|def(CONFIG_FEATURE_TAR_LONG_OPTIONS)\|def(CONFIG_FEATURE_UNEXPAND_LONG_OPTIONS)\|def(CONFIG_FEATURE_ADDGROUP_LONG_OPTIONS)\|def(CONFIG_FEATURE_MV_LONG_OPTIONS)\|def(CONFIG_FEATURE_START_STOP_DAEMON_LONG_OPTIONS)\|def(CONFIG_FEATURE_INSTALL_LONG_OPTIONS)\|def(CONFIG_FEATURE_DIFF_LONG_OPTIONS)))}", color="black", fontname="Calibri", style="filled", fillcolor="#CD5200"];
"1596601550" -> "169721904"[label="defined(CONFIG_LONG_OPTS)", color="red", style="setlinewidth(1)"];
"1352853980"[label="{{Stmt\ -1:\ enum\ \ \{\l\ \ OPT_c\ =\ (1}|True}", color="black", fontname="Calibri", style="filled", fillcolor="white"];
"1352853980" -> "1596601550"[label="defined(CONFIG_LONG_OPTS)", color="red", style="setlinewidth(1)"];
"1352853980" -> "1053791578"[label="!defined(CONFIG_LONG_OPTS)", color="red", style="setlinewidth(1)"];
"1103079624"[label="{{Stmt\ -1:\ unsigned\ opt;}|True}", color="black", fontname="Calibri", style="filled", fillcolor="white"];
"1103079624" -> "1352853980"[label="1", color="black", style="setlinewidth(1)"];
"1339530628"[label="{{Stmt\ -1:\ int\ res;}|True}", color="black", fontname="Calibri", style="filled", fillcolor="white"];
"1339530628" -> "1103079624"[label="1", color="black", style="setlinewidth(1)"];
"1531945651"[label="{{Stmt\ -1:\ int\ rv;}|True}", color="black", fontname="Calibri", style="filled", fillcolor="white"];
"1531945651" -> "1339530628"[label="1", color="black", style="setlinewidth(1)"];
"2088404729"[label="{{Stmt\ -1:\ char\ *master_ifname,}|True}", color="black", fontname="Calibri", style="filled", fillcolor="white"];
"2088404729" -> "1531945651"[label="1", color="black", style="setlinewidth(1)"];
"1071051225" -> "2088404729"[label="1", color="black", style="setlinewidth(1)"];
}
