digraph "busybox-1.18.5/networking/udhcp/files.c" {
node [shape=record];
"374791653"[label="{{Decl\ -1:\ xstrtoull_range_sfx}|True}", color="blue", fontname="Calibri", style="filled", fillcolor="white"];
"1807724417"[label="{{Stmt\ -1:\ return\ xstrtoull_ran}|True}", color="black", fontname="Calibri", style="filled", fillcolor="white"];
"1807724417" -> "374791653"[label="1", color="black", style="setlinewidth(1)"];
"1512227727"[label="{{Function\ -1:\ xstrtoul_range_sfx}|True}", color="blue", fontname="Calibri", style="filled", fillcolor="white"];
"1807724417" -> "1512227727"[label="1", color="black", style="setlinewidth(1)"];
"1512227727" -> "1807724417"[label="1", color="black", style="setlinewidth(1)"];
"932855071"[label="{{Decl\ -1:\ xstrtoull_range}|True}", color="blue", fontname="Calibri", style="filled", fillcolor="white"];
"1641499037"[label="{{Stmt\ -1:\ return\ xstrtoull_ran}|True}", color="black", fontname="Calibri", style="filled", fillcolor="white"];
"1641499037" -> "932855071"[label="1", color="black", style="setlinewidth(1)"];
"91764338"[label="{{Function\ -1:\ xstrtoul_range}|True}", color="blue", fontname="Calibri", style="filled", fillcolor="white"];
"1641499037" -> "91764338"[label="1", color="black", style="setlinewidth(1)"];
"91764338" -> "1641499037"[label="1", color="black", style="setlinewidth(1)"];
"876626649"[label="{{Decl\ -1:\ xstrtoull_sfx}|True}", color="blue", fontname="Calibri", style="filled", fillcolor="white"];
"1200574017"[label="{{Stmt\ -1:\ return\ xstrtoull_sfx}|True}", color="black", fontname="Calibri", style="filled", fillcolor="white"];
"1200574017" -> "876626649"[label="1", color="black", style="setlinewidth(1)"];
"910145899"[label="{{Function\ -1:\ xstrtoul_sfx}|True}", color="blue", fontname="Calibri", style="filled", fillcolor="white"];
"1200574017" -> "910145899"[label="1", color="black", style="setlinewidth(1)"];
"910145899" -> "1200574017"[label="1", color="black", style="setlinewidth(1)"];
"1435206571"[label="{{Decl\ -1:\ xstrtoull}|True}", color="blue", fontname="Calibri", style="filled", fillcolor="white"];
"52806856"[label="{{Stmt\ -1:\ return\ xstrtoull(str}|True}", color="black", fontname="Calibri", style="filled", fillcolor="white"];
"52806856" -> "1435206571"[label="1", color="black", style="setlinewidth(1)"];
"1502907517"[label="{{Function\ -1:\ xstrtoul}|True}", color="blue", fontname="Calibri", style="filled", fillcolor="white"];
"52806856" -> "1502907517"[label="1", color="black", style="setlinewidth(1)"];
"1502907517" -> "52806856"[label="1", color="black", style="setlinewidth(1)"];
"1040031466"[label="{{Decl\ -1:\ xatoull_range_sfx}|True}", color="blue", fontname="Calibri", style="filled", fillcolor="white"];
"1238997437"[label="{{Stmt\ -1:\ return\ xatoull_range}|True}", color="black", fontname="Calibri", style="filled", fillcolor="white"];
"1238997437" -> "1040031466"[label="1", color="black", style="setlinewidth(1)"];
"1040094059"[label="{{Function\ -1:\ xatoul_range_sfx}|True}", color="blue", fontname="Calibri", style="filled", fillcolor="white"];
"1238997437" -> "1040094059"[label="1", color="black", style="setlinewidth(1)"];
"1040094059" -> "1238997437"[label="1", color="black", style="setlinewidth(1)"];
"288142596"[label="{{Decl\ -1:\ xatoull_range}|True}", color="blue", fontname="Calibri", style="filled", fillcolor="white"];
"1180440638"[label="{{Stmt\ -1:\ return\ xatoull_range}|True}", color="black", fontname="Calibri", style="filled", fillcolor="white"];
"1180440638" -> "288142596"[label="1", color="black", style="setlinewidth(1)"];
"148259706"[label="{{Function\ -1:\ xatoul_range}|True}", color="blue", fontname="Calibri", style="filled", fillcolor="white"];
"1180440638" -> "148259706"[label="1", color="black", style="setlinewidth(1)"];
"148259706" -> "1180440638"[label="1", color="black", style="setlinewidth(1)"];
"1945347007"[label="{{Decl\ -1:\ xatoull_sfx}|True}", color="blue", fontname="Calibri", style="filled", fillcolor="white"];
"1328112481"[label="{{Stmt\ -1:\ return\ xatoull_sfx(s}|True}", color="black", fontname="Calibri", style="filled", fillcolor="white"];
"1328112481" -> "1945347007"[label="1", color="black", style="setlinewidth(1)"];
"56811981"[label="{{Function\ -1:\ xatoul_sfx}|True}", color="blue", fontname="Calibri", style="filled", fillcolor="white"];
"1328112481" -> "56811981"[label="1", color="black", style="setlinewidth(1)"];
"56811981" -> "1328112481"[label="1", color="black", style="setlinewidth(1)"];
"1460074866"[label="{{Decl\ -1:\ xatoull}|True}", color="blue", fontname="Calibri", style="filled", fillcolor="white"];
"128278616"[label="{{Stmt\ -1:\ return\ xatoull(str);}|True}", color="black", fontname="Calibri", style="filled", fillcolor="white"];
"128278616" -> "1460074866"[label="1", color="black", style="setlinewidth(1)"];
"1911358965"[label="{{Function\ -1:\ xatoul}|True}", color="blue", fontname="Calibri", style="filled", fillcolor="white"];
"128278616" -> "1911358965"[label="1", color="black", style="setlinewidth(1)"];
"1911358965" -> "128278616"[label="1", color="black", style="setlinewidth(1)"];
"1924821170"[label="{{Decl\ -1:\ xstrtoll_range_sfx}|True}", color="blue", fontname="Calibri", style="filled", fillcolor="white"];
"2007586948"[label="{{Stmt\ -1:\ return\ xstrtoll_rang}|True}", color="black", fontname="Calibri", style="filled", fillcolor="white"];
"2007586948" -> "1924821170"[label="1", color="black", style="setlinewidth(1)"];
"554577858"[label="{{Function\ -1:\ xstrtol_range_sfx}|True}", color="blue", fontname="Calibri", style="filled", fillcolor="white"];
"2007586948" -> "554577858"[label="1", color="black", style="setlinewidth(1)"];
"554577858" -> "2007586948"[label="1", color="black", style="setlinewidth(1)"];
"2134170745"[label="{{Decl\ -1:\ xstrtoll_range}|True}", color="blue", fontname="Calibri", style="filled", fillcolor="white"];
"648846266"[label="{{Stmt\ -1:\ return\ xstrtoll_rang}|True}", color="black", fontname="Calibri", style="filled", fillcolor="white"];
"648846266" -> "2134170745"[label="1", color="black", style="setlinewidth(1)"];
"1576528316"[label="{{Function\ -1:\ xstrtol_range}|True}", color="blue", fontname="Calibri", style="filled", fillcolor="white"];
"648846266" -> "1576528316"[label="1", color="black", style="setlinewidth(1)"];
"1576528316" -> "648846266"[label="1", color="black", style="setlinewidth(1)"];
"1943889590"[label="{{Decl\ -1:\ xstrtoll}|True}", color="blue", fontname="Calibri", style="filled", fillcolor="white"];
"788696404"[label="{{Stmt\ -1:\ return\ xstrtoll(str\ }|True}", color="black", fontname="Calibri", style="filled", fillcolor="white"];
"788696404" -> "1943889590"[label="1", color="black", style="setlinewidth(1)"];
"871858"[label="{{Function\ -1:\ xstrtol}|True}", color="blue", fontname="Calibri", style="filled", fillcolor="white"];
"788696404" -> "871858"[label="1", color="black", style="setlinewidth(1)"];
"871858" -> "788696404"[label="1", color="black", style="setlinewidth(1)"];
"1694593739"[label="{{Decl\ -1:\ xatoll_range_sfx}|True}", color="blue", fontname="Calibri", style="filled", fillcolor="white"];
"562611813"[label="{{Stmt\ -1:\ return\ xatoll_range_}|True}", color="black", fontname="Calibri", style="filled", fillcolor="white"];
"562611813" -> "1694593739"[label="1", color="black", style="setlinewidth(1)"];
"1145597988"[label="{{Function\ -1:\ xatol_range_sfx}|True}", color="blue", fontname="Calibri", style="filled", fillcolor="white"];
"562611813" -> "1145597988"[label="1", color="black", style="setlinewidth(1)"];
"1145597988" -> "562611813"[label="1", color="black", style="setlinewidth(1)"];
"2002619729"[label="{{Decl\ -1:\ xatoll_range}|True}", color="blue", fontname="Calibri", style="filled", fillcolor="white"];
"1249471376"[label="{{Stmt\ -1:\ return\ xatoll_range(}|True}", color="black", fontname="Calibri", style="filled", fillcolor="white"];
"1249471376" -> "2002619729"[label="1", color="black", style="setlinewidth(1)"];
"1968062403"[label="{{Function\ -1:\ xatol_range}|True}", color="blue", fontname="Calibri", style="filled", fillcolor="white"];
"1249471376" -> "1968062403"[label="1", color="black", style="setlinewidth(1)"];
"1968062403" -> "1249471376"[label="1", color="black", style="setlinewidth(1)"];
"811537072"[label="{{Decl\ -1:\ xatoll_sfx}|True}", color="blue", fontname="Calibri", style="filled", fillcolor="white"];
"186572290"[label="{{Stmt\ -1:\ return\ xatoll_sfx(st}|True}", color="black", fontname="Calibri", style="filled", fillcolor="white"];
"186572290" -> "811537072"[label="1", color="black", style="setlinewidth(1)"];
"988085844"[label="{{Function\ -1:\ xatol_sfx}|True}", color="blue", fontname="Calibri", style="filled", fillcolor="white"];
"186572290" -> "988085844"[label="1", color="black", style="setlinewidth(1)"];
"988085844" -> "186572290"[label="1", color="black", style="setlinewidth(1)"];
"881509117"[label="{{Decl\ -1:\ xatoll}|True}", color="blue", fontname="Calibri", style="filled", fillcolor="white"];
"1498146189"[label="{{Stmt\ -1:\ return\ xatoll(str);}|True}", color="black", fontname="Calibri", style="filled", fillcolor="white"];
"1498146189" -> "881509117"[label="1", color="black", style="setlinewidth(1)"];
"55203428"[label="{{Function\ -1:\ xatol}|True}", color="blue", fontname="Calibri", style="filled", fillcolor="white"];
"1498146189" -> "55203428"[label="1", color="black", style="setlinewidth(1)"];
"55203428" -> "1498146189"[label="1", color="black", style="setlinewidth(1)"];
"128278616" -> "1460074866"[label="1", color="black", style="setlinewidth(1)"];
"128278616" -> "1911358965"[label="1", color="black", style="setlinewidth(1)"];
"1911358965" -> "128278616"[label="1", color="black", style="setlinewidth(1)"];
"1465607282"[label="{{Decl\ -1:\ BUG_xatou32_unimplemented}|True}", color="blue", fontname="Calibri", style="filled", fillcolor="white"];
"285879628"[label="{{Decl\ -1:\ xatou}|True}", color="blue", fontname="Calibri", style="filled", fillcolor="white"];
"11800194"[label="{{Stmt\ -1:\ return\ xatoul(numstr}|True}", color="black", fontname="Calibri", style="filled", fillcolor="white"];
"11800194" -> "1911358965"[label="1", color="black", style="setlinewidth(1)"];
"2025412852"[label="{{Function\ -1:\ xatou32}|True}", color="blue", fontname="Calibri", style="filled", fillcolor="white"];
"11800194" -> "2025412852"[label="1", color="black", style="setlinewidth(1)"];
"1284166191"[label="{{Stmt\ -1:\ return\ BUG_xatou32_u}|True}", color="black", fontname="Calibri", style="filled", fillcolor="white"];
"1284166191" -> "1465607282"[label="1", color="black", style="setlinewidth(1)"];
"1284166191" -> "2025412852"[label="1", color="black", style="setlinewidth(1)"];
"932790425"[label="{{Stmt\ -1:\ return\ xatou(numstr)}|True}", color="black", fontname="Calibri", style="filled", fillcolor="white"];
"932790425" -> "285879628"[label="1", color="black", style="setlinewidth(1)"];
"932790425" -> "2025412852"[label="1", color="black", style="setlinewidth(1)"];
"217552874"[label="{{Expr\ -1:\ (((92233720368547758}|True}", color="black", fontname="Calibri", style="filled", fillcolor="white"];
"217552874" -> "1284166191"[label="1", color="black", style="setlinewidth(1)"];
"217552874" -> "11800194"[label="1", color="black", style="setlinewidth(1)"];
"873174966"[label="{{Expr\ -1:\ (((2147483647\ *\ 2U)\ }|True}", color="black", fontname="Calibri", style="filled", fillcolor="white"];
"873174966" -> "217552874"[label="1", color="black", style="setlinewidth(1)"];
"873174966" -> "932790425"[label="1", color="black", style="setlinewidth(1)"];
"2025412852" -> "873174966"[label="1", color="black", style="setlinewidth(1)"];
"2055524199"[label="{{Decl\ -1:\ bb_strtoull}|True}", color="blue", fontname="Calibri", style="filled", fillcolor="white"];
"1756387082"[label="{{Stmt\ -1:\ return\ bb_strtoull(a}|True}", color="black", fontname="Calibri", style="filled", fillcolor="white"];
"1756387082" -> "2055524199"[label="1", color="black", style="setlinewidth(1)"];
"669131082"[label="{{Function\ -1:\ bb_strtoul}|True}", color="blue", fontname="Calibri", style="filled", fillcolor="white"];
"1756387082" -> "669131082"[label="1", color="black", style="setlinewidth(1)"];
"669131082" -> "1756387082"[label="1", color="black", style="setlinewidth(1)"];
"169492005"[label="{{Decl\ -1:\ bb_strtoll}|True}", color="blue", fontname="Calibri", style="filled", fillcolor="white"];
"693716589"[label="{{Stmt\ -1:\ return\ bb_strtoll(ar}|True}", color="black", fontname="Calibri", style="filled", fillcolor="white"];
"693716589" -> "169492005"[label="1", color="black", style="setlinewidth(1)"];
"1768135262"[label="{{Function\ -1:\ bb_strtol}|True}", color="blue", fontname="Calibri", style="filled", fillcolor="white"];
"693716589" -> "1768135262"[label="1", color="black", style="setlinewidth(1)"];
"1768135262" -> "693716589"[label="1", color="black", style="setlinewidth(1)"];
"1756387082" -> "2055524199"[label="1", color="black", style="setlinewidth(1)"];
"1756387082" -> "669131082"[label="1", color="black", style="setlinewidth(1)"];
"669131082" -> "1756387082"[label="1", color="black", style="setlinewidth(1)"];
"1820351064"[label="{{Decl\ -1:\ BUG_bb_strtou32_unimplemented}|True}", color="blue", fontname="Calibri", style="filled", fillcolor="white"];
"151781969"[label="{{Decl\ -1:\ bb_strtou}|True}", color="blue", fontname="Calibri", style="filled", fillcolor="white"];
"180600031"[label="{{Stmt\ -1:\ return\ bb_strtoul(ar}|True}", color="black", fontname="Calibri", style="filled", fillcolor="white"];
"180600031" -> "669131082"[label="1", color="black", style="setlinewidth(1)"];
"393827122"[label="{{Function\ -1:\ bb_strtou32}|True}", color="blue", fontname="Calibri", style="filled", fillcolor="white"];
"180600031" -> "393827122"[label="1", color="black", style="setlinewidth(1)"];
"178741551"[label="{{Stmt\ -1:\ return\ BUG_bb_strtou}|True}", color="black", fontname="Calibri", style="filled", fillcolor="white"];
"178741551" -> "1820351064"[label="1", color="black", style="setlinewidth(1)"];
"178741551" -> "393827122"[label="1", color="black", style="setlinewidth(1)"];
"1620659348"[label="{{Stmt\ -1:\ return\ bb_strtou(arg}|True}", color="black", fontname="Calibri", style="filled", fillcolor="white"];
"1620659348" -> "151781969"[label="1", color="black", style="setlinewidth(1)"];
"1620659348" -> "393827122"[label="1", color="black", style="setlinewidth(1)"];
"88177084"[label="{{Expr\ -1:\ (sizeof(uint32_t\ )\ =}|True}", color="black", fontname="Calibri", style="filled", fillcolor="white"];
"88177084" -> "178741551"[label="1", color="black", style="setlinewidth(1)"];
"88177084" -> "180600031"[label="1", color="black", style="setlinewidth(1)"];
"716452872"[label="{{Expr\ -1:\ (sizeof(uint32_t\ )\ =}|True}", color="black", fontname="Calibri", style="filled", fillcolor="white"];
"716452872" -> "88177084"[label="1", color="black", style="setlinewidth(1)"];
"716452872" -> "1620659348"[label="1", color="black", style="setlinewidth(1)"];
"393827122" -> "716452872"[label="1", color="black", style="setlinewidth(1)"];
"1931597534"[label="{{Stmt\ -1:\ return\ (b\ \<=\ ('z'\ -\ }|True}", color="black", fontname="Calibri", style="filled", fillcolor="white"];
"145877162"[label="{{Function\ -1:\ bb_ascii_isalnum}|True}", color="blue", fontname="Calibri", style="filled", fillcolor="white"];
"1931597534" -> "145877162"[label="1", color="black", style="setlinewidth(1)"];
"252863187"[label="{{Stmt\ -1:\ return\ (b\ \<=\ 9);}|True}", color="black", fontname="Calibri", style="filled", fillcolor="white"];
"252863187" -> "145877162"[label="1", color="black", style="setlinewidth(1)"];
"1455666965"[label="{{Stmt\ -1:\ (b\ =\ ((a\ \|\ 0x20)\ -\ '}|True}", color="black", fontname="Calibri", style="filled", fillcolor="white"];
"1455666965" -> "1931597534"[label="1", color="black", style="setlinewidth(1)"];
"590996255"[label="{{Expr\ -1:\ (b\ \<=\ 9)}|True}", color="black", fontname="Calibri", style="filled", fillcolor="white"];
"590996255" -> "1455666965"[label="1", color="black", style="setlinewidth(1)"];
"590996255" -> "252863187"[label="1", color="black", style="setlinewidth(1)"];
"584378989"[label="{{Stmt\ -1:\ unsigned\ char\ b\ =\ \ (}|True}", color="black", fontname="Calibri", style="filled", fillcolor="white"];
"584378989" -> "590996255"[label="1", color="black", style="setlinewidth(1)"];
"145877162" -> "584378989"[label="1", color="black", style="setlinewidth(1)"];
"326889406"[label="{{Stmt\ -1:\ return\ (b\ \<=\ ('f'\ -\ }|True}", color="black", fontname="Calibri", style="filled", fillcolor="white"];
"1818105282"[label="{{Function\ -1:\ bb_ascii_isxdigit}|True}", color="blue", fontname="Calibri", style="filled", fillcolor="white"];
"326889406" -> "1818105282"[label="1", color="black", style="setlinewidth(1)"];
"1043654821"[label="{{Stmt\ -1:\ return\ (b\ \<=\ 9);}|True}", color="black", fontname="Calibri", style="filled", fillcolor="white"];
"1043654821" -> "1818105282"[label="1", color="black", style="setlinewidth(1)"];
"888089242"[label="{{Stmt\ -1:\ (b\ =\ ((a\ \|\ 0x20)\ -\ '}|True}", color="black", fontname="Calibri", style="filled", fillcolor="white"];
"888089242" -> "326889406"[label="1", color="black", style="setlinewidth(1)"];
"422001849"[label="{{Expr\ -1:\ (b\ \<=\ 9)}|True}", color="black", fontname="Calibri", style="filled", fillcolor="white"];
"422001849" -> "888089242"[label="1", color="black", style="setlinewidth(1)"];
"422001849" -> "1043654821"[label="1", color="black", style="setlinewidth(1)"];
"1353384539"[label="{{Stmt\ -1:\ unsigned\ char\ b\ =\ \ (}|True}", color="black", fontname="Calibri", style="filled", fillcolor="white"];
"1353384539" -> "422001849"[label="1", color="black", style="setlinewidth(1)"];
"1818105282" -> "1353384539"[label="1", color="black", style="setlinewidth(1)"];
"682261563"[label="{{Stmt\ -1:\ (a\ -=\ ('a'\ -\ 'A'));}|True}", color="black", fontname="Calibri", style="filled", fillcolor="white"];
"1709679920"[label="{{Stmt\ -1:\ return\ a;}|True}", color="black", fontname="Calibri", style="filled", fillcolor="white"];
"682261563" -> "1709679920"[label="1", color="black", style="setlinewidth(1)"];
"1173636219"[label="{{Function\ -1:\ bb_ascii_toupper}|True}", color="blue", fontname="Calibri", style="filled", fillcolor="white"];
"1709679920" -> "1173636219"[label="1", color="black", style="setlinewidth(1)"];
"831641327"[label="{{Expr\ -1:\ (b\ \<=\ ('z'\ -\ 'a'))}|True}", color="black", fontname="Calibri", style="filled", fillcolor="white"];
"831641327" -> "1709679920"[label="1", color="black", style="setlinewidth(1)"];
"831641327" -> "682261563"[label="1", color="black", style="setlinewidth(1)"];
"41808470"[label="{{Stmt\ -1:\ unsigned\ char\ b\ =\ \ (}|True}", color="black", fontname="Calibri", style="filled", fillcolor="white"];
"41808470" -> "831641327"[label="1", color="black", style="setlinewidth(1)"];
"1173636219" -> "41808470"[label="1", color="black", style="setlinewidth(1)"];
"169949273"[label="{{Stmt\ -1:\ (a\ +=\ ('a'\ -\ 'A'));}|True}", color="black", fontname="Calibri", style="filled", fillcolor="white"];
"208567139"[label="{{Stmt\ -1:\ return\ a;}|True}", color="black", fontname="Calibri", style="filled", fillcolor="white"];
"169949273" -> "208567139"[label="1", color="black", style="setlinewidth(1)"];
"235332875"[label="{{Function\ -1:\ bb_ascii_tolower}|True}", color="blue", fontname="Calibri", style="filled", fillcolor="white"];
"208567139" -> "235332875"[label="1", color="black", style="setlinewidth(1)"];
"1638888272"[label="{{Expr\ -1:\ (b\ \<=\ ('Z'\ -\ 'A'))}|True}", color="black", fontname="Calibri", style="filled", fillcolor="white"];
"1638888272" -> "208567139"[label="1", color="black", style="setlinewidth(1)"];
"1638888272" -> "169949273"[label="1", color="black", style="setlinewidth(1)"];
"157180111"[label="{{Stmt\ -1:\ unsigned\ char\ b\ =\ \ (}|True}", color="black", fontname="Calibri", style="filled", fillcolor="white"];
"157180111" -> "1638888272"[label="1", color="black", style="setlinewidth(1)"];
"235332875" -> "157180111"[label="1", color="black", style="setlinewidth(1)"];
"1794160301"[label="{{Stmt\ -1:\ return\ 1;}|True}", color="black", fontname="Calibri", style="filled", fillcolor="white"];
"928200570"[label="{{Function\ -1:\ read_str}|True}", color="blue", fontname="Calibri", style="filled", fillcolor="white"];
"1794160301" -> "928200570"[label="1", color="black", style="setlinewidth(1)"];
"1864315304"[label="{{Decl\ -1:\ xstrdup}|True}", color="blue", fontname="Calibri", style="filled", fillcolor="white"];
"1860833885"[label="{{Stmt\ -1:\ ((*dest)\ =\ xstrdup(l}|True}", color="black", fontname="Calibri", style="filled", fillcolor="white"];
"1860833885" -> "1864315304"[label="1", color="black", style="setlinewidth(1)"];
"1860833885" -> "1794160301"[label="1", color="black", style="setlinewidth(1)"];
"943710634"[label="{{Decl\ -1:\ free}|True}", color="blue", fontname="Calibri", style="filled", fillcolor="white"];
"2112904831"[label="{{Stmt\ -1:\ free((*dest));}|True}", color="black", fontname="Calibri", style="filled", fillcolor="white"];
"2112904831" -> "943710634"[label="1", color="black", style="setlinewidth(1)"];
"2112904831" -> "1860833885"[label="1", color="black", style="setlinewidth(1)"];
"1908971682"[label="{{Stmt\ -1:\ char\ **dest\ =\ \ arg;}|True}", color="black", fontname="Calibri", style="filled", fillcolor="white"];
"1908971682" -> "2112904831"[label="1", color="black", style="setlinewidth(1)"];
"928200570" -> "1908971682"[label="1", color="black", style="setlinewidth(1)"];
"1756387082" -> "2055524199"[label="1", color="black", style="setlinewidth(1)"];
"1756387082" -> "669131082"[label="1", color="black", style="setlinewidth(1)"];
"669131082" -> "1756387082"[label="1", color="black", style="setlinewidth(1)"];
"180600031" -> "669131082"[label="1", color="black", style="setlinewidth(1)"];
"180600031" -> "393827122"[label="1", color="black", style="setlinewidth(1)"];
"178741551" -> "1820351064"[label="1", color="black", style="setlinewidth(1)"];
"178741551" -> "393827122"[label="1", color="black", style="setlinewidth(1)"];
"1620659348" -> "151781969"[label="1", color="black", style="setlinewidth(1)"];
"1620659348" -> "393827122"[label="1", color="black", style="setlinewidth(1)"];
"88177084" -> "178741551"[label="1", color="black", style="setlinewidth(1)"];
"88177084" -> "180600031"[label="1", color="black", style="setlinewidth(1)"];
"716452872" -> "88177084"[label="1", color="black", style="setlinewidth(1)"];
"716452872" -> "1620659348"[label="1", color="black", style="setlinewidth(1)"];
"958898714"[label="{{Stmt\ -1:\ return\ ((*bb_errno)\ }|True}", color="black", fontname="Calibri", style="filled", fillcolor="white"];
"1219378530"[label="{{Function\ -1:\ read_u32}|True}", color="blue", fontname="Calibri", style="filled", fillcolor="white"];
"958898714" -> "1219378530"[label="1", color="black", style="setlinewidth(1)"];
"393827122" -> "716452872"[label="1", color="black", style="setlinewidth(1)"];
"652168418"[label="{{Stmt\ -1:\ ((*((uint32_t\ *)\ arg}|True}", color="black", fontname="Calibri", style="filled", fillcolor="white"];
"652168418" -> "393827122"[label="1", color="black", style="setlinewidth(1)"];
"652168418" -> "958898714"[label="1", color="black", style="setlinewidth(1)"];
"1219378530" -> "652168418"[label="1", color="black", style="setlinewidth(1)"];
"1391643693"[label="{{Decl\ -1:\ ether_aton_r}|True}", color="blue", fontname="Calibri", style="filled", fillcolor="white"];
"1797331944"[label="{{Decl\ -1:\ strtok_r}|True}", color="blue", fontname="Calibri", style="filled", fillcolor="white"];
"1568232485"[label="{{Stmt\ -1:\ (mac_string\ =\ strtok}|True}", color="black", fontname="Calibri", style="filled", fillcolor="white"];
"1568232485" -> "1797331944"[label="1", color="black", style="setlinewidth(1)"];
"1568232485" -> "1391643693"[label="1", color="black", style="setlinewidth(1)"];
"123038514"[label="{{Stmt\ -1:\ (line\ =\ ((char\ *)\ co}|True}", color="black", fontname="Calibri", style="filled", fillcolor="white"];
"123038514" -> "1568232485"[label="1", color="black", style="setlinewidth(1)"];
"2118661837"[label="{{Stmt\ -1:\ uint32_t\ nip;}|True}", color="black", fontname="Calibri", style="filled", fillcolor="white"];
"2118661837" -> "123038514"[label="1", color="black", style="setlinewidth(1)"];
"1233228555"[label="{{Stmt\ -1:\ struct\ ether_addr\ \ m}|True}", color="black", fontname="Calibri", style="filled", fillcolor="white"];
"1233228555" -> "2118661837"[label="1", color="black", style="setlinewidth(1)"];
"468219880"[label="{{Stmt\ -1:\ char\ *ip_string;}|True}", color="black", fontname="Calibri", style="filled", fillcolor="white"];
"468219880" -> "1233228555"[label="1", color="black", style="setlinewidth(1)"];
"1696498618"[label="{{Stmt\ -1:\ char\ *mac_string;}|True}", color="black", fontname="Calibri", style="filled", fillcolor="white"];
"1696498618" -> "468219880"[label="1", color="black", style="setlinewidth(1)"];
"1841649005"[label="{{Stmt\ -1:\ char\ *line;}|True}", color="black", fontname="Calibri", style="filled", fillcolor="white"];
"1841649005" -> "1696498618"[label="1", color="black", style="setlinewidth(1)"];
"2123204829"[label="{{Function\ -1:\ read_staticlease}|True}", color="blue", fontname="Calibri", style="filled", fillcolor="white"];
"2123204829" -> "1841649005"[label="1", color="black", style="setlinewidth(1)"];
"164770666"[label="{{Expr\ -1:\ i++}|True}", color="black", fontname="Calibri", style="filled", fillcolor="white"];
"1564808407"[label="{{Expr\ -1:\ (i\ \<\ KWS_WITH_DEFAUL}|True}", color="black", fontname="Calibri", style="filled", fillcolor="white"];
"164770666" -> "1564808407"[label="1", color="black", style="setlinewidth(1)"];
"2002739332"[label="{{Decl\ -1:\ config_read}|True}", color="blue", fontname="Calibri", style="filled", fillcolor="white"];
"272393788"[label="{{Decl\ -1:\ config_open}|True}", color="blue", fontname="Calibri", style="filled", fillcolor="white"];
"1498974939"[label="{{Stmt\ -1:\ keywords[i].handler(}|True}", color="black", fontname="Calibri", style="filled", fillcolor="white"];
"1498974939" -> "164770666"[label="1", color="black", style="setlinewidth(1)"];
"1102634259"[label="{{Stmt\ -1:\ (parser\ =\ config_ope}|True}", color="black", fontname="Calibri", style="filled", fillcolor="white"];
"1102634259" -> "272393788"[label="1", color="black", style="setlinewidth(1)"];
"1102634259" -> "2002739332"[label="1", color="black", style="setlinewidth(1)"];
"1564808407" -> "1102634259"[label="1", color="black", style="setlinewidth(1)"];
"1564808407" -> "1498974939"[label="1", color="black", style="setlinewidth(1)"];
"1204782882"[label="{{Expr\ -1:\ (i\ =\ 0)}|True}", color="black", fontname="Calibri", style="filled", fillcolor="white"];
"1204782882" -> "1564808407"[label="1", color="black", style="setlinewidth(1)"];
"1688129179"[label="{{Stmt\ -1:\ char\ *token[2];}|True}", color="black", fontname="Calibri", style="filled", fillcolor="white"];
"1688129179" -> "1204782882"[label="1", color="black", style="setlinewidth(1)"];
"316614846"[label="{{Stmt\ -1:\ unsigned\ i;}|True}", color="black", fontname="Calibri", style="filled", fillcolor="white"];
"316614846" -> "1688129179"[label="1", color="black", style="setlinewidth(1)"];
"790754557"[label="{{Stmt\ -1:\ const\ struct\ config_}|True}", color="black", fontname="Calibri", style="filled", fillcolor="white"];
"790754557" -> "316614846"[label="1", color="black", style="setlinewidth(1)"];
"239728113"[label="{{Stmt\ -1:\ parser_t\ *parser;}|True}", color="black", fontname="Calibri", style="filled", fillcolor="white"];
"239728113" -> "790754557"[label="1", color="black", style="setlinewidth(1)"];
"349131009"[label="{{Function\ -1:\ read_config}|True}", color="blue", fontname="Calibri", style="filled", fillcolor="white"];
"349131009" -> "239728113"[label="1", color="black", style="setlinewidth(1)"];
"576898924"[label="{{Stmt\ -1:\ (g_leases[i].expires}|True}", color="black", fontname="Calibri", style="filled", fillcolor="white"];
"1265460015"[label="{{Decl\ -1:\ full_write}|True}", color="blue", fontname="Calibri", style="filled", fillcolor="white"];
"576898924" -> "1265460015"[label="1", color="black", style="setlinewidth(1)"];
"329926740"[label="{{Decl\ -1:\ htonl}|True}", color="blue", fontname="Calibri", style="filled", fillcolor="white"];
"576898924" -> "329926740"[label="1", color="black", style="setlinewidth(1)"];
"893077828"[label="{{Expr\ -1:\ i++}|True}", color="black", fontname="Calibri", style="filled", fillcolor="white"];
"576898924" -> "893077828"[label="1", color="black", style="setlinewidth(1)"];
"1819766895"[label="{{Stmt\ -1:\ full_write(fd\ ,\ (&g_}|True}", color="black", fontname="Calibri", style="filled", fillcolor="white"];
"1819766895" -> "1265460015"[label="1", color="black", style="setlinewidth(1)"];
"1819766895" -> "576898924"[label="1", color="black", style="setlinewidth(1)"];
"1116652548"[label="{{Stmt\ -1:\ spawn_and_wait(argv)}|True}", color="black", fontname="Calibri", style="filled", fillcolor="white"];
"870969077"[label="{{Decl\ -1:\ spawn_and_wait}|True}", color="blue", fontname="Calibri", style="filled", fillcolor="white"];
"1116652548" -> "870969077"[label="1", color="black", style="setlinewidth(1)"];
"1871302014"[label="{{Decl\ -1:\ close}|True}", color="blue", fontname="Calibri", style="filled", fillcolor="white"];
"1116652548" -> "1871302014"[label="1", color="black", style="setlinewidth(1)"];
"1116652548" -> "1265460015"[label="1", color="black", style="setlinewidth(1)"];
"1116652548" -> "329926740"[label="1", color="black", style="setlinewidth(1)"];
"622163280"[label="{{Decl\ -1:\ bb_bswap_64}|True}", color="blue", fontname="Calibri", style="filled", fillcolor="white"];
"1116652548" -> "622163280"[label="1", color="black", style="setlinewidth(1)"];
"394251761"[label="{{Decl\ -1:\ time}|True}", color="blue", fontname="Calibri", style="filled", fillcolor="white"];
"1116652548" -> "394251761"[label="1", color="black", style="setlinewidth(1)"];
"1046409930"[label="{{Decl\ -1:\ open_or_warn}|True}", color="blue", fontname="Calibri", style="filled", fillcolor="white"];
"1116652548" -> "1046409930"[label="1", color="black", style="setlinewidth(1)"];
"1510177103"[label="{{Function\ -1:\ write_leases}|True}", color="blue", fontname="Calibri", style="filled", fillcolor="white"];
"1116652548" -> "1510177103"[label="1", color="black", style="setlinewidth(1)"];
"1226284596"[label="{{Stmt\ -1:\ (g_leases[i].expires}|True}", color="black", fontname="Calibri", style="filled", fillcolor="white"];
"607454064"[label="{{Stmt\ -1:\ (g_leases[i].expires}|True}", color="black", fontname="Calibri", style="filled", fillcolor="white"];
"1226284596" -> "607454064"[label="1", color="black", style="setlinewidth(1)"];
"607454064" -> "329926740"[label="1", color="black", style="setlinewidth(1)"];
"607454064" -> "1819766895"[label="1", color="black", style="setlinewidth(1)"];
"1928932874"[label="{{Stmt\ -1:\ (argv[2]\ =\ ((void\ *)}|True}", color="black", fontname="Calibri", style="filled", fillcolor="white"];
"1928932874" -> "1116652548"[label="1", color="black", style="setlinewidth(1)"];
"1322976228"[label="{{Expr\ -1:\ (((signed_leasetime_}|True}", color="black", fontname="Calibri", style="filled", fillcolor="white"];
"1322976228" -> "607454064"[label="1", color="black", style="setlinewidth(1)"];
"1322976228" -> "1226284596"[label="1", color="black", style="setlinewidth(1)"];
"958172516"[label="{{Stmt\ -1:\ (argv[1]\ =\ (*((struc}|True}", color="black", fontname="Calibri", style="filled", fillcolor="white"];
"958172516" -> "1928932874"[label="1", color="black", style="setlinewidth(1)"];
"1521068742"[label="{{Expr\ -1:\ (i\ \<\ (*((struct\ serv}|True}", color="black", fontname="Calibri", style="filled", fillcolor="white"];
"893077828" -> "1521068742"[label="1", color="black", style="setlinewidth(1)"];
"281970370"[label="{{Stmt\ -1:\ (g_leases[i].expires}|True}", color="black", fontname="Calibri", style="filled", fillcolor="white"];
"281970370" -> "1322976228"[label="1", color="black", style="setlinewidth(1)"];
"2027296534"[label="{{Stmt\ -1:\ (argv[0]\ =\ (*((struc}|True}", color="black", fontname="Calibri", style="filled", fillcolor="white"];
"2027296534" -> "958172516"[label="1", color="black", style="setlinewidth(1)"];
"1605229401"[label="{{Stmt\ 140:\ continue;}|True}", color="black", fontname="Calibri", style="filled", fillcolor="white"];
"1605229401" -> "893077828"[label="1", color="black", style="setlinewidth(1)"];
"253485346"[label="{{Stmt\ -1:\ (tmp_time\ =\ g_leases}|True}", color="black", fontname="Calibri", style="filled", fillcolor="white"];
"253485346" -> "281970370"[label="1", color="black", style="setlinewidth(1)"];
"79895162"[label="{{Stmt\ -1:\ char\ *argv[3];}|True}", color="black", fontname="Calibri", style="filled", fillcolor="white"];
"79895162" -> "2027296534"[label="1", color="black", style="setlinewidth(1)"];
"1725410655"[label="{{Expr\ -1:\ (g_leases[i].lease_n}|True}", color="black", fontname="Calibri", style="filled", fillcolor="white"];
"1725410655" -> "253485346"[label="1", color="black", style="setlinewidth(1)"];
"1725410655" -> "1605229401"[label="1", color="black", style="setlinewidth(1)"];
"784386988"[label="{{Expr\ -1:\ (*((struct\ server_co}|True}", color="black", fontname="Calibri", style="filled", fillcolor="white"];
"784386988" -> "870969077"[label="1", color="black", style="setlinewidth(1)"];
"784386988" -> "1871302014"[label="1", color="black", style="setlinewidth(1)"];
"784386988" -> "1265460015"[label="1", color="black", style="setlinewidth(1)"];
"784386988" -> "329926740"[label="1", color="black", style="setlinewidth(1)"];
"784386988" -> "622163280"[label="1", color="black", style="setlinewidth(1)"];
"784386988" -> "394251761"[label="1", color="black", style="setlinewidth(1)"];
"784386988" -> "1046409930"[label="1", color="black", style="setlinewidth(1)"];
"784386988" -> "1510177103"[label="1", color="black", style="setlinewidth(1)"];
"784386988" -> "79895162"[label="1", color="black", style="setlinewidth(1)"];
"964863654"[label="{{Stmt\ -1:\ leasetime_t\ tmp_time}|True}", color="black", fontname="Calibri", style="filled", fillcolor="white"];
"964863654" -> "1725410655"[label="1", color="black", style="setlinewidth(1)"];
"2015858841"[label="{{Stmt\ -1:\ close(fd);}|True}", color="black", fontname="Calibri", style="filled", fillcolor="white"];
"2015858841" -> "1871302014"[label="1", color="black", style="setlinewidth(1)"];
"2015858841" -> "784386988"[label="1", color="black", style="setlinewidth(1)"];
"1521068742" -> "2015858841"[label="1", color="black", style="setlinewidth(1)"];
"1521068742" -> "964863654"[label="1", color="black", style="setlinewidth(1)"];
"1080038042"[label="{{Expr\ -1:\ (i\ =\ 0)}|True}", color="black", fontname="Calibri", style="filled", fillcolor="white"];
"1080038042" -> "1521068742"[label="1", color="black", style="setlinewidth(1)"];
"2126580859"[label="{{Stmt\ -1:\ full_write(fd\ ,\ (&wr}|True}", color="black", fontname="Calibri", style="filled", fillcolor="white"];
"2126580859" -> "1265460015"[label="1", color="black", style="setlinewidth(1)"];
"2126580859" -> "1080038042"[label="1", color="black", style="setlinewidth(1)"];
"1369263220"[label="{{Stmt\ -1:\ (written_at\ =\ bb_bsw}|True}", color="black", fontname="Calibri", style="filled", fillcolor="white"];
"1369263220" -> "622163280"[label="1", color="black", style="setlinewidth(1)"];
"1369263220" -> "2126580859"[label="1", color="black", style="setlinewidth(1)"];
"583492980"[label="{{Stmt\ 129:\ return;}|True}", color="black", fontname="Calibri", style="filled", fillcolor="white"];
"583492980" -> "1510177103"[label="1", color="black", style="setlinewidth(1)"];
"1356182658"[label="{{Stmt\ -1:\ (curr\ =\ (written_at\ }|True}", color="black", fontname="Calibri", style="filled", fillcolor="white"];
"1356182658" -> "394251761"[label="1", color="black", style="setlinewidth(1)"];
"1356182658" -> "1369263220"[label="1", color="black", style="setlinewidth(1)"];
"2033825809"[label="{{Expr\ -1:\ (fd\ \<\ 0)}|True}", color="black", fontname="Calibri", style="filled", fillcolor="white"];
"2033825809" -> "1356182658"[label="1", color="black", style="setlinewidth(1)"];
"2033825809" -> "583492980"[label="1", color="black", style="setlinewidth(1)"];
"680387598"[label="{{Stmt\ -1:\ (fd\ =\ open_or_warn((}|True}", color="black", fontname="Calibri", style="filled", fillcolor="white"];
"680387598" -> "1046409930"[label="1", color="black", style="setlinewidth(1)"];
"680387598" -> "2033825809"[label="1", color="black", style="setlinewidth(1)"];
"1217972473"[label="{{Stmt\ -1:\ int64_t\ written_at;}|True}", color="black", fontname="Calibri", style="filled", fillcolor="white"];
"1217972473" -> "680387598"[label="1", color="black", style="setlinewidth(1)"];
"795207098"[label="{{Stmt\ -1:\ leasetime_t\ curr;}|True}", color="black", fontname="Calibri", style="filled", fillcolor="white"];
"795207098" -> "1217972473"[label="1", color="black", style="setlinewidth(1)"];
"1040411609"[label="{{Stmt\ -1:\ unsigned\ i;}|True}", color="black", fontname="Calibri", style="filled", fillcolor="white"];
"1040411609" -> "795207098"[label="1", color="black", style="setlinewidth(1)"];
"286769341"[label="{{Stmt\ -1:\ int\ fd;}|True}", color="black", fontname="Calibri", style="filled", fillcolor="white"];
"286769341" -> "1040411609"[label="1", color="black", style="setlinewidth(1)"];
"1510177103" -> "286769341"[label="1", color="black", style="setlinewidth(1)"];
"1531907323"[label="{{Stmt\ 179:\ return;}|True}", color="black", fontname="Calibri", style="filled", fillcolor="white"];
"1214591082"[label="{{Function\ -1:\ read_leases}|True}", color="blue", fontname="Calibri", style="filled", fillcolor="white"];
"1531907323" -> "1214591082"[label="1", color="black", style="setlinewidth(1)"];
"1497627503"[label="{{Decl\ -1:\ full_read}|True}", color="blue", fontname="Calibri", style="filled", fillcolor="white"];
"434953113"[label="{{Expr\ -1:\ (fd\ \<\ 0)}|True}", color="black", fontname="Calibri", style="filled", fillcolor="white"];
"434953113" -> "1497627503"[label="1", color="black", style="setlinewidth(1)"];
"434953113" -> "1531907323"[label="1", color="black", style="setlinewidth(1)"];
"445495773"[label="{{Stmt\ -1:\ (fd\ =\ open_or_warn(f}|True}", color="black", fontname="Calibri", style="filled", fillcolor="white"];
"445495773" -> "1046409930"[label="1", color="black", style="setlinewidth(1)"];
"445495773" -> "434953113"[label="1", color="black", style="setlinewidth(1)"];
"1333536436"[label="{{Stmt\ -1:\ unsigned\ i\ =\ \ 0;}|True}", color="black", fontname="Calibri", style="filled", fillcolor="white"];
"1333536436" -> "445495773"[label="1", color="black", style="setlinewidth(1)"];
"1317078196"[label="{{Stmt\ -1:\ int\ fd;}|True}", color="black", fontname="Calibri", style="filled", fillcolor="white"];
"1317078196" -> "1333536436"[label="1", color="black", style="setlinewidth(1)"];
"767693425"[label="{{Stmt\ -1:\ int64_t\ written_at,\ }|True}", color="black", fontname="Calibri", style="filled", fillcolor="white"];
"767693425" -> "1317078196"[label="1", color="black", style="setlinewidth(1)"];
"1545869905"[label="{{Stmt\ -1:\ struct\ dyn_lease\ \ le}|True}", color="black", fontname="Calibri", style="filled", fillcolor="white"];
"1545869905" -> "767693425"[label="1", color="black", style="setlinewidth(1)"];
"1214591082" -> "1545869905"[label="1", color="black", style="setlinewidth(1)"];
}
