digraph "busybox-1.18.5/coreutils/basename.c" {
node [shape=record];
"265226115"[label="{{Decl\ -1:\ xstrtoull_range_sfx}|True}", color="blue", fontname="Calibri", style="filled", fillcolor="white"];
"1092198082"[label="{{Stmt\ -1:\ return\ xstrtoull_ran}|True}", color="black", fontname="Calibri", style="filled", fillcolor="white"];
"1092198082" -> "265226115"[label="1", color="black", style="setlinewidth(1)"];
"1646866513"[label="{{Function\ -1:\ xstrtoul_range_sfx}|True}", color="blue", fontname="Calibri", style="filled", fillcolor="white"];
"1092198082" -> "1646866513"[label="1", color="black", style="setlinewidth(1)"];
"1646866513" -> "1092198082"[label="1", color="black", style="setlinewidth(1)"];
"650761918"[label="{{Decl\ -1:\ xstrtoull_range}|True}", color="blue", fontname="Calibri", style="filled", fillcolor="white"];
"2071387373"[label="{{Stmt\ -1:\ return\ xstrtoull_ran}|True}", color="black", fontname="Calibri", style="filled", fillcolor="white"];
"2071387373" -> "650761918"[label="1", color="black", style="setlinewidth(1)"];
"550216269"[label="{{Function\ -1:\ xstrtoul_range}|True}", color="blue", fontname="Calibri", style="filled", fillcolor="white"];
"2071387373" -> "550216269"[label="1", color="black", style="setlinewidth(1)"];
"550216269" -> "2071387373"[label="1", color="black", style="setlinewidth(1)"];
"62657225"[label="{{Decl\ -1:\ xstrtoull_sfx}|True}", color="blue", fontname="Calibri", style="filled", fillcolor="white"];
"1494876337"[label="{{Stmt\ -1:\ return\ xstrtoull_sfx}|True}", color="black", fontname="Calibri", style="filled", fillcolor="white"];
"1494876337" -> "62657225"[label="1", color="black", style="setlinewidth(1)"];
"725266641"[label="{{Function\ -1:\ xstrtoul_sfx}|True}", color="blue", fontname="Calibri", style="filled", fillcolor="white"];
"1494876337" -> "725266641"[label="1", color="black", style="setlinewidth(1)"];
"725266641" -> "1494876337"[label="1", color="black", style="setlinewidth(1)"];
"628904496"[label="{{Decl\ -1:\ xstrtoull}|True}", color="blue", fontname="Calibri", style="filled", fillcolor="white"];
"1662304180"[label="{{Stmt\ -1:\ return\ xstrtoull(str}|True}", color="black", fontname="Calibri", style="filled", fillcolor="white"];
"1662304180" -> "628904496"[label="1", color="black", style="setlinewidth(1)"];
"1782263820"[label="{{Function\ -1:\ xstrtoul}|True}", color="blue", fontname="Calibri", style="filled", fillcolor="white"];
"1662304180" -> "1782263820"[label="1", color="black", style="setlinewidth(1)"];
"1782263820" -> "1662304180"[label="1", color="black", style="setlinewidth(1)"];
"1839729081"[label="{{Decl\ -1:\ xatoull_range_sfx}|True}", color="blue", fontname="Calibri", style="filled", fillcolor="white"];
"1804775408"[label="{{Stmt\ -1:\ return\ xatoull_range}|True}", color="black", fontname="Calibri", style="filled", fillcolor="white"];
"1804775408" -> "1839729081"[label="1", color="black", style="setlinewidth(1)"];
"1892312802"[label="{{Function\ -1:\ xatoul_range_sfx}|True}", color="blue", fontname="Calibri", style="filled", fillcolor="white"];
"1804775408" -> "1892312802"[label="1", color="black", style="setlinewidth(1)"];
"1892312802" -> "1804775408"[label="1", color="black", style="setlinewidth(1)"];
"1443097588"[label="{{Decl\ -1:\ xatoull_range}|True}", color="blue", fontname="Calibri", style="filled", fillcolor="white"];
"1869526864"[label="{{Stmt\ -1:\ return\ xatoull_range}|True}", color="black", fontname="Calibri", style="filled", fillcolor="white"];
"1869526864" -> "1443097588"[label="1", color="black", style="setlinewidth(1)"];
"1210763549"[label="{{Function\ -1:\ xatoul_range}|True}", color="blue", fontname="Calibri", style="filled", fillcolor="white"];
"1869526864" -> "1210763549"[label="1", color="black", style="setlinewidth(1)"];
"1210763549" -> "1869526864"[label="1", color="black", style="setlinewidth(1)"];
"649262877"[label="{{Decl\ -1:\ xatoull_sfx}|True}", color="blue", fontname="Calibri", style="filled", fillcolor="white"];
"1557892761"[label="{{Stmt\ -1:\ return\ xatoull_sfx(s}|True}", color="black", fontname="Calibri", style="filled", fillcolor="white"];
"1557892761" -> "649262877"[label="1", color="black", style="setlinewidth(1)"];
"573597068"[label="{{Function\ -1:\ xatoul_sfx}|True}", color="blue", fontname="Calibri", style="filled", fillcolor="white"];
"1557892761" -> "573597068"[label="1", color="black", style="setlinewidth(1)"];
"573597068" -> "1557892761"[label="1", color="black", style="setlinewidth(1)"];
"1557439097"[label="{{Decl\ -1:\ xatoull}|True}", color="blue", fontname="Calibri", style="filled", fillcolor="white"];
"664739753"[label="{{Stmt\ -1:\ return\ xatoull(str);}|True}", color="black", fontname="Calibri", style="filled", fillcolor="white"];
"664739753" -> "1557439097"[label="1", color="black", style="setlinewidth(1)"];
"485709812"[label="{{Function\ -1:\ xatoul}|True}", color="blue", fontname="Calibri", style="filled", fillcolor="white"];
"664739753" -> "485709812"[label="1", color="black", style="setlinewidth(1)"];
"485709812" -> "664739753"[label="1", color="black", style="setlinewidth(1)"];
"1728792023"[label="{{Decl\ -1:\ xstrtoll_range_sfx}|True}", color="blue", fontname="Calibri", style="filled", fillcolor="white"];
"1959163194"[label="{{Stmt\ -1:\ return\ xstrtoll_rang}|True}", color="black", fontname="Calibri", style="filled", fillcolor="white"];
"1959163194" -> "1728792023"[label="1", color="black", style="setlinewidth(1)"];
"1207739010"[label="{{Function\ -1:\ xstrtol_range_sfx}|True}", color="blue", fontname="Calibri", style="filled", fillcolor="white"];
"1959163194" -> "1207739010"[label="1", color="black", style="setlinewidth(1)"];
"1207739010" -> "1959163194"[label="1", color="black", style="setlinewidth(1)"];
"1255546168"[label="{{Decl\ -1:\ xstrtoll_range}|True}", color="blue", fontname="Calibri", style="filled", fillcolor="white"];
"1267003694"[label="{{Stmt\ -1:\ return\ xstrtoll_rang}|True}", color="black", fontname="Calibri", style="filled", fillcolor="white"];
"1267003694" -> "1255546168"[label="1", color="black", style="setlinewidth(1)"];
"1439446129"[label="{{Function\ -1:\ xstrtol_range}|True}", color="blue", fontname="Calibri", style="filled", fillcolor="white"];
"1267003694" -> "1439446129"[label="1", color="black", style="setlinewidth(1)"];
"1439446129" -> "1267003694"[label="1", color="black", style="setlinewidth(1)"];
"2059672112"[label="{{Decl\ -1:\ xstrtoll}|True}", color="blue", fontname="Calibri", style="filled", fillcolor="white"];
"373773594"[label="{{Stmt\ -1:\ return\ xstrtoll(str\ }|True}", color="black", fontname="Calibri", style="filled", fillcolor="white"];
"373773594" -> "2059672112"[label="1", color="black", style="setlinewidth(1)"];
"236986987"[label="{{Function\ -1:\ xstrtol}|True}", color="blue", fontname="Calibri", style="filled", fillcolor="white"];
"373773594" -> "236986987"[label="1", color="black", style="setlinewidth(1)"];
"236986987" -> "373773594"[label="1", color="black", style="setlinewidth(1)"];
"1667459648"[label="{{Decl\ -1:\ xatoll_range_sfx}|True}", color="blue", fontname="Calibri", style="filled", fillcolor="white"];
"1103030778"[label="{{Stmt\ -1:\ return\ xatoll_range_}|True}", color="black", fontname="Calibri", style="filled", fillcolor="white"];
"1103030778" -> "1667459648"[label="1", color="black", style="setlinewidth(1)"];
"1789089"[label="{{Function\ -1:\ xatol_range_sfx}|True}", color="blue", fontname="Calibri", style="filled", fillcolor="white"];
"1103030778" -> "1789089"[label="1", color="black", style="setlinewidth(1)"];
"1789089" -> "1103030778"[label="1", color="black", style="setlinewidth(1)"];
"423975229"[label="{{Decl\ -1:\ xatoll_range}|True}", color="blue", fontname="Calibri", style="filled", fillcolor="white"];
"718699574"[label="{{Stmt\ -1:\ return\ xatoll_range(}|True}", color="black", fontname="Calibri", style="filled", fillcolor="white"];
"718699574" -> "423975229"[label="1", color="black", style="setlinewidth(1)"];
"458191032"[label="{{Function\ -1:\ xatol_range}|True}", color="blue", fontname="Calibri", style="filled", fillcolor="white"];
"718699574" -> "458191032"[label="1", color="black", style="setlinewidth(1)"];
"458191032" -> "718699574"[label="1", color="black", style="setlinewidth(1)"];
"1491112784"[label="{{Decl\ -1:\ xatoll_sfx}|True}", color="blue", fontname="Calibri", style="filled", fillcolor="white"];
"275876456"[label="{{Stmt\ -1:\ return\ xatoll_sfx(st}|True}", color="black", fontname="Calibri", style="filled", fillcolor="white"];
"275876456" -> "1491112784"[label="1", color="black", style="setlinewidth(1)"];
"1546353547"[label="{{Function\ -1:\ xatol_sfx}|True}", color="blue", fontname="Calibri", style="filled", fillcolor="white"];
"275876456" -> "1546353547"[label="1", color="black", style="setlinewidth(1)"];
"1546353547" -> "275876456"[label="1", color="black", style="setlinewidth(1)"];
"1964391304"[label="{{Decl\ -1:\ xatoll}|True}", color="blue", fontname="Calibri", style="filled", fillcolor="white"];
"2058522685"[label="{{Stmt\ -1:\ return\ xatoll(str);}|True}", color="black", fontname="Calibri", style="filled", fillcolor="white"];
"2058522685" -> "1964391304"[label="1", color="black", style="setlinewidth(1)"];
"33806293"[label="{{Function\ -1:\ xatol}|True}", color="blue", fontname="Calibri", style="filled", fillcolor="white"];
"2058522685" -> "33806293"[label="1", color="black", style="setlinewidth(1)"];
"33806293" -> "2058522685"[label="1", color="black", style="setlinewidth(1)"];
"664739753" -> "1557439097"[label="1", color="black", style="setlinewidth(1)"];
"664739753" -> "485709812"[label="1", color="black", style="setlinewidth(1)"];
"485709812" -> "664739753"[label="1", color="black", style="setlinewidth(1)"];
"823228477"[label="{{Decl\ -1:\ BUG_xatou32_unimplemented}|True}", color="blue", fontname="Calibri", style="filled", fillcolor="white"];
"296106912"[label="{{Decl\ -1:\ xatou}|True}", color="blue", fontname="Calibri", style="filled", fillcolor="white"];
"585201503"[label="{{Stmt\ -1:\ return\ xatoul(numstr}|True}", color="black", fontname="Calibri", style="filled", fillcolor="white"];
"585201503" -> "485709812"[label="1", color="black", style="setlinewidth(1)"];
"1924570019"[label="{{Function\ -1:\ xatou32}|True}", color="blue", fontname="Calibri", style="filled", fillcolor="white"];
"585201503" -> "1924570019"[label="1", color="black", style="setlinewidth(1)"];
"250773372"[label="{{Stmt\ -1:\ return\ BUG_xatou32_u}|True}", color="black", fontname="Calibri", style="filled", fillcolor="white"];
"250773372" -> "823228477"[label="1", color="black", style="setlinewidth(1)"];
"250773372" -> "1924570019"[label="1", color="black", style="setlinewidth(1)"];
"16259287"[label="{{Stmt\ -1:\ return\ xatou(numstr)}|True}", color="black", fontname="Calibri", style="filled", fillcolor="white"];
"16259287" -> "296106912"[label="1", color="black", style="setlinewidth(1)"];
"16259287" -> "1924570019"[label="1", color="black", style="setlinewidth(1)"];
"473661776"[label="{{Expr\ -1:\ (((92233720368547758}|True}", color="black", fontname="Calibri", style="filled", fillcolor="white"];
"473661776" -> "250773372"[label="1", color="black", style="setlinewidth(1)"];
"473661776" -> "585201503"[label="1", color="black", style="setlinewidth(1)"];
"1494577919"[label="{{Expr\ -1:\ (((2147483647\ *\ 2U)\ }|True}", color="black", fontname="Calibri", style="filled", fillcolor="white"];
"1494577919" -> "473661776"[label="1", color="black", style="setlinewidth(1)"];
"1494577919" -> "16259287"[label="1", color="black", style="setlinewidth(1)"];
"1924570019" -> "1494577919"[label="1", color="black", style="setlinewidth(1)"];
"1324942068"[label="{{Decl\ -1:\ bb_strtoull}|True}", color="blue", fontname="Calibri", style="filled", fillcolor="white"];
"1563310639"[label="{{Stmt\ -1:\ return\ bb_strtoull(a}|True}", color="black", fontname="Calibri", style="filled", fillcolor="white"];
"1563310639" -> "1324942068"[label="1", color="black", style="setlinewidth(1)"];
"1685196635"[label="{{Function\ -1:\ bb_strtoul}|True}", color="blue", fontname="Calibri", style="filled", fillcolor="white"];
"1563310639" -> "1685196635"[label="1", color="black", style="setlinewidth(1)"];
"1685196635" -> "1563310639"[label="1", color="black", style="setlinewidth(1)"];
"117667791"[label="{{Decl\ -1:\ bb_strtoll}|True}", color="blue", fontname="Calibri", style="filled", fillcolor="white"];
"934787452"[label="{{Stmt\ -1:\ return\ bb_strtoll(ar}|True}", color="black", fontname="Calibri", style="filled", fillcolor="white"];
"934787452" -> "117667791"[label="1", color="black", style="setlinewidth(1)"];
"1757714741"[label="{{Function\ -1:\ bb_strtol}|True}", color="blue", fontname="Calibri", style="filled", fillcolor="white"];
"934787452" -> "1757714741"[label="1", color="black", style="setlinewidth(1)"];
"1757714741" -> "934787452"[label="1", color="black", style="setlinewidth(1)"];
"1563310639" -> "1324942068"[label="1", color="black", style="setlinewidth(1)"];
"1563310639" -> "1685196635"[label="1", color="black", style="setlinewidth(1)"];
"1685196635" -> "1563310639"[label="1", color="black", style="setlinewidth(1)"];
"1774517052"[label="{{Decl\ -1:\ BUG_bb_strtou32_unimplemented}|True}", color="blue", fontname="Calibri", style="filled", fillcolor="white"];
"1832774817"[label="{{Decl\ -1:\ bb_strtou}|True}", color="blue", fontname="Calibri", style="filled", fillcolor="white"];
"2139388899"[label="{{Stmt\ -1:\ return\ bb_strtoul(ar}|True}", color="black", fontname="Calibri", style="filled", fillcolor="white"];
"2139388899" -> "1685196635"[label="1", color="black", style="setlinewidth(1)"];
"1405762231"[label="{{Function\ -1:\ bb_strtou32}|True}", color="blue", fontname="Calibri", style="filled", fillcolor="white"];
"2139388899" -> "1405762231"[label="1", color="black", style="setlinewidth(1)"];
"698454271"[label="{{Stmt\ -1:\ return\ BUG_bb_strtou}|True}", color="black", fontname="Calibri", style="filled", fillcolor="white"];
"698454271" -> "1774517052"[label="1", color="black", style="setlinewidth(1)"];
"698454271" -> "1405762231"[label="1", color="black", style="setlinewidth(1)"];
"1639720277"[label="{{Stmt\ -1:\ return\ bb_strtou(arg}|True}", color="black", fontname="Calibri", style="filled", fillcolor="white"];
"1639720277" -> "1832774817"[label="1", color="black", style="setlinewidth(1)"];
"1639720277" -> "1405762231"[label="1", color="black", style="setlinewidth(1)"];
"1083982915"[label="{{Expr\ -1:\ (sizeof(uint32_t\ )\ =}|True}", color="black", fontname="Calibri", style="filled", fillcolor="white"];
"1083982915" -> "698454271"[label="1", color="black", style="setlinewidth(1)"];
"1083982915" -> "2139388899"[label="1", color="black", style="setlinewidth(1)"];
"695492803"[label="{{Expr\ -1:\ (sizeof(uint32_t\ )\ =}|True}", color="black", fontname="Calibri", style="filled", fillcolor="white"];
"695492803" -> "1083982915"[label="1", color="black", style="setlinewidth(1)"];
"695492803" -> "1639720277"[label="1", color="black", style="setlinewidth(1)"];
"1405762231" -> "695492803"[label="1", color="black", style="setlinewidth(1)"];
"869511264"[label="{{Stmt\ -1:\ return\ (b\ \<=\ ('z'\ -\ }|True}", color="black", fontname="Calibri", style="filled", fillcolor="white"];
"1938915458"[label="{{Function\ -1:\ bb_ascii_isalnum}|True}", color="blue", fontname="Calibri", style="filled", fillcolor="white"];
"869511264" -> "1938915458"[label="1", color="black", style="setlinewidth(1)"];
"853922109"[label="{{Stmt\ -1:\ return\ (b\ \<=\ 9);}|True}", color="black", fontname="Calibri", style="filled", fillcolor="white"];
"853922109" -> "1938915458"[label="1", color="black", style="setlinewidth(1)"];
"374106418"[label="{{Stmt\ -1:\ (b\ =\ ((a\ \|\ 0x20)\ -\ '}|True}", color="black", fontname="Calibri", style="filled", fillcolor="white"];
"374106418" -> "869511264"[label="1", color="black", style="setlinewidth(1)"];
"435699890"[label="{{Expr\ -1:\ (b\ \<=\ 9)}|True}", color="black", fontname="Calibri", style="filled", fillcolor="white"];
"435699890" -> "374106418"[label="1", color="black", style="setlinewidth(1)"];
"435699890" -> "853922109"[label="1", color="black", style="setlinewidth(1)"];
"676693712"[label="{{Stmt\ -1:\ unsigned\ char\ b\ =\ \ (}|True}", color="black", fontname="Calibri", style="filled", fillcolor="white"];
"676693712" -> "435699890"[label="1", color="black", style="setlinewidth(1)"];
"1938915458" -> "676693712"[label="1", color="black", style="setlinewidth(1)"];
"671710124"[label="{{Stmt\ -1:\ return\ (b\ \<=\ ('f'\ -\ }|True}", color="black", fontname="Calibri", style="filled", fillcolor="white"];
"861848529"[label="{{Function\ -1:\ bb_ascii_isxdigit}|True}", color="blue", fontname="Calibri", style="filled", fillcolor="white"];
"671710124" -> "861848529"[label="1", color="black", style="setlinewidth(1)"];
"769922700"[label="{{Stmt\ -1:\ return\ (b\ \<=\ 9);}|True}", color="black", fontname="Calibri", style="filled", fillcolor="white"];
"769922700" -> "861848529"[label="1", color="black", style="setlinewidth(1)"];
"1991847791"[label="{{Stmt\ -1:\ (b\ =\ ((a\ \|\ 0x20)\ -\ '}|True}", color="black", fontname="Calibri", style="filled", fillcolor="white"];
"1991847791" -> "671710124"[label="1", color="black", style="setlinewidth(1)"];
"1808549342"[label="{{Expr\ -1:\ (b\ \<=\ 9)}|True}", color="black", fontname="Calibri", style="filled", fillcolor="white"];
"1808549342" -> "1991847791"[label="1", color="black", style="setlinewidth(1)"];
"1808549342" -> "769922700"[label="1", color="black", style="setlinewidth(1)"];
"663765425"[label="{{Stmt\ -1:\ unsigned\ char\ b\ =\ \ (}|True}", color="black", fontname="Calibri", style="filled", fillcolor="white"];
"663765425" -> "1808549342"[label="1", color="black", style="setlinewidth(1)"];
"861848529" -> "663765425"[label="1", color="black", style="setlinewidth(1)"];
"1972621990"[label="{{Stmt\ -1:\ (a\ -=\ ('a'\ -\ 'A'));}|True}", color="black", fontname="Calibri", style="filled", fillcolor="white"];
"1566739424"[label="{{Stmt\ -1:\ return\ a;}|True}", color="black", fontname="Calibri", style="filled", fillcolor="white"];
"1972621990" -> "1566739424"[label="1", color="black", style="setlinewidth(1)"];
"73728309"[label="{{Function\ -1:\ bb_ascii_toupper}|True}", color="blue", fontname="Calibri", style="filled", fillcolor="white"];
"1566739424" -> "73728309"[label="1", color="black", style="setlinewidth(1)"];
"709625174"[label="{{Expr\ -1:\ (b\ \<=\ ('z'\ -\ 'a'))}|True}", color="black", fontname="Calibri", style="filled", fillcolor="white"];
"709625174" -> "1566739424"[label="1", color="black", style="setlinewidth(1)"];
"709625174" -> "1972621990"[label="1", color="black", style="setlinewidth(1)"];
"2080879949"[label="{{Stmt\ -1:\ unsigned\ char\ b\ =\ \ (}|True}", color="black", fontname="Calibri", style="filled", fillcolor="white"];
"2080879949" -> "709625174"[label="1", color="black", style="setlinewidth(1)"];
"73728309" -> "2080879949"[label="1", color="black", style="setlinewidth(1)"];
"1592727150"[label="{{Stmt\ -1:\ (a\ +=\ ('a'\ -\ 'A'));}|True}", color="black", fontname="Calibri", style="filled", fillcolor="white"];
"1574609245"[label="{{Stmt\ -1:\ return\ a;}|True}", color="black", fontname="Calibri", style="filled", fillcolor="white"];
"1592727150" -> "1574609245"[label="1", color="black", style="setlinewidth(1)"];
"922684190"[label="{{Function\ -1:\ bb_ascii_tolower}|True}", color="blue", fontname="Calibri", style="filled", fillcolor="white"];
"1574609245" -> "922684190"[label="1", color="black", style="setlinewidth(1)"];
"1148218748"[label="{{Expr\ -1:\ (b\ \<=\ ('Z'\ -\ 'A'))}|True}", color="black", fontname="Calibri", style="filled", fillcolor="white"];
"1148218748" -> "1574609245"[label="1", color="black", style="setlinewidth(1)"];
"1148218748" -> "1592727150"[label="1", color="black", style="setlinewidth(1)"];
"2091050683"[label="{{Stmt\ -1:\ unsigned\ char\ b\ =\ \ (}|True}", color="black", fontname="Calibri", style="filled", fillcolor="white"];
"2091050683" -> "1148218748"[label="1", color="black", style="setlinewidth(1)"];
"922684190" -> "2091050683"[label="1", color="black", style="setlinewidth(1)"];
"138336014"[label="{{Decl\ -1:\ full_write}|True}", color="blue", fontname="Calibri", style="filled", fillcolor="white"];
"260666908"[label="{{Decl\ -1:\ strcmp}|True}", color="blue", fontname="Calibri", style="filled", fillcolor="white"];
"1707068957"[label="{{Stmt\ -1:\ return\ (full_write(1}|True}", color="black", fontname="Calibri", style="filled", fillcolor="white"];
"1707068957" -> "138336014"[label="1", color="black", style="setlinewidth(1)"];
"751952332"[label="{{Function\ -1:\ basename_main}|True}", color="blue", fontname="Calibri", style="filled", fillcolor="white"];
"1707068957" -> "751952332"[label="1", color="black", style="setlinewidth(1)"];
"1354483285"[label="{{Stmt\ -1:\ (n\ =\ strlen((*argv))}|True}", color="black", fontname="Calibri", style="filled", fillcolor="white"];
"1937169731"[label="{{Decl\ -1:\ strlen}|True}", color="blue", fontname="Calibri", style="filled", fillcolor="white"];
"1354483285" -> "1937169731"[label="1", color="black", style="setlinewidth(1)"];
"1354483285" -> "260666908"[label="1", color="black", style="setlinewidth(1)"];
"1919635431"[label="{{Stmt\ -1:\ (s[m++]\ =\ '\n');}|True}", color="black", fontname="Calibri", style="filled", fillcolor="white"];
"1919635431" -> "1707068957"[label="1", color="black", style="setlinewidth(1)"];
"1894418805"[label="{{Expr\ -1:\ (*++argv)}|True}", color="black", fontname="Calibri", style="filled", fillcolor="white"];
"1894418805" -> "1919635431"[label="1", color="black", style="setlinewidth(1)"];
"1894418805" -> "1354483285"[label="1", color="black", style="setlinewidth(1)"];
"2062146575"[label="{{Decl\ -1:\ bb_show_usage}|True}", color="blue", fontname="Calibri", style="filled", fillcolor="white"];
"1811594478"[label="{{Stmt\ -1:\ (m\ =\ strlen(s));}|True}", color="black", fontname="Calibri", style="filled", fillcolor="white"];
"1811594478" -> "1937169731"[label="1", color="black", style="setlinewidth(1)"];
"1811594478" -> "1894418805"[label="1", color="black", style="setlinewidth(1)"];
"1512138820"[label="{{Decl\ -1:\ bb_get_last_path_component_strip}|True}", color="blue", fontname="Calibri", style="filled", fillcolor="white"];
"1892770485"[label="{{Stmt\ -1:\ bb_show_usage();}|True}", color="black", fontname="Calibri", style="filled", fillcolor="white"];
"1892770485" -> "2062146575"[label="1", color="black", style="setlinewidth(1)"];
"748917056"[label="{{Stmt\ -1:\ (s\ =\ bb_get_last_pat}|True}", color="black", fontname="Calibri", style="filled", fillcolor="white"];
"1892770485" -> "748917056"[label="1", color="black", style="setlinewidth(1)"];
"748917056" -> "1512138820"[label="1", color="black", style="setlinewidth(1)"];
"748917056" -> "1811594478"[label="1", color="black", style="setlinewidth(1)"];
"1534556808"[label="{{Expr\ -1:\ (((unsigned\ )\ (argc\ }|True}", color="black", fontname="Calibri", style="filled", fillcolor="white"];
"1534556808" -> "748917056"[label="1", color="black", style="setlinewidth(1)"];
"1534556808" -> "1892770485"[label="1", color="black", style="setlinewidth(1)"];
"1347008603"[label="{{Stmt\ -1:\ char\ *s;}|True}", color="black", fontname="Calibri", style="filled", fillcolor="white"];
"1347008603" -> "1534556808"[label="1", color="black", style="setlinewidth(1)"];
"831755561"[label="{{Stmt\ -1:\ size_t\ m,\ n;}|True}", color="black", fontname="Calibri", style="filled", fillcolor="white"];
"831755561" -> "1347008603"[label="1", color="black", style="setlinewidth(1)"];
"751952332" -> "831755561"[label="1", color="black", style="setlinewidth(1)"];
}
