digraph "busybox-1.18.5/coreutils/mknod.c" {
node [shape=record];
"1030615179"[label="{{Decl\ -1:\ xstrtoull_range_sfx}|True}", color="blue", fontname="Calibri", style="filled", fillcolor="white"];
"780133694"[label="{{Stmt\ -1:\ return\ xstrtoull_ran}|True}", color="black", fontname="Calibri", style="filled", fillcolor="white"];
"780133694" -> "1030615179"[label="1", color="black", style="setlinewidth(1)"];
"1692946355"[label="{{Function\ -1:\ xstrtoul_range_sfx}|True}", color="blue", fontname="Calibri", style="filled", fillcolor="white"];
"780133694" -> "1692946355"[label="1", color="black", style="setlinewidth(1)"];
"1692946355" -> "780133694"[label="1", color="black", style="setlinewidth(1)"];
"593722432"[label="{{Decl\ -1:\ xstrtoull_range}|True}", color="blue", fontname="Calibri", style="filled", fillcolor="white"];
"1254704281"[label="{{Stmt\ -1:\ return\ xstrtoull_ran}|True}", color="black", fontname="Calibri", style="filled", fillcolor="white"];
"1254704281" -> "593722432"[label="1", color="black", style="setlinewidth(1)"];
"1792215344"[label="{{Function\ -1:\ xstrtoul_range}|True}", color="blue", fontname="Calibri", style="filled", fillcolor="white"];
"1254704281" -> "1792215344"[label="1", color="black", style="setlinewidth(1)"];
"1792215344" -> "1254704281"[label="1", color="black", style="setlinewidth(1)"];
"1498666280"[label="{{Decl\ -1:\ xstrtoull_sfx}|True}", color="blue", fontname="Calibri", style="filled", fillcolor="white"];
"1178858079"[label="{{Stmt\ -1:\ return\ xstrtoull_sfx}|True}", color="black", fontname="Calibri", style="filled", fillcolor="white"];
"1178858079" -> "1498666280"[label="1", color="black", style="setlinewidth(1)"];
"278811533"[label="{{Function\ -1:\ xstrtoul_sfx}|True}", color="blue", fontname="Calibri", style="filled", fillcolor="white"];
"1178858079" -> "278811533"[label="1", color="black", style="setlinewidth(1)"];
"278811533" -> "1178858079"[label="1", color="black", style="setlinewidth(1)"];
"1281015218"[label="{{Decl\ -1:\ xstrtoull}|True}", color="blue", fontname="Calibri", style="filled", fillcolor="white"];
"1991322814"[label="{{Stmt\ -1:\ return\ xstrtoull(str}|True}", color="black", fontname="Calibri", style="filled", fillcolor="white"];
"1991322814" -> "1281015218"[label="1", color="black", style="setlinewidth(1)"];
"777829026"[label="{{Function\ -1:\ xstrtoul}|True}", color="blue", fontname="Calibri", style="filled", fillcolor="white"];
"1991322814" -> "777829026"[label="1", color="black", style="setlinewidth(1)"];
"777829026" -> "1991322814"[label="1", color="black", style="setlinewidth(1)"];
"1727263506"[label="{{Decl\ -1:\ xatoull_range_sfx}|True}", color="blue", fontname="Calibri", style="filled", fillcolor="white"];
"1126894081"[label="{{Stmt\ -1:\ return\ xatoull_range}|True}", color="black", fontname="Calibri", style="filled", fillcolor="white"];
"1126894081" -> "1727263506"[label="1", color="black", style="setlinewidth(1)"];
"881861112"[label="{{Function\ -1:\ xatoul_range_sfx}|True}", color="blue", fontname="Calibri", style="filled", fillcolor="white"];
"1126894081" -> "881861112"[label="1", color="black", style="setlinewidth(1)"];
"881861112" -> "1126894081"[label="1", color="black", style="setlinewidth(1)"];
"1730526520"[label="{{Decl\ -1:\ xatoull_range}|True}", color="blue", fontname="Calibri", style="filled", fillcolor="white"];
"352869987"[label="{{Stmt\ -1:\ return\ xatoull_range}|True}", color="black", fontname="Calibri", style="filled", fillcolor="white"];
"352869987" -> "1730526520"[label="1", color="black", style="setlinewidth(1)"];
"107677142"[label="{{Function\ -1:\ xatoul_range}|True}", color="blue", fontname="Calibri", style="filled", fillcolor="white"];
"352869987" -> "107677142"[label="1", color="black", style="setlinewidth(1)"];
"107677142" -> "352869987"[label="1", color="black", style="setlinewidth(1)"];
"1065045124"[label="{{Decl\ -1:\ xatoull_sfx}|True}", color="blue", fontname="Calibri", style="filled", fillcolor="white"];
"1643157738"[label="{{Stmt\ -1:\ return\ xatoull_sfx(s}|True}", color="black", fontname="Calibri", style="filled", fillcolor="white"];
"1643157738" -> "1065045124"[label="1", color="black", style="setlinewidth(1)"];
"211139949"[label="{{Function\ -1:\ xatoul_sfx}|True}", color="blue", fontname="Calibri", style="filled", fillcolor="white"];
"1643157738" -> "211139949"[label="1", color="black", style="setlinewidth(1)"];
"211139949" -> "1643157738"[label="1", color="black", style="setlinewidth(1)"];
"1905614452"[label="{{Decl\ -1:\ xatoull}|True}", color="blue", fontname="Calibri", style="filled", fillcolor="white"];
"2102693792"[label="{{Stmt\ -1:\ return\ xatoull(str);}|True}", color="black", fontname="Calibri", style="filled", fillcolor="white"];
"2102693792" -> "1905614452"[label="1", color="black", style="setlinewidth(1)"];
"1387312359"[label="{{Function\ -1:\ xatoul}|True}", color="blue", fontname="Calibri", style="filled", fillcolor="white"];
"2102693792" -> "1387312359"[label="1", color="black", style="setlinewidth(1)"];
"1387312359" -> "2102693792"[label="1", color="black", style="setlinewidth(1)"];
"1113290374"[label="{{Decl\ -1:\ xstrtoll_range_sfx}|True}", color="blue", fontname="Calibri", style="filled", fillcolor="white"];
"2067056950"[label="{{Stmt\ -1:\ return\ xstrtoll_rang}|True}", color="black", fontname="Calibri", style="filled", fillcolor="white"];
"2067056950" -> "1113290374"[label="1", color="black", style="setlinewidth(1)"];
"990467814"[label="{{Function\ -1:\ xstrtol_range_sfx}|True}", color="blue", fontname="Calibri", style="filled", fillcolor="white"];
"2067056950" -> "990467814"[label="1", color="black", style="setlinewidth(1)"];
"990467814" -> "2067056950"[label="1", color="black", style="setlinewidth(1)"];
"121407123"[label="{{Decl\ -1:\ xstrtoll_range}|True}", color="blue", fontname="Calibri", style="filled", fillcolor="white"];
"1812187845"[label="{{Stmt\ -1:\ return\ xstrtoll_rang}|True}", color="black", fontname="Calibri", style="filled", fillcolor="white"];
"1812187845" -> "121407123"[label="1", color="black", style="setlinewidth(1)"];
"595173782"[label="{{Function\ -1:\ xstrtol_range}|True}", color="blue", fontname="Calibri", style="filled", fillcolor="white"];
"1812187845" -> "595173782"[label="1", color="black", style="setlinewidth(1)"];
"595173782" -> "1812187845"[label="1", color="black", style="setlinewidth(1)"];
"352592699"[label="{{Decl\ -1:\ xstrtoll}|True}", color="blue", fontname="Calibri", style="filled", fillcolor="white"];
"1671828645"[label="{{Stmt\ -1:\ return\ xstrtoll(str\ }|True}", color="black", fontname="Calibri", style="filled", fillcolor="white"];
"1671828645" -> "352592699"[label="1", color="black", style="setlinewidth(1)"];
"1806134287"[label="{{Function\ -1:\ xstrtol}|True}", color="blue", fontname="Calibri", style="filled", fillcolor="white"];
"1671828645" -> "1806134287"[label="1", color="black", style="setlinewidth(1)"];
"1806134287" -> "1671828645"[label="1", color="black", style="setlinewidth(1)"];
"97598798"[label="{{Decl\ -1:\ xatoll_range_sfx}|True}", color="blue", fontname="Calibri", style="filled", fillcolor="white"];
"1180145359"[label="{{Stmt\ -1:\ return\ xatoll_range_}|True}", color="black", fontname="Calibri", style="filled", fillcolor="white"];
"1180145359" -> "97598798"[label="1", color="black", style="setlinewidth(1)"];
"1553046052"[label="{{Function\ -1:\ xatol_range_sfx}|True}", color="blue", fontname="Calibri", style="filled", fillcolor="white"];
"1180145359" -> "1553046052"[label="1", color="black", style="setlinewidth(1)"];
"1553046052" -> "1180145359"[label="1", color="black", style="setlinewidth(1)"];
"710796874"[label="{{Decl\ -1:\ xatoll_range}|True}", color="blue", fontname="Calibri", style="filled", fillcolor="white"];
"1852152552"[label="{{Stmt\ -1:\ return\ xatoll_range(}|True}", color="black", fontname="Calibri", style="filled", fillcolor="white"];
"1852152552" -> "710796874"[label="1", color="black", style="setlinewidth(1)"];
"1512551916"[label="{{Function\ -1:\ xatol_range}|True}", color="blue", fontname="Calibri", style="filled", fillcolor="white"];
"1852152552" -> "1512551916"[label="1", color="black", style="setlinewidth(1)"];
"1512551916" -> "1852152552"[label="1", color="black", style="setlinewidth(1)"];
"915478794"[label="{{Decl\ -1:\ xatoll_sfx}|True}", color="blue", fontname="Calibri", style="filled", fillcolor="white"];
"1943889590"[label="{{Stmt\ -1:\ return\ xatoll_sfx(st}|True}", color="black", fontname="Calibri", style="filled", fillcolor="white"];
"1943889590" -> "915478794"[label="1", color="black", style="setlinewidth(1)"];
"1117002783"[label="{{Function\ -1:\ xatol_sfx}|True}", color="blue", fontname="Calibri", style="filled", fillcolor="white"];
"1943889590" -> "1117002783"[label="1", color="black", style="setlinewidth(1)"];
"1117002783" -> "1943889590"[label="1", color="black", style="setlinewidth(1)"];
"344491970"[label="{{Decl\ -1:\ xatoll}|True}", color="blue", fontname="Calibri", style="filled", fillcolor="white"];
"1853253742"[label="{{Stmt\ -1:\ return\ xatoll(str);}|True}", color="black", fontname="Calibri", style="filled", fillcolor="white"];
"1853253742" -> "344491970"[label="1", color="black", style="setlinewidth(1)"];
"1782853053"[label="{{Function\ -1:\ xatol}|True}", color="blue", fontname="Calibri", style="filled", fillcolor="white"];
"1853253742" -> "1782853053"[label="1", color="black", style="setlinewidth(1)"];
"1782853053" -> "1853253742"[label="1", color="black", style="setlinewidth(1)"];
"2102693792" -> "1905614452"[label="1", color="black", style="setlinewidth(1)"];
"2102693792" -> "1387312359"[label="1", color="black", style="setlinewidth(1)"];
"1387312359" -> "2102693792"[label="1", color="black", style="setlinewidth(1)"];
"491593426"[label="{{Decl\ -1:\ BUG_xatou32_unimplemented}|True}", color="blue", fontname="Calibri", style="filled", fillcolor="white"];
"767730552"[label="{{Decl\ -1:\ xatou}|True}", color="blue", fontname="Calibri", style="filled", fillcolor="white"];
"205058015"[label="{{Stmt\ -1:\ return\ xatoul(numstr}|True}", color="black", fontname="Calibri", style="filled", fillcolor="white"];
"205058015" -> "1387312359"[label="1", color="black", style="setlinewidth(1)"];
"554577858"[label="{{Function\ -1:\ xatou32}|True}", color="blue", fontname="Calibri", style="filled", fillcolor="white"];
"205058015" -> "554577858"[label="1", color="black", style="setlinewidth(1)"];
"1325812035"[label="{{Stmt\ -1:\ return\ BUG_xatou32_u}|True}", color="black", fontname="Calibri", style="filled", fillcolor="white"];
"1325812035" -> "491593426"[label="1", color="black", style="setlinewidth(1)"];
"1325812035" -> "554577858"[label="1", color="black", style="setlinewidth(1)"];
"227452025"[label="{{Stmt\ -1:\ return\ xatou(numstr)}|True}", color="black", fontname="Calibri", style="filled", fillcolor="white"];
"227452025" -> "767730552"[label="1", color="black", style="setlinewidth(1)"];
"227452025" -> "554577858"[label="1", color="black", style="setlinewidth(1)"];
"177724154"[label="{{Expr\ -1:\ (((92233720368547758}|True}", color="black", fontname="Calibri", style="filled", fillcolor="white"];
"177724154" -> "1325812035"[label="1", color="black", style="setlinewidth(1)"];
"177724154" -> "205058015"[label="1", color="black", style="setlinewidth(1)"];
"896105405"[label="{{Expr\ -1:\ (((2147483647\ *\ 2U)\ }|True}", color="black", fontname="Calibri", style="filled", fillcolor="white"];
"896105405" -> "177724154"[label="1", color="black", style="setlinewidth(1)"];
"896105405" -> "227452025"[label="1", color="black", style="setlinewidth(1)"];
"554577858" -> "896105405"[label="1", color="black", style="setlinewidth(1)"];
"461185445"[label="{{Decl\ -1:\ bb_strtoull}|True}", color="blue", fontname="Calibri", style="filled", fillcolor="white"];
"2113629805"[label="{{Stmt\ -1:\ return\ bb_strtoull(a}|True}", color="black", fontname="Calibri", style="filled", fillcolor="white"];
"2113629805" -> "461185445"[label="1", color="black", style="setlinewidth(1)"];
"984587092"[label="{{Function\ -1:\ bb_strtoul}|True}", color="blue", fontname="Calibri", style="filled", fillcolor="white"];
"2113629805" -> "984587092"[label="1", color="black", style="setlinewidth(1)"];
"984587092" -> "2113629805"[label="1", color="black", style="setlinewidth(1)"];
"1415526656"[label="{{Decl\ -1:\ bb_strtoll}|True}", color="blue", fontname="Calibri", style="filled", fillcolor="white"];
"485524747"[label="{{Stmt\ -1:\ return\ bb_strtoll(ar}|True}", color="black", fontname="Calibri", style="filled", fillcolor="white"];
"485524747" -> "1415526656"[label="1", color="black", style="setlinewidth(1)"];
"562611813"[label="{{Function\ -1:\ bb_strtol}|True}", color="blue", fontname="Calibri", style="filled", fillcolor="white"];
"485524747" -> "562611813"[label="1", color="black", style="setlinewidth(1)"];
"562611813" -> "485524747"[label="1", color="black", style="setlinewidth(1)"];
"2113629805" -> "461185445"[label="1", color="black", style="setlinewidth(1)"];
"2113629805" -> "984587092"[label="1", color="black", style="setlinewidth(1)"];
"984587092" -> "2113629805"[label="1", color="black", style="setlinewidth(1)"];
"576036010"[label="{{Decl\ -1:\ BUG_bb_strtou32_unimplemented}|True}", color="blue", fontname="Calibri", style="filled", fillcolor="white"];
"316192077"[label="{{Decl\ -1:\ bb_strtou}|True}", color="blue", fontname="Calibri", style="filled", fillcolor="white"];
"1992613818"[label="{{Stmt\ -1:\ return\ bb_strtoul(ar}|True}", color="black", fontname="Calibri", style="filled", fillcolor="white"];
"1992613818" -> "984587092"[label="1", color="black", style="setlinewidth(1)"];
"1300339760"[label="{{Function\ -1:\ bb_strtou32}|True}", color="blue", fontname="Calibri", style="filled", fillcolor="white"];
"1992613818" -> "1300339760"[label="1", color="black", style="setlinewidth(1)"];
"1799592834"[label="{{Stmt\ -1:\ return\ BUG_bb_strtou}|True}", color="black", fontname="Calibri", style="filled", fillcolor="white"];
"1799592834" -> "576036010"[label="1", color="black", style="setlinewidth(1)"];
"1799592834" -> "1300339760"[label="1", color="black", style="setlinewidth(1)"];
"133039881"[label="{{Stmt\ -1:\ return\ bb_strtou(arg}|True}", color="black", fontname="Calibri", style="filled", fillcolor="white"];
"133039881" -> "316192077"[label="1", color="black", style="setlinewidth(1)"];
"133039881" -> "1300339760"[label="1", color="black", style="setlinewidth(1)"];
"1636195542"[label="{{Expr\ -1:\ (sizeof(uint32_t\ )\ =}|True}", color="black", fontname="Calibri", style="filled", fillcolor="white"];
"1636195542" -> "1799592834"[label="1", color="black", style="setlinewidth(1)"];
"1636195542" -> "1992613818"[label="1", color="black", style="setlinewidth(1)"];
"1412165745"[label="{{Expr\ -1:\ (sizeof(uint32_t\ )\ =}|True}", color="black", fontname="Calibri", style="filled", fillcolor="white"];
"1412165745" -> "1636195542"[label="1", color="black", style="setlinewidth(1)"];
"1412165745" -> "133039881"[label="1", color="black", style="setlinewidth(1)"];
"1300339760" -> "1412165745"[label="1", color="black", style="setlinewidth(1)"];
"269017891"[label="{{Stmt\ -1:\ return\ (b\ \<=\ ('z'\ -\ }|True}", color="black", fontname="Calibri", style="filled", fillcolor="white"];
"188538516"[label="{{Function\ -1:\ bb_ascii_isalnum}|True}", color="blue", fontname="Calibri", style="filled", fillcolor="white"];
"269017891" -> "188538516"[label="1", color="black", style="setlinewidth(1)"];
"249596213"[label="{{Stmt\ -1:\ return\ (b\ \<=\ 9);}|True}", color="black", fontname="Calibri", style="filled", fillcolor="white"];
"249596213" -> "188538516"[label="1", color="black", style="setlinewidth(1)"];
"1522679135"[label="{{Stmt\ -1:\ (b\ =\ ((a\ \|\ 0x20)\ -\ '}|True}", color="black", fontname="Calibri", style="filled", fillcolor="white"];
"1522679135" -> "269017891"[label="1", color="black", style="setlinewidth(1)"];
"1842940668"[label="{{Expr\ -1:\ (b\ \<=\ 9)}|True}", color="black", fontname="Calibri", style="filled", fillcolor="white"];
"1842940668" -> "1522679135"[label="1", color="black", style="setlinewidth(1)"];
"1842940668" -> "249596213"[label="1", color="black", style="setlinewidth(1)"];
"2036298607"[label="{{Stmt\ -1:\ unsigned\ char\ b\ =\ \ (}|True}", color="black", fontname="Calibri", style="filled", fillcolor="white"];
"2036298607" -> "1842940668"[label="1", color="black", style="setlinewidth(1)"];
"188538516" -> "2036298607"[label="1", color="black", style="setlinewidth(1)"];
"670253582"[label="{{Stmt\ -1:\ return\ (b\ \<=\ ('f'\ -\ }|True}", color="black", fontname="Calibri", style="filled", fillcolor="white"];
"1285663902"[label="{{Function\ -1:\ bb_ascii_isxdigit}|True}", color="blue", fontname="Calibri", style="filled", fillcolor="white"];
"670253582" -> "1285663902"[label="1", color="black", style="setlinewidth(1)"];
"110521789"[label="{{Stmt\ -1:\ return\ (b\ \<=\ 9);}|True}", color="black", fontname="Calibri", style="filled", fillcolor="white"];
"110521789" -> "1285663902"[label="1", color="black", style="setlinewidth(1)"];
"2128080888"[label="{{Stmt\ -1:\ (b\ =\ ((a\ \|\ 0x20)\ -\ '}|True}", color="black", fontname="Calibri", style="filled", fillcolor="white"];
"2128080888" -> "670253582"[label="1", color="black", style="setlinewidth(1)"];
"1901096346"[label="{{Expr\ -1:\ (b\ \<=\ 9)}|True}", color="black", fontname="Calibri", style="filled", fillcolor="white"];
"1901096346" -> "2128080888"[label="1", color="black", style="setlinewidth(1)"];
"1901096346" -> "110521789"[label="1", color="black", style="setlinewidth(1)"];
"805251356"[label="{{Stmt\ -1:\ unsigned\ char\ b\ =\ \ (}|True}", color="black", fontname="Calibri", style="filled", fillcolor="white"];
"805251356" -> "1901096346"[label="1", color="black", style="setlinewidth(1)"];
"1285663902" -> "805251356"[label="1", color="black", style="setlinewidth(1)"];
"2124432079"[label="{{Stmt\ -1:\ (a\ -=\ ('a'\ -\ 'A'));}|True}", color="black", fontname="Calibri", style="filled", fillcolor="white"];
"1753010655"[label="{{Stmt\ -1:\ return\ a;}|True}", color="black", fontname="Calibri", style="filled", fillcolor="white"];
"2124432079" -> "1753010655"[label="1", color="black", style="setlinewidth(1)"];
"1233284771"[label="{{Function\ -1:\ bb_ascii_toupper}|True}", color="blue", fontname="Calibri", style="filled", fillcolor="white"];
"1753010655" -> "1233284771"[label="1", color="black", style="setlinewidth(1)"];
"1892503301"[label="{{Expr\ -1:\ (b\ \<=\ ('z'\ -\ 'a'))}|True}", color="black", fontname="Calibri", style="filled", fillcolor="white"];
"1892503301" -> "1753010655"[label="1", color="black", style="setlinewidth(1)"];
"1892503301" -> "2124432079"[label="1", color="black", style="setlinewidth(1)"];
"1693607627"[label="{{Stmt\ -1:\ unsigned\ char\ b\ =\ \ (}|True}", color="black", fontname="Calibri", style="filled", fillcolor="white"];
"1693607627" -> "1892503301"[label="1", color="black", style="setlinewidth(1)"];
"1233284771" -> "1693607627"[label="1", color="black", style="setlinewidth(1)"];
"1486572148"[label="{{Stmt\ -1:\ (a\ +=\ ('a'\ -\ 'A'));}|True}", color="black", fontname="Calibri", style="filled", fillcolor="white"];
"765253084"[label="{{Stmt\ -1:\ return\ a;}|True}", color="black", fontname="Calibri", style="filled", fillcolor="white"];
"1486572148" -> "765253084"[label="1", color="black", style="setlinewidth(1)"];
"322343927"[label="{{Function\ -1:\ bb_ascii_tolower}|True}", color="blue", fontname="Calibri", style="filled", fillcolor="white"];
"765253084" -> "322343927"[label="1", color="black", style="setlinewidth(1)"];
"1016598734"[label="{{Expr\ -1:\ (b\ \<=\ ('Z'\ -\ 'A'))}|True}", color="black", fontname="Calibri", style="filled", fillcolor="white"];
"1016598734" -> "765253084"[label="1", color="black", style="setlinewidth(1)"];
"1016598734" -> "1486572148"[label="1", color="black", style="setlinewidth(1)"];
"824445694"[label="{{Stmt\ -1:\ unsigned\ char\ b\ =\ \ (}|True}", color="black", fontname="Calibri", style="filled", fillcolor="white"];
"824445694" -> "1016598734"[label="1", color="black", style="setlinewidth(1)"];
"322343927" -> "824445694"[label="1", color="black", style="setlinewidth(1)"];
"1743726907"[label="{{Stmt\ -1:\ (dev\ =\ bb_makedev(xa}|True}", color="black", fontname="Calibri", style="filled", fillcolor="white"];
"1736322463"[label="{{Decl\ -1:\ bb_makedev}|True}", color="blue", fontname="Calibri", style="filled", fillcolor="white"];
"1743726907" -> "1736322463"[label="1", color="black", style="setlinewidth(1)"];
"1871458307"[label="{{Expr\ -1:\ (argc\ ==\ 2)}|True}", color="black", fontname="Calibri", style="filled", fillcolor="white"];
"1743726907" -> "1871458307"[label="1", color="black", style="setlinewidth(1)"];
"898645245"[label="{{Expr\ -1:\ (argc\ ==\ 2)}|True}", color="black", fontname="Calibri", style="filled", fillcolor="white"];
"898645245" -> "1736322463"[label="1", color="black", style="setlinewidth(1)"];
"898645245" -> "1871458307"[label="1", color="black", style="setlinewidth(1)"];
"898645245" -> "1743726907"[label="1", color="black", style="setlinewidth(1)"];
"1293533415"[label="{{Stmt\ -1:\ (name\ =\ (*argv));}|True}", color="black", fontname="Calibri", style="filled", fillcolor="white"];
"1803490070"[label="{{Decl\ -1:\ mknod}|True}", color="blue", fontname="Calibri", style="filled", fillcolor="white"];
"1293533415" -> "1803490070"[label="1", color="black", style="setlinewidth(1)"];
"1823018637"[label="{{Stmt\ -1:\ (argc\ -=\ 2);}|True}", color="black", fontname="Calibri", style="filled", fillcolor="white"];
"1823018637" -> "898645245"[label="1", color="black", style="setlinewidth(1)"];
"1162096747"[label="{{Decl\ -1:\ bb_simple_perror_msg_and_die}|True}", color="blue", fontname="Calibri", style="filled", fillcolor="white"];
"1871458307" -> "1162096747"[label="1", color="black", style="setlinewidth(1)"];
"1871458307" -> "1803490070"[label="1", color="black", style="setlinewidth(1)"];
"1871458307" -> "1736322463"[label="1", color="black", style="setlinewidth(1)"];
"654964592"[label="{{Decl\ -1:\ strchr}|True}", color="blue", fontname="Calibri", style="filled", fillcolor="white"];
"1871458307" -> "654964592"[label="1", color="black", style="setlinewidth(1)"];
"368051581"[label="{{Stmt\ -1:\ bb_show_usage();}|True}", color="black", fontname="Calibri", style="filled", fillcolor="white"];
"1871458307" -> "368051581"[label="1", color="black", style="setlinewidth(1)"];
"1871458307" -> "1293533415"[label="1", color="black", style="setlinewidth(1)"];
"1581637092"[label="{{Expr\ -1:\ ((*name)\ !=\ 'p')}|True}", color="black", fontname="Calibri", style="filled", fillcolor="white"];
"1581637092" -> "1871458307"[label="1", color="black", style="setlinewidth(1)"];
"1581637092" -> "1823018637"[label="1", color="black", style="setlinewidth(1)"];
"206446715"[label="{{Stmt\ -1:\ (dev\ =\ 0);}|True}", color="black", fontname="Calibri", style="filled", fillcolor="white"];
"206446715" -> "1581637092"[label="1", color="black", style="setlinewidth(1)"];
"342070846"[label="{{Stmt\ -1:\ (mode\ \|=\ modes_cubp[}|True}", color="black", fontname="Calibri", style="filled", fillcolor="white"];
"342070846" -> "206446715"[label="1", color="black", style="setlinewidth(1)"];
"1361659990"[label="{{Expr\ -1:\ (name\ !=\ ((void\ *)\ 0}|True}", color="black", fontname="Calibri", style="filled", fillcolor="white"];
"1361659990" -> "1162096747"[label="1", color="black", style="setlinewidth(1)"];
"1361659990" -> "1803490070"[label="1", color="black", style="setlinewidth(1)"];
"1361659990" -> "1736322463"[label="1", color="black", style="setlinewidth(1)"];
"1361659990" -> "654964592"[label="1", color="black", style="setlinewidth(1)"];
"1361659990" -> "368051581"[label="1", color="black", style="setlinewidth(1)"];
"1361659990" -> "342070846"[label="1", color="black", style="setlinewidth(1)"];
"12031663"[label="{{Decl\ -1:\ bb_show_usage}|True}", color="blue", fontname="Calibri", style="filled", fillcolor="white"];
"1463704545"[label="{{Stmt\ -1:\ (name\ =\ strchr(modes}|True}", color="black", fontname="Calibri", style="filled", fillcolor="white"];
"1463704545" -> "654964592"[label="1", color="black", style="setlinewidth(1)"];
"1463704545" -> "1361659990"[label="1", color="black", style="setlinewidth(1)"];
"368051581" -> "12031663"[label="1", color="black", style="setlinewidth(1)"];
"368051581" -> "1162096747"[label="1", color="black", style="setlinewidth(1)"];
"368051581" -> "1803490070"[label="1", color="black", style="setlinewidth(1)"];
"368051581" -> "1736322463"[label="1", color="black", style="setlinewidth(1)"];
"368051581" -> "654964592"[label="1", color="black", style="setlinewidth(1)"];
"850909777"[label="{{Decl\ -1:\ getopt_mk_fifo_nod}|True}", color="blue", fontname="Calibri", style="filled", fillcolor="white"];
"368051581" -> "850909777"[label="1", color="black", style="setlinewidth(1)"];
"319753757"[label="{{Function\ -1:\ mknod_main}|True}", color="blue", fontname="Calibri", style="filled", fillcolor="white"];
"368051581" -> "319753757"[label="1", color="black", style="setlinewidth(1)"];
"1859590978"[label="{{Expr\ -1:\ (argc\ \>=\ 2)}|True}", color="black", fontname="Calibri", style="filled", fillcolor="white"];
"1859590978" -> "368051581"[label="1", color="black", style="setlinewidth(1)"];
"1859590978" -> "1463704545"[label="1", color="black", style="setlinewidth(1)"];
"847832612"[label="{{Stmt\ -1:\ (argc\ -=\ optind);}|True}", color="black", fontname="Calibri", style="filled", fillcolor="white"];
"847832612" -> "1859590978"[label="1", color="black", style="setlinewidth(1)"];
"1537373408"[label="{{Stmt\ -1:\ (argv\ +=\ optind);}|True}", color="black", fontname="Calibri", style="filled", fillcolor="white"];
"1537373408" -> "847832612"[label="1", color="black", style="setlinewidth(1)"];
"186687285"[label="{{Stmt\ -1:\ (mode\ =\ getopt_mk_fi}|True}", color="black", fontname="Calibri", style="filled", fillcolor="white"];
"186687285" -> "850909777"[label="1", color="black", style="setlinewidth(1)"];
"186687285" -> "1537373408"[label="1", color="black", style="setlinewidth(1)"];
"1190966907"[label="{{Stmt\ -1:\ const\ char\ *name;}|True}", color="black", fontname="Calibri", style="filled", fillcolor="white"];
"1190966907" -> "186687285"[label="1", color="black", style="setlinewidth(1)"];
"1709024702"[label="{{Stmt\ -1:\ dev_t\ dev;}|True}", color="black", fontname="Calibri", style="filled", fillcolor="white"];
"1709024702" -> "1190966907"[label="1", color="black", style="setlinewidth(1)"];
"1648115440"[label="{{Stmt\ -1:\ mode_t\ mode;}|True}", color="black", fontname="Calibri", style="filled", fillcolor="white"];
"1648115440" -> "1709024702"[label="1", color="black", style="setlinewidth(1)"];
"319753757" -> "1648115440"[label="1", color="black", style="setlinewidth(1)"];
}
