digraph "busybox-1.18.5/coreutils/wc.c" {
node [shape=record];
"1528255904"[label="{{Decl\ -1:\ xstrtoull_range_sfx}|True}", color="blue", fontname="Calibri", style="filled", fillcolor="white"];
"198121747"[label="{{Stmt\ -1:\ return\ xstrtoull_ran}|True}", color="black", fontname="Calibri", style="filled", fillcolor="white"];
"198121747" -> "1528255904"[label="1", color="black", style="setlinewidth(1)"];
"1779572675"[label="{{Function\ -1:\ xstrtoul_range_sfx}|True}", color="blue", fontname="Calibri", style="filled", fillcolor="white"];
"198121747" -> "1779572675"[label="1", color="black", style="setlinewidth(1)"];
"1779572675" -> "198121747"[label="1", color="black", style="setlinewidth(1)"];
"314377535"[label="{{Decl\ -1:\ xstrtoull_range}|True}", color="blue", fontname="Calibri", style="filled", fillcolor="white"];
"661839323"[label="{{Stmt\ -1:\ return\ xstrtoull_ran}|True}", color="black", fontname="Calibri", style="filled", fillcolor="white"];
"661839323" -> "314377535"[label="1", color="black", style="setlinewidth(1)"];
"1143530225"[label="{{Function\ -1:\ xstrtoul_range}|True}", color="blue", fontname="Calibri", style="filled", fillcolor="white"];
"661839323" -> "1143530225"[label="1", color="black", style="setlinewidth(1)"];
"1143530225" -> "661839323"[label="1", color="black", style="setlinewidth(1)"];
"260395901"[label="{{Decl\ -1:\ xstrtoull_sfx}|True}", color="blue", fontname="Calibri", style="filled", fillcolor="white"];
"1463871334"[label="{{Stmt\ -1:\ return\ xstrtoull_sfx}|True}", color="black", fontname="Calibri", style="filled", fillcolor="white"];
"1463871334" -> "260395901"[label="1", color="black", style="setlinewidth(1)"];
"230787242"[label="{{Function\ -1:\ xstrtoul_sfx}|True}", color="blue", fontname="Calibri", style="filled", fillcolor="white"];
"1463871334" -> "230787242"[label="1", color="black", style="setlinewidth(1)"];
"230787242" -> "1463871334"[label="1", color="black", style="setlinewidth(1)"];
"716704997"[label="{{Decl\ -1:\ xstrtoull}|True}", color="blue", fontname="Calibri", style="filled", fillcolor="white"];
"434545342"[label="{{Stmt\ -1:\ return\ xstrtoull(str}|True}", color="black", fontname="Calibri", style="filled", fillcolor="white"];
"434545342" -> "716704997"[label="1", color="black", style="setlinewidth(1)"];
"1646802001"[label="{{Function\ -1:\ xstrtoul}|True}", color="blue", fontname="Calibri", style="filled", fillcolor="white"];
"434545342" -> "1646802001"[label="1", color="black", style="setlinewidth(1)"];
"1646802001" -> "434545342"[label="1", color="black", style="setlinewidth(1)"];
"1726328953"[label="{{Decl\ -1:\ xatoull_range_sfx}|True}", color="blue", fontname="Calibri", style="filled", fillcolor="white"];
"860276735"[label="{{Stmt\ -1:\ return\ xatoull_range}|True}", color="black", fontname="Calibri", style="filled", fillcolor="white"];
"860276735" -> "1726328953"[label="1", color="black", style="setlinewidth(1)"];
"2133828730"[label="{{Function\ -1:\ xatoul_range_sfx}|True}", color="blue", fontname="Calibri", style="filled", fillcolor="white"];
"860276735" -> "2133828730"[label="1", color="black", style="setlinewidth(1)"];
"2133828730" -> "860276735"[label="1", color="black", style="setlinewidth(1)"];
"1704056493"[label="{{Decl\ -1:\ xatoull_range}|True}", color="blue", fontname="Calibri", style="filled", fillcolor="white"];
"11550367"[label="{{Stmt\ -1:\ return\ xatoull_range}|True}", color="black", fontname="Calibri", style="filled", fillcolor="white"];
"11550367" -> "1704056493"[label="1", color="black", style="setlinewidth(1)"];
"1828991982"[label="{{Function\ -1:\ xatoul_range}|True}", color="blue", fontname="Calibri", style="filled", fillcolor="white"];
"11550367" -> "1828991982"[label="1", color="black", style="setlinewidth(1)"];
"1828991982" -> "11550367"[label="1", color="black", style="setlinewidth(1)"];
"377076993"[label="{{Decl\ -1:\ xatoull_sfx}|True}", color="blue", fontname="Calibri", style="filled", fillcolor="white"];
"1726601712"[label="{{Stmt\ -1:\ return\ xatoull_sfx(s}|True}", color="black", fontname="Calibri", style="filled", fillcolor="white"];
"1726601712" -> "377076993"[label="1", color="black", style="setlinewidth(1)"];
"1589718397"[label="{{Function\ -1:\ xatoul_sfx}|True}", color="blue", fontname="Calibri", style="filled", fillcolor="white"];
"1726601712" -> "1589718397"[label="1", color="black", style="setlinewidth(1)"];
"1589718397" -> "1726601712"[label="1", color="black", style="setlinewidth(1)"];
"221385059"[label="{{Decl\ -1:\ xatoull}|True}", color="blue", fontname="Calibri", style="filled", fillcolor="white"];
"1346230534"[label="{{Stmt\ -1:\ return\ xatoull(str);}|True}", color="black", fontname="Calibri", style="filled", fillcolor="white"];
"1346230534" -> "221385059"[label="1", color="black", style="setlinewidth(1)"];
"586137137"[label="{{Function\ -1:\ xatoul}|True}", color="blue", fontname="Calibri", style="filled", fillcolor="white"];
"1346230534" -> "586137137"[label="1", color="black", style="setlinewidth(1)"];
"586137137" -> "1346230534"[label="1", color="black", style="setlinewidth(1)"];
"1779149515"[label="{{Decl\ -1:\ xstrtoll_range_sfx}|True}", color="blue", fontname="Calibri", style="filled", fillcolor="white"];
"414625944"[label="{{Stmt\ -1:\ return\ xstrtoll_rang}|True}", color="black", fontname="Calibri", style="filled", fillcolor="white"];
"414625944" -> "1779149515"[label="1", color="black", style="setlinewidth(1)"];
"1735709490"[label="{{Function\ -1:\ xstrtol_range_sfx}|True}", color="blue", fontname="Calibri", style="filled", fillcolor="white"];
"414625944" -> "1735709490"[label="1", color="black", style="setlinewidth(1)"];
"1735709490" -> "414625944"[label="1", color="black", style="setlinewidth(1)"];
"1279864123"[label="{{Decl\ -1:\ xstrtoll_range}|True}", color="blue", fontname="Calibri", style="filled", fillcolor="white"];
"333002925"[label="{{Stmt\ -1:\ return\ xstrtoll_rang}|True}", color="black", fontname="Calibri", style="filled", fillcolor="white"];
"333002925" -> "1279864123"[label="1", color="black", style="setlinewidth(1)"];
"1928697468"[label="{{Function\ -1:\ xstrtol_range}|True}", color="blue", fontname="Calibri", style="filled", fillcolor="white"];
"333002925" -> "1928697468"[label="1", color="black", style="setlinewidth(1)"];
"1928697468" -> "333002925"[label="1", color="black", style="setlinewidth(1)"];
"140556699"[label="{{Decl\ -1:\ xstrtoll}|True}", color="blue", fontname="Calibri", style="filled", fillcolor="white"];
"577437607"[label="{{Stmt\ -1:\ return\ xstrtoll(str\ }|True}", color="black", fontname="Calibri", style="filled", fillcolor="white"];
"577437607" -> "140556699"[label="1", color="black", style="setlinewidth(1)"];
"1780382270"[label="{{Function\ -1:\ xstrtol}|True}", color="blue", fontname="Calibri", style="filled", fillcolor="white"];
"577437607" -> "1780382270"[label="1", color="black", style="setlinewidth(1)"];
"1780382270" -> "577437607"[label="1", color="black", style="setlinewidth(1)"];
"1006693394"[label="{{Decl\ -1:\ xatoll_range_sfx}|True}", color="blue", fontname="Calibri", style="filled", fillcolor="white"];
"1996117953"[label="{{Stmt\ -1:\ return\ xatoll_range_}|True}", color="black", fontname="Calibri", style="filled", fillcolor="white"];
"1996117953" -> "1006693394"[label="1", color="black", style="setlinewidth(1)"];
"64411984"[label="{{Function\ -1:\ xatol_range_sfx}|True}", color="blue", fontname="Calibri", style="filled", fillcolor="white"];
"1996117953" -> "64411984"[label="1", color="black", style="setlinewidth(1)"];
"64411984" -> "1996117953"[label="1", color="black", style="setlinewidth(1)"];
"2064944667"[label="{{Decl\ -1:\ xatoll_range}|True}", color="blue", fontname="Calibri", style="filled", fillcolor="white"];
"1066090769"[label="{{Stmt\ -1:\ return\ xatoll_range(}|True}", color="black", fontname="Calibri", style="filled", fillcolor="white"];
"1066090769" -> "2064944667"[label="1", color="black", style="setlinewidth(1)"];
"1494115161"[label="{{Function\ -1:\ xatol_range}|True}", color="blue", fontname="Calibri", style="filled", fillcolor="white"];
"1066090769" -> "1494115161"[label="1", color="black", style="setlinewidth(1)"];
"1494115161" -> "1066090769"[label="1", color="black", style="setlinewidth(1)"];
"1928228501"[label="{{Decl\ -1:\ xatoll_sfx}|True}", color="blue", fontname="Calibri", style="filled", fillcolor="white"];
"809168079"[label="{{Stmt\ -1:\ return\ xatoll_sfx(st}|True}", color="black", fontname="Calibri", style="filled", fillcolor="white"];
"809168079" -> "1928228501"[label="1", color="black", style="setlinewidth(1)"];
"1512390832"[label="{{Function\ -1:\ xatol_sfx}|True}", color="blue", fontname="Calibri", style="filled", fillcolor="white"];
"809168079" -> "1512390832"[label="1", color="black", style="setlinewidth(1)"];
"1512390832" -> "809168079"[label="1", color="black", style="setlinewidth(1)"];
"1133546825"[label="{{Decl\ -1:\ xatoll}|True}", color="blue", fontname="Calibri", style="filled", fillcolor="white"];
"1266706273"[label="{{Stmt\ -1:\ return\ xatoll(str);}|True}", color="black", fontname="Calibri", style="filled", fillcolor="white"];
"1266706273" -> "1133546825"[label="1", color="black", style="setlinewidth(1)"];
"1680225268"[label="{{Function\ -1:\ xatol}|True}", color="blue", fontname="Calibri", style="filled", fillcolor="white"];
"1266706273" -> "1680225268"[label="1", color="black", style="setlinewidth(1)"];
"1680225268" -> "1266706273"[label="1", color="black", style="setlinewidth(1)"];
"1346230534" -> "221385059"[label="1", color="black", style="setlinewidth(1)"];
"1346230534" -> "586137137"[label="1", color="black", style="setlinewidth(1)"];
"586137137" -> "1346230534"[label="1", color="black", style="setlinewidth(1)"];
"255005797"[label="{{Decl\ -1:\ BUG_xatou32_unimplemented}|True}", color="blue", fontname="Calibri", style="filled", fillcolor="white"];
"1911358965"[label="{{Decl\ -1:\ xatou}|True}", color="blue", fontname="Calibri", style="filled", fillcolor="white"];
"763227228"[label="{{Stmt\ -1:\ return\ xatoul(numstr}|True}", color="black", fontname="Calibri", style="filled", fillcolor="white"];
"763227228" -> "586137137"[label="1", color="black", style="setlinewidth(1)"];
"1286401538"[label="{{Function\ -1:\ xatou32}|True}", color="blue", fontname="Calibri", style="filled", fillcolor="white"];
"763227228" -> "1286401538"[label="1", color="black", style="setlinewidth(1)"];
"55203428"[label="{{Stmt\ -1:\ return\ BUG_xatou32_u}|True}", color="black", fontname="Calibri", style="filled", fillcolor="white"];
"55203428" -> "255005797"[label="1", color="black", style="setlinewidth(1)"];
"55203428" -> "1286401538"[label="1", color="black", style="setlinewidth(1)"];
"747729783"[label="{{Stmt\ -1:\ return\ xatou(numstr)}|True}", color="black", fontname="Calibri", style="filled", fillcolor="white"];
"747729783" -> "1911358965"[label="1", color="black", style="setlinewidth(1)"];
"747729783" -> "1286401538"[label="1", color="black", style="setlinewidth(1)"];
"276789071"[label="{{Expr\ -1:\ (((92233720368547758}|True}", color="black", fontname="Calibri", style="filled", fillcolor="white"];
"276789071" -> "55203428"[label="1", color="black", style="setlinewidth(1)"];
"276789071" -> "763227228"[label="1", color="black", style="setlinewidth(1)"];
"1779427938"[label="{{Expr\ -1:\ (((2147483647\ *\ 2U)\ }|True}", color="black", fontname="Calibri", style="filled", fillcolor="white"];
"1779427938" -> "276789071"[label="1", color="black", style="setlinewidth(1)"];
"1779427938" -> "747729783"[label="1", color="black", style="setlinewidth(1)"];
"1286401538" -> "1779427938"[label="1", color="black", style="setlinewidth(1)"];
"1785077721"[label="{{Decl\ -1:\ bb_strtoull}|True}", color="blue", fontname="Calibri", style="filled", fillcolor="white"];
"97012467"[label="{{Stmt\ -1:\ return\ bb_strtoull(a}|True}", color="black", fontname="Calibri", style="filled", fillcolor="white"];
"97012467" -> "1785077721"[label="1", color="black", style="setlinewidth(1)"];
"1571416476"[label="{{Function\ -1:\ bb_strtoul}|True}", color="blue", fontname="Calibri", style="filled", fillcolor="white"];
"97012467" -> "1571416476"[label="1", color="black", style="setlinewidth(1)"];
"1571416476" -> "97012467"[label="1", color="black", style="setlinewidth(1)"];
"1277569680"[label="{{Decl\ -1:\ bb_strtoll}|True}", color="blue", fontname="Calibri", style="filled", fillcolor="white"];
"191448210"[label="{{Stmt\ -1:\ return\ bb_strtoll(ar}|True}", color="black", fontname="Calibri", style="filled", fillcolor="white"];
"191448210" -> "1277569680"[label="1", color="black", style="setlinewidth(1)"];
"1367767626"[label="{{Function\ -1:\ bb_strtol}|True}", color="blue", fontname="Calibri", style="filled", fillcolor="white"];
"191448210" -> "1367767626"[label="1", color="black", style="setlinewidth(1)"];
"1367767626" -> "191448210"[label="1", color="black", style="setlinewidth(1)"];
"97012467" -> "1785077721"[label="1", color="black", style="setlinewidth(1)"];
"97012467" -> "1571416476"[label="1", color="black", style="setlinewidth(1)"];
"1571416476" -> "97012467"[label="1", color="black", style="setlinewidth(1)"];
"731725570"[label="{{Decl\ -1:\ BUG_bb_strtou32_unimplemented}|True}", color="blue", fontname="Calibri", style="filled", fillcolor="white"];
"572765858"[label="{{Decl\ -1:\ bb_strtou}|True}", color="blue", fontname="Calibri", style="filled", fillcolor="white"];
"1168339562"[label="{{Stmt\ -1:\ return\ bb_strtoul(ar}|True}", color="black", fontname="Calibri", style="filled", fillcolor="white"];
"1168339562" -> "1571416476"[label="1", color="black", style="setlinewidth(1)"];
"605181781"[label="{{Function\ -1:\ bb_strtou32}|True}", color="blue", fontname="Calibri", style="filled", fillcolor="white"];
"1168339562" -> "605181781"[label="1", color="black", style="setlinewidth(1)"];
"516668377"[label="{{Stmt\ -1:\ return\ BUG_bb_strtou}|True}", color="black", fontname="Calibri", style="filled", fillcolor="white"];
"516668377" -> "731725570"[label="1", color="black", style="setlinewidth(1)"];
"516668377" -> "605181781"[label="1", color="black", style="setlinewidth(1)"];
"727568812"[label="{{Stmt\ -1:\ return\ bb_strtou(arg}|True}", color="black", fontname="Calibri", style="filled", fillcolor="white"];
"727568812" -> "572765858"[label="1", color="black", style="setlinewidth(1)"];
"727568812" -> "605181781"[label="1", color="black", style="setlinewidth(1)"];
"1469185061"[label="{{Expr\ -1:\ (sizeof(uint32_t\ )\ =}|True}", color="black", fontname="Calibri", style="filled", fillcolor="white"];
"1469185061" -> "516668377"[label="1", color="black", style="setlinewidth(1)"];
"1469185061" -> "1168339562"[label="1", color="black", style="setlinewidth(1)"];
"2023597841"[label="{{Expr\ -1:\ (sizeof(uint32_t\ )\ =}|True}", color="black", fontname="Calibri", style="filled", fillcolor="white"];
"2023597841" -> "1469185061"[label="1", color="black", style="setlinewidth(1)"];
"2023597841" -> "727568812"[label="1", color="black", style="setlinewidth(1)"];
"605181781" -> "2023597841"[label="1", color="black", style="setlinewidth(1)"];
"1160448206"[label="{{Stmt\ -1:\ return\ (b\ \<=\ ('z'\ -\ }|True}", color="black", fontname="Calibri", style="filled", fillcolor="white"];
"711246041"[label="{{Function\ -1:\ bb_ascii_isalnum}|True}", color="blue", fontname="Calibri", style="filled", fillcolor="white"];
"1160448206" -> "711246041"[label="1", color="black", style="setlinewidth(1)"];
"1382403757"[label="{{Stmt\ -1:\ return\ (b\ \<=\ 9);}|True}", color="black", fontname="Calibri", style="filled", fillcolor="white"];
"1382403757" -> "711246041"[label="1", color="black", style="setlinewidth(1)"];
"1738635257"[label="{{Stmt\ -1:\ (b\ =\ ((a\ \|\ 0x20)\ -\ '}|True}", color="black", fontname="Calibri", style="filled", fillcolor="white"];
"1738635257" -> "1160448206"[label="1", color="black", style="setlinewidth(1)"];
"329020905"[label="{{Expr\ -1:\ (b\ \<=\ 9)}|True}", color="black", fontname="Calibri", style="filled", fillcolor="white"];
"329020905" -> "1738635257"[label="1", color="black", style="setlinewidth(1)"];
"329020905" -> "1382403757"[label="1", color="black", style="setlinewidth(1)"];
"595026806"[label="{{Stmt\ -1:\ unsigned\ char\ b\ =\ \ (}|True}", color="black", fontname="Calibri", style="filled", fillcolor="white"];
"595026806" -> "329020905"[label="1", color="black", style="setlinewidth(1)"];
"711246041" -> "595026806"[label="1", color="black", style="setlinewidth(1)"];
"748917056"[label="{{Stmt\ -1:\ return\ (b\ \<=\ ('f'\ -\ }|True}", color="black", fontname="Calibri", style="filled", fillcolor="white"];
"548635036"[label="{{Function\ -1:\ bb_ascii_isxdigit}|True}", color="blue", fontname="Calibri", style="filled", fillcolor="white"];
"748917056" -> "548635036"[label="1", color="black", style="setlinewidth(1)"];
"720312707"[label="{{Stmt\ -1:\ return\ (b\ \<=\ 9);}|True}", color="black", fontname="Calibri", style="filled", fillcolor="white"];
"720312707" -> "548635036"[label="1", color="black", style="setlinewidth(1)"];
"486413956"[label="{{Stmt\ -1:\ (b\ =\ ((a\ \|\ 0x20)\ -\ '}|True}", color="black", fontname="Calibri", style="filled", fillcolor="white"];
"486413956" -> "748917056"[label="1", color="black", style="setlinewidth(1)"];
"1393493575"[label="{{Expr\ -1:\ (b\ \<=\ 9)}|True}", color="black", fontname="Calibri", style="filled", fillcolor="white"];
"1393493575" -> "486413956"[label="1", color="black", style="setlinewidth(1)"];
"1393493575" -> "720312707"[label="1", color="black", style="setlinewidth(1)"];
"1676567479"[label="{{Stmt\ -1:\ unsigned\ char\ b\ =\ \ (}|True}", color="black", fontname="Calibri", style="filled", fillcolor="white"];
"1676567479" -> "1393493575"[label="1", color="black", style="setlinewidth(1)"];
"548635036" -> "1676567479"[label="1", color="black", style="setlinewidth(1)"];
"961373265"[label="{{Stmt\ -1:\ (a\ -=\ ('a'\ -\ 'A'));}|True}", color="black", fontname="Calibri", style="filled", fillcolor="white"];
"749463987"[label="{{Stmt\ -1:\ return\ a;}|True}", color="black", fontname="Calibri", style="filled", fillcolor="white"];
"961373265" -> "749463987"[label="1", color="black", style="setlinewidth(1)"];
"1915810907"[label="{{Function\ -1:\ bb_ascii_toupper}|True}", color="blue", fontname="Calibri", style="filled", fillcolor="white"];
"749463987" -> "1915810907"[label="1", color="black", style="setlinewidth(1)"];
"1852904432"[label="{{Expr\ -1:\ (b\ \<=\ ('z'\ -\ 'a'))}|True}", color="black", fontname="Calibri", style="filled", fillcolor="white"];
"1852904432" -> "749463987"[label="1", color="black", style="setlinewidth(1)"];
"1852904432" -> "961373265"[label="1", color="black", style="setlinewidth(1)"];
"2101525141"[label="{{Stmt\ -1:\ unsigned\ char\ b\ =\ \ (}|True}", color="black", fontname="Calibri", style="filled", fillcolor="white"];
"2101525141" -> "1852904432"[label="1", color="black", style="setlinewidth(1)"];
"1915810907" -> "2101525141"[label="1", color="black", style="setlinewidth(1)"];
"1675781855"[label="{{Stmt\ -1:\ (a\ +=\ ('a'\ -\ 'A'));}|True}", color="black", fontname="Calibri", style="filled", fillcolor="white"];
"1133101112"[label="{{Stmt\ -1:\ return\ a;}|True}", color="black", fontname="Calibri", style="filled", fillcolor="white"];
"1675781855" -> "1133101112"[label="1", color="black", style="setlinewidth(1)"];
"306958518"[label="{{Function\ -1:\ bb_ascii_tolower}|True}", color="blue", fontname="Calibri", style="filled", fillcolor="white"];
"1133101112" -> "306958518"[label="1", color="black", style="setlinewidth(1)"];
"1373003619"[label="{{Expr\ -1:\ (b\ \<=\ ('Z'\ -\ 'A'))}|True}", color="black", fontname="Calibri", style="filled", fillcolor="white"];
"1373003619" -> "1133101112"[label="1", color="black", style="setlinewidth(1)"];
"1373003619" -> "1675781855"[label="1", color="black", style="setlinewidth(1)"];
"1484297382"[label="{{Stmt\ -1:\ unsigned\ char\ b\ =\ \ (}|True}", color="black", fontname="Calibri", style="filled", fillcolor="white"];
"1484297382" -> "1373003619"[label="1", color="black", style="setlinewidth(1)"];
"306958518" -> "1484297382"[label="1", color="black", style="setlinewidth(1)"];
"12407186"[label="{{Stmt\ -1:\ (linepos\ =\ 0);}|True}", color="black", fontname="Calibri", style="filled", fillcolor="white"];
"1741657708"[label="{{Stmt\ -1:\ (counts[WC_WORDS]\ +=}|True}", color="black", fontname="Calibri", style="filled", fillcolor="white"];
"12407186" -> "1741657708"[label="1", color="black", style="setlinewidth(1)"];
"272139416"[label="{{Stmt\ 201:\ break;}|True}", color="black", fontname="Calibri", style="filled", fillcolor="white"];
"1854480249"[label="{{Stmt\ -1:\ fclose_if_not_stdin(}|True}", color="black", fontname="Calibri", style="filled", fillcolor="white"];
"272139416" -> "1854480249"[label="1", color="black", style="setlinewidth(1)"];
"31779928"[label="{{Stmt\ -1:\ ++counts[WC_LINES];}|True}", color="black", fontname="Calibri", style="filled", fillcolor="white"];
"1769130447"[label="{{Expr\ -1:\ (c\ !=\ '\v')}|True}", color="black", fontname="Calibri", style="filled", fillcolor="white"];
"31779928" -> "1769130447"[label="1", color="black", style="setlinewidth(1)"];
"1769130447" -> "1741657708"[label="1", color="black", style="setlinewidth(1)"];
"1769130447" -> "12407186"[label="1", color="black", style="setlinewidth(1)"];
"295255936"[label="{{Expr\ -1:\ (c\ ==\ (-\ 1))}|True}", color="black", fontname="Calibri", style="filled", fillcolor="white"];
"649525708"[label="{{Decl\ -1:\ bb_simple_perror_msg}|True}", color="blue", fontname="Calibri", style="filled", fillcolor="white"];
"295255936" -> "649525708"[label="1", color="black", style="setlinewidth(1)"];
"1240442272"[label="{{Decl\ -1:\ ferror}|True}", color="blue", fontname="Calibri", style="filled", fillcolor="white"];
"295255936" -> "1240442272"[label="1", color="black", style="setlinewidth(1)"];
"643438233"[label="{{Decl\ -1:\ _IO_getc}|True}", color="blue", fontname="Calibri", style="filled", fillcolor="white"];
"295255936" -> "643438233"[label="1", color="black", style="setlinewidth(1)"];
"1973197529"[label="{{Expr\ 146:\ 1}|True}", color="black", fontname="Calibri", style="filled", fillcolor="white"];
"295255936" -> "1973197529"[label="1", color="black", style="setlinewidth(1)"];
"295255936" -> "272139416"[label="1", color="black", style="setlinewidth(1)"];
"1581377923"[label="{{Stmt\ -1:\ (counts[WC_LENGTH]\ =}|True}", color="black", fontname="Calibri", style="filled", fillcolor="white"];
"780109596"[label="{{Expr\ -1:\ (c\ ==\ '\n')}|True}", color="black", fontname="Calibri", style="filled", fillcolor="white"];
"1581377923" -> "780109596"[label="1", color="black", style="setlinewidth(1)"];
"780109596" -> "1769130447"[label="1", color="black", style="setlinewidth(1)"];
"780109596" -> "31779928"[label="1", color="black", style="setlinewidth(1)"];
"514138223"[label="{{Stmt\ 171:\ continue;}|True}", color="black", fontname="Calibri", style="filled", fillcolor="white"];
"514138223" -> "1973197529"[label="1", color="black", style="setlinewidth(1)"];
"966070306"[label="{{Stmt\ -1:\ (in_word\ =\ 0);}|True}", color="black", fontname="Calibri", style="filled", fillcolor="white"];
"966070306" -> "295255936"[label="1", color="black", style="setlinewidth(1)"];
"1568007599"[label="{{Expr\ -1:\ (linepos\ \>\ counts[WC}|True}", color="black", fontname="Calibri", style="filled", fillcolor="white"];
"1568007599" -> "780109596"[label="1", color="black", style="setlinewidth(1)"];
"1568007599" -> "1581377923"[label="1", color="black", style="setlinewidth(1)"];
"321108298"[label="{{Stmt\ -1:\ (in_word\ =\ 1);}|True}", color="black", fontname="Calibri", style="filled", fillcolor="white"];
"321108298" -> "514138223"[label="1", color="black", style="setlinewidth(1)"];
"1741657708" -> "966070306"[label="1", color="black", style="setlinewidth(1)"];
"455402463"[label="{{Stmt\ -1:\ (linepos\ =\ ((linepos}|True}", color="black", fontname="Calibri", style="filled", fillcolor="white"];
"455402463" -> "1741657708"[label="1", color="black", style="setlinewidth(1)"];
"2064138043"[label="{{Stmt\ -1:\ DO_EOF:}|True}", color="black", fontname="Calibri", style="filled", fillcolor="white"];
"2064138043" -> "1568007599"[label="1", color="black", style="setlinewidth(1)"];
"1410956881"[label="{{Expr\ -1:\ (!\ (c\ ==\ '\ '))}|!def(CONFIG_LOCALE_SUPPORT)}", color="black", fontname="Calibri", style="filled", fillcolor="#CD5200"];
"1410956881" -> "1741657708"[label="!definedEx(CONFIG_LOCALE_SUPPORT)", color="red", style="setlinewidth(1)"];
"1410956881" -> "321108298"[label="!definedEx(CONFIG_LOCALE_SUPPORT)", color="red", style="setlinewidth(1)"];
"1167161653"[label="{{Expr\ -1:\ (!\ (\{\l\ \ unsigned\ cha}|def(CONFIG_LOCALE_SUPPORT)}", color="black", fontname="Calibri", style="filled", fillcolor="#CD5200"];
"1167161653" -> "1741657708"[label="definedEx(CONFIG_LOCALE_SUPPORT)", color="red", style="setlinewidth(1)"];
"1167161653" -> "321108298"[label="definedEx(CONFIG_LOCALE_SUPPORT)", color="red", style="setlinewidth(1)"];
"2014158340"[label="{{Expr\ -1:\ (c\ ==\ '\t')}|True}", color="black", fontname="Calibri", style="filled", fillcolor="white"];
"2014158340" -> "2064138043"[label="1", color="black", style="setlinewidth(1)"];
"2014158340" -> "455402463"[label="1", color="black", style="setlinewidth(1)"];
"652130107"[label="{{Stmt\ 195:\ continue;}|True}", color="black", fontname="Calibri", style="filled", fillcolor="white"];
"652130107" -> "1973197529"[label="1", color="black", style="setlinewidth(1)"];
"143943052"[label="{{Stmt\ -1:\ ++linepos;}|True}", color="black", fontname="Calibri", style="filled", fillcolor="white"];
"143943052" -> "1167161653"[label="definedEx(CONFIG_LOCALE_SUPPORT)", color="red", style="setlinewidth(1)"];
"143943052" -> "1410956881"[label="!definedEx(CONFIG_LOCALE_SUPPORT)", color="red", style="setlinewidth(1)"];
"1730523473"[label="{{Expr\ -1:\ (((unsigned\ )\ (c\ -\ 9}|True}", color="black", fontname="Calibri", style="filled", fillcolor="white"];
"1730523473" -> "652130107"[label="1", color="black", style="setlinewidth(1)"];
"1730523473" -> "2014158340"[label="1", color="black", style="setlinewidth(1)"];
"1963882296"[label="{{Stmt\ -1:\ ++counts[WC_UNICHARS}|True}", color="black", fontname="Calibri", style="filled", fillcolor="white"];
"1796894382"[label="{{Expr\ -1:\ (((unsigned\ )\ (c\ -\ 0}|True}", color="black", fontname="Calibri", style="filled", fillcolor="white"];
"1963882296" -> "1796894382"[label="1", color="black", style="setlinewidth(1)"];
"1796894382" -> "1730523473"[label="1", color="black", style="setlinewidth(1)"];
"1796894382" -> "143943052"[label="1", color="black", style="setlinewidth(1)"];
"1599717976"[label="{{Expr\ -1:\ ((unicode_status\ !=\ }|(def(CONFIG_UNICODE_SUPPORT)&(def(CONFIG_UNICODE_USING_LOCALE)\|def(CONFIG_FEATURE_CHECK_UNICODE_IN_ENV)))}", color="black", fontname="Calibri", style="filled", fillcolor="#CD5200"];
"1599717976" -> "1796894382"[label="(definedEx(CONFIG_UNICODE_SUPPORT) && (definedEx(CONFIG_UNICODE_USING_LOCALE) || definedEx(CONFIG_FEATURE_CHECK_UNICODE_IN_ENV)))", color="red", style="setlinewidth(1)"];
"1599717976" -> "1963882296"[label="(definedEx(CONFIG_UNICODE_SUPPORT) && (definedEx(CONFIG_UNICODE_USING_LOCALE) || definedEx(CONFIG_FEATURE_CHECK_UNICODE_IN_ENV)))", color="red", style="setlinewidth(1)"];
"2071765778"[label="{{Expr\ -1:\ ((UNICODE_ON\ !=\ UNIC}|(def(CONFIG_UNICODE_SUPPORT)&!def(CONFIG_UNICODE_USING_LOCALE)&!def(CONFIG_FEATURE_CHECK_UNICODE_IN_ENV))}", color="black", fontname="Calibri", style="filled", fillcolor="#CD5200"];
"2071765778" -> "1796894382"[label="(definedEx(CONFIG_UNICODE_SUPPORT) && !definedEx(CONFIG_UNICODE_USING_LOCALE) && !definedEx(CONFIG_FEATURE_CHECK_UNICODE_IN_ENV))", color="red", style="setlinewidth(1)"];
"2071765778" -> "1963882296"[label="(definedEx(CONFIG_UNICODE_SUPPORT) && !definedEx(CONFIG_UNICODE_USING_LOCALE) && !definedEx(CONFIG_FEATURE_CHECK_UNICODE_IN_ENV))", color="red", style="setlinewidth(1)"];
"498973129"[label="{{Expr\ -1:\ ((UNICODE_OFF\ !=\ UNI}|!def(CONFIG_UNICODE_SUPPORT)}", color="black", fontname="Calibri", style="filled", fillcolor="#CD5200"];
"498973129" -> "1796894382"[label="!definedEx(CONFIG_UNICODE_SUPPORT)", color="red", style="setlinewidth(1)"];
"498973129" -> "1963882296"[label="!definedEx(CONFIG_UNICODE_SUPPORT)", color="red", style="setlinewidth(1)"];
"411941859"[label="{{Stmt\ -1:\ ++counts[WC_BYTES];}|True}", color="black", fontname="Calibri", style="filled", fillcolor="white"];
"411941859" -> "498973129"[label="!definedEx(CONFIG_UNICODE_SUPPORT)", color="red", style="setlinewidth(1)"];
"411941859" -> "2071765778"[label="(definedEx(CONFIG_UNICODE_SUPPORT) && !definedEx(CONFIG_UNICODE_USING_LOCALE) && !definedEx(CONFIG_FEATURE_CHECK_UNICODE_IN_ENV))", color="red", style="setlinewidth(1)"];
"411941859" -> "1599717976"[label="(definedEx(CONFIG_UNICODE_SUPPORT) && (definedEx(CONFIG_UNICODE_USING_LOCALE) || definedEx(CONFIG_FEATURE_CHECK_UNICODE_IN_ENV)))", color="red", style="setlinewidth(1)"];
"644925044"[label="{{Stmt\ -1:\ (totals[WC_LENGTH]\ =}|True}", color="black", fontname="Calibri", style="filled", fillcolor="white"];
"88316717"[label="{{Stmt\ -1:\ (totals[WC_LENGTH]\ -}|True}", color="black", fontname="Calibri", style="filled", fillcolor="white"];
"644925044" -> "88316717"[label="1", color="black", style="setlinewidth(1)"];
"2088892824"[label="{{Stmt\ -1:\ OUTPUT:}|True}", color="black", fontname="Calibri", style="filled", fillcolor="white"];
"88316717" -> "2088892824"[label="1", color="black", style="setlinewidth(1)"];
"685952302"[label="{{Expr\ -1:\ (c\ ==\ (-\ 1))}|True}", color="black", fontname="Calibri", style="filled", fillcolor="white"];
"685952302" -> "411941859"[label="1", color="black", style="setlinewidth(1)"];
"685952302" -> "1240442272"[label="1", color="black", style="setlinewidth(1)"];
"1805358578"[label="{{Expr\ -1:\ (totals[WC_LENGTH]\ \<}|True}", color="black", fontname="Calibri", style="filled", fillcolor="white"];
"1805358578" -> "88316717"[label="1", color="black", style="setlinewidth(1)"];
"1805358578" -> "644925044"[label="1", color="black", style="setlinewidth(1)"];
"1942304509"[label="{{Stmt\ -1:\ (c\ =\ _IO_getc(fp));}|True}", color="black", fontname="Calibri", style="filled", fillcolor="white"];
"1942304509" -> "643438233"[label="1", color="black", style="setlinewidth(1)"];
"1942304509" -> "685952302"[label="1", color="black", style="setlinewidth(1)"];
"1396750355"[label="{{Stmt\ -1:\ printf(fname_fmt\ ,\ a}|True}", color="black", fontname="Calibri", style="filled", fillcolor="white"];
"1180783024"[label="{{Decl\ -1:\ printf}|True}", color="blue", fontname="Calibri", style="filled", fillcolor="white"];
"1396750355" -> "1180783024"[label="1", color="black", style="setlinewidth(1)"];
"626464078"[label="{{Decl\ -1:\ fclose_if_not_stdin}|True}", color="blue", fontname="Calibri", style="filled", fillcolor="white"];
"1396750355" -> "626464078"[label="1", color="black", style="setlinewidth(1)"];
"1396750355" -> "649525708"[label="1", color="black", style="setlinewidth(1)"];
"1396750355" -> "1240442272"[label="1", color="black", style="setlinewidth(1)"];
"1396750355" -> "643438233"[label="1", color="black", style="setlinewidth(1)"];
"1506386570"[label="{{Decl\ -1:\ memset}|True}", color="blue", fontname="Calibri", style="filled", fillcolor="white"];
"1396750355" -> "1506386570"[label="1", color="black", style="setlinewidth(1)"];
"1342859284"[label="{{Decl\ -1:\ fopen_or_warn_stdin}|True}", color="blue", fontname="Calibri", style="filled", fillcolor="white"];
"1396750355" -> "1342859284"[label="1", color="black", style="setlinewidth(1)"];
"478726121"[label="{{Expr\ -1:\ ((arg\ =\ (*argv++))\ !}|True}", color="black", fontname="Calibri", style="filled", fillcolor="white"];
"1396750355" -> "478726121"[label="1", color="black", style="setlinewidth(1)"];
"1854480249" -> "626464078"[label="1", color="black", style="setlinewidth(1)"];
"1854480249" -> "1805358578"[label="1", color="black", style="setlinewidth(1)"];
"1904028938"[label="{{Stmt\ -1:\ int\ c;}|True}", color="black", fontname="Calibri", style="filled", fillcolor="white"];
"1904028938" -> "1942304509"[label="1", color="black", style="setlinewidth(1)"];
"478460300"[label="{{Stmt\ -1:\ (s\ =\ \\\"\ %9\\\"\ \\\"llu\\\"\ \\\"u\\\"}|True}", color="black", fontname="Calibri", style="filled", fillcolor="white"];
"478460300" -> "1180783024"[label="1", color="black", style="setlinewidth(1)"];
"402369493"[label="{{Stmt\ -1:\ (totals[u]\ +=\ pcount}|True}", color="black", fontname="Calibri", style="filled", fillcolor="white"];
"478460300" -> "402369493"[label="1", color="black", style="setlinewidth(1)"];
"1412312721"[label="{{Expr\ -1:\ (++u\ \<\ NUM_WCS)}|True}", color="black", fontname="Calibri", style="filled", fillcolor="white"];
"1647638162"[label="{{Expr\ -1:\ (print_type\ &\ (1\ \<\<\ }|True}", color="black", fontname="Calibri", style="filled", fillcolor="white"];
"1412312721" -> "1647638162"[label="1", color="black", style="setlinewidth(1)"];
"1412312721" -> "1396750355"[label="1", color="black", style="setlinewidth(1)"];
"1973197529" -> "1904028938"[label="1", color="black", style="setlinewidth(1)"];
"1973197529" -> "1854480249"[label="1", color="black", style="setlinewidth(1)"];
"1190289599"[label="{{Stmt\ -1:\ printf(s\ ,\ pcounts[u}|True}", color="black", fontname="Calibri", style="filled", fillcolor="white"];
"1190289599" -> "1180783024"[label="1", color="black", style="setlinewidth(1)"];
"1190289599" -> "478460300"[label="1", color="black", style="setlinewidth(1)"];
"402369493" -> "1180783024"[label="1", color="black", style="setlinewidth(1)"];
"402369493" -> "1412312721"[label="1", color="black", style="setlinewidth(1)"];
"2056219634"[label="{{Stmt\ -1:\ (in_word\ =\ 0);}|True}", color="black", fontname="Calibri", style="filled", fillcolor="white"];
"2056219634" -> "1973197529"[label="1", color="black", style="setlinewidth(1)"];
"1647638162" -> "402369493"[label="1", color="black", style="setlinewidth(1)"];
"1647638162" -> "1190289599"[label="1", color="black", style="setlinewidth(1)"];
"1656469639"[label="{{Stmt\ 139:\ continue;}|True}", color="black", fontname="Calibri", style="filled", fillcolor="white"];
"1656469639" -> "478726121"[label="1", color="black", style="setlinewidth(1)"];
"1924704086"[label="{{Stmt\ -1:\ (linepos\ =\ 0);}|True}", color="black", fontname="Calibri", style="filled", fillcolor="white"];
"1924704086" -> "2056219634"[label="1", color="black", style="setlinewidth(1)"];
"149522497"[label="{{Stmt\ -1:\ (u\ =\ 0);}|True}", color="black", fontname="Calibri", style="filled", fillcolor="white"];
"149522497" -> "1647638162"[label="1", color="black", style="setlinewidth(1)"];
"336633510"[label="{{Stmt\ -1:\ (status\ =\ 1);}|True}", color="black", fontname="Calibri", style="filled", fillcolor="white"];
"336633510" -> "1656469639"[label="1", color="black", style="setlinewidth(1)"];
"307222965"[label="{{Stmt\ -1:\ memset(counts\ ,\ 0\ ,\ }|True}", color="black", fontname="Calibri", style="filled", fillcolor="white"];
"307222965" -> "1506386570"[label="1", color="black", style="setlinewidth(1)"];
"307222965" -> "1924704086"[label="1", color="black", style="setlinewidth(1)"];
"1582893549"[label="{{Stmt\ -1:\ (s\ =\ start_fmt);}|True}", color="black", fontname="Calibri", style="filled", fillcolor="white"];
"1582893549" -> "149522497"[label="1", color="black", style="setlinewidth(1)"];
"46096765"[label="{{Expr\ -1:\ (!\ fp)}|True}", color="black", fontname="Calibri", style="filled", fillcolor="white"];
"46096765" -> "307222965"[label="1", color="black", style="setlinewidth(1)"];
"46096765" -> "336633510"[label="1", color="black", style="setlinewidth(1)"];
"2088892824" -> "1582893549"[label="1", color="black", style="setlinewidth(1)"];
"152125395"[label="{{Stmt\ -1:\ (fp\ =\ fopen_or_warn_}|True}", color="black", fontname="Calibri", style="filled", fillcolor="white"];
"152125395" -> "1342859284"[label="1", color="black", style="setlinewidth(1)"];
"152125395" -> "46096765"[label="1", color="black", style="setlinewidth(1)"];
"135188005"[label="{{Stmt\ -1:\ goto\ OUTPUT;}|True}", color="black", fontname="Calibri", style="filled", fillcolor="white"];
"135188005" -> "2088892824"[label="1", color="black", style="setlinewidth(1)"];
"1976669170"[label="{{Stmt\ -1:\ ++num_files;}|True}", color="black", fontname="Calibri", style="filled", fillcolor="white"];
"1976669170" -> "152125395"[label="1", color="black", style="setlinewidth(1)"];
"1868974378"[label="{{Stmt\ -1:\ --argv;}|True}", color="black", fontname="Calibri", style="filled", fillcolor="white"];
"1868974378" -> "135188005"[label="1", color="black", style="setlinewidth(1)"];
"530619239"[label="{{Stmt\ -1:\ smallint\ in_word;}|True}", color="black", fontname="Calibri", style="filled", fillcolor="white"];
"530619239" -> "1976669170"[label="1", color="black", style="setlinewidth(1)"];
"1097325076"[label="{{Stmt\ -1:\ (pcounts\ =\ totals);}|True}", color="black", fontname="Calibri", style="filled", fillcolor="white"];
"1097325076" -> "1868974378"[label="1", color="black", style="setlinewidth(1)"];
"1511332517"[label="{{Stmt\ -1:\ unsigned\ linepos;}|True}", color="black", fontname="Calibri", style="filled", fillcolor="white"];
"1511332517" -> "530619239"[label="1", color="black", style="setlinewidth(1)"];
"1746241674"[label="{{Stmt\ -1:\ (arg\ =\ \\\"total\\\");}|True}", color="black", fontname="Calibri", style="filled", fillcolor="white"];
"1746241674" -> "1097325076"[label="1", color="black", style="setlinewidth(1)"];
"1880703107"[label="{{Decl\ -1:\ fflush_stdout_and_exit}|True}", color="blue", fontname="Calibri", style="filled", fillcolor="white"];
"765624250"[label="{{Stmt\ -1:\ unsigned\ u;}|True}", color="black", fontname="Calibri", style="filled", fillcolor="white"];
"765624250" -> "1511332517"[label="1", color="black", style="setlinewidth(1)"];
"2141007597"[label="{{Stmt\ -1:\ (num_files\ =\ 0);}|True}", color="black", fontname="Calibri", style="filled", fillcolor="white"];
"2141007597" -> "1746241674"[label="1", color="black", style="setlinewidth(1)"];
"346147088"[label="{{Stmt\ -1:\ fflush_stdout_and_ex}|True}", color="black", fontname="Calibri", style="filled", fillcolor="white"];
"346147088" -> "1880703107"[label="1", color="black", style="setlinewidth(1)"];
"346147088" -> "1180783024"[label="1", color="black", style="setlinewidth(1)"];
"346147088" -> "626464078"[label="1", color="black", style="setlinewidth(1)"];
"346147088" -> "649525708"[label="1", color="black", style="setlinewidth(1)"];
"346147088" -> "1240442272"[label="1", color="black", style="setlinewidth(1)"];
"346147088" -> "643438233"[label="1", color="black", style="setlinewidth(1)"];
"346147088" -> "1506386570"[label="1", color="black", style="setlinewidth(1)"];
"346147088" -> "1342859284"[label="1", color="black", style="setlinewidth(1)"];
"782656132"[label="{{Decl\ -1:\ getopt32}|True}", color="blue", fontname="Calibri", style="filled", fillcolor="white"];
"346147088" -> "782656132"[label="1", color="black", style="setlinewidth(1)"];
"1122040505"[label="{{Decl\ -1:\ init_unicode}|True}", color="blue", fontname="Calibri", style="filled", fillcolor="white"];
"346147088" -> "1122040505"[label="(((definedEx(CONFIG_UNICODE_SUPPORT) && !definedEx(CONFIG_UNICODE_USING_LOCALE) && definedEx(CONFIG_FEATURE_CHECK_UNICODE_IN_ENV)) || (definedEx(CONFIG_UNICODE_SUPPORT) && definedEx(CONFIG_UNICODE_USING_LOCALE)) || (definedEx(CONFIG_UNICODE_SUPPORT) && !definedEx(CONFIG_UNICODE_USING_LOCALE))) && (definedEx(CONFIG_UNICODE_USING_LOCALE) || definedEx(CONFIG_FEATURE_CHECK_UNICODE_IN_ENV)) && (!definedEx(CONFIG_UNICODE_SUPPORT) || (definedEx(CONFIG_UNICODE_SUPPORT) && definedEx(CONFIG_UNICODE_USING_LOCALE)) || definedEx(CONFIG_UNICODE_USING_LOCALE) || ((!definedEx(CONFIG_UNICODE_SUPPORT) || definedEx(CONFIG_UNICODE_USING_LOCALE) || !definedEx(CONFIG_FEATURE_CHECK_UNICODE_IN_ENV)) && (!definedEx(CONFIG_UNICODE_SUPPORT) || !definedEx(CONFIG_UNICODE_USING_LOCALE)) && (!definedEx(CONFIG_UNICODE_SUPPORT) || definedEx(CONFIG_UNICODE_USING_LOCALE))) || !definedEx(CONFIG_FEATURE_CHECK_UNICODE_IN_ENV)) && definedEx(CONFIG_UNICODE_SUPPORT) && definedEx(CONFIG_UNICODE_USING_LOCALE))", color="red", style="setlinewidth(1)"];
"1180487377"[label="{{Decl\ -1:\ init_unicode}|True}", color="blue", fontname="Calibri", style="filled", fillcolor="white"];
"346147088" -> "1180487377"[label="(definedEx(CONFIG_FEATURE_CHECK_UNICODE_IN_ENV) && ((definedEx(CONFIG_UNICODE_SUPPORT) && !definedEx(CONFIG_UNICODE_USING_LOCALE) && definedEx(CONFIG_FEATURE_CHECK_UNICODE_IN_ENV)) || (definedEx(CONFIG_UNICODE_SUPPORT) && definedEx(CONFIG_UNICODE_USING_LOCALE)) || (definedEx(CONFIG_UNICODE_SUPPORT) && !definedEx(CONFIG_UNICODE_USING_LOCALE))) && (definedEx(CONFIG_UNICODE_USING_LOCALE) || definedEx(CONFIG_FEATURE_CHECK_UNICODE_IN_ENV)) && !definedEx(CONFIG_UNICODE_USING_LOCALE) && definedEx(CONFIG_UNICODE_SUPPORT) && (!definedEx(CONFIG_UNICODE_SUPPORT) || !definedEx(CONFIG_UNICODE_USING_LOCALE)))", color="red", style="setlinewidth(1)"];
"1570604644"[label="{{Function\ -1:\ wc_main}|True}", color="blue", fontname="Calibri", style="filled", fillcolor="white"];
"346147088" -> "1570604644"[label="1", color="black", style="setlinewidth(1)"];
"832158464"[label="{{Stmt\ -1:\ const\ char\ *s;}|True}", color="black", fontname="Calibri", style="filled", fillcolor="white"];
"832158464" -> "765624250"[label="1", color="black", style="setlinewidth(1)"];
"1883769886"[label="{{Expr\ -1:\ (num_files\ \>\ 1)}|True}", color="black", fontname="Calibri", style="filled", fillcolor="white"];
"1883769886" -> "346147088"[label="1", color="black", style="setlinewidth(1)"];
"1883769886" -> "2141007597"[label="1", color="black", style="setlinewidth(1)"];
"735933558"[label="{{Stmt\ -1:\ FILE\ *fp;}|True}", color="black", fontname="Calibri", style="filled", fillcolor="white"];
"735933558" -> "832158464"[label="1", color="black", style="setlinewidth(1)"];
"478726121" -> "735933558"[label="1", color="black", style="setlinewidth(1)"];
"478726121" -> "1883769886"[label="1", color="black", style="setlinewidth(1)"];
"481558867"[label="{{Stmt\ -1:\ (num_files\ =\ 0);}|True}", color="black", fontname="Calibri", style="filled", fillcolor="white"];
"481558867" -> "478726121"[label="1", color="black", style="setlinewidth(1)"];
"1949720153"[label="{{Stmt\ -1:\ (start_fmt\ =\ \\\"%\\\"\ \\\"ll}|True}", color="black", fontname="Calibri", style="filled", fillcolor="white"];
"694784340"[label="{{Stmt\ -1:\ memset(totals\ ,\ 0\ ,\ }|True}", color="black", fontname="Calibri", style="filled", fillcolor="white"];
"1949720153" -> "694784340"[label="1", color="black", style="setlinewidth(1)"];
"542085533"[label="{{Stmt\ -1:\ (pcounts\ =\ counts);}|True}", color="black", fontname="Calibri", style="filled", fillcolor="white"];
"542085533" -> "481558867"[label="1", color="black", style="setlinewidth(1)"];
"384623350"[label="{{Stmt\ -1:\ (fname_fmt\ =\ \\\"\n\\\");}|True}", color="black", fontname="Calibri", style="filled", fillcolor="white"];
"1906707721"[label="{{Expr\ -1:\ (!\ argv[1])}|True}", color="black", fontname="Calibri", style="filled", fillcolor="white"];
"384623350" -> "1906707721"[label="1", color="black", style="setlinewidth(1)"];
"975442022"[label="{{Expr\ -1:\ (!\ ((print_type\ -\ 1)}|True}", color="black", fontname="Calibri", style="filled", fillcolor="white"];
"975442022" -> "694784340"[label="1", color="black", style="setlinewidth(1)"];
"975442022" -> "1949720153"[label="1", color="black", style="setlinewidth(1)"];
"694784340" -> "1506386570"[label="1", color="black", style="setlinewidth(1)"];
"694784340" -> "542085533"[label="1", color="black", style="setlinewidth(1)"];
"1747563550"[label="{{Stmt\ -1:\ ((*--argv)\ =\ ((char\ }|True}", color="black", fontname="Calibri", style="filled", fillcolor="white"];
"1747563550" -> "384623350"[label="1", color="black", style="setlinewidth(1)"];
"1906707721" -> "694784340"[label="1", color="black", style="setlinewidth(1)"];
"1906707721" -> "975442022"[label="1", color="black", style="setlinewidth(1)"];
"99697"[label="{{Expr\ -1:\ (!\ argv[0])}|True}", color="black", fontname="Calibri", style="filled", fillcolor="white"];
"99697" -> "1906707721"[label="1", color="black", style="setlinewidth(1)"];
"99697" -> "1747563550"[label="1", color="black", style="setlinewidth(1)"];
"1036039758"[label="{{Stmt\ -1:\ (print_type\ =\ ((1\ \<\<}|True}", color="black", fontname="Calibri", style="filled", fillcolor="white"];
"1144698376"[label="{{Stmt\ -1:\ (argv\ +=\ optind);}|True}", color="black", fontname="Calibri", style="filled", fillcolor="white"];
"1036039758" -> "1144698376"[label="1", color="black", style="setlinewidth(1)"];
"1144698376" -> "99697"[label="1", color="black", style="setlinewidth(1)"];
"402579079"[label="{{Expr\ -1:\ (print_type\ ==\ 0)}|True}", color="black", fontname="Calibri", style="filled", fillcolor="white"];
"402579079" -> "1144698376"[label="1", color="black", style="setlinewidth(1)"];
"402579079" -> "1036039758"[label="1", color="black", style="setlinewidth(1)"];
"657667086"[label="{{Stmt\ -1:\ (print_type\ =\ getopt}|True}", color="black", fontname="Calibri", style="filled", fillcolor="white"];
"657667086" -> "782656132"[label="1", color="black", style="setlinewidth(1)"];
"657667086" -> "402579079"[label="1", color="black", style="setlinewidth(1)"];
"874391910"[label="{{Stmt\ -1:\ init_unicode();}|(def(CONFIG_UNICODE_SUPPORT)&(def(CONFIG_UNICODE_USING_LOCALE)\|def(CONFIG_FEATURE_CHECK_UNICODE_IN_ENV)))}", color="black", fontname="Calibri", style="filled", fillcolor="#CD5200"];
"874391910" -> "1122040505"[label="(((definedEx(CONFIG_UNICODE_SUPPORT) && !definedEx(CONFIG_UNICODE_USING_LOCALE) && definedEx(CONFIG_FEATURE_CHECK_UNICODE_IN_ENV)) || (definedEx(CONFIG_UNICODE_SUPPORT) && definedEx(CONFIG_UNICODE_USING_LOCALE)) || (definedEx(CONFIG_UNICODE_SUPPORT) && !definedEx(CONFIG_UNICODE_USING_LOCALE))) && (definedEx(CONFIG_UNICODE_USING_LOCALE) || definedEx(CONFIG_FEATURE_CHECK_UNICODE_IN_ENV)) && (!definedEx(CONFIG_UNICODE_SUPPORT) || (definedEx(CONFIG_UNICODE_SUPPORT) && definedEx(CONFIG_UNICODE_USING_LOCALE)) || definedEx(CONFIG_UNICODE_USING_LOCALE) || ((!definedEx(CONFIG_UNICODE_SUPPORT) || definedEx(CONFIG_UNICODE_USING_LOCALE) || !definedEx(CONFIG_FEATURE_CHECK_UNICODE_IN_ENV)) && (!definedEx(CONFIG_UNICODE_SUPPORT) || !definedEx(CONFIG_UNICODE_USING_LOCALE)) && (!definedEx(CONFIG_UNICODE_SUPPORT) || definedEx(CONFIG_UNICODE_USING_LOCALE))) || !definedEx(CONFIG_FEATURE_CHECK_UNICODE_IN_ENV)) && definedEx(CONFIG_UNICODE_SUPPORT) && definedEx(CONFIG_UNICODE_USING_LOCALE))", color="red", style="setlinewidth(1)"];
"874391910" -> "1180487377"[label="(definedEx(CONFIG_FEATURE_CHECK_UNICODE_IN_ENV) && ((definedEx(CONFIG_UNICODE_SUPPORT) && !definedEx(CONFIG_UNICODE_USING_LOCALE) && definedEx(CONFIG_FEATURE_CHECK_UNICODE_IN_ENV)) || (definedEx(CONFIG_UNICODE_SUPPORT) && definedEx(CONFIG_UNICODE_USING_LOCALE)) || (definedEx(CONFIG_UNICODE_SUPPORT) && !definedEx(CONFIG_UNICODE_USING_LOCALE))) && (definedEx(CONFIG_UNICODE_USING_LOCALE) || definedEx(CONFIG_FEATURE_CHECK_UNICODE_IN_ENV)) && !definedEx(CONFIG_UNICODE_USING_LOCALE) && definedEx(CONFIG_UNICODE_SUPPORT) && (!definedEx(CONFIG_UNICODE_SUPPORT) || !definedEx(CONFIG_UNICODE_USING_LOCALE)))", color="red", style="setlinewidth(1)"];
"874391910" -> "657667086"[label="(definedEx(CONFIG_UNICODE_SUPPORT) && (definedEx(CONFIG_UNICODE_USING_LOCALE) || definedEx(CONFIG_FEATURE_CHECK_UNICODE_IN_ENV)))", color="red", style="setlinewidth(1)"];
"1636602092"[label="{{Stmt\ -1:\ ((void\ )\ 0);}|(!def(CONFIG_UNICODE_SUPPORT)\|(!def(CONFIG_UNICODE_USING_LOCALE)&!def(CONFIG_FEATURE_CHECK_UNICODE_IN_ENV)))}", color="black", fontname="Calibri", style="filled", fillcolor="#CD5200"];
"1636602092" -> "657667086"[label="(!definedEx(CONFIG_UNICODE_SUPPORT) || (!definedEx(CONFIG_UNICODE_USING_LOCALE) && !definedEx(CONFIG_FEATURE_CHECK_UNICODE_IN_ENV)))", color="red", style="setlinewidth(1)"];
"1982728198"[label="{{Stmt\ -1:\ unsigned\ print_type;}|True}", color="black", fontname="Calibri", style="filled", fillcolor="white"];
"1982728198" -> "1636602092"[label="(!definedEx(CONFIG_UNICODE_SUPPORT) || (!definedEx(CONFIG_UNICODE_USING_LOCALE) && !definedEx(CONFIG_FEATURE_CHECK_UNICODE_IN_ENV)))", color="red", style="setlinewidth(1)"];
"1982728198" -> "874391910"[label="(definedEx(CONFIG_UNICODE_SUPPORT) && (definedEx(CONFIG_UNICODE_USING_LOCALE) || definedEx(CONFIG_FEATURE_CHECK_UNICODE_IN_ENV)))", color="red", style="setlinewidth(1)"];
"877068435"[label="{{Stmt\ -1:\ smallint\ status\ =\ \ 0}|True}", color="black", fontname="Calibri", style="filled", fillcolor="white"];
"877068435" -> "1982728198"[label="1", color="black", style="setlinewidth(1)"];
"1143691151"[label="{{Stmt\ -1:\ int\ num_files;}|True}", color="black", fontname="Calibri", style="filled", fillcolor="white"];
"1143691151" -> "877068435"[label="1", color="black", style="setlinewidth(1)"];
"27871234"[label="{{Stmt\ -1:\ \l#if\ definedEx(CONFI}|True}", color="black", fontname="Calibri", style="filled", fillcolor="white"];
"27871234" -> "1143691151"[label="1", color="black", style="setlinewidth(1)"];
"1956371893"[label="{{Stmt\ -1:\ \l#if\ definedEx(CONFI}|True}", color="black", fontname="Calibri", style="filled", fillcolor="white"];
"1956371893" -> "27871234"[label="1", color="black", style="setlinewidth(1)"];
"825651188"[label="{{Stmt\ -1:\ \l#if\ definedEx(CONFI}|True}", color="black", fontname="Calibri", style="filled", fillcolor="white"];
"825651188" -> "1956371893"[label="1", color="black", style="setlinewidth(1)"];
"1418021808"[label="{{Stmt\ -1:\ const\ char\ *fname_fm}|True}", color="black", fontname="Calibri", style="filled", fillcolor="white"];
"1418021808" -> "825651188"[label="1", color="black", style="setlinewidth(1)"];
"808395820"[label="{{Stmt\ -1:\ const\ char\ *start_fm}|True}", color="black", fontname="Calibri", style="filled", fillcolor="white"];
"808395820" -> "1418021808"[label="1", color="black", style="setlinewidth(1)"];
"670880885"[label="{{Stmt\ -1:\ const\ char\ *arg;}|True}", color="black", fontname="Calibri", style="filled", fillcolor="white"];
"670880885" -> "808395820"[label="1", color="black", style="setlinewidth(1)"];
"1570604644" -> "670880885"[label="1", color="black", style="setlinewidth(1)"];
}
