digraph "busybox-1.18.5/coreutils/yes.c" {
node [shape=record];
"478858631"[label="{{Decl\ -1:\ xstrtoull_range_sfx}|True}", color="blue", fontname="Calibri", style="filled", fillcolor="white"];
"1359483496"[label="{{Stmt\ -1:\ return\ xstrtoull_ran}|True}", color="black", fontname="Calibri", style="filled", fillcolor="white"];
"1359483496" -> "478858631"[label="1", color="black", style="setlinewidth(1)"];
"635273083"[label="{{Function\ -1:\ xstrtoul_range_sfx}|True}", color="blue", fontname="Calibri", style="filled", fillcolor="white"];
"1359483496" -> "635273083"[label="1", color="black", style="setlinewidth(1)"];
"635273083" -> "1359483496"[label="1", color="black", style="setlinewidth(1)"];
"2097821543"[label="{{Decl\ -1:\ xstrtoull_range}|True}", color="blue", fontname="Calibri", style="filled", fillcolor="white"];
"1629323780"[label="{{Stmt\ -1:\ return\ xstrtoull_ran}|True}", color="black", fontname="Calibri", style="filled", fillcolor="white"];
"1629323780" -> "2097821543"[label="1", color="black", style="setlinewidth(1)"];
"1099956682"[label="{{Function\ -1:\ xstrtoul_range}|True}", color="blue", fontname="Calibri", style="filled", fillcolor="white"];
"1629323780" -> "1099956682"[label="1", color="black", style="setlinewidth(1)"];
"1099956682" -> "1629323780"[label="1", color="black", style="setlinewidth(1)"];
"577072921"[label="{{Decl\ -1:\ xstrtoull_sfx}|True}", color="blue", fontname="Calibri", style="filled", fillcolor="white"];
"225286862"[label="{{Stmt\ -1:\ return\ xstrtoull_sfx}|True}", color="black", fontname="Calibri", style="filled", fillcolor="white"];
"225286862" -> "577072921"[label="1", color="black", style="setlinewidth(1)"];
"1668181854"[label="{{Function\ -1:\ xstrtoul_sfx}|True}", color="blue", fontname="Calibri", style="filled", fillcolor="white"];
"225286862" -> "1668181854"[label="1", color="black", style="setlinewidth(1)"];
"1668181854" -> "225286862"[label="1", color="black", style="setlinewidth(1)"];
"1868083850"[label="{{Decl\ -1:\ xstrtoull}|True}", color="blue", fontname="Calibri", style="filled", fillcolor="white"];
"1585662774"[label="{{Stmt\ -1:\ return\ xstrtoull(str}|True}", color="black", fontname="Calibri", style="filled", fillcolor="white"];
"1585662774" -> "1868083850"[label="1", color="black", style="setlinewidth(1)"];
"1306037867"[label="{{Function\ -1:\ xstrtoul}|True}", color="blue", fontname="Calibri", style="filled", fillcolor="white"];
"1585662774" -> "1306037867"[label="1", color="black", style="setlinewidth(1)"];
"1306037867" -> "1585662774"[label="1", color="black", style="setlinewidth(1)"];
"308604640"[label="{{Decl\ -1:\ xatoull_range_sfx}|True}", color="blue", fontname="Calibri", style="filled", fillcolor="white"];
"1935996871"[label="{{Stmt\ -1:\ return\ xatoull_range}|True}", color="black", fontname="Calibri", style="filled", fillcolor="white"];
"1935996871" -> "308604640"[label="1", color="black", style="setlinewidth(1)"];
"530669521"[label="{{Function\ -1:\ xatoul_range_sfx}|True}", color="blue", fontname="Calibri", style="filled", fillcolor="white"];
"1935996871" -> "530669521"[label="1", color="black", style="setlinewidth(1)"];
"530669521" -> "1935996871"[label="1", color="black", style="setlinewidth(1)"];
"1042322838"[label="{{Decl\ -1:\ xatoull_range}|True}", color="blue", fontname="Calibri", style="filled", fillcolor="white"];
"1382735270"[label="{{Stmt\ -1:\ return\ xatoull_range}|True}", color="black", fontname="Calibri", style="filled", fillcolor="white"];
"1382735270" -> "1042322838"[label="1", color="black", style="setlinewidth(1)"];
"2110915609"[label="{{Function\ -1:\ xatoul_range}|True}", color="blue", fontname="Calibri", style="filled", fillcolor="white"];
"1382735270" -> "2110915609"[label="1", color="black", style="setlinewidth(1)"];
"2110915609" -> "1382735270"[label="1", color="black", style="setlinewidth(1)"];
"1818077301"[label="{{Decl\ -1:\ xatoull_sfx}|True}", color="blue", fontname="Calibri", style="filled", fillcolor="white"];
"1020435066"[label="{{Stmt\ -1:\ return\ xatoull_sfx(s}|True}", color="black", fontname="Calibri", style="filled", fillcolor="white"];
"1020435066" -> "1818077301"[label="1", color="black", style="setlinewidth(1)"];
"1424859144"[label="{{Function\ -1:\ xatoul_sfx}|True}", color="blue", fontname="Calibri", style="filled", fillcolor="white"];
"1020435066" -> "1424859144"[label="1", color="black", style="setlinewidth(1)"];
"1424859144" -> "1020435066"[label="1", color="black", style="setlinewidth(1)"];
"2093568729"[label="{{Decl\ -1:\ xatoull}|True}", color="blue", fontname="Calibri", style="filled", fillcolor="white"];
"382102884"[label="{{Stmt\ -1:\ return\ xatoull(str);}|True}", color="black", fontname="Calibri", style="filled", fillcolor="white"];
"382102884" -> "2093568729"[label="1", color="black", style="setlinewidth(1)"];
"1553588734"[label="{{Function\ -1:\ xatoul}|True}", color="blue", fontname="Calibri", style="filled", fillcolor="white"];
"382102884" -> "1553588734"[label="1", color="black", style="setlinewidth(1)"];
"1553588734" -> "382102884"[label="1", color="black", style="setlinewidth(1)"];
"1280885454"[label="{{Decl\ -1:\ xstrtoll_range_sfx}|True}", color="blue", fontname="Calibri", style="filled", fillcolor="white"];
"1705672581"[label="{{Stmt\ -1:\ return\ xstrtoll_rang}|True}", color="black", fontname="Calibri", style="filled", fillcolor="white"];
"1705672581" -> "1280885454"[label="1", color="black", style="setlinewidth(1)"];
"1142951595"[label="{{Function\ -1:\ xstrtol_range_sfx}|True}", color="blue", fontname="Calibri", style="filled", fillcolor="white"];
"1705672581" -> "1142951595"[label="1", color="black", style="setlinewidth(1)"];
"1142951595" -> "1705672581"[label="1", color="black", style="setlinewidth(1)"];
"2039531292"[label="{{Decl\ -1:\ xstrtoll_range}|True}", color="blue", fontname="Calibri", style="filled", fillcolor="white"];
"617960088"[label="{{Stmt\ -1:\ return\ xstrtoll_rang}|True}", color="black", fontname="Calibri", style="filled", fillcolor="white"];
"617960088" -> "2039531292"[label="1", color="black", style="setlinewidth(1)"];
"66304332"[label="{{Function\ -1:\ xstrtol_range}|True}", color="blue", fontname="Calibri", style="filled", fillcolor="white"];
"617960088" -> "66304332"[label="1", color="black", style="setlinewidth(1)"];
"66304332" -> "617960088"[label="1", color="black", style="setlinewidth(1)"];
"1870530256"[label="{{Decl\ -1:\ xstrtoll}|True}", color="blue", fontname="Calibri", style="filled", fillcolor="white"];
"715767069"[label="{{Stmt\ -1:\ return\ xstrtoll(str\ }|True}", color="black", fontname="Calibri", style="filled", fillcolor="white"];
"715767069" -> "1870530256"[label="1", color="black", style="setlinewidth(1)"];
"877349850"[label="{{Function\ -1:\ xstrtol}|True}", color="blue", fontname="Calibri", style="filled", fillcolor="white"];
"715767069" -> "877349850"[label="1", color="black", style="setlinewidth(1)"];
"877349850" -> "715767069"[label="1", color="black", style="setlinewidth(1)"];
"1399621174"[label="{{Decl\ -1:\ xatoll_range_sfx}|True}", color="blue", fontname="Calibri", style="filled", fillcolor="white"];
"499057565"[label="{{Stmt\ -1:\ return\ xatoll_range_}|True}", color="black", fontname="Calibri", style="filled", fillcolor="white"];
"499057565" -> "1399621174"[label="1", color="black", style="setlinewidth(1)"];
"833022628"[label="{{Function\ -1:\ xatol_range_sfx}|True}", color="blue", fontname="Calibri", style="filled", fillcolor="white"];
"499057565" -> "833022628"[label="1", color="black", style="setlinewidth(1)"];
"833022628" -> "499057565"[label="1", color="black", style="setlinewidth(1)"];
"2024801471"[label="{{Decl\ -1:\ xatoll_range}|True}", color="blue", fontname="Calibri", style="filled", fillcolor="white"];
"697892520"[label="{{Stmt\ -1:\ return\ xatoll_range(}|True}", color="black", fontname="Calibri", style="filled", fillcolor="white"];
"697892520" -> "2024801471"[label="1", color="black", style="setlinewidth(1)"];
"494392306"[label="{{Function\ -1:\ xatol_range}|True}", color="blue", fontname="Calibri", style="filled", fillcolor="white"];
"697892520" -> "494392306"[label="1", color="black", style="setlinewidth(1)"];
"494392306" -> "697892520"[label="1", color="black", style="setlinewidth(1)"];
"1868380315"[label="{{Decl\ -1:\ xatoll_sfx}|True}", color="blue", fontname="Calibri", style="filled", fillcolor="white"];
"2064944667"[label="{{Stmt\ -1:\ return\ xatoll_sfx(st}|True}", color="black", fontname="Calibri", style="filled", fillcolor="white"];
"2064944667" -> "1868380315"[label="1", color="black", style="setlinewidth(1)"];
"611245343"[label="{{Function\ -1:\ xatol_sfx}|True}", color="blue", fontname="Calibri", style="filled", fillcolor="white"];
"2064944667" -> "611245343"[label="1", color="black", style="setlinewidth(1)"];
"611245343" -> "2064944667"[label="1", color="black", style="setlinewidth(1)"];
"1030615179"[label="{{Decl\ -1:\ xatoll}|True}", color="blue", fontname="Calibri", style="filled", fillcolor="white"];
"529058223"[label="{{Stmt\ -1:\ return\ xatoll(str);}|True}", color="black", fontname="Calibri", style="filled", fillcolor="white"];
"529058223" -> "1030615179"[label="1", color="black", style="setlinewidth(1)"];
"1169476611"[label="{{Function\ -1:\ xatol}|True}", color="blue", fontname="Calibri", style="filled", fillcolor="white"];
"529058223" -> "1169476611"[label="1", color="black", style="setlinewidth(1)"];
"1169476611" -> "529058223"[label="1", color="black", style="setlinewidth(1)"];
"382102884" -> "2093568729"[label="1", color="black", style="setlinewidth(1)"];
"382102884" -> "1553588734"[label="1", color="black", style="setlinewidth(1)"];
"1553588734" -> "382102884"[label="1", color="black", style="setlinewidth(1)"];
"1129173601"[label="{{Decl\ -1:\ BUG_xatou32_unimplemented}|True}", color="blue", fontname="Calibri", style="filled", fillcolor="white"];
"903105953"[label="{{Decl\ -1:\ xatou}|True}", color="blue", fontname="Calibri", style="filled", fillcolor="white"];
"1384111178"[label="{{Stmt\ -1:\ return\ xatoul(numstr}|True}", color="black", fontname="Calibri", style="filled", fillcolor="white"];
"1384111178" -> "1553588734"[label="1", color="black", style="setlinewidth(1)"];
"1156341884"[label="{{Function\ -1:\ xatou32}|True}", color="blue", fontname="Calibri", style="filled", fillcolor="white"];
"1384111178" -> "1156341884"[label="1", color="black", style="setlinewidth(1)"];
"359038419"[label="{{Stmt\ -1:\ return\ BUG_xatou32_u}|True}", color="black", fontname="Calibri", style="filled", fillcolor="white"];
"359038419" -> "1129173601"[label="1", color="black", style="setlinewidth(1)"];
"359038419" -> "1156341884"[label="1", color="black", style="setlinewidth(1)"];
"183779345"[label="{{Stmt\ -1:\ return\ xatou(numstr)}|True}", color="black", fontname="Calibri", style="filled", fillcolor="white"];
"183779345" -> "903105953"[label="1", color="black", style="setlinewidth(1)"];
"183779345" -> "1156341884"[label="1", color="black", style="setlinewidth(1)"];
"1128517179"[label="{{Expr\ -1:\ (((92233720368547758}|True}", color="black", fontname="Calibri", style="filled", fillcolor="white"];
"1128517179" -> "359038419"[label="1", color="black", style="setlinewidth(1)"];
"1128517179" -> "1384111178"[label="1", color="black", style="setlinewidth(1)"];
"1821028804"[label="{{Expr\ -1:\ (((2147483647\ *\ 2U)\ }|True}", color="black", fontname="Calibri", style="filled", fillcolor="white"];
"1821028804" -> "1128517179"[label="1", color="black", style="setlinewidth(1)"];
"1821028804" -> "183779345"[label="1", color="black", style="setlinewidth(1)"];
"1156341884" -> "1821028804"[label="1", color="black", style="setlinewidth(1)"];
"1321696488"[label="{{Decl\ -1:\ bb_strtoull}|True}", color="blue", fontname="Calibri", style="filled", fillcolor="white"];
"970946365"[label="{{Stmt\ -1:\ return\ bb_strtoull(a}|True}", color="black", fontname="Calibri", style="filled", fillcolor="white"];
"970946365" -> "1321696488"[label="1", color="black", style="setlinewidth(1)"];
"1512227727"[label="{{Function\ -1:\ bb_strtoul}|True}", color="blue", fontname="Calibri", style="filled", fillcolor="white"];
"970946365" -> "1512227727"[label="1", color="black", style="setlinewidth(1)"];
"1512227727" -> "970946365"[label="1", color="black", style="setlinewidth(1)"];
"2012303295"[label="{{Decl\ -1:\ bb_strtoll}|True}", color="blue", fontname="Calibri", style="filled", fillcolor="white"];
"2064733956"[label="{{Stmt\ -1:\ return\ bb_strtoll(ar}|True}", color="black", fontname="Calibri", style="filled", fillcolor="white"];
"2064733956" -> "2012303295"[label="1", color="black", style="setlinewidth(1)"];
"233490244"[label="{{Function\ -1:\ bb_strtol}|True}", color="blue", fontname="Calibri", style="filled", fillcolor="white"];
"2064733956" -> "233490244"[label="1", color="black", style="setlinewidth(1)"];
"233490244" -> "2064733956"[label="1", color="black", style="setlinewidth(1)"];
"970946365" -> "1321696488"[label="1", color="black", style="setlinewidth(1)"];
"970946365" -> "1512227727"[label="1", color="black", style="setlinewidth(1)"];
"1512227727" -> "970946365"[label="1", color="black", style="setlinewidth(1)"];
"428411557"[label="{{Decl\ -1:\ BUG_bb_strtou32_unimplemented}|True}", color="blue", fontname="Calibri", style="filled", fillcolor="white"];
"1266706273"[label="{{Decl\ -1:\ bb_strtou}|True}", color="blue", fontname="Calibri", style="filled", fillcolor="white"];
"1995692709"[label="{{Stmt\ -1:\ return\ bb_strtoul(ar}|True}", color="black", fontname="Calibri", style="filled", fillcolor="white"];
"1995692709" -> "1512227727"[label="1", color="black", style="setlinewidth(1)"];
"1502907517"[label="{{Function\ -1:\ bb_strtou32}|True}", color="blue", fontname="Calibri", style="filled", fillcolor="white"];
"1995692709" -> "1502907517"[label="1", color="black", style="setlinewidth(1)"];
"2003313507"[label="{{Stmt\ -1:\ return\ BUG_bb_strtou}|True}", color="black", fontname="Calibri", style="filled", fillcolor="white"];
"2003313507" -> "428411557"[label="1", color="black", style="setlinewidth(1)"];
"2003313507" -> "1502907517"[label="1", color="black", style="setlinewidth(1)"];
"172333204"[label="{{Stmt\ -1:\ return\ bb_strtou(arg}|True}", color="black", fontname="Calibri", style="filled", fillcolor="white"];
"172333204" -> "1266706273"[label="1", color="black", style="setlinewidth(1)"];
"172333204" -> "1502907517"[label="1", color="black", style="setlinewidth(1)"];
"1092023128"[label="{{Expr\ -1:\ (sizeof(uint32_t\ )\ =}|True}", color="black", fontname="Calibri", style="filled", fillcolor="white"];
"1092023128" -> "2003313507"[label="1", color="black", style="setlinewidth(1)"];
"1092023128" -> "1995692709"[label="1", color="black", style="setlinewidth(1)"];
"801324603"[label="{{Expr\ -1:\ (sizeof(uint32_t\ )\ =}|True}", color="black", fontname="Calibri", style="filled", fillcolor="white"];
"801324603" -> "1092023128"[label="1", color="black", style="setlinewidth(1)"];
"801324603" -> "172333204"[label="1", color="black", style="setlinewidth(1)"];
"1502907517" -> "801324603"[label="1", color="black", style="setlinewidth(1)"];
"334397873"[label="{{Stmt\ -1:\ return\ (b\ \<=\ ('z'\ -\ }|True}", color="black", fontname="Calibri", style="filled", fillcolor="white"];
"1346663145"[label="{{Function\ -1:\ bb_ascii_isalnum}|True}", color="blue", fontname="Calibri", style="filled", fillcolor="white"];
"334397873" -> "1346663145"[label="1", color="black", style="setlinewidth(1)"];
"367797047"[label="{{Stmt\ -1:\ return\ (b\ \<=\ 9);}|True}", color="black", fontname="Calibri", style="filled", fillcolor="white"];
"367797047" -> "1346663145"[label="1", color="black", style="setlinewidth(1)"];
"311373110"[label="{{Stmt\ -1:\ (b\ =\ ((a\ \|\ 0x20)\ -\ '}|True}", color="black", fontname="Calibri", style="filled", fillcolor="white"];
"311373110" -> "334397873"[label="1", color="black", style="setlinewidth(1)"];
"1189194514"[label="{{Expr\ -1:\ (b\ \<=\ 9)}|True}", color="black", fontname="Calibri", style="filled", fillcolor="white"];
"1189194514" -> "311373110"[label="1", color="black", style="setlinewidth(1)"];
"1189194514" -> "367797047"[label="1", color="black", style="setlinewidth(1)"];
"457295973"[label="{{Stmt\ -1:\ unsigned\ char\ b\ =\ \ (}|True}", color="black", fontname="Calibri", style="filled", fillcolor="white"];
"457295973" -> "1189194514"[label="1", color="black", style="setlinewidth(1)"];
"1346663145" -> "457295973"[label="1", color="black", style="setlinewidth(1)"];
"2120407957"[label="{{Stmt\ -1:\ return\ (b\ \<=\ ('f'\ -\ }|True}", color="black", fontname="Calibri", style="filled", fillcolor="white"];
"667487505"[label="{{Function\ -1:\ bb_ascii_isxdigit}|True}", color="blue", fontname="Calibri", style="filled", fillcolor="white"];
"2120407957" -> "667487505"[label="1", color="black", style="setlinewidth(1)"];
"1951007364"[label="{{Stmt\ -1:\ return\ (b\ \<=\ 9);}|True}", color="black", fontname="Calibri", style="filled", fillcolor="white"];
"1951007364" -> "667487505"[label="1", color="black", style="setlinewidth(1)"];
"2021968360"[label="{{Stmt\ -1:\ (b\ =\ ((a\ \|\ 0x20)\ -\ '}|True}", color="black", fontname="Calibri", style="filled", fillcolor="white"];
"2021968360" -> "2120407957"[label="1", color="black", style="setlinewidth(1)"];
"176311127"[label="{{Expr\ -1:\ (b\ \<=\ 9)}|True}", color="black", fontname="Calibri", style="filled", fillcolor="white"];
"176311127" -> "2021968360"[label="1", color="black", style="setlinewidth(1)"];
"176311127" -> "1951007364"[label="1", color="black", style="setlinewidth(1)"];
"916588387"[label="{{Stmt\ -1:\ unsigned\ char\ b\ =\ \ (}|True}", color="black", fontname="Calibri", style="filled", fillcolor="white"];
"916588387" -> "176311127"[label="1", color="black", style="setlinewidth(1)"];
"667487505" -> "916588387"[label="1", color="black", style="setlinewidth(1)"];
"1810160604"[label="{{Stmt\ -1:\ (a\ -=\ ('a'\ -\ 'A'));}|True}", color="black", fontname="Calibri", style="filled", fillcolor="white"];
"1977070557"[label="{{Stmt\ -1:\ return\ a;}|True}", color="black", fontname="Calibri", style="filled", fillcolor="white"];
"1810160604" -> "1977070557"[label="1", color="black", style="setlinewidth(1)"];
"1941977822"[label="{{Function\ -1:\ bb_ascii_toupper}|True}", color="blue", fontname="Calibri", style="filled", fillcolor="white"];
"1977070557" -> "1941977822"[label="1", color="black", style="setlinewidth(1)"];
"308778309"[label="{{Expr\ -1:\ (b\ \<=\ ('z'\ -\ 'a'))}|True}", color="black", fontname="Calibri", style="filled", fillcolor="white"];
"308778309" -> "1977070557"[label="1", color="black", style="setlinewidth(1)"];
"308778309" -> "1810160604"[label="1", color="black", style="setlinewidth(1)"];
"168257575"[label="{{Stmt\ -1:\ unsigned\ char\ b\ =\ \ (}|True}", color="black", fontname="Calibri", style="filled", fillcolor="white"];
"168257575" -> "308778309"[label="1", color="black", style="setlinewidth(1)"];
"1941977822" -> "168257575"[label="1", color="black", style="setlinewidth(1)"];
"1605529912"[label="{{Stmt\ -1:\ (a\ +=\ ('a'\ -\ 'A'));}|True}", color="black", fontname="Calibri", style="filled", fillcolor="white"];
"286682713"[label="{{Stmt\ -1:\ return\ a;}|True}", color="black", fontname="Calibri", style="filled", fillcolor="white"];
"1605529912" -> "286682713"[label="1", color="black", style="setlinewidth(1)"];
"151950957"[label="{{Function\ -1:\ bb_ascii_tolower}|True}", color="blue", fontname="Calibri", style="filled", fillcolor="white"];
"286682713" -> "151950957"[label="1", color="black", style="setlinewidth(1)"];
"1039062568"[label="{{Expr\ -1:\ (b\ \<=\ ('Z'\ -\ 'A'))}|True}", color="black", fontname="Calibri", style="filled", fillcolor="white"];
"1039062568" -> "286682713"[label="1", color="black", style="setlinewidth(1)"];
"1039062568" -> "1605529912"[label="1", color="black", style="setlinewidth(1)"];
"1706158324"[label="{{Stmt\ -1:\ unsigned\ char\ b\ =\ \ (}|True}", color="black", fontname="Calibri", style="filled", fillcolor="white"];
"1706158324" -> "1039062568"[label="1", color="black", style="setlinewidth(1)"];
"151950957" -> "1706158324"[label="1", color="black", style="setlinewidth(1)"];
"538886250"[label="{{Decl\ -1:\ bb_perror_nomsg_and_die}|True}", color="blue", fontname="Calibri", style="filled", fillcolor="white"];
"869930660"[label="{{Stmt\ 40:\ break;}|True}", color="black", fontname="Calibri", style="filled", fillcolor="white"];
"430551529"[label="{{Decl\ -1:\ putchar}|True}", color="blue", fontname="Calibri", style="filled", fillcolor="white"];
"869930660" -> "430551529"[label="1", color="black", style="setlinewidth(1)"];
"589688937"[label="{{Decl\ -1:\ fputs}|True}", color="blue", fontname="Calibri", style="filled", fillcolor="white"];
"869930660" -> "589688937"[label="1", color="black", style="setlinewidth(1)"];
"905771712"[label="{{Expr\ -1:\ (putchar('\n')\ !=\ (-}|True}", color="black", fontname="Calibri", style="filled", fillcolor="white"];
"869930660" -> "905771712"[label="1", color="black", style="setlinewidth(1)"];
"855933844"[label="{{Stmt\ -1:\ putchar('\ ');}|True}", color="black", fontname="Calibri", style="filled", fillcolor="white"];
"855933844" -> "430551529"[label="1", color="black", style="setlinewidth(1)"];
"855933844" -> "589688937"[label="1", color="black", style="setlinewidth(1)"];
"1956567615"[label="{{Expr\ 37:\ 1}|True}", color="black", fontname="Calibri", style="filled", fillcolor="white"];
"855933844" -> "1956567615"[label="1", color="black", style="setlinewidth(1)"];
"420842023"[label="{{Stmt\ -1:\ bb_perror_nomsg_and_}|True}", color="black", fontname="Calibri", style="filled", fillcolor="white"];
"420842023" -> "538886250"[label="1", color="black", style="setlinewidth(1)"];
"420842023" -> "430551529"[label="1", color="black", style="setlinewidth(1)"];
"420842023" -> "589688937"[label="1", color="black", style="setlinewidth(1)"];
"1526413029"[label="{{Function\ -1:\ yes_main}|True}", color="blue", fontname="Calibri", style="filled", fillcolor="white"];
"420842023" -> "1526413029"[label="1", color="black", style="setlinewidth(1)"];
"1793085748"[label="{{Expr\ -1:\ (!\ (*++pp))}|True}", color="black", fontname="Calibri", style="filled", fillcolor="white"];
"1793085748" -> "855933844"[label="1", color="black", style="setlinewidth(1)"];
"1793085748" -> "869930660"[label="1", color="black", style="setlinewidth(1)"];
"1504524452"[label="{{Stmt\ -1:\ (pp\ =\ argv);}|True}", color="black", fontname="Calibri", style="filled", fillcolor="white"];
"905771712" -> "1504524452"[label="1", color="black", style="setlinewidth(1)"];
"905771712" -> "420842023"[label="1", color="black", style="setlinewidth(1)"];
"2096571836"[label="{{Stmt\ -1:\ fputs((*pp)\ ,\ stdout}|True}", color="black", fontname="Calibri", style="filled", fillcolor="white"];
"2096571836" -> "589688937"[label="1", color="black", style="setlinewidth(1)"];
"2096571836" -> "1793085748"[label="1", color="black", style="setlinewidth(1)"];
"1956567615" -> "2096571836"[label="1", color="black", style="setlinewidth(1)"];
"1956567615" -> "430551529"[label="1", color="black", style="setlinewidth(1)"];
"1956567615" -> "589688937"[label="1", color="black", style="setlinewidth(1)"];
"1956567615" -> "905771712"[label="1", color="black", style="setlinewidth(1)"];
"154742261"[label="{{Stmt\ -1:\ ++argv;}|True}", color="black", fontname="Calibri", style="filled", fillcolor="white"];
"154742261" -> "1504524452"[label="1", color="black", style="setlinewidth(1)"];
"1504524452" -> "1956567615"[label="1", color="black", style="setlinewidth(1)"];
"770398287"[label="{{Expr\ -1:\ argv[1]}|True}", color="black", fontname="Calibri", style="filled", fillcolor="white"];
"770398287" -> "1504524452"[label="1", color="black", style="setlinewidth(1)"];
"770398287" -> "154742261"[label="1", color="black", style="setlinewidth(1)"];
"1396116712"[label="{{Stmt\ -1:\ (argv[0]\ =\ ((char\ *)}|True}", color="black", fontname="Calibri", style="filled", fillcolor="white"];
"1396116712" -> "770398287"[label="1", color="black", style="setlinewidth(1)"];
"757972478"[label="{{Stmt\ -1:\ char\ **pp;}|True}", color="black", fontname="Calibri", style="filled", fillcolor="white"];
"757972478" -> "1396116712"[label="1", color="black", style="setlinewidth(1)"];
"1526413029" -> "757972478"[label="1", color="black", style="setlinewidth(1)"];
}
