digraph "busybox-1.18.5/console-tools/dumpkmap.c" {
node [shape=record];
"1241486702"[label="{{Decl\ -1:\ xstrtoull_range_sfx}|True}", color="blue", fontname="Calibri", style="filled", fillcolor="white"];
"1833972222"[label="{{Stmt\ -1:\ return\ xstrtoull_ran}|True}", color="black", fontname="Calibri", style="filled", fillcolor="white"];
"1833972222" -> "1241486702"[label="1", color="black", style="setlinewidth(1)"];
"1111585356"[label="{{Function\ -1:\ xstrtoul_range_sfx}|True}", color="blue", fontname="Calibri", style="filled", fillcolor="white"];
"1833972222" -> "1111585356"[label="1", color="black", style="setlinewidth(1)"];
"1111585356" -> "1833972222"[label="1", color="black", style="setlinewidth(1)"];
"571025777"[label="{{Decl\ -1:\ xstrtoull_range}|True}", color="blue", fontname="Calibri", style="filled", fillcolor="white"];
"695055674"[label="{{Stmt\ -1:\ return\ xstrtoull_ran}|True}", color="black", fontname="Calibri", style="filled", fillcolor="white"];
"695055674" -> "571025777"[label="1", color="black", style="setlinewidth(1)"];
"1319330123"[label="{{Function\ -1:\ xstrtoul_range}|True}", color="blue", fontname="Calibri", style="filled", fillcolor="white"];
"695055674" -> "1319330123"[label="1", color="black", style="setlinewidth(1)"];
"1319330123" -> "695055674"[label="1", color="black", style="setlinewidth(1)"];
"1432720998"[label="{{Decl\ -1:\ xstrtoull_sfx}|True}", color="blue", fontname="Calibri", style="filled", fillcolor="white"];
"722226418"[label="{{Stmt\ -1:\ return\ xstrtoull_sfx}|True}", color="black", fontname="Calibri", style="filled", fillcolor="white"];
"722226418" -> "1432720998"[label="1", color="black", style="setlinewidth(1)"];
"1530669442"[label="{{Function\ -1:\ xstrtoul_sfx}|True}", color="blue", fontname="Calibri", style="filled", fillcolor="white"];
"722226418" -> "1530669442"[label="1", color="black", style="setlinewidth(1)"];
"1530669442" -> "722226418"[label="1", color="black", style="setlinewidth(1)"];
"1997186910"[label="{{Decl\ -1:\ xstrtoull}|True}", color="blue", fontname="Calibri", style="filled", fillcolor="white"];
"1540392765"[label="{{Stmt\ -1:\ return\ xstrtoull(str}|True}", color="black", fontname="Calibri", style="filled", fillcolor="white"];
"1540392765" -> "1997186910"[label="1", color="black", style="setlinewidth(1)"];
"1548463763"[label="{{Function\ -1:\ xstrtoul}|True}", color="blue", fontname="Calibri", style="filled", fillcolor="white"];
"1540392765" -> "1548463763"[label="1", color="black", style="setlinewidth(1)"];
"1548463763" -> "1540392765"[label="1", color="black", style="setlinewidth(1)"];
"152898470"[label="{{Decl\ -1:\ xatoull_range_sfx}|True}", color="blue", fontname="Calibri", style="filled", fillcolor="white"];
"578919864"[label="{{Stmt\ -1:\ return\ xatoull_range}|True}", color="black", fontname="Calibri", style="filled", fillcolor="white"];
"578919864" -> "152898470"[label="1", color="black", style="setlinewidth(1)"];
"1806508699"[label="{{Function\ -1:\ xatoul_range_sfx}|True}", color="blue", fontname="Calibri", style="filled", fillcolor="white"];
"578919864" -> "1806508699"[label="1", color="black", style="setlinewidth(1)"];
"1806508699" -> "578919864"[label="1", color="black", style="setlinewidth(1)"];
"590396435"[label="{{Decl\ -1:\ xatoull_range}|True}", color="blue", fontname="Calibri", style="filled", fillcolor="white"];
"1290887206"[label="{{Stmt\ -1:\ return\ xatoull_range}|True}", color="black", fontname="Calibri", style="filled", fillcolor="white"];
"1290887206" -> "590396435"[label="1", color="black", style="setlinewidth(1)"];
"343776873"[label="{{Function\ -1:\ xatoul_range}|True}", color="blue", fontname="Calibri", style="filled", fillcolor="white"];
"1290887206" -> "343776873"[label="1", color="black", style="setlinewidth(1)"];
"343776873" -> "1290887206"[label="1", color="black", style="setlinewidth(1)"];
"716329727"[label="{{Decl\ -1:\ xatoull_sfx}|True}", color="blue", fontname="Calibri", style="filled", fillcolor="white"];
"992968096"[label="{{Stmt\ -1:\ return\ xatoull_sfx(s}|True}", color="black", fontname="Calibri", style="filled", fillcolor="white"];
"992968096" -> "716329727"[label="1", color="black", style="setlinewidth(1)"];
"657302165"[label="{{Function\ -1:\ xatoul_sfx}|True}", color="blue", fontname="Calibri", style="filled", fillcolor="white"];
"992968096" -> "657302165"[label="1", color="black", style="setlinewidth(1)"];
"657302165" -> "992968096"[label="1", color="black", style="setlinewidth(1)"];
"314377535"[label="{{Decl\ -1:\ xatoull}|True}", color="blue", fontname="Calibri", style="filled", fillcolor="white"];
"1726271323"[label="{{Stmt\ -1:\ return\ xatoull(str);}|True}", color="black", fontname="Calibri", style="filled", fillcolor="white"];
"1726271323" -> "314377535"[label="1", color="black", style="setlinewidth(1)"];
"1553111882"[label="{{Function\ -1:\ xatoul}|True}", color="blue", fontname="Calibri", style="filled", fillcolor="white"];
"1726271323" -> "1553111882"[label="1", color="black", style="setlinewidth(1)"];
"1553111882" -> "1726271323"[label="1", color="black", style="setlinewidth(1)"];
"330509140"[label="{{Decl\ -1:\ xstrtoll_range_sfx}|True}", color="blue", fontname="Calibri", style="filled", fillcolor="white"];
"1088735006"[label="{{Stmt\ -1:\ return\ xstrtoll_rang}|True}", color="black", fontname="Calibri", style="filled", fillcolor="white"];
"1088735006" -> "330509140"[label="1", color="black", style="setlinewidth(1)"];
"1873911875"[label="{{Function\ -1:\ xstrtol_range_sfx}|True}", color="blue", fontname="Calibri", style="filled", fillcolor="white"];
"1088735006" -> "1873911875"[label="1", color="black", style="setlinewidth(1)"];
"1873911875" -> "1088735006"[label="1", color="black", style="setlinewidth(1)"];
"791981879"[label="{{Decl\ -1:\ xstrtoll_range}|True}", color="blue", fontname="Calibri", style="filled", fillcolor="white"];
"1811173541"[label="{{Stmt\ -1:\ return\ xstrtoll_rang}|True}", color="black", fontname="Calibri", style="filled", fillcolor="white"];
"1811173541" -> "791981879"[label="1", color="black", style="setlinewidth(1)"];
"1183201131"[label="{{Function\ -1:\ xstrtol_range}|True}", color="blue", fontname="Calibri", style="filled", fillcolor="white"];
"1811173541" -> "1183201131"[label="1", color="black", style="setlinewidth(1)"];
"1183201131" -> "1811173541"[label="1", color="black", style="setlinewidth(1)"];
"182810973"[label="{{Decl\ -1:\ xstrtoll}|True}", color="blue", fontname="Calibri", style="filled", fillcolor="white"];
"199711145"[label="{{Stmt\ -1:\ return\ xstrtoll(str\ }|True}", color="black", fontname="Calibri", style="filled", fillcolor="white"];
"199711145" -> "182810973"[label="1", color="black", style="setlinewidth(1)"];
"787318316"[label="{{Function\ -1:\ xstrtol}|True}", color="blue", fontname="Calibri", style="filled", fillcolor="white"];
"199711145" -> "787318316"[label="1", color="black", style="setlinewidth(1)"];
"787318316" -> "199711145"[label="1", color="black", style="setlinewidth(1)"];
"346234750"[label="{{Decl\ -1:\ xatoll_range_sfx}|True}", color="blue", fontname="Calibri", style="filled", fillcolor="white"];
"806714520"[label="{{Stmt\ -1:\ return\ xatoll_range_}|True}", color="black", fontname="Calibri", style="filled", fillcolor="white"];
"806714520" -> "346234750"[label="1", color="black", style="setlinewidth(1)"];
"8621074"[label="{{Function\ -1:\ xatol_range_sfx}|True}", color="blue", fontname="Calibri", style="filled", fillcolor="white"];
"806714520" -> "8621074"[label="1", color="black", style="setlinewidth(1)"];
"8621074" -> "806714520"[label="1", color="black", style="setlinewidth(1)"];
"1042650153"[label="{{Decl\ -1:\ xatoll_range}|True}", color="blue", fontname="Calibri", style="filled", fillcolor="white"];
"1222525678"[label="{{Stmt\ -1:\ return\ xatoll_range(}|True}", color="black", fontname="Calibri", style="filled", fillcolor="white"];
"1222525678" -> "1042650153"[label="1", color="black", style="setlinewidth(1)"];
"699372770"[label="{{Function\ -1:\ xatol_range}|True}", color="blue", fontname="Calibri", style="filled", fillcolor="white"];
"1222525678" -> "699372770"[label="1", color="black", style="setlinewidth(1)"];
"699372770" -> "1222525678"[label="1", color="black", style="setlinewidth(1)"];
"1292030534"[label="{{Decl\ -1:\ xatoll_sfx}|True}", color="blue", fontname="Calibri", style="filled", fillcolor="white"];
"709055841"[label="{{Stmt\ -1:\ return\ xatoll_sfx(st}|True}", color="black", fontname="Calibri", style="filled", fillcolor="white"];
"709055841" -> "1292030534"[label="1", color="black", style="setlinewidth(1)"];
"639303681"[label="{{Function\ -1:\ xatol_sfx}|True}", color="blue", fontname="Calibri", style="filled", fillcolor="white"];
"709055841" -> "639303681"[label="1", color="black", style="setlinewidth(1)"];
"639303681" -> "709055841"[label="1", color="black", style="setlinewidth(1)"];
"490847504"[label="{{Decl\ -1:\ xatoll}|True}", color="blue", fontname="Calibri", style="filled", fillcolor="white"];
"81026782"[label="{{Stmt\ -1:\ return\ xatoll(str);}|True}", color="black", fontname="Calibri", style="filled", fillcolor="white"];
"81026782" -> "490847504"[label="1", color="black", style="setlinewidth(1)"];
"705998895"[label="{{Function\ -1:\ xatol}|True}", color="blue", fontname="Calibri", style="filled", fillcolor="white"];
"81026782" -> "705998895"[label="1", color="black", style="setlinewidth(1)"];
"705998895" -> "81026782"[label="1", color="black", style="setlinewidth(1)"];
"1726271323" -> "314377535"[label="1", color="black", style="setlinewidth(1)"];
"1726271323" -> "1553111882"[label="1", color="black", style="setlinewidth(1)"];
"1553111882" -> "1726271323"[label="1", color="black", style="setlinewidth(1)"];
"967049443"[label="{{Decl\ -1:\ BUG_xatou32_unimplemented}|True}", color="blue", fontname="Calibri", style="filled", fillcolor="white"];
"1041289693"[label="{{Decl\ -1:\ xatou}|True}", color="blue", fontname="Calibri", style="filled", fillcolor="white"];
"177724154"[label="{{Stmt\ -1:\ return\ xatoul(numstr}|True}", color="black", fontname="Calibri", style="filled", fillcolor="white"];
"177724154" -> "1553111882"[label="1", color="black", style="setlinewidth(1)"];
"491593426"[label="{{Function\ -1:\ xatou32}|True}", color="blue", fontname="Calibri", style="filled", fillcolor="white"];
"177724154" -> "491593426"[label="1", color="black", style="setlinewidth(1)"];
"1324942068"[label="{{Stmt\ -1:\ return\ BUG_xatou32_u}|True}", color="black", fontname="Calibri", style="filled", fillcolor="white"];
"1324942068" -> "967049443"[label="1", color="black", style="setlinewidth(1)"];
"1324942068" -> "491593426"[label="1", color="black", style="setlinewidth(1)"];
"896105405"[label="{{Stmt\ -1:\ return\ xatou(numstr)}|True}", color="black", fontname="Calibri", style="filled", fillcolor="white"];
"896105405" -> "1041289693"[label="1", color="black", style="setlinewidth(1)"];
"896105405" -> "491593426"[label="1", color="black", style="setlinewidth(1)"];
"1862430355"[label="{{Expr\ -1:\ (((92233720368547758}|True}", color="black", fontname="Calibri", style="filled", fillcolor="white"];
"1862430355" -> "1324942068"[label="1", color="black", style="setlinewidth(1)"];
"1862430355" -> "177724154"[label="1", color="black", style="setlinewidth(1)"];
"6139267"[label="{{Expr\ -1:\ (((2147483647\ *\ 2U)\ }|True}", color="black", fontname="Calibri", style="filled", fillcolor="white"];
"6139267" -> "1862430355"[label="1", color="black", style="setlinewidth(1)"];
"6139267" -> "896105405"[label="1", color="black", style="setlinewidth(1)"];
"491593426" -> "6139267"[label="1", color="black", style="setlinewidth(1)"];
"643228165"[label="{{Decl\ -1:\ bb_strtoull}|True}", color="blue", fontname="Calibri", style="filled", fillcolor="white"];
"766829840"[label="{{Stmt\ -1:\ return\ bb_strtoull(a}|True}", color="black", fontname="Calibri", style="filled", fillcolor="white"];
"766829840" -> "643228165"[label="1", color="black", style="setlinewidth(1)"];
"1557427465"[label="{{Function\ -1:\ bb_strtoul}|True}", color="blue", fontname="Calibri", style="filled", fillcolor="white"];
"766829840" -> "1557427465"[label="1", color="black", style="setlinewidth(1)"];
"1557427465" -> "766829840"[label="1", color="black", style="setlinewidth(1)"];
"2026070309"[label="{{Decl\ -1:\ bb_strtoll}|True}", color="blue", fontname="Calibri", style="filled", fillcolor="white"];
"793711544"[label="{{Stmt\ -1:\ return\ bb_strtoll(ar}|True}", color="black", fontname="Calibri", style="filled", fillcolor="white"];
"793711544" -> "2026070309"[label="1", color="black", style="setlinewidth(1)"];
"1548800708"[label="{{Function\ -1:\ bb_strtol}|True}", color="blue", fontname="Calibri", style="filled", fillcolor="white"];
"793711544" -> "1548800708"[label="1", color="black", style="setlinewidth(1)"];
"1548800708" -> "793711544"[label="1", color="black", style="setlinewidth(1)"];
"766829840" -> "643228165"[label="1", color="black", style="setlinewidth(1)"];
"766829840" -> "1557427465"[label="1", color="black", style="setlinewidth(1)"];
"1557427465" -> "766829840"[label="1", color="black", style="setlinewidth(1)"];
"1148531451"[label="{{Decl\ -1:\ BUG_bb_strtou32_unimplemented}|True}", color="blue", fontname="Calibri", style="filled", fillcolor="white"];
"110990538"[label="{{Decl\ -1:\ bb_strtou}|True}", color="blue", fontname="Calibri", style="filled", fillcolor="white"];
"1010374559"[label="{{Stmt\ -1:\ return\ bb_strtoul(ar}|True}", color="black", fontname="Calibri", style="filled", fillcolor="white"];
"1010374559" -> "1557427465"[label="1", color="black", style="setlinewidth(1)"];
"576036010"[label="{{Function\ -1:\ bb_strtou32}|True}", color="blue", fontname="Calibri", style="filled", fillcolor="white"];
"1010374559" -> "576036010"[label="1", color="black", style="setlinewidth(1)"];
"900655886"[label="{{Stmt\ -1:\ return\ BUG_bb_strtou}|True}", color="black", fontname="Calibri", style="filled", fillcolor="white"];
"900655886" -> "1148531451"[label="1", color="black", style="setlinewidth(1)"];
"900655886" -> "576036010"[label="1", color="black", style="setlinewidth(1)"];
"227648036"[label="{{Stmt\ -1:\ return\ bb_strtou(arg}|True}", color="black", fontname="Calibri", style="filled", fillcolor="white"];
"227648036" -> "110990538"[label="1", color="black", style="setlinewidth(1)"];
"227648036" -> "576036010"[label="1", color="black", style="setlinewidth(1)"];
"56994749"[label="{{Expr\ -1:\ (sizeof(uint32_t\ )\ =}|True}", color="black", fontname="Calibri", style="filled", fillcolor="white"];
"56994749" -> "900655886"[label="1", color="black", style="setlinewidth(1)"];
"56994749" -> "1010374559"[label="1", color="black", style="setlinewidth(1)"];
"632124777"[label="{{Expr\ -1:\ (sizeof(uint32_t\ )\ =}|True}", color="black", fontname="Calibri", style="filled", fillcolor="white"];
"632124777" -> "56994749"[label="1", color="black", style="setlinewidth(1)"];
"632124777" -> "227648036"[label="1", color="black", style="setlinewidth(1)"];
"576036010" -> "632124777"[label="1", color="black", style="setlinewidth(1)"];
"43042762"[label="{{Stmt\ -1:\ return\ (b\ \<=\ ('z'\ -\ }|True}", color="black", fontname="Calibri", style="filled", fillcolor="white"];
"288645036"[label="{{Function\ -1:\ bb_ascii_isalnum}|True}", color="blue", fontname="Calibri", style="filled", fillcolor="white"];
"43042762" -> "288645036"[label="1", color="black", style="setlinewidth(1)"];
"2098313236"[label="{{Stmt\ -1:\ return\ (b\ \<=\ 9);}|True}", color="black", fontname="Calibri", style="filled", fillcolor="white"];
"2098313236" -> "288645036"[label="1", color="black", style="setlinewidth(1)"];
"1752394366"[label="{{Stmt\ -1:\ (b\ =\ ((a\ \|\ 0x20)\ -\ '}|True}", color="black", fontname="Calibri", style="filled", fillcolor="white"];
"1752394366" -> "43042762"[label="1", color="black", style="setlinewidth(1)"];
"1580732678"[label="{{Expr\ -1:\ (b\ \<=\ 9)}|True}", color="black", fontname="Calibri", style="filled", fillcolor="white"];
"1580732678" -> "1752394366"[label="1", color="black", style="setlinewidth(1)"];
"1580732678" -> "2098313236"[label="1", color="black", style="setlinewidth(1)"];
"1109016527"[label="{{Stmt\ -1:\ unsigned\ char\ b\ =\ \ (}|True}", color="black", fontname="Calibri", style="filled", fillcolor="white"];
"1109016527" -> "1580732678"[label="1", color="black", style="setlinewidth(1)"];
"288645036" -> "1109016527"[label="1", color="black", style="setlinewidth(1)"];
"226056211"[label="{{Stmt\ -1:\ return\ (b\ \<=\ ('f'\ -\ }|True}", color="black", fontname="Calibri", style="filled", fillcolor="white"];
"1853432597"[label="{{Function\ -1:\ bb_ascii_isxdigit}|True}", color="blue", fontname="Calibri", style="filled", fillcolor="white"];
"226056211" -> "1853432597"[label="1", color="black", style="setlinewidth(1)"];
"1932559917"[label="{{Stmt\ -1:\ return\ (b\ \<=\ 9);}|True}", color="black", fontname="Calibri", style="filled", fillcolor="white"];
"1932559917" -> "1853432597"[label="1", color="black", style="setlinewidth(1)"];
"2054286762"[label="{{Stmt\ -1:\ (b\ =\ ((a\ \|\ 0x20)\ -\ '}|True}", color="black", fontname="Calibri", style="filled", fillcolor="white"];
"2054286762" -> "226056211"[label="1", color="black", style="setlinewidth(1)"];
"1419350168"[label="{{Expr\ -1:\ (b\ \<=\ 9)}|True}", color="black", fontname="Calibri", style="filled", fillcolor="white"];
"1419350168" -> "2054286762"[label="1", color="black", style="setlinewidth(1)"];
"1419350168" -> "1932559917"[label="1", color="black", style="setlinewidth(1)"];
"1647043513"[label="{{Stmt\ -1:\ unsigned\ char\ b\ =\ \ (}|True}", color="black", fontname="Calibri", style="filled", fillcolor="white"];
"1647043513" -> "1419350168"[label="1", color="black", style="setlinewidth(1)"];
"1853432597" -> "1647043513"[label="1", color="black", style="setlinewidth(1)"];
"152032604"[label="{{Stmt\ -1:\ (a\ -=\ ('a'\ -\ 'A'));}|True}", color="black", fontname="Calibri", style="filled", fillcolor="white"];
"1437124522"[label="{{Stmt\ -1:\ return\ a;}|True}", color="black", fontname="Calibri", style="filled", fillcolor="white"];
"152032604" -> "1437124522"[label="1", color="black", style="setlinewidth(1)"];
"1084480901"[label="{{Function\ -1:\ bb_ascii_toupper}|True}", color="blue", fontname="Calibri", style="filled", fillcolor="white"];
"1437124522" -> "1084480901"[label="1", color="black", style="setlinewidth(1)"];
"1181351999"[label="{{Expr\ -1:\ (b\ \<=\ ('z'\ -\ 'a'))}|True}", color="black", fontname="Calibri", style="filled", fillcolor="white"];
"1181351999" -> "1437124522"[label="1", color="black", style="setlinewidth(1)"];
"1181351999" -> "152032604"[label="1", color="black", style="setlinewidth(1)"];
"1750425903"[label="{{Stmt\ -1:\ unsigned\ char\ b\ =\ \ (}|True}", color="black", fontname="Calibri", style="filled", fillcolor="white"];
"1750425903" -> "1181351999"[label="1", color="black", style="setlinewidth(1)"];
"1084480901" -> "1750425903"[label="1", color="black", style="setlinewidth(1)"];
"1410591079"[label="{{Stmt\ -1:\ (a\ +=\ ('a'\ -\ 'A'));}|True}", color="black", fontname="Calibri", style="filled", fillcolor="white"];
"992806451"[label="{{Stmt\ -1:\ return\ a;}|True}", color="black", fontname="Calibri", style="filled", fillcolor="white"];
"1410591079" -> "992806451"[label="1", color="black", style="setlinewidth(1)"];
"1954607518"[label="{{Function\ -1:\ bb_ascii_tolower}|True}", color="blue", fontname="Calibri", style="filled", fillcolor="white"];
"992806451" -> "1954607518"[label="1", color="black", style="setlinewidth(1)"];
"680365130"[label="{{Expr\ -1:\ (b\ \<=\ ('Z'\ -\ 'A'))}|True}", color="black", fontname="Calibri", style="filled", fillcolor="white"];
"680365130" -> "992806451"[label="1", color="black", style="setlinewidth(1)"];
"680365130" -> "1410591079"[label="1", color="black", style="setlinewidth(1)"];
"1440402325"[label="{{Stmt\ -1:\ unsigned\ char\ b\ =\ \ (}|True}", color="black", fontname="Calibri", style="filled", fillcolor="white"];
"1440402325" -> "680365130"[label="1", color="black", style="setlinewidth(1)"];
"1954607518" -> "1440402325"[label="1", color="black", style="setlinewidth(1)"];
"186687285"[label="{{Stmt\ -1:\ (ke.kb_table\ =\ i);}|True}", color="black", fontname="Calibri", style="filled", fillcolor="white"];
"277789309"[label="{{Decl\ -1:\ ioctl_or_perror}|True}", color="blue", fontname="Calibri", style="filled", fillcolor="white"];
"186687285" -> "277789309"[label="1", color="black", style="setlinewidth(1)"];
"1914923754"[label="{{Stmt\ -1:\ (ke.kb_index\ =\ j);}|True}", color="black", fontname="Calibri", style="filled", fillcolor="white"];
"1914923754" -> "186687285"[label="1", color="black", style="setlinewidth(1)"];
"2133991908"[label="{{Decl\ -1:\ free}|True}", color="blue", fontname="Calibri", style="filled", fillcolor="white"];
"984387889"[label="{{Expr\ -1:\ (j\ \<\ 128)}|True}", color="black", fontname="Calibri", style="filled", fillcolor="white"];
"1254813516"[label="{{Decl\ -1:\ write}|True}", color="blue", fontname="Calibri", style="filled", fillcolor="white"];
"984387889" -> "1254813516"[label="1", color="black", style="setlinewidth(1)"];
"984387889" -> "277789309"[label="1", color="black", style="setlinewidth(1)"];
"1764109562"[label="{{Expr\ -1:\ i++}|True}", color="black", fontname="Calibri", style="filled", fillcolor="white"];
"984387889" -> "1764109562"[label="1", color="black", style="setlinewidth(1)"];
"984387889" -> "1914923754"[label="1", color="black", style="setlinewidth(1)"];
"368573490"[label="{{Stmt\ -1:\ free(\l#if\ (!definedE}|(!def(CONFIG_FEATURE_BUFFERS_GO_ON_STACK)&!def(CONFIG_FEATURE_BUFFERS_GO_IN_BSS))}", color="black", fontname="Calibri", style="filled", fillcolor="#CD5200"];
"368573490" -> "2133991908"[label="(!definedEx(CONFIG_FEATURE_BUFFERS_GO_ON_STACK) && !definedEx(CONFIG_FEATURE_BUFFERS_GO_IN_BSS))", color="red", style="setlinewidth(1)"];
"1305032935"[label="{{Decl\ -1:\ close}|(!def(CONFIG_FEATURE_BUFFERS_GO_ON_STACK)&!def(CONFIG_FEATURE_BUFFERS_GO_IN_BSS))}", color="blue", fontname="Calibri", style="filled", fillcolor="#CD5200"];
"368573490" -> "1305032935"[label="(!definedEx(CONFIG_FEATURE_BUFFERS_GO_ON_STACK) && !definedEx(CONFIG_FEATURE_BUFFERS_GO_IN_BSS))", color="red", style="setlinewidth(1)"];
"824384054"[label="{{Stmt\ -1:\ return\ 0;}|(!def(CONFIG_FEATURE_BUFFERS_GO_ON_STACK)&!def(CONFIG_FEATURE_BUFFERS_GO_IN_BSS))}", color="black", fontname="Calibri", style="filled", fillcolor="#CD5200"];
"368573490" -> "824384054"[label="(!definedEx(CONFIG_FEATURE_BUFFERS_GO_ON_STACK) && !definedEx(CONFIG_FEATURE_BUFFERS_GO_IN_BSS))", color="red", style="setlinewidth(1)"];
"770853660"[label="{{Stmt\ -1:\ ((void\ )\ 0);}|(def(CONFIG_FEATURE_BUFFERS_GO_ON_STACK)\|def(CONFIG_FEATURE_BUFFERS_GO_IN_BSS))}", color="black", fontname="Calibri", style="filled", fillcolor="#CD5200"];
"770853660" -> "1305032935"[label="(definedEx(CONFIG_FEATURE_BUFFERS_GO_ON_STACK) || definedEx(CONFIG_FEATURE_BUFFERS_GO_IN_BSS))", color="red", style="setlinewidth(1)"];
"770853660" -> "824384054"[label="(definedEx(CONFIG_FEATURE_BUFFERS_GO_ON_STACK) || definedEx(CONFIG_FEATURE_BUFFERS_GO_IN_BSS))", color="red", style="setlinewidth(1)"];
"755847534"[label="{{Expr\ -1:\ (j\ =\ 0)}|True}", color="black", fontname="Calibri", style="filled", fillcolor="white"];
"755847534" -> "984387889"[label="1", color="black", style="setlinewidth(1)"];
"490861180"[label="{{Expr\ -1:\ (i\ \<\ 256)}|True}", color="black", fontname="Calibri", style="filled", fillcolor="white"];
"1764109562" -> "490861180"[label="1", color="black", style="setlinewidth(1)"];
"2112556725"[label="{{Stmt\ -1:\ close(fd);}|True}", color="black", fontname="Calibri", style="filled", fillcolor="white"];
"2112556725" -> "1305032935"[label="1", color="black", style="setlinewidth(1)"];
"2112556725" -> "770853660"[label="(definedEx(CONFIG_FEATURE_BUFFERS_GO_ON_STACK) || definedEx(CONFIG_FEATURE_BUFFERS_GO_IN_BSS))", color="red", style="setlinewidth(1)"];
"2112556725" -> "368573490"[label="(!definedEx(CONFIG_FEATURE_BUFFERS_GO_ON_STACK) && !definedEx(CONFIG_FEATURE_BUFFERS_GO_IN_BSS))", color="red", style="setlinewidth(1)"];
"325364397"[label="{{Function\ -1:\ dumpkmap_main}|True}", color="blue", fontname="Calibri", style="filled", fillcolor="white"];
"824384054" -> "325364397"[label="1", color="black", style="setlinewidth(1)"];
"712586950"[label="{{Expr\ -1:\ (flags[i]\ ==\ 1)}|True}", color="black", fontname="Calibri", style="filled", fillcolor="white"];
"712586950" -> "1254813516"[label="1", color="black", style="setlinewidth(1)"];
"712586950" -> "277789309"[label="1", color="black", style="setlinewidth(1)"];
"712586950" -> "1764109562"[label="1", color="black", style="setlinewidth(1)"];
"712586950" -> "755847534"[label="1", color="black", style="setlinewidth(1)"];
"1022022678"[label="{{Expr\ 397:\ 0}|!def(CONFIG_FEATURE_CLEAN_UP)}", color="black", fontname="Calibri", style="filled", fillcolor="#CD5200"];
"1022022678" -> "824384054"[label="!definedEx(CONFIG_FEATURE_CLEAN_UP)", color="red", style="setlinewidth(1)"];
"1022022678" -> "2112556725"[label="!definedEx(CONFIG_FEATURE_CLEAN_UP)", color="red", style="setlinewidth(1)"];
"50181188"[label="{{Expr\ 393:\ 1}|def(CONFIG_FEATURE_CLEAN_UP)}", color="black", fontname="Calibri", style="filled", fillcolor="#CD5200"];
"50181188" -> "824384054"[label="definedEx(CONFIG_FEATURE_CLEAN_UP)", color="red", style="setlinewidth(1)"];
"50181188" -> "2112556725"[label="definedEx(CONFIG_FEATURE_CLEAN_UP)", color="red", style="setlinewidth(1)"];
"490861180" -> "50181188"[label="definedEx(CONFIG_FEATURE_CLEAN_UP)", color="red", style="setlinewidth(1)"];
"490861180" -> "1022022678"[label="!definedEx(CONFIG_FEATURE_CLEAN_UP)", color="red", style="setlinewidth(1)"];
"490861180" -> "712586950"[label="1", color="black", style="setlinewidth(1)"];
"203340270"[label="{{Expr\ -1:\ (i\ =\ 0)}|True}", color="black", fontname="Calibri", style="filled", fillcolor="white"];
"203340270" -> "490861180"[label="1", color="black", style="setlinewidth(1)"];
"1076763518"[label="{{Stmt\ -1:\ write(1\ ,\ flags\ ,\ 25}|True}", color="black", fontname="Calibri", style="filled", fillcolor="white"];
"1076763518" -> "1254813516"[label="1", color="black", style="setlinewidth(1)"];
"1076763518" -> "203340270"[label="1", color="black", style="setlinewidth(1)"];
"110682455"[label="{{Stmt\ -1:\ (flags[3]\ =\ (flags[7}|True}", color="black", fontname="Calibri", style="filled", fillcolor="white"];
"110682455" -> "1076763518"[label="1", color="black", style="setlinewidth(1)"];
"490491463"[label="{{Stmt\ -1:\ memset(flags\ ,\ 0x01\ }|True}", color="black", fontname="Calibri", style="filled", fillcolor="white"];
"1810807473"[label="{{Decl\ -1:\ memset}|True}", color="blue", fontname="Calibri", style="filled", fillcolor="white"];
"490491463" -> "1810807473"[label="1", color="black", style="setlinewidth(1)"];
"490491463" -> "110682455"[label="1", color="black", style="setlinewidth(1)"];
"1416055722"[label="{{Stmt\ -1:\ memset(flags\ ,\ 0x00\ }|True}", color="black", fontname="Calibri", style="filled", fillcolor="white"];
"1416055722" -> "1810807473"[label="1", color="black", style="setlinewidth(1)"];
"1416055722" -> "490491463"[label="1", color="black", style="setlinewidth(1)"];
"1936421699"[label="{{Decl\ -1:\ bb_show_usage}|True}", color="blue", fontname="Calibri", style="filled", fillcolor="white"];
"1742987415"[label="{{Stmt\ -1:\ write(1\ ,\ \\\"bkeymap\\\"\ }|True}", color="black", fontname="Calibri", style="filled", fillcolor="white"];
"1742987415" -> "1254813516"[label="1", color="black", style="setlinewidth(1)"];
"1742987415" -> "1416055722"[label="1", color="black", style="setlinewidth(1)"];
"1675517910"[label="{{Decl\ -1:\ get_console_fd_or_die}|True}", color="blue", fontname="Calibri", style="filled", fillcolor="white"];
"1093980314"[label="{{Stmt\ -1:\ bb_show_usage();}|True}", color="black", fontname="Calibri", style="filled", fillcolor="white"];
"1093980314" -> "1936421699"[label="1", color="black", style="setlinewidth(1)"];
"1445422777"[label="{{Stmt\ -1:\ (fd\ =\ get_console_fd}|True}", color="black", fontname="Calibri", style="filled", fillcolor="white"];
"1093980314" -> "1445422777"[label="1", color="black", style="setlinewidth(1)"];
"1445422777" -> "1675517910"[label="1", color="black", style="setlinewidth(1)"];
"1445422777" -> "1742987415"[label="1", color="black", style="setlinewidth(1)"];
"308335092"[label="{{Decl\ -1:\ xmalloc}|True}", color="blue", fontname="Calibri", style="filled", fillcolor="white"];
"624472068"[label="{{Expr\ -1:\ argv[1]}|True}", color="black", fontname="Calibri", style="filled", fillcolor="white"];
"624472068" -> "1445422777"[label="1", color="black", style="setlinewidth(1)"];
"624472068" -> "1093980314"[label="1", color="black", style="setlinewidth(1)"];
"1344216918"[label="{{Stmt\ -1:\ static\ char\ \l#if\ (!d}|(!def(CONFIG_FEATURE_BUFFERS_GO_ON_STACK)&def(CONFIG_FEATURE_BUFFERS_GO_IN_BSS))}", color="black", fontname="Calibri", style="filled", fillcolor="#CD5200"];
"1344216918" -> "624472068"[label="(!definedEx(CONFIG_FEATURE_BUFFERS_GO_ON_STACK) && definedEx(CONFIG_FEATURE_BUFFERS_GO_IN_BSS))", color="red", style="setlinewidth(1)"];
"669502578"[label="{{Stmt\ -1:\ \l#if\ definedEx(CONFI}|(!def(CONFIG_FEATURE_BUFFERS_GO_ON_STACK)&!def(CONFIG_FEATURE_BUFFERS_GO_IN_BSS))}", color="black", fontname="Calibri", style="filled", fillcolor="#CD5200"];
"669502578" -> "308335092"[label="(!definedEx(CONFIG_FEATURE_BUFFERS_GO_ON_STACK) && !definedEx(CONFIG_FEATURE_BUFFERS_GO_IN_BSS))", color="red", style="setlinewidth(1)"];
"669502578" -> "624472068"[label="(!definedEx(CONFIG_FEATURE_BUFFERS_GO_ON_STACK) && !definedEx(CONFIG_FEATURE_BUFFERS_GO_IN_BSS))", color="red", style="setlinewidth(1)"];
"1126043408"[label="{{Stmt\ -1:\ \l#if\ definedEx(CONFI}|def(CONFIG_FEATURE_BUFFERS_GO_ON_STACK)}", color="black", fontname="Calibri", style="filled", fillcolor="#CD5200"];
"1126043408" -> "624472068"[label="definedEx(CONFIG_FEATURE_BUFFERS_GO_ON_STACK)", color="red", style="setlinewidth(1)"];
"881621080"[label="{{Stmt\ -1:\ int\ i,\ j,\ fd;}|True}", color="black", fontname="Calibri", style="filled", fillcolor="white"];
"881621080" -> "1126043408"[label="definedEx(CONFIG_FEATURE_BUFFERS_GO_ON_STACK)", color="red", style="setlinewidth(1)"];
"881621080" -> "669502578"[label="(!definedEx(CONFIG_FEATURE_BUFFERS_GO_ON_STACK) && !definedEx(CONFIG_FEATURE_BUFFERS_GO_IN_BSS))", color="red", style="setlinewidth(1)"];
"881621080" -> "1344216918"[label="(!definedEx(CONFIG_FEATURE_BUFFERS_GO_ON_STACK) && definedEx(CONFIG_FEATURE_BUFFERS_GO_IN_BSS))", color="red", style="setlinewidth(1)"];
"748917056"[label="{{Stmt\ -1:\ struct\ kbentry\ \ ke;}|True}", color="black", fontname="Calibri", style="filled", fillcolor="white"];
"748917056" -> "881621080"[label="1", color="black", style="setlinewidth(1)"];
"325364397" -> "748917056"[label="1", color="black", style="setlinewidth(1)"];
}
