digraph "busybox-1.18.5/console-tools/kbd_mode.c" {
node [shape=record];
"1486116355"[label="{{Decl\ -1:\ xstrtoull_range_sfx}|True}", color="blue", fontname="Calibri", style="filled", fillcolor="white"];
"637256699"[label="{{Stmt\ -1:\ return\ xstrtoull_ran}|True}", color="black", fontname="Calibri", style="filled", fillcolor="white"];
"637256699" -> "1486116355"[label="1", color="black", style="setlinewidth(1)"];
"2062287781"[label="{{Function\ -1:\ xstrtoul_range_sfx}|True}", color="blue", fontname="Calibri", style="filled", fillcolor="white"];
"637256699" -> "2062287781"[label="1", color="black", style="setlinewidth(1)"];
"2062287781" -> "637256699"[label="1", color="black", style="setlinewidth(1)"];
"1499050426"[label="{{Decl\ -1:\ xstrtoull_range}|True}", color="blue", fontname="Calibri", style="filled", fillcolor="white"];
"1019051216"[label="{{Stmt\ -1:\ return\ xstrtoull_ran}|True}", color="black", fontname="Calibri", style="filled", fillcolor="white"];
"1019051216" -> "1499050426"[label="1", color="black", style="setlinewidth(1)"];
"153796018"[label="{{Function\ -1:\ xstrtoul_range}|True}", color="blue", fontname="Calibri", style="filled", fillcolor="white"];
"1019051216" -> "153796018"[label="1", color="black", style="setlinewidth(1)"];
"153796018" -> "1019051216"[label="1", color="black", style="setlinewidth(1)"];
"1830293467"[label="{{Decl\ -1:\ xstrtoull_sfx}|True}", color="blue", fontname="Calibri", style="filled", fillcolor="white"];
"60699430"[label="{{Stmt\ -1:\ return\ xstrtoull_sfx}|True}", color="black", fontname="Calibri", style="filled", fillcolor="white"];
"60699430" -> "1830293467"[label="1", color="black", style="setlinewidth(1)"];
"879753110"[label="{{Function\ -1:\ xstrtoul_sfx}|True}", color="blue", fontname="Calibri", style="filled", fillcolor="white"];
"60699430" -> "879753110"[label="1", color="black", style="setlinewidth(1)"];
"879753110" -> "60699430"[label="1", color="black", style="setlinewidth(1)"];
"583209053"[label="{{Decl\ -1:\ xstrtoull}|True}", color="blue", fontname="Calibri", style="filled", fillcolor="white"];
"686194386"[label="{{Stmt\ -1:\ return\ xstrtoull(str}|True}", color="black", fontname="Calibri", style="filled", fillcolor="white"];
"686194386" -> "583209053"[label="1", color="black", style="setlinewidth(1)"];
"1089741221"[label="{{Function\ -1:\ xstrtoul}|True}", color="blue", fontname="Calibri", style="filled", fillcolor="white"];
"686194386" -> "1089741221"[label="1", color="black", style="setlinewidth(1)"];
"1089741221" -> "686194386"[label="1", color="black", style="setlinewidth(1)"];
"2056580518"[label="{{Decl\ -1:\ xatoull_range_sfx}|True}", color="blue", fontname="Calibri", style="filled", fillcolor="white"];
"512495861"[label="{{Stmt\ -1:\ return\ xatoull_range}|True}", color="black", fontname="Calibri", style="filled", fillcolor="white"];
"512495861" -> "2056580518"[label="1", color="black", style="setlinewidth(1)"];
"247091418"[label="{{Function\ -1:\ xatoul_range_sfx}|True}", color="blue", fontname="Calibri", style="filled", fillcolor="white"];
"512495861" -> "247091418"[label="1", color="black", style="setlinewidth(1)"];
"247091418" -> "512495861"[label="1", color="black", style="setlinewidth(1)"];
"70689348"[label="{{Decl\ -1:\ xatoull_range}|True}", color="blue", fontname="Calibri", style="filled", fillcolor="white"];
"1752523585"[label="{{Stmt\ -1:\ return\ xatoull_range}|True}", color="black", fontname="Calibri", style="filled", fillcolor="white"];
"1752523585" -> "70689348"[label="1", color="black", style="setlinewidth(1)"];
"1110291512"[label="{{Function\ -1:\ xatoul_range}|True}", color="blue", fontname="Calibri", style="filled", fillcolor="white"];
"1752523585" -> "1110291512"[label="1", color="black", style="setlinewidth(1)"];
"1110291512" -> "1752523585"[label="1", color="black", style="setlinewidth(1)"];
"1194524140"[label="{{Decl\ -1:\ xatoull_sfx}|True}", color="blue", fontname="Calibri", style="filled", fillcolor="white"];
"1239865600"[label="{{Stmt\ -1:\ return\ xatoull_sfx(s}|True}", color="black", fontname="Calibri", style="filled", fillcolor="white"];
"1239865600" -> "1194524140"[label="1", color="black", style="setlinewidth(1)"];
"1497818955"[label="{{Function\ -1:\ xatoul_sfx}|True}", color="blue", fontname="Calibri", style="filled", fillcolor="white"];
"1239865600" -> "1497818955"[label="1", color="black", style="setlinewidth(1)"];
"1497818955" -> "1239865600"[label="1", color="black", style="setlinewidth(1)"];
"895837351"[label="{{Decl\ -1:\ xatoull}|True}", color="blue", fontname="Calibri", style="filled", fillcolor="white"];
"1646802001"[label="{{Stmt\ -1:\ return\ xatoull(str);}|True}", color="black", fontname="Calibri", style="filled", fillcolor="white"];
"1646802001" -> "895837351"[label="1", color="black", style="setlinewidth(1)"];
"1718963285"[label="{{Function\ -1:\ xatoul}|True}", color="blue", fontname="Calibri", style="filled", fillcolor="white"];
"1646802001" -> "1718963285"[label="1", color="black", style="setlinewidth(1)"];
"1718963285" -> "1646802001"[label="1", color="black", style="setlinewidth(1)"];
"1154776934"[label="{{Decl\ -1:\ xstrtoll_range_sfx}|True}", color="blue", fontname="Calibri", style="filled", fillcolor="white"];
"241465043"[label="{{Stmt\ -1:\ return\ xstrtoll_rang}|True}", color="black", fontname="Calibri", style="filled", fillcolor="white"];
"241465043" -> "1154776934"[label="1", color="black", style="setlinewidth(1)"];
"254031848"[label="{{Function\ -1:\ xstrtol_range_sfx}|True}", color="blue", fontname="Calibri", style="filled", fillcolor="white"];
"241465043" -> "254031848"[label="1", color="black", style="setlinewidth(1)"];
"254031848" -> "241465043"[label="1", color="black", style="setlinewidth(1)"];
"389107230"[label="{{Decl\ -1:\ xstrtoll_range}|True}", color="blue", fontname="Calibri", style="filled", fillcolor="white"];
"661712874"[label="{{Stmt\ -1:\ return\ xstrtoll_rang}|True}", color="black", fontname="Calibri", style="filled", fillcolor="white"];
"661712874" -> "389107230"[label="1", color="black", style="setlinewidth(1)"];
"10472389"[label="{{Function\ -1:\ xstrtol_range}|True}", color="blue", fontname="Calibri", style="filled", fillcolor="white"];
"661712874" -> "10472389"[label="1", color="black", style="setlinewidth(1)"];
"10472389" -> "661712874"[label="1", color="black", style="setlinewidth(1)"];
"1667459648"[label="{{Decl\ -1:\ xstrtoll}|True}", color="blue", fontname="Calibri", style="filled", fillcolor="white"];
"1589718397"[label="{{Stmt\ -1:\ return\ xstrtoll(str\ }|True}", color="black", fontname="Calibri", style="filled", fillcolor="white"];
"1589718397" -> "1667459648"[label="1", color="black", style="setlinewidth(1)"];
"795466859"[label="{{Function\ -1:\ xstrtol}|True}", color="blue", fontname="Calibri", style="filled", fillcolor="white"];
"1589718397" -> "795466859"[label="1", color="black", style="setlinewidth(1)"];
"795466859" -> "1589718397"[label="1", color="black", style="setlinewidth(1)"];
"796626784"[label="{{Decl\ -1:\ xatoll_range_sfx}|True}", color="blue", fontname="Calibri", style="filled", fillcolor="white"];
"2138087"[label="{{Stmt\ -1:\ return\ xatoll_range_}|True}", color="black", fontname="Calibri", style="filled", fillcolor="white"];
"2138087" -> "796626784"[label="1", color="black", style="setlinewidth(1)"];
"804104960"[label="{{Function\ -1:\ xatol_range_sfx}|True}", color="blue", fontname="Calibri", style="filled", fillcolor="white"];
"2138087" -> "804104960"[label="1", color="black", style="setlinewidth(1)"];
"804104960" -> "2138087"[label="1", color="black", style="setlinewidth(1)"];
"1329069426"[label="{{Decl\ -1:\ xatoll_range}|True}", color="blue", fontname="Calibri", style="filled", fillcolor="white"];
"1740351657"[label="{{Stmt\ -1:\ return\ xatoll_range(}|True}", color="black", fontname="Calibri", style="filled", fillcolor="white"];
"1740351657" -> "1329069426"[label="1", color="black", style="setlinewidth(1)"];
"438029432"[label="{{Function\ -1:\ xatol_range}|True}", color="blue", fontname="Calibri", style="filled", fillcolor="white"];
"1740351657" -> "438029432"[label="1", color="black", style="setlinewidth(1)"];
"438029432" -> "1740351657"[label="1", color="black", style="setlinewidth(1)"];
"617960088"[label="{{Decl\ -1:\ xatoll_sfx}|True}", color="blue", fontname="Calibri", style="filled", fillcolor="white"];
"297689788"[label="{{Stmt\ -1:\ return\ xatoll_sfx(st}|True}", color="black", fontname="Calibri", style="filled", fillcolor="white"];
"297689788" -> "617960088"[label="1", color="black", style="setlinewidth(1)"];
"48145108"[label="{{Function\ -1:\ xatol_sfx}|True}", color="blue", fontname="Calibri", style="filled", fillcolor="white"];
"297689788" -> "48145108"[label="1", color="black", style="setlinewidth(1)"];
"48145108" -> "297689788"[label="1", color="black", style="setlinewidth(1)"];
"1454833039"[label="{{Decl\ -1:\ xatoll}|True}", color="blue", fontname="Calibri", style="filled", fillcolor="white"];
"1821028804"[label="{{Stmt\ -1:\ return\ xatoll(str);}|True}", color="black", fontname="Calibri", style="filled", fillcolor="white"];
"1821028804" -> "1454833039"[label="1", color="black", style="setlinewidth(1)"];
"91618183"[label="{{Function\ -1:\ xatol}|True}", color="blue", fontname="Calibri", style="filled", fillcolor="white"];
"1821028804" -> "91618183"[label="1", color="black", style="setlinewidth(1)"];
"91618183" -> "1821028804"[label="1", color="black", style="setlinewidth(1)"];
"1646802001" -> "895837351"[label="1", color="black", style="setlinewidth(1)"];
"1646802001" -> "1718963285"[label="1", color="black", style="setlinewidth(1)"];
"1718963285" -> "1646802001"[label="1", color="black", style="setlinewidth(1)"];
"2052601171"[label="{{Decl\ -1:\ BUG_xatou32_unimplemented}|True}", color="blue", fontname="Calibri", style="filled", fillcolor="white"];
"1749422255"[label="{{Decl\ -1:\ xatou}|True}", color="blue", fontname="Calibri", style="filled", fillcolor="white"];
"632550973"[label="{{Stmt\ -1:\ return\ xatoul(numstr}|True}", color="black", fontname="Calibri", style="filled", fillcolor="white"];
"632550973" -> "1718963285"[label="1", color="black", style="setlinewidth(1)"];
"1186718344"[label="{{Function\ -1:\ xatou32}|True}", color="blue", fontname="Calibri", style="filled", fillcolor="white"];
"632550973" -> "1186718344"[label="1", color="black", style="setlinewidth(1)"];
"1633987613"[label="{{Stmt\ -1:\ return\ BUG_xatou32_u}|True}", color="black", fontname="Calibri", style="filled", fillcolor="white"];
"1633987613" -> "2052601171"[label="1", color="black", style="setlinewidth(1)"];
"1633987613" -> "1186718344"[label="1", color="black", style="setlinewidth(1)"];
"1187023312"[label="{{Stmt\ -1:\ return\ xatou(numstr)}|True}", color="black", fontname="Calibri", style="filled", fillcolor="white"];
"1187023312" -> "1749422255"[label="1", color="black", style="setlinewidth(1)"];
"1187023312" -> "1186718344"[label="1", color="black", style="setlinewidth(1)"];
"1043401133"[label="{{Expr\ -1:\ (((92233720368547758}|True}", color="black", fontname="Calibri", style="filled", fillcolor="white"];
"1043401133" -> "1633987613"[label="1", color="black", style="setlinewidth(1)"];
"1043401133" -> "632550973"[label="1", color="black", style="setlinewidth(1)"];
"106290316"[label="{{Expr\ -1:\ (((2147483647\ *\ 2U)\ }|True}", color="black", fontname="Calibri", style="filled", fillcolor="white"];
"106290316" -> "1043401133"[label="1", color="black", style="setlinewidth(1)"];
"106290316" -> "1187023312"[label="1", color="black", style="setlinewidth(1)"];
"1186718344" -> "106290316"[label="1", color="black", style="setlinewidth(1)"];
"1167618388"[label="{{Decl\ -1:\ bb_strtoull}|True}", color="blue", fontname="Calibri", style="filled", fillcolor="white"];
"291553537"[label="{{Stmt\ -1:\ return\ bb_strtoull(a}|True}", color="black", fontname="Calibri", style="filled", fillcolor="white"];
"291553537" -> "1167618388"[label="1", color="black", style="setlinewidth(1)"];
"950866037"[label="{{Function\ -1:\ bb_strtoul}|True}", color="blue", fontname="Calibri", style="filled", fillcolor="white"];
"291553537" -> "950866037"[label="1", color="black", style="setlinewidth(1)"];
"950866037" -> "291553537"[label="1", color="black", style="setlinewidth(1)"];
"1170374974"[label="{{Decl\ -1:\ bb_strtoll}|True}", color="blue", fontname="Calibri", style="filled", fillcolor="white"];
"1942865373"[label="{{Stmt\ -1:\ return\ bb_strtoll(ar}|True}", color="black", fontname="Calibri", style="filled", fillcolor="white"];
"1942865373" -> "1170374974"[label="1", color="black", style="setlinewidth(1)"];
"298535891"[label="{{Function\ -1:\ bb_strtol}|True}", color="blue", fontname="Calibri", style="filled", fillcolor="white"];
"1942865373" -> "298535891"[label="1", color="black", style="setlinewidth(1)"];
"298535891" -> "1942865373"[label="1", color="black", style="setlinewidth(1)"];
"291553537" -> "1167618388"[label="1", color="black", style="setlinewidth(1)"];
"291553537" -> "950866037"[label="1", color="black", style="setlinewidth(1)"];
"950866037" -> "291553537"[label="1", color="black", style="setlinewidth(1)"];
"1792303046"[label="{{Decl\ -1:\ BUG_bb_strtou32_unimplemented}|True}", color="blue", fontname="Calibri", style="filled", fillcolor="white"];
"1779427938"[label="{{Decl\ -1:\ bb_strtou}|True}", color="blue", fontname="Calibri", style="filled", fillcolor="white"];
"825643099"[label="{{Stmt\ -1:\ return\ bb_strtoul(ar}|True}", color="black", fontname="Calibri", style="filled", fillcolor="white"];
"825643099" -> "950866037"[label="1", color="black", style="setlinewidth(1)"];
"10775679"[label="{{Function\ -1:\ bb_strtou32}|True}", color="blue", fontname="Calibri", style="filled", fillcolor="white"];
"825643099" -> "10775679"[label="1", color="black", style="setlinewidth(1)"];
"1571240139"[label="{{Stmt\ -1:\ return\ BUG_bb_strtou}|True}", color="black", fontname="Calibri", style="filled", fillcolor="white"];
"1571240139" -> "1792303046"[label="1", color="black", style="setlinewidth(1)"];
"1571240139" -> "10775679"[label="1", color="black", style="setlinewidth(1)"];
"316238111"[label="{{Stmt\ -1:\ return\ bb_strtou(arg}|True}", color="black", fontname="Calibri", style="filled", fillcolor="white"];
"316238111" -> "1779427938"[label="1", color="black", style="setlinewidth(1)"];
"316238111" -> "10775679"[label="1", color="black", style="setlinewidth(1)"];
"775318195"[label="{{Expr\ -1:\ (sizeof(uint32_t\ )\ =}|True}", color="black", fontname="Calibri", style="filled", fillcolor="white"];
"775318195" -> "1571240139"[label="1", color="black", style="setlinewidth(1)"];
"775318195" -> "825643099"[label="1", color="black", style="setlinewidth(1)"];
"1397074904"[label="{{Expr\ -1:\ (sizeof(uint32_t\ )\ =}|True}", color="black", fontname="Calibri", style="filled", fillcolor="white"];
"1397074904" -> "775318195"[label="1", color="black", style="setlinewidth(1)"];
"1397074904" -> "316238111"[label="1", color="black", style="setlinewidth(1)"];
"10775679" -> "1397074904"[label="1", color="black", style="setlinewidth(1)"];
"872366460"[label="{{Stmt\ -1:\ return\ (b\ \<=\ ('z'\ -\ }|True}", color="black", fontname="Calibri", style="filled", fillcolor="white"];
"607980586"[label="{{Function\ -1:\ bb_ascii_isalnum}|True}", color="blue", fontname="Calibri", style="filled", fillcolor="white"];
"872366460" -> "607980586"[label="1", color="black", style="setlinewidth(1)"];
"1008564900"[label="{{Stmt\ -1:\ return\ (b\ \<=\ 9);}|True}", color="black", fontname="Calibri", style="filled", fillcolor="white"];
"1008564900" -> "607980586"[label="1", color="black", style="setlinewidth(1)"];
"1853432597"[label="{{Stmt\ -1:\ (b\ =\ ((a\ \|\ 0x20)\ -\ '}|True}", color="black", fontname="Calibri", style="filled", fillcolor="white"];
"1853432597" -> "872366460"[label="1", color="black", style="setlinewidth(1)"];
"1689920586"[label="{{Expr\ -1:\ (b\ \<=\ 9)}|True}", color="black", fontname="Calibri", style="filled", fillcolor="white"];
"1689920586" -> "1853432597"[label="1", color="black", style="setlinewidth(1)"];
"1689920586" -> "1008564900"[label="1", color="black", style="setlinewidth(1)"];
"645119727"[label="{{Stmt\ -1:\ unsigned\ char\ b\ =\ \ (}|True}", color="black", fontname="Calibri", style="filled", fillcolor="white"];
"645119727" -> "1689920586"[label="1", color="black", style="setlinewidth(1)"];
"607980586" -> "645119727"[label="1", color="black", style="setlinewidth(1)"];
"374535320"[label="{{Stmt\ -1:\ return\ (b\ \<=\ ('f'\ -\ }|True}", color="black", fontname="Calibri", style="filled", fillcolor="white"];
"1758892536"[label="{{Function\ -1:\ bb_ascii_isxdigit}|True}", color="blue", fontname="Calibri", style="filled", fillcolor="white"];
"374535320" -> "1758892536"[label="1", color="black", style="setlinewidth(1)"];
"2141610468"[label="{{Stmt\ -1:\ return\ (b\ \<=\ 9);}|True}", color="black", fontname="Calibri", style="filled", fillcolor="white"];
"2141610468" -> "1758892536"[label="1", color="black", style="setlinewidth(1)"];
"1084480901"[label="{{Stmt\ -1:\ (b\ =\ ((a\ \|\ 0x20)\ -\ '}|True}", color="black", fontname="Calibri", style="filled", fillcolor="white"];
"1084480901" -> "374535320"[label="1", color="black", style="setlinewidth(1)"];
"1431696684"[label="{{Expr\ -1:\ (b\ \<=\ 9)}|True}", color="black", fontname="Calibri", style="filled", fillcolor="white"];
"1431696684" -> "1084480901"[label="1", color="black", style="setlinewidth(1)"];
"1431696684" -> "2141610468"[label="1", color="black", style="setlinewidth(1)"];
"1715345317"[label="{{Stmt\ -1:\ unsigned\ char\ b\ =\ \ (}|True}", color="black", fontname="Calibri", style="filled", fillcolor="white"];
"1715345317" -> "1431696684"[label="1", color="black", style="setlinewidth(1)"];
"1758892536" -> "1715345317"[label="1", color="black", style="setlinewidth(1)"];
"1753010655"[label="{{Stmt\ -1:\ (a\ -=\ ('a'\ -\ 'A'));}|True}", color="black", fontname="Calibri", style="filled", fillcolor="white"];
"2091050683"[label="{{Stmt\ -1:\ return\ a;}|True}", color="black", fontname="Calibri", style="filled", fillcolor="white"];
"1753010655" -> "2091050683"[label="1", color="black", style="setlinewidth(1)"];
"1896066086"[label="{{Function\ -1:\ bb_ascii_toupper}|True}", color="blue", fontname="Calibri", style="filled", fillcolor="white"];
"2091050683" -> "1896066086"[label="1", color="black", style="setlinewidth(1)"];
"1300782379"[label="{{Expr\ -1:\ (b\ \<=\ ('z'\ -\ 'a'))}|True}", color="black", fontname="Calibri", style="filled", fillcolor="white"];
"1300782379" -> "2091050683"[label="1", color="black", style="setlinewidth(1)"];
"1300782379" -> "1753010655"[label="1", color="black", style="setlinewidth(1)"];
"406691592"[label="{{Stmt\ -1:\ unsigned\ char\ b\ =\ \ (}|True}", color="black", fontname="Calibri", style="filled", fillcolor="white"];
"406691592" -> "1300782379"[label="1", color="black", style="setlinewidth(1)"];
"1896066086" -> "406691592"[label="1", color="black", style="setlinewidth(1)"];
"765253084"[label="{{Stmt\ -1:\ (a\ +=\ ('a'\ -\ 'A'));}|True}", color="black", fontname="Calibri", style="filled", fillcolor="white"];
"434367006"[label="{{Stmt\ -1:\ return\ a;}|True}", color="black", fontname="Calibri", style="filled", fillcolor="white"];
"765253084" -> "434367006"[label="1", color="black", style="setlinewidth(1)"];
"1582860960"[label="{{Function\ -1:\ bb_ascii_tolower}|True}", color="blue", fontname="Calibri", style="filled", fillcolor="white"];
"434367006" -> "1582860960"[label="1", color="black", style="setlinewidth(1)"];
"1558217335"[label="{{Expr\ -1:\ (b\ \<=\ ('Z'\ -\ 'A'))}|True}", color="black", fontname="Calibri", style="filled", fillcolor="white"];
"1558217335" -> "434367006"[label="1", color="black", style="setlinewidth(1)"];
"1558217335" -> "765253084"[label="1", color="black", style="setlinewidth(1)"];
"1354234808"[label="{{Stmt\ -1:\ unsigned\ char\ b\ =\ \ (}|True}", color="black", fontname="Calibri", style="filled", fillcolor="white"];
"1354234808" -> "1558217335"[label="1", color="black", style="setlinewidth(1)"];
"1582860960" -> "1354234808"[label="1", color="black", style="setlinewidth(1)"];
"661710485"[label="{{Stmt\ -1:\ (mode\ =\ \\\"Unicode\ (UT}|True}", color="black", fontname="Calibri", style="filled", fillcolor="white"];
"129099501"[label="{{Stmt\ -1:\ printf(\\\"The\ keyboard}|True}", color="black", fontname="Calibri", style="filled", fillcolor="white"];
"661710485" -> "129099501"[label="1", color="black", style="setlinewidth(1)"];
"1733040965"[label="{{Stmt\ -1:\ (mode\ =\ \\\"mediumraw\ (}|True}", color="black", fontname="Calibri", style="filled", fillcolor="white"];
"1733040965" -> "129099501"[label="1", color="black", style="setlinewidth(1)"];
"176969151"[label="{{Expr\ -1:\ (m\ ==\ 0x03)}|True}", color="black", fontname="Calibri", style="filled", fillcolor="white"];
"176969151" -> "129099501"[label="1", color="black", style="setlinewidth(1)"];
"176969151" -> "661710485"[label="1", color="black", style="setlinewidth(1)"];
"1051684839"[label="{{Decl\ -1:\ close}|True}", color="blue", fontname="Calibri", style="filled", fillcolor="white"];
"1762263774"[label="{{Decl\ -1:\ printf}|True}", color="blue", fontname="Calibri", style="filled", fillcolor="white"];
"129099501" -> "1762263774"[label="1", color="black", style="setlinewidth(1)"];
"370963138"[label="{{Decl\ -1:\ bb_xioctl}|True}", color="blue", fontname="Calibri", style="filled", fillcolor="white"];
"129099501" -> "370963138"[label="!definedEx(CONFIG_IOCTL_HEX2STR_ERROR)", color="red", style="setlinewidth(1)"];
"1832762469"[label="{{Decl\ -1:\ bb_xioctl}|True}", color="blue", fontname="Calibri", style="filled", fillcolor="white"];
"129099501" -> "1832762469"[label="definedEx(CONFIG_IOCTL_HEX2STR_ERROR)", color="red", style="setlinewidth(1)"];
"928951365"[label="{{Expr\ 393:\ 1}|True}", color="black", fontname="Calibri", style="filled", fillcolor="white"];
"129099501" -> "928951365"[label="definedEx(CONFIG_FEATURE_CLEAN_UP)", color="red", style="setlinewidth(1)"];
"1813925956"[label="{{Expr\ 397:\ 0}|True}", color="black", fontname="Calibri", style="filled", fillcolor="white"];
"129099501" -> "1813925956"[label="!definedEx(CONFIG_FEATURE_CLEAN_UP)", color="red", style="setlinewidth(1)"];
"1503349481"[label="{{Stmt\ -1:\ (mode\ =\ \\\"default\ (AS}|True}", color="black", fontname="Calibri", style="filled", fillcolor="white"];
"1503349481" -> "129099501"[label="1", color="black", style="setlinewidth(1)"];
"794336811"[label="{{Expr\ -1:\ (m\ ==\ 0x02)}|True}", color="black", fontname="Calibri", style="filled", fillcolor="white"];
"794336811" -> "176969151"[label="1", color="black", style="setlinewidth(1)"];
"794336811" -> "1733040965"[label="1", color="black", style="setlinewidth(1)"];
"231323268"[label="{{Stmt\ -1:\ close(fd);}|True}", color="black", fontname="Calibri", style="filled", fillcolor="white"];
"231323268" -> "1051684839"[label="1", color="black", style="setlinewidth(1)"];
"782845234"[label="{{Stmt\ -1:\ return\ 0;}|True}", color="black", fontname="Calibri", style="filled", fillcolor="white"];
"231323268" -> "782845234"[label="1", color="black", style="setlinewidth(1)"];
"1360538992"[label="{{Function\ -1:\ kbd_mode_main}|True}", color="blue", fontname="Calibri", style="filled", fillcolor="white"];
"782845234" -> "1360538992"[label="1", color="black", style="setlinewidth(1)"];
"1005628511"[label="{{Stmt\ -1:\ (mode\ =\ \\\"raw\ (scanco}|True}", color="black", fontname="Calibri", style="filled", fillcolor="white"];
"1005628511" -> "129099501"[label="1", color="black", style="setlinewidth(1)"];
"402121524"[label="{{Expr\ -1:\ (m\ ==\ 0x01)}|True}", color="black", fontname="Calibri", style="filled", fillcolor="white"];
"402121524" -> "794336811"[label="1", color="black", style="setlinewidth(1)"];
"402121524" -> "1503349481"[label="1", color="black", style="setlinewidth(1)"];
"1813925956" -> "782845234"[label="!definedEx(CONFIG_FEATURE_CLEAN_UP)", color="red", style="setlinewidth(1)"];
"1813925956" -> "231323268"[label="!definedEx(CONFIG_FEATURE_CLEAN_UP)", color="red", style="setlinewidth(1)"];
"928951365" -> "782845234"[label="definedEx(CONFIG_FEATURE_CLEAN_UP)", color="red", style="setlinewidth(1)"];
"928951365" -> "231323268"[label="definedEx(CONFIG_FEATURE_CLEAN_UP)", color="red", style="setlinewidth(1)"];
"1420694243"[label="{{Expr\ -1:\ (m\ ==\ 0x00)}|True}", color="black", fontname="Calibri", style="filled", fillcolor="white"];
"1420694243" -> "402121524"[label="1", color="black", style="setlinewidth(1)"];
"1420694243" -> "1005628511"[label="1", color="black", style="setlinewidth(1)"];
"1044849078"[label="{{Stmt\ -1:\ bb_xioctl(\l#if\ !defi}|!def(CONFIG_IOCTL_HEX2STR_ERROR)}", color="black", fontname="Calibri", style="filled", fillcolor="#CD5200"];
"1044849078" -> "370963138"[label="!definedEx(CONFIG_IOCTL_HEX2STR_ERROR)", color="red", style="setlinewidth(1)"];
"1044849078" -> "1762263774"[label="!definedEx(CONFIG_IOCTL_HEX2STR_ERROR)", color="red", style="setlinewidth(1)"];
"1044849078" -> "928951365"[label="(!definedEx(CONFIG_IOCTL_HEX2STR_ERROR) && definedEx(CONFIG_FEATURE_CLEAN_UP))", color="red", style="setlinewidth(1)"];
"1044849078" -> "1813925956"[label="(!definedEx(CONFIG_IOCTL_HEX2STR_ERROR) && !definedEx(CONFIG_FEATURE_CLEAN_UP))", color="red", style="setlinewidth(1)"];
"1822552150"[label="{{Stmt\ -1:\ bb_xioctl(\l#if\ defin}|def(CONFIG_IOCTL_HEX2STR_ERROR)}", color="black", fontname="Calibri", style="filled", fillcolor="#CD5200"];
"1822552150" -> "1832762469"[label="definedEx(CONFIG_IOCTL_HEX2STR_ERROR)", color="red", style="setlinewidth(1)"];
"1822552150" -> "1762263774"[label="definedEx(CONFIG_IOCTL_HEX2STR_ERROR)", color="red", style="setlinewidth(1)"];
"1822552150" -> "928951365"[label="(definedEx(CONFIG_IOCTL_HEX2STR_ERROR) && definedEx(CONFIG_FEATURE_CLEAN_UP))", color="red", style="setlinewidth(1)"];
"1822552150" -> "1813925956"[label="(definedEx(CONFIG_IOCTL_HEX2STR_ERROR) && !definedEx(CONFIG_FEATURE_CLEAN_UP))", color="red", style="setlinewidth(1)"];
"1720258982"[label="{{Stmt\ -1:\ bb_xioctl(\l#if\ !defi}|!def(CONFIG_IOCTL_HEX2STR_ERROR)}", color="black", fontname="Calibri", style="filled", fillcolor="#CD5200"];
"1720258982" -> "370963138"[label="!definedEx(CONFIG_IOCTL_HEX2STR_ERROR)", color="red", style="setlinewidth(1)"];
"1720258982" -> "1420694243"[label="!definedEx(CONFIG_IOCTL_HEX2STR_ERROR)", color="red", style="setlinewidth(1)"];
"1044887605"[label="{{Stmt\ -1:\ bb_xioctl(\l#if\ defin}|def(CONFIG_IOCTL_HEX2STR_ERROR)}", color="black", fontname="Calibri", style="filled", fillcolor="#CD5200"];
"1044887605" -> "1832762469"[label="definedEx(CONFIG_IOCTL_HEX2STR_ERROR)", color="red", style="setlinewidth(1)"];
"1044887605" -> "1420694243"[label="definedEx(CONFIG_IOCTL_HEX2STR_ERROR)", color="red", style="setlinewidth(1)"];
"703039779"[label="{{Expr\ -1:\ (opt\ \>\>\ 1)}|True}", color="black", fontname="Calibri", style="filled", fillcolor="white"];
"703039779" -> "1822552150"[label="definedEx(CONFIG_IOCTL_HEX2STR_ERROR)", color="red", style="setlinewidth(1)"];
"703039779" -> "1044849078"[label="!definedEx(CONFIG_IOCTL_HEX2STR_ERROR)", color="red", style="setlinewidth(1)"];
"389877768"[label="{{Expr\ 47:\ 3}|True}", color="black", fontname="Calibri", style="filled", fillcolor="white"];
"389877768" -> "1822552150"[label="definedEx(CONFIG_IOCTL_HEX2STR_ERROR)", color="red", style="setlinewidth(1)"];
"389877768" -> "1044849078"[label="!definedEx(CONFIG_IOCTL_HEX2STR_ERROR)", color="red", style="setlinewidth(1)"];
"1694766935"[label="{{Stmt\ -1:\ int\ m;}|True}", color="black", fontname="Calibri", style="filled", fillcolor="white"];
"1694766935" -> "1044887605"[label="definedEx(CONFIG_IOCTL_HEX2STR_ERROR)", color="red", style="setlinewidth(1)"];
"1694766935" -> "1720258982"[label="!definedEx(CONFIG_IOCTL_HEX2STR_ERROR)", color="red", style="setlinewidth(1)"];
"403828297"[label="{{Expr\ -1:\ (opt\ &\ UNICODE)}|True}", color="black", fontname="Calibri", style="filled", fillcolor="white"];
"403828297" -> "389877768"[label="1", color="black", style="setlinewidth(1)"];
"403828297" -> "703039779"[label="1", color="black", style="setlinewidth(1)"];
"998507149"[label="{{Stmt\ -1:\ const\ char\ *mode\ =\ \ }|True}", color="black", fontname="Calibri", style="filled", fillcolor="white"];
"998507149" -> "1694766935"[label="1", color="black", style="setlinewidth(1)"];
"873794597"[label="{{Stmt\ -1:\ (opt\ =\ ((opt\ &\ UNICO}|True}", color="black", fontname="Calibri", style="filled", fillcolor="white"];
"873794597" -> "403828297"[label="1", color="black", style="setlinewidth(1)"];
"836189957"[label="{{Expr\ -1:\ (!\ opt)}|True}", color="black", fontname="Calibri", style="filled", fillcolor="white"];
"836189957" -> "873794597"[label="1", color="black", style="setlinewidth(1)"];
"836189957" -> "998507149"[label="1", color="black", style="setlinewidth(1)"];
"1295412913"[label="{{Stmt\ -1:\ (opt\ &=\ 0xf);}|True}", color="black", fontname="Calibri", style="filled", fillcolor="white"];
"1295412913" -> "836189957"[label="1", color="black", style="setlinewidth(1)"];
"1819476377"[label="{{Decl\ -1:\ xopen_nonblocking}|True}", color="blue", fontname="Calibri", style="filled", fillcolor="white"];
"1361178541"[label="{{Stmt\ -1:\ (fd\ =\ xopen_nonblock}|True}", color="black", fontname="Calibri", style="filled", fillcolor="white"];
"1361178541" -> "1819476377"[label="1", color="black", style="setlinewidth(1)"];
"1361178541" -> "1295412913"[label="1", color="black", style="setlinewidth(1)"];
"10211095"[label="{{Decl\ -1:\ getopt32}|True}", color="blue", fontname="Calibri", style="filled", fillcolor="white"];
"679993169"[label="{{Stmt\ -1:\ (opt\ =\ getopt32(argv}|True}", color="black", fontname="Calibri", style="filled", fillcolor="white"];
"679993169" -> "10211095"[label="1", color="black", style="setlinewidth(1)"];
"679993169" -> "1361178541"[label="1", color="black", style="setlinewidth(1)"];
"427986991"[label="{{Stmt\ -1:\ const\ char\ *tty_name}|True}", color="black", fontname="Calibri", style="filled", fillcolor="white"];
"427986991" -> "679993169"[label="1", color="black", style="setlinewidth(1)"];
"1537707548"[label="{{Stmt\ -1:\ unsigned\ opt;}|True}", color="black", fontname="Calibri", style="filled", fillcolor="white"];
"1537707548" -> "427986991"[label="1", color="black", style="setlinewidth(1)"];
"967247212"[label="{{Stmt\ -1:\ int\ fd;}|True}", color="black", fontname="Calibri", style="filled", fillcolor="white"];
"967247212" -> "1537707548"[label="1", color="black", style="setlinewidth(1)"];
"1364909177"[label="{{Stmt\ -1:\ enum\ \ \{\l\ \ SCANCODE\ =}|True}", color="black", fontname="Calibri", style="filled", fillcolor="white"];
"1364909177" -> "967247212"[label="1", color="black", style="setlinewidth(1)"];
"1360538992" -> "1364909177"[label="1", color="black", style="setlinewidth(1)"];
}
