digraph "busybox-1.18.5/init/bootchartd.c" {
node [shape=record];
"173901060"[label="{{Decl\ -1:\ xstrtoull_range_sfx}|True}", color="blue", fontname="Calibri", style="filled", fillcolor="white"];
"868802114"[label="{{Stmt\ -1:\ return\ xstrtoull_ran}|True}", color="black", fontname="Calibri", style="filled", fillcolor="white"];
"868802114" -> "173901060"[label="1", color="black", style="setlinewidth(1)"];
"153796018"[label="{{Function\ -1:\ xstrtoul_range_sfx}|True}", color="blue", fontname="Calibri", style="filled", fillcolor="white"];
"868802114" -> "153796018"[label="1", color="black", style="setlinewidth(1)"];
"153796018" -> "868802114"[label="1", color="black", style="setlinewidth(1)"];
"1629323780"[label="{{Decl\ -1:\ xstrtoull_range}|True}", color="blue", fontname="Calibri", style="filled", fillcolor="white"];
"1106062545"[label="{{Stmt\ -1:\ return\ xstrtoull_ran}|True}", color="black", fontname="Calibri", style="filled", fillcolor="white"];
"1106062545" -> "1629323780"[label="1", color="black", style="setlinewidth(1)"];
"1169476611"[label="{{Function\ -1:\ xstrtoul_range}|True}", color="blue", fontname="Calibri", style="filled", fillcolor="white"];
"1106062545" -> "1169476611"[label="1", color="black", style="setlinewidth(1)"];
"1169476611" -> "1106062545"[label="1", color="black", style="setlinewidth(1)"];
"1915331369"[label="{{Decl\ -1:\ xstrtoull_sfx}|True}", color="blue", fontname="Calibri", style="filled", fillcolor="white"];
"731993621"[label="{{Stmt\ -1:\ return\ xstrtoull_sfx}|True}", color="black", fontname="Calibri", style="filled", fillcolor="white"];
"731993621" -> "1915331369"[label="1", color="black", style="setlinewidth(1)"];
"1133546825"[label="{{Function\ -1:\ xstrtoul_sfx}|True}", color="blue", fontname="Calibri", style="filled", fillcolor="white"];
"731993621" -> "1133546825"[label="1", color="black", style="setlinewidth(1)"];
"1133546825" -> "731993621"[label="1", color="black", style="setlinewidth(1)"];
"750661397"[label="{{Decl\ -1:\ xstrtoull}|True}", color="blue", fontname="Calibri", style="filled", fillcolor="white"];
"1761930285"[label="{{Stmt\ -1:\ return\ xstrtoull(str}|True}", color="black", fontname="Calibri", style="filled", fillcolor="white"];
"1761930285" -> "750661397"[label="1", color="black", style="setlinewidth(1)"];
"779160362"[label="{{Function\ -1:\ xstrtoul}|True}", color="blue", fontname="Calibri", style="filled", fillcolor="white"];
"1761930285" -> "779160362"[label="1", color="black", style="setlinewidth(1)"];
"779160362" -> "1761930285"[label="1", color="black", style="setlinewidth(1)"];
"783529226"[label="{{Decl\ -1:\ xatoull_range_sfx}|True}", color="blue", fontname="Calibri", style="filled", fillcolor="white"];
"1731035810"[label="{{Stmt\ -1:\ return\ xatoull_range}|True}", color="black", fontname="Calibri", style="filled", fillcolor="white"];
"1731035810" -> "783529226"[label="1", color="black", style="setlinewidth(1)"];
"2008278932"[label="{{Function\ -1:\ xatoul_range_sfx}|True}", color="blue", fontname="Calibri", style="filled", fillcolor="white"];
"1731035810" -> "2008278932"[label="1", color="black", style="setlinewidth(1)"];
"2008278932" -> "1731035810"[label="1", color="black", style="setlinewidth(1)"];
"1728792023"[label="{{Decl\ -1:\ xatoull_range}|True}", color="blue", fontname="Calibri", style="filled", fillcolor="white"];
"2102693792"[label="{{Stmt\ -1:\ return\ xatoull_range}|True}", color="black", fontname="Calibri", style="filled", fillcolor="white"];
"2102693792" -> "1728792023"[label="1", color="black", style="setlinewidth(1)"];
"2125040330"[label="{{Function\ -1:\ xatoul_range}|True}", color="blue", fontname="Calibri", style="filled", fillcolor="white"];
"2102693792" -> "2125040330"[label="1", color="black", style="setlinewidth(1)"];
"2125040330" -> "2102693792"[label="1", color="black", style="setlinewidth(1)"];
"426890247"[label="{{Decl\ -1:\ xatoull_sfx}|True}", color="blue", fontname="Calibri", style="filled", fillcolor="white"];
"1209627776"[label="{{Stmt\ -1:\ return\ xatoull_sfx(s}|True}", color="black", fontname="Calibri", style="filled", fillcolor="white"];
"1209627776" -> "426890247"[label="1", color="black", style="setlinewidth(1)"];
"1196213741"[label="{{Function\ -1:\ xatoul_sfx}|True}", color="blue", fontname="Calibri", style="filled", fillcolor="white"];
"1209627776" -> "1196213741"[label="1", color="black", style="setlinewidth(1)"];
"1196213741" -> "1209627776"[label="1", color="black", style="setlinewidth(1)"];
"2105385310"[label="{{Decl\ -1:\ xatoull}|True}", color="blue", fontname="Calibri", style="filled", fillcolor="white"];
"333105274"[label="{{Stmt\ -1:\ return\ xatoull(str);}|True}", color="black", fontname="Calibri", style="filled", fillcolor="white"];
"333105274" -> "2105385310"[label="1", color="black", style="setlinewidth(1)"];
"1367806648"[label="{{Function\ -1:\ xatoul}|True}", color="blue", fontname="Calibri", style="filled", fillcolor="white"];
"333105274" -> "1367806648"[label="1", color="black", style="setlinewidth(1)"];
"1367806648" -> "333105274"[label="1", color="black", style="setlinewidth(1)"];
"1726328953"[label="{{Decl\ -1:\ xstrtoll_range_sfx}|True}", color="blue", fontname="Calibri", style="filled", fillcolor="white"];
"1763259809"[label="{{Stmt\ -1:\ return\ xstrtoll_rang}|True}", color="black", fontname="Calibri", style="filled", fillcolor="white"];
"1763259809" -> "1726328953"[label="1", color="black", style="setlinewidth(1)"];
"1662906633"[label="{{Function\ -1:\ xstrtol_range_sfx}|True}", color="blue", fontname="Calibri", style="filled", fillcolor="white"];
"1763259809" -> "1662906633"[label="1", color="black", style="setlinewidth(1)"];
"1662906633" -> "1763259809"[label="1", color="black", style="setlinewidth(1)"];
"1704056493"[label="{{Decl\ -1:\ xstrtoll_range}|True}", color="blue", fontname="Calibri", style="filled", fillcolor="white"];
"862704672"[label="{{Stmt\ -1:\ return\ xstrtoll_rang}|True}", color="black", fontname="Calibri", style="filled", fillcolor="white"];
"862704672" -> "1704056493"[label="1", color="black", style="setlinewidth(1)"];
"853489939"[label="{{Function\ -1:\ xstrtol_range}|True}", color="blue", fontname="Calibri", style="filled", fillcolor="white"];
"862704672" -> "853489939"[label="1", color="black", style="setlinewidth(1)"];
"853489939" -> "862704672"[label="1", color="black", style="setlinewidth(1)"];
"377076993"[label="{{Decl\ -1:\ xstrtoll}|True}", color="blue", fontname="Calibri", style="filled", fillcolor="white"];
"841516450"[label="{{Stmt\ -1:\ return\ xstrtoll(str\ }|True}", color="black", fontname="Calibri", style="filled", fillcolor="white"];
"841516450" -> "377076993"[label="1", color="black", style="setlinewidth(1)"];
"775745782"[label="{{Function\ -1:\ xstrtol}|True}", color="blue", fontname="Calibri", style="filled", fillcolor="white"];
"841516450" -> "775745782"[label="1", color="black", style="setlinewidth(1)"];
"775745782" -> "841516450"[label="1", color="black", style="setlinewidth(1)"];
"1005954239"[label="{{Decl\ -1:\ xatoll_range_sfx}|True}", color="blue", fontname="Calibri", style="filled", fillcolor="white"];
"2137030917"[label="{{Stmt\ -1:\ return\ xatoll_range_}|True}", color="black", fontname="Calibri", style="filled", fillcolor="white"];
"2137030917" -> "1005954239"[label="1", color="black", style="setlinewidth(1)"];
"2013019297"[label="{{Function\ -1:\ xatol_range_sfx}|True}", color="blue", fontname="Calibri", style="filled", fillcolor="white"];
"2137030917" -> "2013019297"[label="1", color="black", style="setlinewidth(1)"];
"2013019297" -> "2137030917"[label="1", color="black", style="setlinewidth(1)"];
"566812507"[label="{{Decl\ -1:\ xatoll_range}|True}", color="blue", fontname="Calibri", style="filled", fillcolor="white"];
"549597005"[label="{{Stmt\ -1:\ return\ xatoll_range(}|True}", color="black", fontname="Calibri", style="filled", fillcolor="white"];
"549597005" -> "566812507"[label="1", color="black", style="setlinewidth(1)"];
"1283617319"[label="{{Function\ -1:\ xatol_range}|True}", color="blue", fontname="Calibri", style="filled", fillcolor="white"];
"549597005" -> "1283617319"[label="1", color="black", style="setlinewidth(1)"];
"1283617319" -> "549597005"[label="1", color="black", style="setlinewidth(1)"];
"1480106909"[label="{{Decl\ -1:\ xatoll_sfx}|True}", color="blue", fontname="Calibri", style="filled", fillcolor="white"];
"829832346"[label="{{Stmt\ -1:\ return\ xatoll_sfx(st}|True}", color="black", fontname="Calibri", style="filled", fillcolor="white"];
"829832346" -> "1480106909"[label="1", color="black", style="setlinewidth(1)"];
"428862529"[label="{{Function\ -1:\ xatol_sfx}|True}", color="blue", fontname="Calibri", style="filled", fillcolor="white"];
"829832346" -> "428862529"[label="1", color="black", style="setlinewidth(1)"];
"428862529" -> "829832346"[label="1", color="black", style="setlinewidth(1)"];
"1212721986"[label="{{Decl\ -1:\ xatoll}|True}", color="blue", fontname="Calibri", style="filled", fillcolor="white"];
"834927007"[label="{{Stmt\ -1:\ return\ xatoll(str);}|True}", color="black", fontname="Calibri", style="filled", fillcolor="white"];
"834927007" -> "1212721986"[label="1", color="black", style="setlinewidth(1)"];
"182029248"[label="{{Function\ -1:\ xatol}|True}", color="blue", fontname="Calibri", style="filled", fillcolor="white"];
"834927007" -> "182029248"[label="1", color="black", style="setlinewidth(1)"];
"182029248" -> "834927007"[label="1", color="black", style="setlinewidth(1)"];
"333105274" -> "2105385310"[label="1", color="black", style="setlinewidth(1)"];
"333105274" -> "1367806648"[label="1", color="black", style="setlinewidth(1)"];
"1367806648" -> "333105274"[label="1", color="black", style="setlinewidth(1)"];
"1576528316"[label="{{Decl\ -1:\ BUG_xatou32_unimplemented}|True}", color="blue", fontname="Calibri", style="filled", fillcolor="white"];
"1888616576"[label="{{Decl\ -1:\ xatou}|True}", color="blue", fontname="Calibri", style="filled", fillcolor="white"];
"800635641"[label="{{Stmt\ -1:\ return\ xatoul(numstr}|True}", color="black", fontname="Calibri", style="filled", fillcolor="white"];
"800635641" -> "1367806648"[label="1", color="black", style="setlinewidth(1)"];
"408933855"[label="{{Function\ -1:\ xatou32}|True}", color="blue", fontname="Calibri", style="filled", fillcolor="white"];
"800635641" -> "408933855"[label="1", color="black", style="setlinewidth(1)"];
"984587092"[label="{{Stmt\ -1:\ return\ BUG_xatou32_u}|True}", color="black", fontname="Calibri", style="filled", fillcolor="white"];
"984587092" -> "1576528316"[label="1", color="black", style="setlinewidth(1)"];
"984587092" -> "408933855"[label="1", color="black", style="setlinewidth(1)"];
"586037388"[label="{{Stmt\ -1:\ return\ xatou(numstr)}|True}", color="black", fontname="Calibri", style="filled", fillcolor="white"];
"586037388" -> "1888616576"[label="1", color="black", style="setlinewidth(1)"];
"586037388" -> "408933855"[label="1", color="black", style="setlinewidth(1)"];
"760802247"[label="{{Expr\ -1:\ (((92233720368547758}|True}", color="black", fontname="Calibri", style="filled", fillcolor="white"];
"760802247" -> "984587092"[label="1", color="black", style="setlinewidth(1)"];
"760802247" -> "800635641"[label="1", color="black", style="setlinewidth(1)"];
"237233196"[label="{{Expr\ -1:\ (((2147483647\ *\ 2U)\ }|True}", color="black", fontname="Calibri", style="filled", fillcolor="white"];
"237233196" -> "760802247"[label="1", color="black", style="setlinewidth(1)"];
"237233196" -> "586037388"[label="1", color="black", style="setlinewidth(1)"];
"408933855" -> "237233196"[label="1", color="black", style="setlinewidth(1)"];
"2140013192"[label="{{Decl\ -1:\ bb_strtoull}|True}", color="blue", fontname="Calibri", style="filled", fillcolor="white"];
"1959194829"[label="{{Stmt\ -1:\ return\ bb_strtoull(a}|True}", color="black", fontname="Calibri", style="filled", fillcolor="white"];
"1959194829" -> "2140013192"[label="1", color="black", style="setlinewidth(1)"];
"783326064"[label="{{Function\ -1:\ bb_strtoul}|True}", color="blue", fontname="Calibri", style="filled", fillcolor="white"];
"1959194829" -> "783326064"[label="1", color="black", style="setlinewidth(1)"];
"783326064" -> "1959194829"[label="1", color="black", style="setlinewidth(1)"];
"1735274702"[label="{{Decl\ -1:\ bb_strtoll}|True}", color="blue", fontname="Calibri", style="filled", fillcolor="white"];
"576036010"[label="{{Stmt\ -1:\ return\ bb_strtoll(ar}|True}", color="black", fontname="Calibri", style="filled", fillcolor="white"];
"576036010" -> "1735274702"[label="1", color="black", style="setlinewidth(1)"];
"276789071"[label="{{Function\ -1:\ bb_strtol}|True}", color="blue", fontname="Calibri", style="filled", fillcolor="white"];
"576036010" -> "276789071"[label="1", color="black", style="setlinewidth(1)"];
"276789071" -> "576036010"[label="1", color="black", style="setlinewidth(1)"];
"1959194829" -> "2140013192"[label="1", color="black", style="setlinewidth(1)"];
"1959194829" -> "783326064"[label="1", color="black", style="setlinewidth(1)"];
"783326064" -> "1959194829"[label="1", color="black", style="setlinewidth(1)"];
"1390523772"[label="{{Decl\ -1:\ BUG_bb_strtou32_unimplemented}|True}", color="blue", fontname="Calibri", style="filled", fillcolor="white"];
"1168165518"[label="{{Decl\ -1:\ bb_strtou}|True}", color="blue", fontname="Calibri", style="filled", fillcolor="white"];
"572004493"[label="{{Stmt\ -1:\ return\ bb_strtoul(ar}|True}", color="black", fontname="Calibri", style="filled", fillcolor="white"];
"572004493" -> "783326064"[label="1", color="black", style="setlinewidth(1)"];
"1152439797"[label="{{Function\ -1:\ bb_strtou32}|True}", color="blue", fontname="Calibri", style="filled", fillcolor="white"];
"572004493" -> "1152439797"[label="1", color="black", style="setlinewidth(1)"];
"856918503"[label="{{Stmt\ -1:\ return\ BUG_bb_strtou}|True}", color="black", fontname="Calibri", style="filled", fillcolor="white"];
"856918503" -> "1390523772"[label="1", color="black", style="setlinewidth(1)"];
"856918503" -> "1152439797"[label="1", color="black", style="setlinewidth(1)"];
"248218710"[label="{{Stmt\ -1:\ return\ bb_strtou(arg}|True}", color="black", fontname="Calibri", style="filled", fillcolor="white"];
"248218710" -> "1168165518"[label="1", color="black", style="setlinewidth(1)"];
"248218710" -> "1152439797"[label="1", color="black", style="setlinewidth(1)"];
"572765858"[label="{{Expr\ -1:\ (sizeof(uint32_t\ )\ =}|True}", color="black", fontname="Calibri", style="filled", fillcolor="white"];
"572765858" -> "856918503"[label="1", color="black", style="setlinewidth(1)"];
"572765858" -> "572004493"[label="1", color="black", style="setlinewidth(1)"];
"1154562277"[label="{{Expr\ -1:\ (sizeof(uint32_t\ )\ =}|True}", color="black", fontname="Calibri", style="filled", fillcolor="white"];
"1154562277" -> "572765858"[label="1", color="black", style="setlinewidth(1)"];
"1154562277" -> "248218710"[label="1", color="black", style="setlinewidth(1)"];
"1152439797" -> "1154562277"[label="1", color="black", style="setlinewidth(1)"];
"532040857"[label="{{Stmt\ -1:\ return\ (b\ \<=\ ('z'\ -\ }|True}", color="black", fontname="Calibri", style="filled", fillcolor="white"];
"663765425"[label="{{Function\ -1:\ bb_ascii_isalnum}|True}", color="blue", fontname="Calibri", style="filled", fillcolor="white"];
"532040857" -> "663765425"[label="1", color="black", style="setlinewidth(1)"];
"428166734"[label="{{Stmt\ -1:\ return\ (b\ \<=\ 9);}|True}", color="black", fontname="Calibri", style="filled", fillcolor="white"];
"428166734" -> "663765425"[label="1", color="black", style="setlinewidth(1)"];
"1480466415"[label="{{Stmt\ -1:\ (b\ =\ ((a\ \|\ 0x20)\ -\ '}|True}", color="black", fontname="Calibri", style="filled", fillcolor="white"];
"1480466415" -> "532040857"[label="1", color="black", style="setlinewidth(1)"];
"671710124"[label="{{Expr\ -1:\ (b\ \<=\ 9)}|True}", color="black", fontname="Calibri", style="filled", fillcolor="white"];
"671710124" -> "1480466415"[label="1", color="black", style="setlinewidth(1)"];
"671710124" -> "428166734"[label="1", color="black", style="setlinewidth(1)"];
"769922700"[label="{{Stmt\ -1:\ unsigned\ char\ b\ =\ \ (}|True}", color="black", fontname="Calibri", style="filled", fillcolor="white"];
"769922700" -> "671710124"[label="1", color="black", style="setlinewidth(1)"];
"663765425" -> "769922700"[label="1", color="black", style="setlinewidth(1)"];
"1582860960"[label="{{Stmt\ -1:\ return\ (b\ \<=\ ('f'\ -\ }|True}", color="black", fontname="Calibri", style="filled", fillcolor="white"];
"833588190"[label="{{Function\ -1:\ bb_ascii_isxdigit}|True}", color="blue", fontname="Calibri", style="filled", fillcolor="white"];
"1582860960" -> "833588190"[label="1", color="black", style="setlinewidth(1)"];
"2124432079"[label="{{Stmt\ -1:\ return\ (b\ \<=\ 9);}|True}", color="black", fontname="Calibri", style="filled", fillcolor="white"];
"2124432079" -> "833588190"[label="1", color="black", style="setlinewidth(1)"];
"917261895"[label="{{Stmt\ -1:\ (b\ =\ ((a\ \|\ 0x20)\ -\ '}|True}", color="black", fontname="Calibri", style="filled", fillcolor="white"];
"917261895" -> "1582860960"[label="1", color="black", style="setlinewidth(1)"];
"1437124522"[label="{{Expr\ -1:\ (b\ \<=\ 9)}|True}", color="black", fontname="Calibri", style="filled", fillcolor="white"];
"1437124522" -> "917261895"[label="1", color="black", style="setlinewidth(1)"];
"1437124522" -> "2124432079"[label="1", color="black", style="setlinewidth(1)"];
"1181351999"[label="{{Stmt\ -1:\ unsigned\ char\ b\ =\ \ (}|True}", color="black", fontname="Calibri", style="filled", fillcolor="white"];
"1181351999" -> "1437124522"[label="1", color="black", style="setlinewidth(1)"];
"833588190" -> "1181351999"[label="1", color="black", style="setlinewidth(1)"];
"454427769"[label="{{Stmt\ -1:\ (a\ -=\ ('a'\ -\ 'A'));}|True}", color="black", fontname="Calibri", style="filled", fillcolor="white"];
"1587606416"[label="{{Stmt\ -1:\ return\ a;}|True}", color="black", fontname="Calibri", style="filled", fillcolor="white"];
"454427769" -> "1587606416"[label="1", color="black", style="setlinewidth(1)"];
"1232824222"[label="{{Function\ -1:\ bb_ascii_toupper}|True}", color="blue", fontname="Calibri", style="filled", fillcolor="white"];
"1587606416" -> "1232824222"[label="1", color="black", style="setlinewidth(1)"];
"765253084"[label="{{Expr\ -1:\ (b\ \<=\ ('z'\ -\ 'a'))}|True}", color="black", fontname="Calibri", style="filled", fillcolor="white"];
"765253084" -> "1587606416"[label="1", color="black", style="setlinewidth(1)"];
"765253084" -> "454427769"[label="1", color="black", style="setlinewidth(1)"];
"1016598734"[label="{{Stmt\ -1:\ unsigned\ char\ b\ =\ \ (}|True}", color="black", fontname="Calibri", style="filled", fillcolor="white"];
"1016598734" -> "765253084"[label="1", color="black", style="setlinewidth(1)"];
"1232824222" -> "1016598734"[label="1", color="black", style="setlinewidth(1)"];
"409601146"[label="{{Stmt\ -1:\ (a\ +=\ ('a'\ -\ 'A'));}|True}", color="black", fontname="Calibri", style="filled", fillcolor="white"];
"17671586"[label="{{Stmt\ -1:\ return\ a;}|True}", color="black", fontname="Calibri", style="filled", fillcolor="white"];
"409601146" -> "17671586"[label="1", color="black", style="setlinewidth(1)"];
"864446892"[label="{{Function\ -1:\ bb_ascii_tolower}|True}", color="blue", fontname="Calibri", style="filled", fillcolor="white"];
"17671586" -> "864446892"[label="1", color="black", style="setlinewidth(1)"];
"906055117"[label="{{Expr\ -1:\ (b\ \<=\ ('Z'\ -\ 'A'))}|True}", color="black", fontname="Calibri", style="filled", fillcolor="white"];
"906055117" -> "17671586"[label="1", color="black", style="setlinewidth(1)"];
"906055117" -> "409601146"[label="1", color="black", style="setlinewidth(1)"];
"1317352834"[label="{{Stmt\ -1:\ unsigned\ char\ b\ =\ \ (}|True}", color="black", fontname="Calibri", style="filled", fillcolor="white"];
"1317352834" -> "906055117"[label="1", color="black", style="setlinewidth(1)"];
"864446892" -> "1317352834"[label="1", color="black", style="setlinewidth(1)"];
"1162641714"[label="{{Stmt\ -1:\ fputc('\n'\ ,\ fp);}|True}", color="black", fontname="Calibri", style="filled", fillcolor="white"];
"1652523905"[label="{{Decl\ -1:\ fputc}|True}", color="blue", fontname="Calibri", style="filled", fillcolor="white"];
"1162641714" -> "1652523905"[label="1", color="black", style="setlinewidth(1)"];
"204632028"[label="{{Decl\ -1:\ close}|True}", color="blue", fontname="Calibri", style="filled", fillcolor="white"];
"1162641714" -> "204632028"[label="1", color="black", style="setlinewidth(1)"];
"1935102971"[label="{{Decl\ -1:\ bb_copyfd_eof}|True}", color="blue", fontname="Calibri", style="filled", fillcolor="white"];
"1162641714" -> "1935102971"[label="1", color="black", style="setlinewidth(1)"];
"1886812901"[label="{{Decl\ -1:\ fflush}|True}", color="blue", fontname="Calibri", style="filled", fillcolor="white"];
"1162641714" -> "1886812901"[label="1", color="black", style="setlinewidth(1)"];
"1813324622"[label="{{Decl\ -1:\ fputs}|True}", color="blue", fontname="Calibri", style="filled", fillcolor="white"];
"1162641714" -> "1813324622"[label="1", color="black", style="setlinewidth(1)"];
"620621195"[label="{{Decl\ -1:\ open}|True}", color="blue", fontname="Calibri", style="filled", fillcolor="white"];
"1162641714" -> "620621195"[label="1", color="black", style="setlinewidth(1)"];
"78589352"[label="{{Function\ -1:\ dump_file}|True}", color="blue", fontname="Calibri", style="filled", fillcolor="white"];
"1162641714" -> "78589352"[label="1", color="black", style="setlinewidth(1)"];
"833867033"[label="{{Stmt\ -1:\ close(fd);}|True}", color="black", fontname="Calibri", style="filled", fillcolor="white"];
"833867033" -> "204632028"[label="1", color="black", style="setlinewidth(1)"];
"833867033" -> "1162641714"[label="1", color="black", style="setlinewidth(1)"];
"828507978"[label="{{Stmt\ -1:\ bb_copyfd_eof(fd\ ,\ f}|True}", color="black", fontname="Calibri", style="filled", fillcolor="white"];
"828507978" -> "1935102971"[label="1", color="black", style="setlinewidth(1)"];
"828507978" -> "833867033"[label="1", color="black", style="setlinewidth(1)"];
"3508720"[label="{{Stmt\ -1:\ fflush(fp);}|True}", color="black", fontname="Calibri", style="filled", fillcolor="white"];
"3508720" -> "1886812901"[label="1", color="black", style="setlinewidth(1)"];
"3508720" -> "828507978"[label="1", color="black", style="setlinewidth(1)"];
"788343263"[label="{{Stmt\ -1:\ fputs((*((struct\ glo}|True}", color="black", fontname="Calibri", style="filled", fillcolor="white"];
"788343263" -> "1813324622"[label="1", color="black", style="setlinewidth(1)"];
"788343263" -> "3508720"[label="1", color="black", style="setlinewidth(1)"];
"1235937681"[label="{{Expr\ -1:\ (fd\ \>=\ 0)}|True}", color="black", fontname="Calibri", style="filled", fillcolor="white"];
"1235937681" -> "1652523905"[label="1", color="black", style="setlinewidth(1)"];
"1235937681" -> "204632028"[label="1", color="black", style="setlinewidth(1)"];
"1235937681" -> "1935102971"[label="1", color="black", style="setlinewidth(1)"];
"1235937681" -> "1886812901"[label="1", color="black", style="setlinewidth(1)"];
"1235937681" -> "1813324622"[label="1", color="black", style="setlinewidth(1)"];
"1235937681" -> "620621195"[label="1", color="black", style="setlinewidth(1)"];
"1235937681" -> "78589352"[label="1", color="black", style="setlinewidth(1)"];
"1235937681" -> "788343263"[label="1", color="black", style="setlinewidth(1)"];
"387157116"[label="{{Stmt\ -1:\ int\ fd\ =\ \ open(filen}|True}", color="black", fontname="Calibri", style="filled", fillcolor="white"];
"387157116" -> "620621195"[label="1", color="black", style="setlinewidth(1)"];
"387157116" -> "1235937681"[label="1", color="black", style="setlinewidth(1)"];
"78589352" -> "387157116"[label="1", color="black", style="setlinewidth(1)"];
"449556312"[label="{{Decl\ -1:\ readdir}|True}", color="blue", fontname="Calibri", style="filled", fillcolor="white"];
"350661411"[label="{{Stmt\ -1:\ fputs((*((struct\ glo}|True}", color="black", fontname="Calibri", style="filled", fillcolor="white"];
"350661411" -> "1813324622"[label="1", color="black", style="setlinewidth(1)"];
"350661411" -> "449556312"[label="1", color="black", style="setlinewidth(1)"];
"849462239"[label="{{Stmt\ -1:\ int\ found_login_proc}|True}", color="black", fontname="Calibri", style="filled", fillcolor="white"];
"849462239" -> "350661411"[label="1", color="black", style="setlinewidth(1)"];
"697197859"[label="{{Decl\ -1:\ opendir}|True}", color="blue", fontname="Calibri", style="filled", fillcolor="white"];
"252863187"[label="{{Stmt\ -1:\ DIR\ *dir\ =\ \ opendir(}|True}", color="black", fontname="Calibri", style="filled", fillcolor="white"];
"252863187" -> "697197859"[label="1", color="black", style="setlinewidth(1)"];
"252863187" -> "849462239"[label="1", color="black", style="setlinewidth(1)"];
"1836483452"[label="{{Stmt\ -1:\ struct\ dirent\ \ *entr}|True}", color="black", fontname="Calibri", style="filled", fillcolor="white"];
"1836483452" -> "252863187"[label="1", color="black", style="setlinewidth(1)"];
"1279724983"[label="{{Function\ -1:\ dump_procs}|True}", color="blue", fontname="Calibri", style="filled", fillcolor="white"];
"1279724983" -> "1836483452"[label="1", color="black", style="setlinewidth(1)"];
"64587620"[label="{{Stmt\ -1:\ const\ char\ *try_dir\ }|True}", color="black", fontname="Calibri", style="filled", fillcolor="white"];
"312486415"[label="{{Decl\ -1:\ mount}|True}", color="blue", fontname="Calibri", style="filled", fillcolor="white"];
"64587620" -> "312486415"[label="1", color="black", style="setlinewidth(1)"];
"74874452"[label="{{Stmt\ -1:\ return\ tempdir;}|True}", color="black", fontname="Calibri", style="filled", fillcolor="white"];
"1874907197"[label="{{Function\ -1:\ make_tempdir}|True}", color="blue", fontname="Calibri", style="filled", fillcolor="white"];
"74874452" -> "1874907197"[label="1", color="black", style="setlinewidth(1)"];
"1531210139"[label="{{Decl\ -1:\ strlen}|True}", color="blue", fontname="Calibri", style="filled", fillcolor="white"];
"273595857"[label="{{Decl\ -1:\ umount2}|True}", color="blue", fontname="Calibri", style="filled", fillcolor="white"];
"2099390117"[label="{{Decl\ -1:\ bb_perror_msg_and_die}|True}", color="blue", fontname="Calibri", style="filled", fillcolor="white"];
"1463471619"[label="{{Decl\ -1:\ xchdir}|True}", color="blue", fontname="Calibri", style="filled", fillcolor="white"];
"1770812714"[label="{{Stmt\ -1:\ static\ const\ char\ di}|True}", color="black", fontname="Calibri", style="filled", fillcolor="white"];
"1770812714" -> "64587620"[label="1", color="black", style="setlinewidth(1)"];
"1087314812"[label="{{Stmt\ -1:\ xchdir(tempdir);}|True}", color="black", fontname="Calibri", style="filled", fillcolor="white"];
"1087314812" -> "1463471619"[label="1", color="black", style="setlinewidth(1)"];
"1087314812" -> "2099390117"[label="1", color="black", style="setlinewidth(1)"];
"1087314812" -> "273595857"[label="1", color="black", style="setlinewidth(1)"];
"1087314812" -> "1531210139"[label="1", color="black", style="setlinewidth(1)"];
"1087314812" -> "312486415"[label="1", color="black", style="setlinewidth(1)"];
"1087314812" -> "74874452"[label="1", color="black", style="setlinewidth(1)"];
"1879554954"[label="{{Expr\ -1:\ (!\ tempdir)}|True}", color="black", fontname="Calibri", style="filled", fillcolor="white"];
"1879554954" -> "1087314812"[label="1", color="black", style="setlinewidth(1)"];
"1879554954" -> "1770812714"[label="1", color="black", style="setlinewidth(1)"];
"373117127"[label="{{Decl\ -1:\ xstrdup}|True}", color="blue", fontname="Calibri", style="filled", fillcolor="white"];
"1492818982"[label="{{Stmt\ -1:\ char\ *tempdir\ =\ \ xst}|True}", color="black", fontname="Calibri", style="filled", fillcolor="white"];
"1492818982" -> "373117127"[label="1", color="black", style="setlinewidth(1)"];
"1492818982" -> "1879554954"[label="1", color="black", style="setlinewidth(1)"];
"401866740"[label="{{Stmt\ -1:\ char\ template[]\ =\ \ \\\"}|True}", color="black", fontname="Calibri", style="filled", fillcolor="white"];
"401866740" -> "1492818982"[label="1", color="black", style="setlinewidth(1)"];
"1874907197" -> "401866740"[label="1", color="black", style="setlinewidth(1)"];
"642312022"[label="{{Stmt\ -1:\ dump_file(proc_disks}|True}", color="black", fontname="Calibri", style="filled", fillcolor="white"];
"642312022" -> "78589352"[label="1", color="black", style="setlinewidth(1)"];
"642312022" -> "1279724983"[label="1", color="black", style="setlinewidth(1)"];
"1001946919"[label="{{Stmt\ -1:\ dump_file(proc_stat\ }|True}", color="black", fontname="Calibri", style="filled", fillcolor="white"];
"1001946919" -> "78589352"[label="1", color="black", style="setlinewidth(1)"];
"1001946919" -> "642312022"[label="1", color="black", style="setlinewidth(1)"];
"367848074"[label="{{Stmt\ -1:\ (p[0]\ =\ '\0');}|True}", color="black", fontname="Calibri", style="filled", fillcolor="white"];
"367848074" -> "1001946919"[label="1", color="black", style="setlinewidth(1)"];
"1162641714" -> "1652523905"[label="1", color="black", style="setlinewidth(1)"];
"1162641714" -> "204632028"[label="1", color="black", style="setlinewidth(1)"];
"1162641714" -> "1935102971"[label="1", color="black", style="setlinewidth(1)"];
"1162641714" -> "1886812901"[label="1", color="black", style="setlinewidth(1)"];
"1162641714" -> "1813324622"[label="1", color="black", style="setlinewidth(1)"];
"1162641714" -> "620621195"[label="1", color="black", style="setlinewidth(1)"];
"1162641714" -> "78589352"[label="1", color="black", style="setlinewidth(1)"];
"1737609248"[label="{{Stmt\ -1:\ (p[(-\ 1)]\ =\ '\n');}|True}", color="black", fontname="Calibri", style="filled", fillcolor="white"];
"1737609248" -> "367848074"[label="1", color="black", style="setlinewidth(1)"];
"1135032029"[label="{{Stmt\ -1:\ (p[(-\ 1)]\ =\ (*p));}|True}", color="black", fontname="Calibri", style="filled", fillcolor="white"];
"34848797"[label="{{Expr\ -1:\ (((unsigned\ char\ )\ (}|True}", color="black", fontname="Calibri", style="filled", fillcolor="white"];
"1135032029" -> "34848797"[label="1", color="black", style="setlinewidth(1)"];
"833867033" -> "204632028"[label="1", color="black", style="setlinewidth(1)"];
"833867033" -> "1162641714"[label="1", color="black", style="setlinewidth(1)"];
"530845001"[label="{{Stmt\ -1:\ goto\ wait_more;}|True}", color="black", fontname="Calibri", style="filled", fillcolor="white"];
"1477817701"[label="{{Stmt\ -1:\ wait_more:}|True}", color="black", fontname="Calibri", style="filled", fillcolor="white"];
"530845001" -> "1477817701"[label="1", color="black", style="setlinewidth(1)"];
"34848797" -> "1135032029"[label="1", color="black", style="setlinewidth(1)"];
"34848797" -> "1737609248"[label="1", color="black", style="setlinewidth(1)"];
"828507978" -> "1935102971"[label="1", color="black", style="setlinewidth(1)"];
"828507978" -> "833867033"[label="1", color="black", style="setlinewidth(1)"];
"1435290012"[label="{{Stmt\ -1:\ usleep(sample_period}|True}", color="black", fontname="Calibri", style="filled", fillcolor="white"];
"374654750"[label="{{Decl\ -1:\ usleep}|True}", color="blue", fontname="Calibri", style="filled", fillcolor="white"];
"1435290012" -> "374654750"[label="1", color="black", style="setlinewidth(1)"];
"940529456"[label="{{Decl\ -1:\ fflush_all}|True}", color="blue", fontname="Calibri", style="filled", fillcolor="white"];
"1435290012" -> "940529456"[label="1", color="black", style="setlinewidth(1)"];
"1435290012" -> "1279724983"[label="1", color="black", style="setlinewidth(1)"];
"1435290012" -> "78589352"[label="1", color="black", style="setlinewidth(1)"];
"669286140"[label="{{Decl\ -1:\ strchr}|True}", color="blue", fontname="Calibri", style="filled", fillcolor="white"];
"1435290012" -> "669286140"[label="1", color="black", style="setlinewidth(1)"];
"2059354658"[label="{{Decl\ -1:\ open_read_close}|True}", color="blue", fontname="Calibri", style="filled", fillcolor="white"];
"1435290012" -> "2059354658"[label="1", color="black", style="setlinewidth(1)"];
"78713630"[label="{{Expr\ -1:\ (--count\ &&\ (!\ bb_go}|True}", color="black", fontname="Calibri", style="filled", fillcolor="white"];
"1435290012" -> "78713630"[label="1", color="black", style="setlinewidth(1)"];
"1696426970"[label="{{Expr\ -1:\ (!\ p)}|True}", color="black", fontname="Calibri", style="filled", fillcolor="white"];
"1696426970" -> "34848797"[label="1", color="black", style="setlinewidth(1)"];
"1696426970" -> "530845001"[label="1", color="black", style="setlinewidth(1)"];
"3508720" -> "1886812901"[label="1", color="black", style="setlinewidth(1)"];
"3508720" -> "828507978"[label="1", color="black", style="setlinewidth(1)"];
"350661411" -> "1813324622"[label="1", color="black", style="setlinewidth(1)"];
"350661411" -> "449556312"[label="1", color="black", style="setlinewidth(1)"];
"1477817701" -> "1435290012"[label="1", color="black", style="setlinewidth(1)"];
"1985531765"[label="{{Stmt\ -1:\ (p\ =\ strchr((*((stru}|True}", color="black", fontname="Calibri", style="filled", fillcolor="white"];
"1985531765" -> "669286140"[label="1", color="black", style="setlinewidth(1)"];
"1985531765" -> "1696426970"[label="1", color="black", style="setlinewidth(1)"];
"788343263" -> "1813324622"[label="1", color="black", style="setlinewidth(1)"];
"788343263" -> "3508720"[label="1", color="black", style="setlinewidth(1)"];
"849462239" -> "350661411"[label="1", color="black", style="setlinewidth(1)"];
"768975602"[label="{{Stmt\ -1:\ goto\ wait_more;}|True}", color="black", fontname="Calibri", style="filled", fillcolor="white"];
"768975602" -> "1477817701"[label="1", color="black", style="setlinewidth(1)"];
"1767679095"[label="{{Stmt\ -1:\ ((*((struct\ globals\ }|True}", color="black", fontname="Calibri", style="filled", fillcolor="white"];
"1767679095" -> "1985531765"[label="1", color="black", style="setlinewidth(1)"];
"1235937681" -> "1652523905"[label="1", color="black", style="setlinewidth(1)"];
"1235937681" -> "204632028"[label="1", color="black", style="setlinewidth(1)"];
"1235937681" -> "1935102971"[label="1", color="black", style="setlinewidth(1)"];
"1235937681" -> "1886812901"[label="1", color="black", style="setlinewidth(1)"];
"1235937681" -> "1813324622"[label="1", color="black", style="setlinewidth(1)"];
"1235937681" -> "620621195"[label="1", color="black", style="setlinewidth(1)"];
"1235937681" -> "78589352"[label="1", color="black", style="setlinewidth(1)"];
"1235937681" -> "788343263"[label="1", color="black", style="setlinewidth(1)"];
"252863187" -> "697197859"[label="1", color="black", style="setlinewidth(1)"];
"252863187" -> "849462239"[label="1", color="black", style="setlinewidth(1)"];
"34964262"[label="{{Expr\ -1:\ (len\ \<\ 0)}|True}", color="black", fontname="Calibri", style="filled", fillcolor="white"];
"34964262" -> "1767679095"[label="1", color="black", style="setlinewidth(1)"];
"34964262" -> "768975602"[label="1", color="black", style="setlinewidth(1)"];
"387157116" -> "620621195"[label="1", color="black", style="setlinewidth(1)"];
"387157116" -> "1235937681"[label="1", color="black", style="setlinewidth(1)"];
"1836483452" -> "252863187"[label="1", color="black", style="setlinewidth(1)"];
"365317922"[label="{{Stmt\ -1:\ int\ len\ =\ \ open_read}|True}", color="black", fontname="Calibri", style="filled", fillcolor="white"];
"365317922" -> "2059354658"[label="1", color="black", style="setlinewidth(1)"];
"365317922" -> "34964262"[label="1", color="black", style="setlinewidth(1)"];
"78589352" -> "387157116"[label="1", color="black", style="setlinewidth(1)"];
"1279724983" -> "1836483452"[label="1", color="black", style="setlinewidth(1)"];
"2114203559"[label="{{Stmt\ -1:\ char\ *p;}|True}", color="black", fontname="Calibri", style="filled", fillcolor="white"];
"2114203559" -> "365317922"[label="1", color="black", style="setlinewidth(1)"];
"78713630" -> "2114203559"[label="1", color="black", style="setlinewidth(1)"];
"78713630" -> "374654750"[label="1", color="black", style="setlinewidth(1)"];
"78713630" -> "940529456"[label="1", color="black", style="setlinewidth(1)"];
"78713630" -> "1279724983"[label="1", color="black", style="setlinewidth(1)"];
"78713630" -> "78589352"[label="1", color="black", style="setlinewidth(1)"];
"78713630" -> "669286140"[label="1", color="black", style="setlinewidth(1)"];
"78713630" -> "2059354658"[label="1", color="black", style="setlinewidth(1)"];
"1112191053"[label="{{Decl\ -1:\ getppid}|True}", color="blue", fontname="Calibri", style="filled", fillcolor="white"];
"78713630" -> "1112191053"[label="1", color="black", style="setlinewidth(1)"];
"115476109"[label="{{Decl\ -1:\ xfopen}|True}", color="blue", fontname="Calibri", style="filled", fillcolor="white"];
"78713630" -> "115476109"[label="1", color="black", style="setlinewidth(1)"];
"1727675655"[label="{{Function\ -1:\ do_logging}|True}", color="blue", fontname="Calibri", style="filled", fillcolor="white"];
"78713630" -> "1727675655"[label="1", color="black", style="setlinewidth(1)"];
"195588221"[label="{{Stmt\ -1:\ unsigned\ count\ =\ \ (6}|True}", color="black", fontname="Calibri", style="filled", fillcolor="white"];
"195588221" -> "78713630"[label="1", color="black", style="setlinewidth(1)"];
"1202055717"[label="{{Stmt\ -1:\ int\ look_for_login_p}|True}", color="black", fontname="Calibri", style="filled", fillcolor="white"];
"1202055717" -> "1112191053"[label="1", color="black", style="setlinewidth(1)"];
"1202055717" -> "195588221"[label="1", color="black", style="setlinewidth(1)"];
"1680452391"[label="{{Stmt\ -1:\ FILE\ *proc_ps\ =\ \ xfo}|True}", color="black", fontname="Calibri", style="filled", fillcolor="white"];
"1680452391" -> "115476109"[label="1", color="black", style="setlinewidth(1)"];
"1680452391" -> "1202055717"[label="1", color="black", style="setlinewidth(1)"];
"1404275935"[label="{{Stmt\ -1:\ FILE\ *proc_diskstats}|True}", color="black", fontname="Calibri", style="filled", fillcolor="white"];
"1404275935" -> "115476109"[label="1", color="black", style="setlinewidth(1)"];
"1404275935" -> "1680452391"[label="1", color="black", style="setlinewidth(1)"];
"1424955430"[label="{{Stmt\ -1:\ FILE\ *proc_stat\ =\ \ x}|True}", color="black", fontname="Calibri", style="filled", fillcolor="white"];
"1424955430" -> "115476109"[label="1", color="black", style="setlinewidth(1)"];
"1424955430" -> "1404275935"[label="1", color="black", style="setlinewidth(1)"];
"1727675655" -> "1424955430"[label="1", color="black", style="setlinewidth(1)"];
"1205627266"[label="{{Stmt\ -1:\ free(kcmdline);}|True}", color="black", fontname="Calibri", style="filled", fillcolor="white"];
"373203087"[label="{{Decl\ -1:\ free}|True}", color="blue", fontname="Calibri", style="filled", fillcolor="white"];
"1205627266" -> "373203087"[label="1", color="black", style="setlinewidth(1)"];
"205998900"[label="{{Decl\ -1:\ fprintf}|True}", color="blue", fontname="Calibri", style="filled", fillcolor="white"];
"1205627266" -> "205998900"[label="1", color="black", style="setlinewidth(1)"];
"1098088229"[label="{{Decl\ -1:\ xmalloc_open_read_close}|True}", color="blue", fontname="Calibri", style="filled", fillcolor="white"];
"1205627266" -> "1098088229"[label="1", color="black", style="setlinewidth(1)"];
"1344216918"[label="{{Decl\ -1:\ uname}|True}", color="blue", fontname="Calibri", style="filled", fillcolor="white"];
"1205627266" -> "1344216918"[label="1", color="black", style="setlinewidth(1)"];
"1588713644"[label="{{Decl\ -1:\ strftime}|True}", color="blue", fontname="Calibri", style="filled", fillcolor="white"];
"1205627266" -> "1588713644"[label="1", color="black", style="setlinewidth(1)"];
"985640568"[label="{{Decl\ -1:\ localtime_r}|True}", color="blue", fontname="Calibri", style="filled", fillcolor="white"];
"1205627266" -> "985640568"[label="1", color="black", style="setlinewidth(1)"];
"1056014825"[label="{{Decl\ -1:\ time}|True}", color="blue", fontname="Calibri", style="filled", fillcolor="white"];
"1205627266" -> "1056014825"[label="1", color="black", style="setlinewidth(1)"];
"119277343"[label="{{Decl\ -1:\ safe_gethostname}|True}", color="blue", fontname="Calibri", style="filled", fillcolor="white"];
"1205627266" -> "119277343"[label="1", color="black", style="setlinewidth(1)"];
"57316720"[label="{{Stmt\ -1:\ fclose(header_fp);}|True}", color="black", fontname="Calibri", style="filled", fillcolor="white"];
"1205627266" -> "57316720"[label="1", color="black", style="setlinewidth(1)"];
"881481521"[label="{{Expr\ 397:\ 0}|!def(CONFIG_FEATURE_CLEAN_UP)}", color="black", fontname="Calibri", style="filled", fillcolor="#CD5200"];
"881481521" -> "373203087"[label="!definedEx(CONFIG_FEATURE_CLEAN_UP)", color="red", style="setlinewidth(1)"];
"881481521" -> "205998900"[label="!definedEx(CONFIG_FEATURE_CLEAN_UP)", color="red", style="setlinewidth(1)"];
"881481521" -> "1098088229"[label="!definedEx(CONFIG_FEATURE_CLEAN_UP)", color="red", style="setlinewidth(1)"];
"881481521" -> "1344216918"[label="!definedEx(CONFIG_FEATURE_CLEAN_UP)", color="red", style="setlinewidth(1)"];
"881481521" -> "1588713644"[label="!definedEx(CONFIG_FEATURE_CLEAN_UP)", color="red", style="setlinewidth(1)"];
"881481521" -> "985640568"[label="!definedEx(CONFIG_FEATURE_CLEAN_UP)", color="red", style="setlinewidth(1)"];
"881481521" -> "1056014825"[label="!definedEx(CONFIG_FEATURE_CLEAN_UP)", color="red", style="setlinewidth(1)"];
"881481521" -> "119277343"[label="!definedEx(CONFIG_FEATURE_CLEAN_UP)", color="red", style="setlinewidth(1)"];
"881481521" -> "57316720"[label="!definedEx(CONFIG_FEATURE_CLEAN_UP)", color="red", style="setlinewidth(1)"];
"881481521" -> "1205627266"[label="!definedEx(CONFIG_FEATURE_CLEAN_UP)", color="red", style="setlinewidth(1)"];
"1694164799"[label="{{Expr\ 393:\ 1}|def(CONFIG_FEATURE_CLEAN_UP)}", color="black", fontname="Calibri", style="filled", fillcolor="#CD5200"];
"1694164799" -> "373203087"[label="definedEx(CONFIG_FEATURE_CLEAN_UP)", color="red", style="setlinewidth(1)"];
"1694164799" -> "205998900"[label="definedEx(CONFIG_FEATURE_CLEAN_UP)", color="red", style="setlinewidth(1)"];
"1694164799" -> "1098088229"[label="definedEx(CONFIG_FEATURE_CLEAN_UP)", color="red", style="setlinewidth(1)"];
"1694164799" -> "1344216918"[label="definedEx(CONFIG_FEATURE_CLEAN_UP)", color="red", style="setlinewidth(1)"];
"1694164799" -> "1588713644"[label="definedEx(CONFIG_FEATURE_CLEAN_UP)", color="red", style="setlinewidth(1)"];
"1694164799" -> "985640568"[label="definedEx(CONFIG_FEATURE_CLEAN_UP)", color="red", style="setlinewidth(1)"];
"1694164799" -> "1056014825"[label="definedEx(CONFIG_FEATURE_CLEAN_UP)", color="red", style="setlinewidth(1)"];
"1694164799" -> "119277343"[label="definedEx(CONFIG_FEATURE_CLEAN_UP)", color="red", style="setlinewidth(1)"];
"1694164799" -> "57316720"[label="definedEx(CONFIG_FEATURE_CLEAN_UP)", color="red", style="setlinewidth(1)"];
"1694164799" -> "1205627266"[label="definedEx(CONFIG_FEATURE_CLEAN_UP)", color="red", style="setlinewidth(1)"];
"1420468991"[label="{{Stmt\ -1:\ fprintf(header_fp\ ,\ }|True}", color="black", fontname="Calibri", style="filled", fillcolor="white"];
"1420468991" -> "205998900"[label="1", color="black", style="setlinewidth(1)"];
"1420468991" -> "1694164799"[label="definedEx(CONFIG_FEATURE_CLEAN_UP)", color="red", style="setlinewidth(1)"];
"1420468991" -> "881481521"[label="!definedEx(CONFIG_FEATURE_CLEAN_UP)", color="red", style="setlinewidth(1)"];
"1534599348"[label="{{Stmt\ -1:\ (kcmdline\ =\ xmalloc_}|True}", color="black", fontname="Calibri", style="filled", fillcolor="white"];
"1534599348" -> "1098088229"[label="1", color="black", style="setlinewidth(1)"];
"1534599348" -> "1420468991"[label="1", color="black", style="setlinewidth(1)"];
"946209450"[label="{{Stmt\ -1:\ fprintf(header_fp\ ,\ }|True}", color="black", fontname="Calibri", style="filled", fillcolor="white"];
"946209450" -> "205998900"[label="1", color="black", style="setlinewidth(1)"];
"946209450" -> "1534599348"[label="1", color="black", style="setlinewidth(1)"];
"666682929"[label="{{Stmt\ -1:\ free(hostname);}|True}", color="black", fontname="Calibri", style="filled", fillcolor="white"];
"666682929" -> "373203087"[label="1", color="black", style="setlinewidth(1)"];
"1141504602"[label="{{Stmt\ -1:\ uname((&unamebuf));}|True}", color="black", fontname="Calibri", style="filled", fillcolor="white"];
"666682929" -> "1141504602"[label="1", color="black", style="setlinewidth(1)"];
"1141504602" -> "1344216918"[label="1", color="black", style="setlinewidth(1)"];
"1141504602" -> "946209450"[label="1", color="black", style="setlinewidth(1)"];
"258118384"[label="{{Expr\ 397:\ 0}|!def(CONFIG_FEATURE_CLEAN_UP)}", color="black", fontname="Calibri", style="filled", fillcolor="#CD5200"];
"258118384" -> "1141504602"[label="!definedEx(CONFIG_FEATURE_CLEAN_UP)", color="red", style="setlinewidth(1)"];
"258118384" -> "666682929"[label="!definedEx(CONFIG_FEATURE_CLEAN_UP)", color="red", style="setlinewidth(1)"];
"203456615"[label="{{Expr\ 393:\ 1}|def(CONFIG_FEATURE_CLEAN_UP)}", color="black", fontname="Calibri", style="filled", fillcolor="#CD5200"];
"203456615" -> "1141504602"[label="definedEx(CONFIG_FEATURE_CLEAN_UP)", color="red", style="setlinewidth(1)"];
"203456615" -> "666682929"[label="definedEx(CONFIG_FEATURE_CLEAN_UP)", color="red", style="setlinewidth(1)"];
"1599037616"[label="{{Stmt\ -1:\ fprintf(header_fp\ ,\ }|True}", color="black", fontname="Calibri", style="filled", fillcolor="white"];
"1599037616" -> "205998900"[label="1", color="black", style="setlinewidth(1)"];
"1599037616" -> "203456615"[label="definedEx(CONFIG_FEATURE_CLEAN_UP)", color="red", style="setlinewidth(1)"];
"1599037616" -> "258118384"[label="!definedEx(CONFIG_FEATURE_CLEAN_UP)", color="red", style="setlinewidth(1)"];
"1576228586"[label="{{Stmt\ -1:\ strftime(date_buf\ ,\ }|True}", color="black", fontname="Calibri", style="filled", fillcolor="white"];
"1576228586" -> "1588713644"[label="1", color="black", style="setlinewidth(1)"];
"1576228586" -> "1599037616"[label="1", color="black", style="setlinewidth(1)"];
"1968765561"[label="{{Stmt\ -1:\ localtime_r((&t)\ ,\ (}|True}", color="black", fontname="Calibri", style="filled", fillcolor="white"];
"1968765561" -> "985640568"[label="1", color="black", style="setlinewidth(1)"];
"1968765561" -> "1576228586"[label="1", color="black", style="setlinewidth(1)"];
"1297912179"[label="{{Stmt\ -1:\ time((&t));}|True}", color="black", fontname="Calibri", style="filled", fillcolor="white"];
"1297912179" -> "1056014825"[label="1", color="black", style="setlinewidth(1)"];
"1297912179" -> "1968765561"[label="1", color="black", style="setlinewidth(1)"];
"1325523020"[label="{{Stmt\ -1:\ rmdir(tempdir);}|True}", color="black", fontname="Calibri", style="filled", fillcolor="white"];
"519379543"[label="{{Decl\ -1:\ rmdir}|True}", color="blue", fontname="Calibri", style="filled", fillcolor="white"];
"1325523020" -> "519379543"[label="1", color="black", style="setlinewidth(1)"];
"589665737"[label="{{Decl\ -1:\ unlink}|True}", color="blue", fontname="Calibri", style="filled", fillcolor="white"];
"1325523020" -> "589665737"[label="1", color="black", style="setlinewidth(1)"];
"1237663594"[label="{{Decl\ -1:\ system}|True}", color="blue", fontname="Calibri", style="filled", fillcolor="white"];
"1325523020" -> "1237663594"[label="1", color="black", style="setlinewidth(1)"];
"705056737"[label="{{Decl\ -1:\ fclose}|True}", color="blue", fontname="Calibri", style="filled", fillcolor="white"];
"1325523020" -> "705056737"[label="1", color="black", style="setlinewidth(1)"];
"1325523020" -> "373203087"[label="1", color="black", style="setlinewidth(1)"];
"1325523020" -> "205998900"[label="1", color="black", style="setlinewidth(1)"];
"1325523020" -> "1098088229"[label="1", color="black", style="setlinewidth(1)"];
"1325523020" -> "1344216918"[label="1", color="black", style="setlinewidth(1)"];
"1325523020" -> "1588713644"[label="1", color="black", style="setlinewidth(1)"];
"1325523020" -> "985640568"[label="1", color="black", style="setlinewidth(1)"];
"1325523020" -> "1056014825"[label="1", color="black", style="setlinewidth(1)"];
"1325523020" -> "119277343"[label="1", color="black", style="setlinewidth(1)"];
"1325523020" -> "1813324622"[label="1", color="black", style="setlinewidth(1)"];
"1325523020" -> "115476109"[label="1", color="black", style="setlinewidth(1)"];
"1655763979"[label="{{Function\ -1:\ finalize}|True}", color="blue", fontname="Calibri", style="filled", fillcolor="white"];
"1325523020" -> "1655763979"[label="1", color="black", style="setlinewidth(1)"];
"1841511709"[label="{{Stmt\ -1:\ (hostname\ =\ safe_get}|True}", color="black", fontname="Calibri", style="filled", fillcolor="white"];
"1841511709" -> "119277343"[label="1", color="black", style="setlinewidth(1)"];
"1841511709" -> "1297912179"[label="1", color="black", style="setlinewidth(1)"];
"1731370200"[label="{{Stmt\ -1:\ unlink(\\\"proc_ps.log\\\"}|True}", color="black", fontname="Calibri", style="filled", fillcolor="white"];
"1731370200" -> "589665737"[label="1", color="black", style="setlinewidth(1)"];
"1731370200" -> "1325523020"[label="1", color="black", style="setlinewidth(1)"];
"496198861"[label="{{Stmt\ -1:\ struct\ utsname\ \ unam}|True}", color="black", fontname="Calibri", style="filled", fillcolor="white"];
"496198861" -> "1841511709"[label="1", color="black", style="setlinewidth(1)"];
"1363804914"[label="{{Stmt\ -1:\ unlink(\\\"proc_disksta}|True}", color="black", fontname="Calibri", style="filled", fillcolor="white"];
"1363804914" -> "589665737"[label="1", color="black", style="setlinewidth(1)"];
"1363804914" -> "1731370200"[label="1", color="black", style="setlinewidth(1)"];
"592750852"[label="{{Stmt\ -1:\ char\ date_buf[(sizeo}|True}", color="black", fontname="Calibri", style="filled", fillcolor="white"];
"592750852" -> "496198861"[label="1", color="black", style="setlinewidth(1)"];
"1612783872"[label="{{Stmt\ -1:\ unlink(\\\"proc_stat.lo}|True}", color="black", fontname="Calibri", style="filled", fillcolor="white"];
"1612783872" -> "589665737"[label="1", color="black", style="setlinewidth(1)"];
"1612783872" -> "1363804914"[label="1", color="black", style="setlinewidth(1)"];
"1287628936"[label="{{Stmt\ -1:\ struct\ tm\ \ tm_time;}|True}", color="black", fontname="Calibri", style="filled", fillcolor="white"];
"1287628936" -> "592750852"[label="1", color="black", style="setlinewidth(1)"];
"1581730230"[label="{{Stmt\ -1:\ unlink(\\\"header\\\");}|True}", color="black", fontname="Calibri", style="filled", fillcolor="white"];
"1581730230" -> "589665737"[label="1", color="black", style="setlinewidth(1)"];
"1581730230" -> "1612783872"[label="1", color="black", style="setlinewidth(1)"];
"1105249476"[label="{{Stmt\ -1:\ time_t\ t;}|True}", color="black", fontname="Calibri", style="filled", fillcolor="white"];
"1105249476" -> "1287628936"[label="1", color="black", style="setlinewidth(1)"];
"698636033"[label="{{Expr\ 312:\ tempdir}|True}", color="black", fontname="Calibri", style="filled", fillcolor="white"];
"698636033" -> "519379543"[label="1", color="black", style="setlinewidth(1)"];
"698636033" -> "589665737"[label="1", color="black", style="setlinewidth(1)"];
"698636033" -> "1237663594"[label="1", color="black", style="setlinewidth(1)"];
"698636033" -> "705056737"[label="1", color="black", style="setlinewidth(1)"];
"698636033" -> "373203087"[label="1", color="black", style="setlinewidth(1)"];
"698636033" -> "205998900"[label="1", color="black", style="setlinewidth(1)"];
"698636033" -> "1098088229"[label="1", color="black", style="setlinewidth(1)"];
"698636033" -> "1344216918"[label="1", color="black", style="setlinewidth(1)"];
"698636033" -> "1588713644"[label="1", color="black", style="setlinewidth(1)"];
"698636033" -> "985640568"[label="1", color="black", style="setlinewidth(1)"];
"698636033" -> "1056014825"[label="1", color="black", style="setlinewidth(1)"];
"698636033" -> "119277343"[label="1", color="black", style="setlinewidth(1)"];
"698636033" -> "1813324622"[label="1", color="black", style="setlinewidth(1)"];
"698636033" -> "115476109"[label="1", color="black", style="setlinewidth(1)"];
"698636033" -> "1655763979"[label="1", color="black", style="setlinewidth(1)"];
"698636033" -> "1581730230"[label="1", color="black", style="setlinewidth(1)"];
"198798334"[label="{{Stmt\ -1:\ char\ *kcmdline;}|True}", color="black", fontname="Calibri", style="filled", fillcolor="white"];
"198798334" -> "1105249476"[label="1", color="black", style="setlinewidth(1)"];
"204168059"[label="{{Stmt\ -1:\ system(\\\"tar\ -zcf\ /va}|True}", color="black", fontname="Calibri", style="filled", fillcolor="white"];
"204168059" -> "1237663594"[label="1", color="black", style="setlinewidth(1)"];
"204168059" -> "698636033"[label="1", color="black", style="setlinewidth(1)"];
"771915041"[label="{{Stmt\ -1:\ char\ *hostname;}|True}", color="black", fontname="Calibri", style="filled", fillcolor="white"];
"771915041" -> "198798334"[label="1", color="black", style="setlinewidth(1)"];
"57316720" -> "705056737"[label="1", color="black", style="setlinewidth(1)"];
"57316720" -> "204168059"[label="1", color="black", style="setlinewidth(1)"];
"232265734"[label="{{Expr\ 3477:\ 0}|!def(CONFIG_FEATURE_BOOTCHARTD_BLOATED_HEADER)}", color="black", fontname="Calibri", style="filled", fillcolor="#CD5200"];
"232265734" -> "57316720"[label="!definedEx(CONFIG_FEATURE_BOOTCHARTD_BLOATED_HEADER)", color="red", style="setlinewidth(1)"];
"232265734" -> "771915041"[label="!definedEx(CONFIG_FEATURE_BOOTCHARTD_BLOATED_HEADER)", color="red", style="setlinewidth(1)"];
"2063736284"[label="{{Expr\ 3473:\ 1}|def(CONFIG_FEATURE_BOOTCHARTD_BLOATED_HEADER)}", color="black", fontname="Calibri", style="filled", fillcolor="#CD5200"];
"2063736284" -> "57316720"[label="definedEx(CONFIG_FEATURE_BOOTCHARTD_BLOATED_HEADER)", color="red", style="setlinewidth(1)"];
"2063736284" -> "771915041"[label="definedEx(CONFIG_FEATURE_BOOTCHARTD_BLOATED_HEADER)", color="red", style="setlinewidth(1)"];
"1677750897"[label="{{Stmt\ -1:\ fprintf(header_fp\ ,\ }|True}", color="black", fontname="Calibri", style="filled", fillcolor="white"];
"1677750897" -> "205998900"[label="1", color="black", style="setlinewidth(1)"];
"329631257"[label="{{Stmt\ -1:\ fputs(\\\"version\ =\ \\\"\ \\\"}|True}", color="black", fontname="Calibri", style="filled", fillcolor="white"];
"1677750897" -> "329631257"[label="1", color="black", style="setlinewidth(1)"];
"329631257" -> "1813324622"[label="1", color="black", style="setlinewidth(1)"];
"329631257" -> "2063736284"[label="definedEx(CONFIG_FEATURE_BOOTCHARTD_BLOATED_HEADER)", color="red", style="setlinewidth(1)"];
"329631257" -> "232265734"[label="!definedEx(CONFIG_FEATURE_BOOTCHARTD_BLOATED_HEADER)", color="red", style="setlinewidth(1)"];
"250814342"[label="{{Expr\ 268:\ prog}|True}", color="black", fontname="Calibri", style="filled", fillcolor="white"];
"250814342" -> "329631257"[label="1", color="black", style="setlinewidth(1)"];
"250814342" -> "1677750897"[label="1", color="black", style="setlinewidth(1)"];
"195148100"[label="{{Stmt\ -1:\ FILE\ *header_fp\ =\ \ x}|True}", color="black", fontname="Calibri", style="filled", fillcolor="white"];
"195148100" -> "115476109"[label="1", color="black", style="setlinewidth(1)"];
"195148100" -> "250814342"[label="1", color="black", style="setlinewidth(1)"];
"1655763979" -> "195148100"[label="1", color="black", style="setlinewidth(1)"];
"621420567"[label="{{Stmt\ -1:\ bb_perror_msg_and_di}|True}", color="black", fontname="Calibri", style="filled", fillcolor="white"];
"621420567" -> "2099390117"[label="1", color="black", style="setlinewidth(1)"];
"1383913065"[label="{{Decl\ -1:\ execvp}|True}", color="blue", fontname="Calibri", style="filled", fillcolor="white"];
"621420567" -> "1383913065"[label="1", color="black", style="setlinewidth(1)"];
"1156414432"[label="{{Stmt\ -1:\ waitpid(pid\ ,\ ((void}|True}", color="black", fontname="Calibri", style="filled", fillcolor="white"];
"621420567" -> "1156414432"[label="1", color="black", style="setlinewidth(1)"];
"1937506982"[label="{{Stmt\ -1:\ bb_perror_msg_and_di}|True}", color="black", fontname="Calibri", style="filled", fillcolor="white"];
"1937506982" -> "2099390117"[label="1", color="black", style="setlinewidth(1)"];
"1166780749"[label="{{Decl\ -1:\ execl}|True}", color="blue", fontname="Calibri", style="filled", fillcolor="white"];
"1937506982" -> "1166780749"[label="1", color="black", style="setlinewidth(1)"];
"531573232"[label="{{Decl\ -1:\ getenv}|True}", color="blue", fontname="Calibri", style="filled", fillcolor="white"];
"1937506982" -> "531573232"[label="1", color="black", style="setlinewidth(1)"];
"1917176271"[label="{{Expr\ -1:\ ((cmd\ ==\ CMD_START)\ }|True}", color="black", fontname="Calibri", style="filled", fillcolor="white"];
"1937506982" -> "1917176271"[label="1", color="black", style="setlinewidth(1)"];
"1655723617"[label="{{Stmt\ -1:\ execvp(argv[0]\ ,\ arg}|True}", color="black", fontname="Calibri", style="filled", fillcolor="white"];
"1655723617" -> "1383913065"[label="1", color="black", style="setlinewidth(1)"];
"1655723617" -> "621420567"[label="1", color="black", style="setlinewidth(1)"];
"1363210357"[label="{{Stmt\ -1:\ kill(logger_pid\ ,\ 10}|True}", color="black", fontname="Calibri", style="filled", fillcolor="white"];
"1910569214"[label="{{Decl\ -1:\ kill}|True}", color="blue", fontname="Calibri", style="filled", fillcolor="white"];
"1363210357" -> "1910569214"[label="1", color="black", style="setlinewidth(1)"];
"1211352799"[label="{{Decl\ -1:\ waitpid}|True}", color="blue", fontname="Calibri", style="filled", fillcolor="white"];
"1363210357" -> "1211352799"[label="1", color="black", style="setlinewidth(1)"];
"1363210357" -> "2099390117"[label="1", color="black", style="setlinewidth(1)"];
"1363210357" -> "1383913065"[label="1", color="black", style="setlinewidth(1)"];
"10416957"[label="{{Decl\ -1:\ vfork}|True}", color="blue", fontname="Calibri", style="filled", fillcolor="white"];
"1363210357" -> "10416957"[label="1", color="black", style="setlinewidth(1)"];
"1952803446"[label="{{Stmt\ -1:\ return\ 0;}|True}", color="black", fontname="Calibri", style="filled", fillcolor="white"];
"1363210357" -> "1952803446"[label="1", color="black", style="setlinewidth(1)"];
"969747353"[label="{{Stmt\ -1:\ execl(\\\"/sbin/init\\\"\ ,}|True}", color="black", fontname="Calibri", style="filled", fillcolor="white"];
"969747353" -> "1166780749"[label="1", color="black", style="setlinewidth(1)"];
"969747353" -> "1937506982"[label="1", color="black", style="setlinewidth(1)"];
"2073008687"[label="{{Stmt\ -1:\ (argv\ +=\ 2);}|True}", color="black", fontname="Calibri", style="filled", fillcolor="white"];
"2073008687" -> "1655723617"[label="1", color="black", style="setlinewidth(1)"];
"1156414432" -> "1211352799"[label="1", color="black", style="setlinewidth(1)"];
"1156414432" -> "1363210357"[label="1", color="black", style="setlinewidth(1)"];
"1458219909"[label="{{Decl\ -1:\ raise}|True}", color="blue", fontname="Calibri", style="filled", fillcolor="white"];
"406508995"[label="{{Stmt\ -1:\ execl(bootchart_init}|True}", color="black", fontname="Calibri", style="filled", fillcolor="white"];
"406508995" -> "1166780749"[label="1", color="black", style="setlinewidth(1)"];
"2018669848"[label="{{Stmt\ -1:\ execl(\\\"/init\\\"\ ,\ \\\"ini}|True}", color="black", fontname="Calibri", style="filled", fillcolor="white"];
"406508995" -> "2018669848"[label="1", color="black", style="setlinewidth(1)"];
"2018669848" -> "1166780749"[label="1", color="black", style="setlinewidth(1)"];
"2018669848" -> "969747353"[label="1", color="black", style="setlinewidth(1)"];
"1942799116"[label="{{Expr\ -1:\ (pid\ ==\ 0)}|True}", color="black", fontname="Calibri", style="filled", fillcolor="white"];
"1942799116" -> "1156414432"[label="1", color="black", style="setlinewidth(1)"];
"1942799116" -> "2073008687"[label="1", color="black", style="setlinewidth(1)"];
"1204074831"[label="{{Stmt\ -1:\ raise(19);}|True}", color="black", fontname="Calibri", style="filled", fillcolor="white"];
"1204074831" -> "1458219909"[label="1", color="black", style="setlinewidth(1)"];
"1204074831" -> "531573232"[label="1", color="black", style="setlinewidth(1)"];
"904553755"[label="{{Expr\ 433:\ bootchart_init}|True}", color="black", fontname="Calibri", style="filled", fillcolor="white"];
"904553755" -> "2018669848"[label="1", color="black", style="setlinewidth(1)"];
"904553755" -> "406508995"[label="1", color="black", style="setlinewidth(1)"];
"2005215546"[label="{{Stmt\ -1:\ pid_t\ pid\ =\ \ (\{\l\ \ pi}|True}", color="black", fontname="Calibri", style="filled", fillcolor="white"];
"2005215546" -> "2099390117"[label="1", color="black", style="setlinewidth(1)"];
"2005215546" -> "10416957"[label="1", color="black", style="setlinewidth(1)"];
"2005215546" -> "1942799116"[label="1", color="black", style="setlinewidth(1)"];
"1122077573"[label="{{Function\ -1:\ bootchartd_main}|True}", color="blue", fontname="Calibri", style="filled", fillcolor="white"];
"1952803446" -> "1122077573"[label="1", color="black", style="setlinewidth(1)"];
"128615851"[label="{{Expr\ 68:\ 1}|True}", color="black", fontname="Calibri", style="filled", fillcolor="white"];
"128615851" -> "531573232"[label="1", color="black", style="setlinewidth(1)"];
"128615851" -> "1204074831"[label="1", color="black", style="setlinewidth(1)"];
"799951772"[label="{{Decl\ -1:\ bb_signals}|True}", color="blue", fontname="Calibri", style="filled", fillcolor="white"];
"291286707"[label="{{Stmt\ -1:\ kill(logger_pid\ ,\ 18}|True}", color="black", fontname="Calibri", style="filled", fillcolor="white"];
"291286707" -> "1910569214"[label="1", color="black", style="setlinewidth(1)"];
"291286707" -> "1211352799"[label="1", color="black", style="setlinewidth(1)"];
"600608201"[label="{{Expr\ -1:\ (cmd\ ==\ CMD_PID1)}|True}", color="black", fontname="Calibri", style="filled", fillcolor="white"];
"291286707" -> "600608201"[label="1", color="black", style="setlinewidth(1)"];
"1713006561"[label="{{Stmt\ -1:\ char\ *bootchart_init}|True}", color="black", fontname="Calibri", style="filled", fillcolor="white"];
"1713006561" -> "531573232"[label="1", color="black", style="setlinewidth(1)"];
"1713006561" -> "904553755"[label="1", color="black", style="setlinewidth(1)"];
"1917176271" -> "1952803446"[label="1", color="black", style="setlinewidth(1)"];
"1917176271" -> "2005215546"[label="1", color="black", style="setlinewidth(1)"];
"56843413"[label="{{Stmt\ -1:\ bb_signals((0\ +\ (1\ \<}|True}", color="black", fontname="Calibri", style="filled", fillcolor="white"];
"56843413" -> "799951772"[label="1", color="black", style="setlinewidth(1)"];
"56843413" -> "128615851"[label="1", color="black", style="setlinewidth(1)"];
"1586046609"[label="{{Stmt\ -1:\ waitpid(logger_pid\ ,}|True}", color="black", fontname="Calibri", style="filled", fillcolor="white"];
"1586046609" -> "1211352799"[label="1", color="black", style="setlinewidth(1)"];
"1586046609" -> "291286707"[label="1", color="black", style="setlinewidth(1)"];
"600608201" -> "1917176271"[label="1", color="black", style="setlinewidth(1)"];
"600608201" -> "1713006561"[label="1", color="black", style="setlinewidth(1)"];
"622112424"[label="{{Stmt\ -1:\ (parser\ =\ config_ope}|True}", color="black", fontname="Calibri", style="filled", fillcolor="white"];
"1611079949"[label="{{Decl\ -1:\ config_open2}|True}", color="blue", fontname="Calibri", style="filled", fillcolor="white"];
"622112424" -> "1611079949"[label="1", color="black", style="setlinewidth(1)"];
"1275486109"[label="{{Decl\ -1:\ config_read}|True}", color="blue", fontname="Calibri", style="filled", fillcolor="white"];
"622112424" -> "1275486109"[label="1", color="black", style="setlinewidth(1)"];
"2132242196"[label="{{Stmt\ -1:\ char\ *tempdir;}|True}", color="black", fontname="Calibri", style="filled", fillcolor="white"];
"2132242196" -> "56843413"[label="1", color="black", style="setlinewidth(1)"];
"931266431"[label="{{Expr\ 68:\ 1}|True}", color="black", fontname="Calibri", style="filled", fillcolor="white"];
"931266431" -> "600608201"[label="1", color="black", style="setlinewidth(1)"];
"931266431" -> "1586046609"[label="1", color="black", style="setlinewidth(1)"];
"1849828329"[label="{{Stmt\ -1:\ kill((*pidList)\ ,\ 10}|True}", color="black", fontname="Calibri", style="filled", fillcolor="white"];
"1849828329" -> "1910569214"[label="1", color="black", style="setlinewidth(1)"];
"1774663402"[label="{{Stmt\ -1:\ pidList++;}|True}", color="black", fontname="Calibri", style="filled", fillcolor="white"];
"1849828329" -> "1774663402"[label="1", color="black", style="setlinewidth(1)"];
"1774663402" -> "1910569214"[label="1", color="black", style="setlinewidth(1)"];
"1744102184"[label="{{Expr\ -1:\ ((*pidList)\ !=\ 0)}|True}", color="black", fontname="Calibri", style="filled", fillcolor="white"];
"1774663402" -> "1744102184"[label="1", color="black", style="setlinewidth(1)"];
"28964533"[label="{{Expr\ -1:\ (!\ parser)}|True}", color="black", fontname="Calibri", style="filled", fillcolor="white"];
"28964533" -> "1275486109"[label="1", color="black", style="setlinewidth(1)"];
"28964533" -> "622112424"[label="1", color="black", style="setlinewidth(1)"];
"1225448671"[label="{{Decl\ -1:\ fork_or_rexec}|def(CONFIG_NOMMU)}", color="blue", fontname="Calibri", style="filled", fillcolor="#CD5200"];
"695864501"[label="{{Expr\ -1:\ (logger_pid\ ==\ 0)}|True}", color="black", fontname="Calibri", style="filled", fillcolor="white"];
"695864501" -> "931266431"[label="1", color="black", style="setlinewidth(1)"];
"695864501" -> "2132242196"[label="1", color="black", style="setlinewidth(1)"];
"1886566935"[label="{{Decl\ -1:\ xfork}|!def(CONFIG_NOMMU)}", color="blue", fontname="Calibri", style="filled", fillcolor="#CD5200"];
"959962375"[label="{{Stmt\ -1:\ return\ 0;}|True}", color="black", fontname="Calibri", style="filled", fillcolor="white"];
"959962375" -> "1122077573"[label="1", color="black", style="setlinewidth(1)"];
"1995175844"[label="{{Expr\ -1:\ ((*pidList)\ !=\ paren}|True}", color="black", fontname="Calibri", style="filled", fillcolor="white"];
"1995175844" -> "1774663402"[label="1", color="black", style="setlinewidth(1)"];
"1995175844" -> "1849828329"[label="1", color="black", style="setlinewidth(1)"];
"1020495346"[label="{{Stmt\ -1:\ parser_t\ *parser\ =\ \ }|True}", color="black", fontname="Calibri", style="filled", fillcolor="white"];
"1020495346" -> "1611079949"[label="1", color="black", style="setlinewidth(1)"];
"1020495346" -> "28964533"[label="1", color="black", style="setlinewidth(1)"];
"1458693309"[label="{{Stmt\ -1:\ (sample_period_us\ =\ }|True}", color="black", fontname="Calibri", style="filled", fillcolor="white"];
"1307179256"[label="{{Stmt\ -1:\ (logger_pid\ =\ xfork(}|True}", color="black", fontname="Calibri", style="filled", fillcolor="white"];
"1458693309" -> "1307179256"[label="!definedEx(CONFIG_NOMMU)", color="red", style="setlinewidth(1)"];
"906361602"[label="{{Stmt\ -1:\ (logger_pid\ =\ fork_o}|True}", color="black", fontname="Calibri", style="filled", fillcolor="white"];
"1458693309" -> "906361602"[label="definedEx(CONFIG_NOMMU)", color="red", style="setlinewidth(1)"];
"906361602" -> "1225448671"[label="definedEx(CONFIG_NOMMU)", color="red", style="setlinewidth(1)"];
"906361602" -> "695864501"[label="definedEx(CONFIG_NOMMU)", color="red", style="setlinewidth(1)"];
"1307179256" -> "1886566935"[label="!definedEx(CONFIG_NOMMU)", color="red", style="setlinewidth(1)"];
"1307179256" -> "695864501"[label="!definedEx(CONFIG_NOMMU)", color="red", style="setlinewidth(1)"];
"1744102184" -> "1995175844"[label="1", color="black", style="setlinewidth(1)"];
"1744102184" -> "959962375"[label="1", color="black", style="setlinewidth(1)"];
"1226798368"[label="{{Stmt\ -1:\ char\ *token[2];}|True}", color="black", fontname="Calibri", style="filled", fillcolor="white"];
"1226798368" -> "1020495346"[label="1", color="black", style="setlinewidth(1)"];
"341864712"[label="{{Expr\ -1:\ (((int\ )\ sample_peri}|True}", color="black", fontname="Calibri", style="filled", fillcolor="white"];
"341864712" -> "1307179256"[label="!definedEx(CONFIG_NOMMU)", color="red", style="setlinewidth(1)"];
"341864712" -> "906361602"[label="definedEx(CONFIG_NOMMU)", color="red", style="setlinewidth(1)"];
"341864712" -> "1458693309"[label="1", color="black", style="setlinewidth(1)"];
"2082187760"[label="{{Stmt\ -1:\ pid_t\ *pidList\ =\ \ fi}|True}", color="black", fontname="Calibri", style="filled", fillcolor="white"];
"640482847"[label="{{Decl\ -1:\ find_pid_by_name}|True}", color="blue", fontname="Calibri", style="filled", fillcolor="white"];
"2082187760" -> "640482847"[label="1", color="black", style="setlinewidth(1)"];
"2082187760" -> "1744102184"[label="1", color="black", style="setlinewidth(1)"];
"584325346"[label="{{Expr\ 3487:\ 0}|!def(CONFIG_FEATURE_BOOTCHARTD_CONFIG_FILE)}", color="black", fontname="Calibri", style="filled", fillcolor="#CD5200"];
"584325346" -> "341864712"[label="!definedEx(CONFIG_FEATURE_BOOTCHARTD_CONFIG_FILE)", color="red", style="setlinewidth(1)"];
"584325346" -> "1226798368"[label="!definedEx(CONFIG_FEATURE_BOOTCHARTD_CONFIG_FILE)", color="red", style="setlinewidth(1)"];
"659325016"[label="{{Expr\ 3483:\ 1}|def(CONFIG_FEATURE_BOOTCHARTD_CONFIG_FILE)}", color="black", fontname="Calibri", style="filled", fillcolor="#CD5200"];
"659325016" -> "341864712"[label="definedEx(CONFIG_FEATURE_BOOTCHARTD_CONFIG_FILE)", color="red", style="setlinewidth(1)"];
"659325016" -> "1226798368"[label="definedEx(CONFIG_FEATURE_BOOTCHARTD_CONFIG_FILE)", color="red", style="setlinewidth(1)"];
"799255669"[label="{{Stmt\ -1:\ bb_show_usage();}|True}", color="black", fontname="Calibri", style="filled", fillcolor="white"];
"1679827599"[label="{{Decl\ -1:\ bb_show_usage}|True}", color="blue", fontname="Calibri", style="filled", fillcolor="white"];
"799255669" -> "1679827599"[label="1", color="black", style="setlinewidth(1)"];
"441001564"[label="{{Expr\ -1:\ (cmd\ ==\ CMD_STOP)}|True}", color="black", fontname="Calibri", style="filled", fillcolor="white"];
"799255669" -> "441001564"[label="1", color="black", style="setlinewidth(1)"];
"441001564" -> "1910569214"[label="1", color="black", style="setlinewidth(1)"];
"441001564" -> "640482847"[label="1", color="black", style="setlinewidth(1)"];
"441001564" -> "1679827599"[label="1", color="black", style="setlinewidth(1)"];
"779125697"[label="{{Decl\ -1:\ index_in_strings}|True}", color="blue", fontname="Calibri", style="filled", fillcolor="white"];
"441001564" -> "779125697"[label="1", color="black", style="setlinewidth(1)"];
"1924936723"[label="{{Stmt\ -1:\ (sample_period_us\ =\ }|True}", color="black", fontname="Calibri", style="filled", fillcolor="white"];
"441001564" -> "1924936723"[label="1", color="black", style="setlinewidth(1)"];
"441001564" -> "2082187760"[label="1", color="black", style="setlinewidth(1)"];
"1924936723" -> "659325016"[label="definedEx(CONFIG_FEATURE_BOOTCHARTD_CONFIG_FILE)", color="red", style="setlinewidth(1)"];
"1924936723" -> "584325346"[label="!definedEx(CONFIG_FEATURE_BOOTCHARTD_CONFIG_FILE)", color="red", style="setlinewidth(1)"];
"717892864"[label="{{Expr\ -1:\ (cmd\ \<\ 0)}|True}", color="black", fontname="Calibri", style="filled", fillcolor="white"];
"717892864" -> "441001564"[label="1", color="black", style="setlinewidth(1)"];
"717892864" -> "799255669"[label="1", color="black", style="setlinewidth(1)"];
"710182275"[label="{{Stmt\ -1:\ bb_show_usage();}|True}", color="black", fontname="Calibri", style="filled", fillcolor="white"];
"710182275" -> "1679827599"[label="1", color="black", style="setlinewidth(1)"];
"1526516094"[label="{{Stmt\ -1:\ (cmd\ =\ CMD_PID1);}|True}", color="black", fontname="Calibri", style="filled", fillcolor="white"];
"710182275" -> "1526516094"[label="1", color="black", style="setlinewidth(1)"];
"1526516094" -> "1679827599"[label="1", color="black", style="setlinewidth(1)"];
"1526516094" -> "1910569214"[label="1", color="black", style="setlinewidth(1)"];
"1526516094" -> "640482847"[label="1", color="black", style="setlinewidth(1)"];
"1526516094" -> "779125697"[label="1", color="black", style="setlinewidth(1)"];
"1526516094" -> "1924936723"[label="1", color="black", style="setlinewidth(1)"];
"353915778"[label="{{Stmt\ -1:\ (cmd\ =\ index_in_stri}|True}", color="black", fontname="Calibri", style="filled", fillcolor="white"];
"353915778" -> "779125697"[label="1", color="black", style="setlinewidth(1)"];
"353915778" -> "717892864"[label="1", color="black", style="setlinewidth(1)"];
"1951233755"[label="{{Expr\ -1:\ (parent_pid\ !=\ 1)}|True}", color="black", fontname="Calibri", style="filled", fillcolor="white"];
"1951233755" -> "1526516094"[label="1", color="black", style="setlinewidth(1)"];
"1951233755" -> "710182275"[label="1", color="black", style="setlinewidth(1)"];
"1864876293"[label="{{Expr\ -1:\ argv[1]}|True}", color="black", fontname="Calibri", style="filled", fillcolor="white"];
"1864876293" -> "1951233755"[label="1", color="black", style="setlinewidth(1)"];
"1864876293" -> "353915778"[label="1", color="black", style="setlinewidth(1)"];
"706726461"[label="{{Decl\ -1:\ getpid}|True}", color="blue", fontname="Calibri", style="filled", fillcolor="white"];
"1705720647"[label="{{Stmt\ -1:\ (parent_pid\ =\ getpid}|True}", color="black", fontname="Calibri", style="filled", fillcolor="white"];
"1705720647" -> "706726461"[label="1", color="black", style="setlinewidth(1)"];
"1705720647" -> "1864876293"[label="1", color="black", style="setlinewidth(1)"];
"375261086"[label="{{Expr\ 113:\ 0}|True}", color="black", fontname="Calibri", style="filled", fillcolor="white"];
"375261086" -> "375261086"[label="1", color="black", style="setlinewidth(1)"];
"375261086" -> "1705720647"[label="1", color="black", style="setlinewidth(1)"];
"1517579707"[label="{{Stmt\ -1:\ enum\ \ \{\l\ \ CMD_STOP\ =}|True}", color="black", fontname="Calibri", style="filled", fillcolor="white"];
"1517579707" -> "375261086"[label="1", color="black", style="setlinewidth(1)"];
"552685843"[label="{{Stmt\ -1:\ smallint\ cmd;}|True}", color="black", fontname="Calibri", style="filled", fillcolor="white"];
"552685843" -> "1517579707"[label="1", color="black", style="setlinewidth(1)"];
"1373674323"[label="{{Stmt\ -1:\ pid_t\ parent_pid,\ lo}|True}", color="black", fontname="Calibri", style="filled", fillcolor="white"];
"1373674323" -> "552685843"[label="1", color="black", style="setlinewidth(1)"];
"410472020"[label="{{Stmt\ -1:\ unsigned\ sample_peri}|True}", color="black", fontname="Calibri", style="filled", fillcolor="white"];
"410472020" -> "1373674323"[label="1", color="black", style="setlinewidth(1)"];
"1122077573" -> "410472020"[label="1", color="black", style="setlinewidth(1)"];
}
