digraph "busybox-1.18.5/libbb/bb_do_delay.c" {
node [shape=record];
"1536261041"[label="{{Decl\ -1:\ xstrtoull_range_sfx}|True}", color="blue", fontname="Calibri", style="filled", fillcolor="white"];
"1052942029"[label="{{Stmt\ -1:\ return\ xstrtoull_ran}|True}", color="black", fontname="Calibri", style="filled", fillcolor="white"];
"1052942029" -> "1536261041"[label="1", color="black", style="setlinewidth(1)"];
"1645596997"[label="{{Function\ -1:\ xstrtoul_range_sfx}|True}", color="blue", fontname="Calibri", style="filled", fillcolor="white"];
"1052942029" -> "1645596997"[label="1", color="black", style="setlinewidth(1)"];
"1645596997" -> "1052942029"[label="1", color="black", style="setlinewidth(1)"];
"1902079471"[label="{{Decl\ -1:\ xstrtoull_range}|True}", color="blue", fontname="Calibri", style="filled", fillcolor="white"];
"1006693394"[label="{{Stmt\ -1:\ return\ xstrtoull_ran}|True}", color="black", fontname="Calibri", style="filled", fillcolor="white"];
"1006693394" -> "1902079471"[label="1", color="black", style="setlinewidth(1)"];
"1025294329"[label="{{Function\ -1:\ xstrtoul_range}|True}", color="blue", fontname="Calibri", style="filled", fillcolor="white"];
"1006693394" -> "1025294329"[label="1", color="black", style="setlinewidth(1)"];
"1025294329" -> "1006693394"[label="1", color="black", style="setlinewidth(1)"];
"685579611"[label="{{Decl\ -1:\ xstrtoull_sfx}|True}", color="blue", fontname="Calibri", style="filled", fillcolor="white"];
"779890585"[label="{{Stmt\ -1:\ return\ xstrtoull_sfx}|True}", color="black", fontname="Calibri", style="filled", fillcolor="white"];
"779890585" -> "685579611"[label="1", color="black", style="setlinewidth(1)"];
"1233175220"[label="{{Function\ -1:\ xstrtoul_sfx}|True}", color="blue", fontname="Calibri", style="filled", fillcolor="white"];
"779890585" -> "1233175220"[label="1", color="black", style="setlinewidth(1)"];
"1233175220" -> "779890585"[label="1", color="black", style="setlinewidth(1)"];
"1630652910"[label="{{Decl\ -1:\ xstrtoull}|True}", color="blue", fontname="Calibri", style="filled", fillcolor="white"];
"1089741221"[label="{{Stmt\ -1:\ return\ xstrtoull(str}|True}", color="black", fontname="Calibri", style="filled", fillcolor="white"];
"1089741221" -> "1630652910"[label="1", color="black", style="setlinewidth(1)"];
"1207491027"[label="{{Function\ -1:\ xstrtoul}|True}", color="blue", fontname="Calibri", style="filled", fillcolor="white"];
"1089741221" -> "1207491027"[label="1", color="black", style="setlinewidth(1)"];
"1207491027" -> "1089741221"[label="1", color="black", style="setlinewidth(1)"];
"1733408593"[label="{{Decl\ -1:\ xatoull_range_sfx}|True}", color="blue", fontname="Calibri", style="filled", fillcolor="white"];
"910299607"[label="{{Stmt\ -1:\ return\ xatoull_range}|True}", color="black", fontname="Calibri", style="filled", fillcolor="white"];
"910299607" -> "1733408593"[label="1", color="black", style="setlinewidth(1)"];
"1540392765"[label="{{Function\ -1:\ xatoul_range_sfx}|True}", color="blue", fontname="Calibri", style="filled", fillcolor="white"];
"910299607" -> "1540392765"[label="1", color="black", style="setlinewidth(1)"];
"1540392765" -> "910299607"[label="1", color="black", style="setlinewidth(1)"];
"550612079"[label="{{Decl\ -1:\ xatoull_range}|True}", color="blue", fontname="Calibri", style="filled", fillcolor="white"];
"1481334572"[label="{{Stmt\ -1:\ return\ xatoull_range}|True}", color="black", fontname="Calibri", style="filled", fillcolor="white"];
"1481334572" -> "550612079"[label="1", color="black", style="setlinewidth(1)"];
"2140408375"[label="{{Function\ -1:\ xatoul_range}|True}", color="blue", fontname="Calibri", style="filled", fillcolor="white"];
"1481334572" -> "2140408375"[label="1", color="black", style="setlinewidth(1)"];
"2140408375" -> "1481334572"[label="1", color="black", style="setlinewidth(1)"];
"1464603432"[label="{{Decl\ -1:\ xatoull_sfx}|True}", color="blue", fontname="Calibri", style="filled", fillcolor="white"];
"1715693848"[label="{{Stmt\ -1:\ return\ xatoull_sfx(s}|True}", color="black", fontname="Calibri", style="filled", fillcolor="white"];
"1715693848" -> "1464603432"[label="1", color="black", style="setlinewidth(1)"];
"1759974085"[label="{{Function\ -1:\ xatoul_sfx}|True}", color="blue", fontname="Calibri", style="filled", fillcolor="white"];
"1715693848" -> "1759974085"[label="1", color="black", style="setlinewidth(1)"];
"1759974085" -> "1715693848"[label="1", color="black", style="setlinewidth(1)"];
"1448359561"[label="{{Decl\ -1:\ xatoull}|True}", color="blue", fontname="Calibri", style="filled", fillcolor="white"];
"357638038"[label="{{Stmt\ -1:\ return\ xatoull(str);}|True}", color="black", fontname="Calibri", style="filled", fillcolor="white"];
"357638038" -> "1448359561"[label="1", color="black", style="setlinewidth(1)"];
"992968096"[label="{{Function\ -1:\ xatoul}|True}", color="blue", fontname="Calibri", style="filled", fillcolor="white"];
"357638038" -> "992968096"[label="1", color="black", style="setlinewidth(1)"];
"992968096" -> "357638038"[label="1", color="black", style="setlinewidth(1)"];
"1905614452"[label="{{Decl\ -1:\ xstrtoll_range_sfx}|True}", color="blue", fontname="Calibri", style="filled", fillcolor="white"];
"1300510693"[label="{{Stmt\ -1:\ return\ xstrtoll_rang}|True}", color="black", fontname="Calibri", style="filled", fillcolor="white"];
"1300510693" -> "1905614452"[label="1", color="black", style="setlinewidth(1)"];
"518427904"[label="{{Function\ -1:\ xstrtol_range_sfx}|True}", color="blue", fontname="Calibri", style="filled", fillcolor="white"];
"1300510693" -> "518427904"[label="1", color="black", style="setlinewidth(1)"];
"518427904" -> "1300510693"[label="1", color="black", style="setlinewidth(1)"];
"1794914479"[label="{{Decl\ -1:\ xstrtoll_range}|True}", color="blue", fontname="Calibri", style="filled", fillcolor="white"];
"1292417652"[label="{{Stmt\ -1:\ return\ xstrtoll_rang}|True}", color="black", fontname="Calibri", style="filled", fillcolor="white"];
"1292417652" -> "1794914479"[label="1", color="black", style="setlinewidth(1)"];
"87335075"[label="{{Function\ -1:\ xstrtol_range}|True}", color="blue", fontname="Calibri", style="filled", fillcolor="white"];
"1292417652" -> "87335075"[label="1", color="black", style="setlinewidth(1)"];
"87335075" -> "1292417652"[label="1", color="black", style="setlinewidth(1)"];
"1614931695"[label="{{Decl\ -1:\ xstrtoll}|True}", color="blue", fontname="Calibri", style="filled", fillcolor="white"];
"1891472693"[label="{{Stmt\ -1:\ return\ xstrtoll(str\ }|True}", color="black", fontname="Calibri", style="filled", fillcolor="white"];
"1891472693" -> "1614931695"[label="1", color="black", style="setlinewidth(1)"];
"1107909977"[label="{{Function\ -1:\ xstrtol}|True}", color="blue", fontname="Calibri", style="filled", fillcolor="white"];
"1891472693" -> "1107909977"[label="1", color="black", style="setlinewidth(1)"];
"1107909977" -> "1891472693"[label="1", color="black", style="setlinewidth(1)"];
"1957635453"[label="{{Decl\ -1:\ xatoll_range_sfx}|True}", color="blue", fontname="Calibri", style="filled", fillcolor="white"];
"1952089565"[label="{{Stmt\ -1:\ return\ xatoll_range_}|True}", color="black", fontname="Calibri", style="filled", fillcolor="white"];
"1952089565" -> "1957635453"[label="1", color="black", style="setlinewidth(1)"];
"199711145"[label="{{Function\ -1:\ xatol_range_sfx}|True}", color="blue", fontname="Calibri", style="filled", fillcolor="white"];
"1952089565" -> "199711145"[label="1", color="black", style="setlinewidth(1)"];
"199711145" -> "1952089565"[label="1", color="black", style="setlinewidth(1)"];
"904164343"[label="{{Decl\ -1:\ xatoll_range}|True}", color="blue", fontname="Calibri", style="filled", fillcolor="white"];
"1660334624"[label="{{Stmt\ -1:\ return\ xatoll_range(}|True}", color="black", fontname="Calibri", style="filled", fillcolor="white"];
"1660334624" -> "904164343"[label="1", color="black", style="setlinewidth(1)"];
"48451673"[label="{{Function\ -1:\ xatol_range}|True}", color="blue", fontname="Calibri", style="filled", fillcolor="white"];
"1660334624" -> "48451673"[label="1", color="black", style="setlinewidth(1)"];
"48451673" -> "1660334624"[label="1", color="black", style="setlinewidth(1)"];
"194351752"[label="{{Decl\ -1:\ xatoll_sfx}|True}", color="blue", fontname="Calibri", style="filled", fillcolor="white"];
"1809157631"[label="{{Stmt\ -1:\ return\ xatoll_sfx(st}|True}", color="black", fontname="Calibri", style="filled", fillcolor="white"];
"1809157631" -> "194351752"[label="1", color="black", style="setlinewidth(1)"];
"1357949841"[label="{{Function\ -1:\ xatol_sfx}|True}", color="blue", fontname="Calibri", style="filled", fillcolor="white"];
"1809157631" -> "1357949841"[label="1", color="black", style="setlinewidth(1)"];
"1357949841" -> "1809157631"[label="1", color="black", style="setlinewidth(1)"];
"824282124"[label="{{Decl\ -1:\ xatoll}|True}", color="blue", fontname="Calibri", style="filled", fillcolor="white"];
"1782853053"[label="{{Stmt\ -1:\ return\ xatoll(str);}|True}", color="black", fontname="Calibri", style="filled", fillcolor="white"];
"1782853053" -> "824282124"[label="1", color="black", style="setlinewidth(1)"];
"709055841"[label="{{Function\ -1:\ xatol}|True}", color="blue", fontname="Calibri", style="filled", fillcolor="white"];
"1782853053" -> "709055841"[label="1", color="black", style="setlinewidth(1)"];
"709055841" -> "1782853053"[label="1", color="black", style="setlinewidth(1)"];
"357638038" -> "1448359561"[label="1", color="black", style="setlinewidth(1)"];
"357638038" -> "992968096"[label="1", color="black", style="setlinewidth(1)"];
"992968096" -> "357638038"[label="1", color="black", style="setlinewidth(1)"];
"1331073790"[label="{{Decl\ -1:\ BUG_xatou32_unimplemented}|True}", color="blue", fontname="Calibri", style="filled", fillcolor="white"];
"1240407497"[label="{{Decl\ -1:\ xatou}|True}", color="blue", fontname="Calibri", style="filled", fillcolor="white"];
"227452025"[label="{{Stmt\ -1:\ return\ xatoul(numstr}|True}", color="black", fontname="Calibri", style="filled", fillcolor="white"];
"227452025" -> "992968096"[label="1", color="black", style="setlinewidth(1)"];
"403913770"[label="{{Function\ -1:\ xatou32}|True}", color="blue", fontname="Calibri", style="filled", fillcolor="white"];
"227452025" -> "403913770"[label="1", color="black", style="setlinewidth(1)"];
"479603329"[label="{{Stmt\ -1:\ return\ BUG_xatou32_u}|True}", color="black", fontname="Calibri", style="filled", fillcolor="white"];
"479603329" -> "1331073790"[label="1", color="black", style="setlinewidth(1)"];
"479603329" -> "403913770"[label="1", color="black", style="setlinewidth(1)"];
"685746710"[label="{{Stmt\ -1:\ return\ xatou(numstr)}|True}", color="black", fontname="Calibri", style="filled", fillcolor="white"];
"685746710" -> "1240407497"[label="1", color="black", style="setlinewidth(1)"];
"685746710" -> "403913770"[label="1", color="black", style="setlinewidth(1)"];
"896105405"[label="{{Expr\ -1:\ (((92233720368547758}|True}", color="black", fontname="Calibri", style="filled", fillcolor="white"];
"896105405" -> "479603329"[label="1", color="black", style="setlinewidth(1)"];
"896105405" -> "227452025"[label="1", color="black", style="setlinewidth(1)"];
"722882229"[label="{{Expr\ -1:\ (((2147483647\ *\ 2U)\ }|True}", color="black", fontname="Calibri", style="filled", fillcolor="white"];
"722882229" -> "896105405"[label="1", color="black", style="setlinewidth(1)"];
"722882229" -> "685746710"[label="1", color="black", style="setlinewidth(1)"];
"403913770" -> "722882229"[label="1", color="black", style="setlinewidth(1)"];
"1385147790"[label="{{Decl\ -1:\ bb_strtoull}|True}", color="blue", fontname="Calibri", style="filled", fillcolor="white"];
"1664961570"[label="{{Stmt\ -1:\ return\ bb_strtoull(a}|True}", color="black", fontname="Calibri", style="filled", fillcolor="white"];
"1664961570" -> "1385147790"[label="1", color="black", style="setlinewidth(1)"];
"12455184"[label="{{Function\ -1:\ bb_strtoul}|True}", color="blue", fontname="Calibri", style="filled", fillcolor="white"];
"1664961570" -> "12455184"[label="1", color="black", style="setlinewidth(1)"];
"12455184" -> "1664961570"[label="1", color="black", style="setlinewidth(1)"];
"815749542"[label="{{Decl\ -1:\ bb_strtoll}|True}", color="blue", fontname="Calibri", style="filled", fillcolor="white"];
"255005797"[label="{{Stmt\ -1:\ return\ bb_strtoll(ar}|True}", color="black", fontname="Calibri", style="filled", fillcolor="white"];
"255005797" -> "815749542"[label="1", color="black", style="setlinewidth(1)"];
"76832813"[label="{{Function\ -1:\ bb_strtol}|True}", color="blue", fontname="Calibri", style="filled", fillcolor="white"];
"255005797" -> "76832813"[label="1", color="black", style="setlinewidth(1)"];
"76832813" -> "255005797"[label="1", color="black", style="setlinewidth(1)"];
"1664961570" -> "1385147790"[label="1", color="black", style="setlinewidth(1)"];
"1664961570" -> "12455184"[label="1", color="black", style="setlinewidth(1)"];
"12455184" -> "1664961570"[label="1", color="black", style="setlinewidth(1)"];
"905722785"[label="{{Decl\ -1:\ BUG_bb_strtou32_unimplemented}|True}", color="blue", fontname="Calibri", style="filled", fillcolor="white"];
"1978814636"[label="{{Decl\ -1:\ bb_strtou}|True}", color="blue", fontname="Calibri", style="filled", fillcolor="white"];
"1859750347"[label="{{Stmt\ -1:\ return\ bb_strtoul(ar}|True}", color="black", fontname="Calibri", style="filled", fillcolor="white"];
"1859750347" -> "12455184"[label="1", color="black", style="setlinewidth(1)"];
"494480014"[label="{{Function\ -1:\ bb_strtou32}|True}", color="blue", fontname="Calibri", style="filled", fillcolor="white"];
"1859750347" -> "494480014"[label="1", color="black", style="setlinewidth(1)"];
"1475293393"[label="{{Stmt\ -1:\ return\ BUG_bb_strtou}|True}", color="black", fontname="Calibri", style="filled", fillcolor="white"];
"1475293393" -> "905722785"[label="1", color="black", style="setlinewidth(1)"];
"1475293393" -> "494480014"[label="1", color="black", style="setlinewidth(1)"];
"779817802"[label="{{Stmt\ -1:\ return\ bb_strtou(arg}|True}", color="black", fontname="Calibri", style="filled", fillcolor="white"];
"779817802" -> "1978814636"[label="1", color="black", style="setlinewidth(1)"];
"779817802" -> "494480014"[label="1", color="black", style="setlinewidth(1)"];
"1596684441"[label="{{Expr\ -1:\ (sizeof(uint32_t\ )\ =}|True}", color="black", fontname="Calibri", style="filled", fillcolor="white"];
"1596684441" -> "1475293393"[label="1", color="black", style="setlinewidth(1)"];
"1596684441" -> "1859750347"[label="1", color="black", style="setlinewidth(1)"];
"1782047963"[label="{{Expr\ -1:\ (sizeof(uint32_t\ )\ =}|True}", color="black", fontname="Calibri", style="filled", fillcolor="white"];
"1782047963" -> "1596684441"[label="1", color="black", style="setlinewidth(1)"];
"1782047963" -> "779817802"[label="1", color="black", style="setlinewidth(1)"];
"494480014" -> "1782047963"[label="1", color="black", style="setlinewidth(1)"];
"1147166395"[label="{{Stmt\ -1:\ return\ (b\ \<=\ ('z'\ -\ }|True}", color="black", fontname="Calibri", style="filled", fillcolor="white"];
"1329970364"[label="{{Function\ -1:\ bb_ascii_isalnum}|True}", color="blue", fontname="Calibri", style="filled", fillcolor="white"];
"1147166395" -> "1329970364"[label="1", color="black", style="setlinewidth(1)"];
"1771289257"[label="{{Stmt\ -1:\ return\ (b\ \<=\ 9);}|True}", color="black", fontname="Calibri", style="filled", fillcolor="white"];
"1771289257" -> "1329970364"[label="1", color="black", style="setlinewidth(1)"];
"997307966"[label="{{Stmt\ -1:\ (b\ =\ ((a\ \|\ 0x20)\ -\ '}|True}", color="black", fontname="Calibri", style="filled", fillcolor="white"];
"997307966" -> "1147166395"[label="1", color="black", style="setlinewidth(1)"];
"1727655241"[label="{{Expr\ -1:\ (b\ \<=\ 9)}|True}", color="black", fontname="Calibri", style="filled", fillcolor="white"];
"1727655241" -> "997307966"[label="1", color="black", style="setlinewidth(1)"];
"1727655241" -> "1771289257"[label="1", color="black", style="setlinewidth(1)"];
"1228459087"[label="{{Stmt\ -1:\ unsigned\ char\ b\ =\ \ (}|True}", color="black", fontname="Calibri", style="filled", fillcolor="white"];
"1228459087" -> "1727655241"[label="1", color="black", style="setlinewidth(1)"];
"1329970364" -> "1228459087"[label="1", color="black", style="setlinewidth(1)"];
"1464587156"[label="{{Stmt\ -1:\ return\ (b\ \<=\ ('f'\ -\ }|True}", color="black", fontname="Calibri", style="filled", fillcolor="white"];
"1865195542"[label="{{Function\ -1:\ bb_ascii_isxdigit}|True}", color="blue", fontname="Calibri", style="filled", fillcolor="white"];
"1464587156" -> "1865195542"[label="1", color="black", style="setlinewidth(1)"];
"417596898"[label="{{Stmt\ -1:\ return\ (b\ \<=\ 9);}|True}", color="black", fontname="Calibri", style="filled", fillcolor="white"];
"417596898" -> "1865195542"[label="1", color="black", style="setlinewidth(1)"];
"2145796884"[label="{{Stmt\ -1:\ (b\ =\ ((a\ \|\ 0x20)\ -\ '}|True}", color="black", fontname="Calibri", style="filled", fillcolor="white"];
"2145796884" -> "1464587156"[label="1", color="black", style="setlinewidth(1)"];
"1368822013"[label="{{Expr\ -1:\ (b\ \<=\ 9)}|True}", color="black", fontname="Calibri", style="filled", fillcolor="white"];
"1368822013" -> "2145796884"[label="1", color="black", style="setlinewidth(1)"];
"1368822013" -> "417596898"[label="1", color="black", style="setlinewidth(1)"];
"172744800"[label="{{Stmt\ -1:\ unsigned\ char\ b\ =\ \ (}|True}", color="black", fontname="Calibri", style="filled", fillcolor="white"];
"172744800" -> "1368822013"[label="1", color="black", style="setlinewidth(1)"];
"1865195542" -> "172744800"[label="1", color="black", style="setlinewidth(1)"];
"1496730678"[label="{{Stmt\ -1:\ (a\ -=\ ('a'\ -\ 'A'));}|True}", color="black", fontname="Calibri", style="filled", fillcolor="white"];
"2037096675"[label="{{Stmt\ -1:\ return\ a;}|True}", color="black", fontname="Calibri", style="filled", fillcolor="white"];
"1496730678" -> "2037096675"[label="1", color="black", style="setlinewidth(1)"];
"428166734"[label="{{Function\ -1:\ bb_ascii_toupper}|True}", color="blue", fontname="Calibri", style="filled", fillcolor="white"];
"2037096675" -> "428166734"[label="1", color="black", style="setlinewidth(1)"];
"1269605941"[label="{{Expr\ -1:\ (b\ \<=\ ('z'\ -\ 'a'))}|True}", color="black", fontname="Calibri", style="filled", fillcolor="white"];
"1269605941" -> "2037096675"[label="1", color="black", style="setlinewidth(1)"];
"1269605941" -> "1496730678"[label="1", color="black", style="setlinewidth(1)"];
"1992846129"[label="{{Stmt\ -1:\ unsigned\ char\ b\ =\ \ (}|True}", color="black", fontname="Calibri", style="filled", fillcolor="white"];
"1992846129" -> "1269605941"[label="1", color="black", style="setlinewidth(1)"];
"428166734" -> "1992846129"[label="1", color="black", style="setlinewidth(1)"];
"1693803282"[label="{{Stmt\ -1:\ (a\ +=\ ('a'\ -\ 'A'));}|True}", color="black", fontname="Calibri", style="filled", fillcolor="white"];
"999781201"[label="{{Stmt\ -1:\ return\ a;}|True}", color="black", fontname="Calibri", style="filled", fillcolor="white"];
"1693803282" -> "999781201"[label="1", color="black", style="setlinewidth(1)"];
"1853919145"[label="{{Function\ -1:\ bb_ascii_tolower}|True}", color="blue", fontname="Calibri", style="filled", fillcolor="white"];
"999781201" -> "1853919145"[label="1", color="black", style="setlinewidth(1)"];
"711246041"[label="{{Expr\ -1:\ (b\ \<=\ ('Z'\ -\ 'A'))}|True}", color="black", fontname="Calibri", style="filled", fillcolor="white"];
"711246041" -> "999781201"[label="1", color="black", style="setlinewidth(1)"];
"711246041" -> "1693803282"[label="1", color="black", style="setlinewidth(1)"];
"384318494"[label="{{Stmt\ -1:\ unsigned\ char\ b\ =\ \ (}|True}", color="black", fontname="Calibri", style="filled", fillcolor="white"];
"384318494" -> "711246041"[label="1", color="black", style="setlinewidth(1)"];
"1853919145" -> "384318494"[label="1", color="black", style="setlinewidth(1)"];
"1658351414"[label="{{Expr\ -1:\ ((now\ -\ start)\ \<\ sec}|True}", color="black", fontname="Calibri", style="filled", fillcolor="white"];
"1525659956"[label="{{Stmt\ -1:\ sleep(seconds);}|True}", color="black", fontname="Calibri", style="filled", fillcolor="white"];
"1658351414" -> "1525659956"[label="1", color="black", style="setlinewidth(1)"];
"878264074"[label="{{Decl\ -1:\ time}|True}", color="blue", fontname="Calibri", style="filled", fillcolor="white"];
"1658351414" -> "878264074"[label="1", color="black", style="setlinewidth(1)"];
"1239574494"[label="{{Decl\ -1:\ sleep}|True}", color="blue", fontname="Calibri", style="filled", fillcolor="white"];
"1658351414" -> "1239574494"[label="1", color="black", style="setlinewidth(1)"];
"1016598734"[label="{{Function\ -1:\ bb_do_delay}|True}", color="blue", fontname="Calibri", style="filled", fillcolor="white"];
"1658351414" -> "1016598734"[label="1", color="black", style="setlinewidth(1)"];
"222972775"[label="{{Stmt\ -1:\ (now\ =\ time(((void\ *}|True}", color="black", fontname="Calibri", style="filled", fillcolor="white"];
"222972775" -> "878264074"[label="1", color="black", style="setlinewidth(1)"];
"222972775" -> "1239574494"[label="1", color="black", style="setlinewidth(1)"];
"222972775" -> "1658351414"[label="1", color="black", style="setlinewidth(1)"];
"1525659956" -> "1239574494"[label="1", color="black", style="setlinewidth(1)"];
"1525659956" -> "222972775"[label="1", color="black", style="setlinewidth(1)"];
"1299428800"[label="{{Stmt\ -1:\ (start\ =\ time(((void}|True}", color="black", fontname="Calibri", style="filled", fillcolor="white"];
"1299428800" -> "878264074"[label="1", color="black", style="setlinewidth(1)"];
"1299428800" -> "1525659956"[label="1", color="black", style="setlinewidth(1)"];
"381831760"[label="{{Stmt\ -1:\ time_t\ start,\ now;}|True}", color="black", fontname="Calibri", style="filled", fillcolor="white"];
"381831760" -> "1299428800"[label="1", color="black", style="setlinewidth(1)"];
"1016598734" -> "381831760"[label="1", color="black", style="setlinewidth(1)"];
}
