digraph "busybox-1.18.5/libbb/device_open.c" {
node [shape=record];
"1725925872"[label="{{Decl\ -1:\ xstrtoull_range_sfx}|True}", color="blue", fontname="Calibri", style="filled", fillcolor="white"];
"1510598835"[label="{{Stmt\ -1:\ return\ xstrtoull_ran}|True}", color="black", fontname="Calibri", style="filled", fillcolor="white"];
"1510598835" -> "1725925872"[label="1", color="black", style="setlinewidth(1)"];
"925518433"[label="{{Function\ -1:\ xstrtoul_range_sfx}|True}", color="blue", fontname="Calibri", style="filled", fillcolor="white"];
"1510598835" -> "925518433"[label="1", color="black", style="setlinewidth(1)"];
"925518433" -> "1510598835"[label="1", color="black", style="setlinewidth(1)"];
"1792433683"[label="{{Decl\ -1:\ xstrtoull_range}|True}", color="blue", fontname="Calibri", style="filled", fillcolor="white"];
"67055151"[label="{{Stmt\ -1:\ return\ xstrtoull_ran}|True}", color="black", fontname="Calibri", style="filled", fillcolor="white"];
"67055151" -> "1792433683"[label="1", color="black", style="setlinewidth(1)"];
"1321679444"[label="{{Function\ -1:\ xstrtoul_range}|True}", color="blue", fontname="Calibri", style="filled", fillcolor="white"];
"67055151" -> "1321679444"[label="1", color="black", style="setlinewidth(1)"];
"1321679444" -> "67055151"[label="1", color="black", style="setlinewidth(1)"];
"253263592"[label="{{Decl\ -1:\ xstrtoull_sfx}|True}", color="blue", fontname="Calibri", style="filled", fillcolor="white"];
"937148019"[label="{{Stmt\ -1:\ return\ xstrtoull_sfx}|True}", color="black", fontname="Calibri", style="filled", fillcolor="white"];
"937148019" -> "253263592"[label="1", color="black", style="setlinewidth(1)"];
"1630652910"[label="{{Function\ -1:\ xstrtoul_sfx}|True}", color="blue", fontname="Calibri", style="filled", fillcolor="white"];
"937148019" -> "1630652910"[label="1", color="black", style="setlinewidth(1)"];
"1630652910" -> "937148019"[label="1", color="black", style="setlinewidth(1)"];
"95514384"[label="{{Decl\ -1:\ xstrtoull}|True}", color="blue", fontname="Calibri", style="filled", fillcolor="white"];
"630176830"[label="{{Stmt\ -1:\ return\ xstrtoull(str}|True}", color="black", fontname="Calibri", style="filled", fillcolor="white"];
"630176830" -> "95514384"[label="1", color="black", style="setlinewidth(1)"];
"433805196"[label="{{Function\ -1:\ xstrtoul}|True}", color="blue", fontname="Calibri", style="filled", fillcolor="white"];
"630176830" -> "433805196"[label="1", color="black", style="setlinewidth(1)"];
"433805196" -> "630176830"[label="1", color="black", style="setlinewidth(1)"];
"674347810"[label="{{Decl\ -1:\ xatoull_range_sfx}|True}", color="blue", fontname="Calibri", style="filled", fillcolor="white"];
"2100523461"[label="{{Stmt\ -1:\ return\ xatoull_range}|True}", color="black", fontname="Calibri", style="filled", fillcolor="white"];
"2100523461" -> "674347810"[label="1", color="black", style="setlinewidth(1)"];
"1418433905"[label="{{Function\ -1:\ xatoul_range_sfx}|True}", color="blue", fontname="Calibri", style="filled", fillcolor="white"];
"2100523461" -> "1418433905"[label="1", color="black", style="setlinewidth(1)"];
"1418433905" -> "2100523461"[label="1", color="black", style="setlinewidth(1)"];
"1530339865"[label="{{Decl\ -1:\ xatoull_range}|True}", color="blue", fontname="Calibri", style="filled", fillcolor="white"];
"1388734435"[label="{{Stmt\ -1:\ return\ xatoull_range}|True}", color="black", fontname="Calibri", style="filled", fillcolor="white"];
"1388734435" -> "1530339865"[label="1", color="black", style="setlinewidth(1)"];
"1690088824"[label="{{Function\ -1:\ xatoul_range}|True}", color="blue", fontname="Calibri", style="filled", fillcolor="white"];
"1388734435" -> "1690088824"[label="1", color="black", style="setlinewidth(1)"];
"1690088824" -> "1388734435"[label="1", color="black", style="setlinewidth(1)"];
"351607005"[label="{{Decl\ -1:\ xatoull_sfx}|True}", color="blue", fontname="Calibri", style="filled", fillcolor="white"];
"791981879"[label="{{Stmt\ -1:\ return\ xatoull_sfx(s}|True}", color="black", fontname="Calibri", style="filled", fillcolor="white"];
"791981879" -> "351607005"[label="1", color="black", style="setlinewidth(1)"];
"1941768020"[label="{{Function\ -1:\ xatoul_sfx}|True}", color="blue", fontname="Calibri", style="filled", fillcolor="white"];
"791981879" -> "1941768020"[label="1", color="black", style="setlinewidth(1)"];
"1941768020" -> "791981879"[label="1", color="black", style="setlinewidth(1)"];
"1092061150"[label="{{Decl\ -1:\ xatoull}|True}", color="blue", fontname="Calibri", style="filled", fillcolor="white"];
"1614931695"[label="{{Stmt\ -1:\ return\ xatoull(str);}|True}", color="black", fontname="Calibri", style="filled", fillcolor="white"];
"1614931695" -> "1092061150"[label="1", color="black", style="setlinewidth(1)"];
"1916471696"[label="{{Function\ -1:\ xatoul}|True}", color="blue", fontname="Calibri", style="filled", fillcolor="white"];
"1614931695" -> "1916471696"[label="1", color="black", style="setlinewidth(1)"];
"1916471696" -> "1614931695"[label="1", color="black", style="setlinewidth(1)"];
"1978623027"[label="{{Decl\ -1:\ xstrtoll_range_sfx}|True}", color="blue", fontname="Calibri", style="filled", fillcolor="white"];
"1493303290"[label="{{Stmt\ -1:\ return\ xstrtoll_rang}|True}", color="black", fontname="Calibri", style="filled", fillcolor="white"];
"1493303290" -> "1978623027"[label="1", color="black", style="setlinewidth(1)"];
"1726328953"[label="{{Function\ -1:\ xstrtol_range_sfx}|True}", color="blue", fontname="Calibri", style="filled", fillcolor="white"];
"1493303290" -> "1726328953"[label="1", color="black", style="setlinewidth(1)"];
"1726328953" -> "1493303290"[label="1", color="black", style="setlinewidth(1)"];
"1082602900"[label="{{Decl\ -1:\ xstrtoll_range}|True}", color="blue", fontname="Calibri", style="filled", fillcolor="white"];
"406151850"[label="{{Stmt\ -1:\ return\ xstrtoll_rang}|True}", color="black", fontname="Calibri", style="filled", fillcolor="white"];
"406151850" -> "1082602900"[label="1", color="black", style="setlinewidth(1)"];
"1075392785"[label="{{Function\ -1:\ xstrtol_range}|True}", color="blue", fontname="Calibri", style="filled", fillcolor="white"];
"406151850" -> "1075392785"[label="1", color="black", style="setlinewidth(1)"];
"1075392785" -> "406151850"[label="1", color="black", style="setlinewidth(1)"];
"1277308185"[label="{{Decl\ -1:\ xstrtoll}|True}", color="blue", fontname="Calibri", style="filled", fillcolor="white"];
"996208648"[label="{{Stmt\ -1:\ return\ xstrtoll(str\ }|True}", color="black", fontname="Calibri", style="filled", fillcolor="white"];
"996208648" -> "1277308185"[label="1", color="black", style="setlinewidth(1)"];
"1308735736"[label="{{Function\ -1:\ xstrtol}|True}", color="blue", fontname="Calibri", style="filled", fillcolor="white"];
"996208648" -> "1308735736"[label="1", color="black", style="setlinewidth(1)"];
"1308735736" -> "996208648"[label="1", color="black", style="setlinewidth(1)"];
"1497357286"[label="{{Decl\ -1:\ xatoll_range_sfx}|True}", color="blue", fontname="Calibri", style="filled", fillcolor="white"];
"662377151"[label="{{Stmt\ -1:\ return\ xatoll_range_}|True}", color="black", fontname="Calibri", style="filled", fillcolor="white"];
"662377151" -> "1497357286"[label="1", color="black", style="setlinewidth(1)"];
"106838866"[label="{{Function\ -1:\ xatol_range_sfx}|True}", color="blue", fontname="Calibri", style="filled", fillcolor="white"];
"662377151" -> "106838866"[label="1", color="black", style="setlinewidth(1)"];
"106838866" -> "662377151"[label="1", color="black", style="setlinewidth(1)"];
"2036921418"[label="{{Decl\ -1:\ xatoll_range}|True}", color="blue", fontname="Calibri", style="filled", fillcolor="white"];
"633861552"[label="{{Stmt\ -1:\ return\ xatoll_range(}|True}", color="black", fontname="Calibri", style="filled", fillcolor="white"];
"633861552" -> "2036921418"[label="1", color="black", style="setlinewidth(1)"];
"1154567966"[label="{{Function\ -1:\ xatol_range}|True}", color="blue", fontname="Calibri", style="filled", fillcolor="white"];
"633861552" -> "1154567966"[label="1", color="black", style="setlinewidth(1)"];
"1154567966" -> "633861552"[label="1", color="black", style="setlinewidth(1)"];
"1681448166"[label="{{Decl\ -1:\ xatoll_sfx}|True}", color="blue", fontname="Calibri", style="filled", fillcolor="white"];
"2040355342"[label="{{Stmt\ -1:\ return\ xatoll_sfx(st}|True}", color="black", fontname="Calibri", style="filled", fillcolor="white"];
"2040355342" -> "1681448166"[label="1", color="black", style="setlinewidth(1)"];
"70752246"[label="{{Function\ -1:\ xatol_sfx}|True}", color="blue", fontname="Calibri", style="filled", fillcolor="white"];
"2040355342" -> "70752246"[label="1", color="black", style="setlinewidth(1)"];
"70752246" -> "2040355342"[label="1", color="black", style="setlinewidth(1)"];
"2057129851"[label="{{Decl\ -1:\ xatoll}|True}", color="blue", fontname="Calibri", style="filled", fillcolor="white"];
"2006121365"[label="{{Stmt\ -1:\ return\ xatoll(str);}|True}", color="black", fontname="Calibri", style="filled", fillcolor="white"];
"2006121365" -> "2057129851"[label="1", color="black", style="setlinewidth(1)"];
"966650316"[label="{{Function\ -1:\ xatol}|True}", color="blue", fontname="Calibri", style="filled", fillcolor="white"];
"2006121365" -> "966650316"[label="1", color="black", style="setlinewidth(1)"];
"966650316" -> "2006121365"[label="1", color="black", style="setlinewidth(1)"];
"1614931695" -> "1092061150"[label="1", color="black", style="setlinewidth(1)"];
"1614931695" -> "1916471696"[label="1", color="black", style="setlinewidth(1)"];
"1916471696" -> "1614931695"[label="1", color="black", style="setlinewidth(1)"];
"1678924183"[label="{{Decl\ -1:\ BUG_xatou32_unimplemented}|True}", color="blue", fontname="Calibri", style="filled", fillcolor="white"];
"1708144302"[label="{{Decl\ -1:\ xatou}|True}", color="blue", fontname="Calibri", style="filled", fillcolor="white"];
"1035397405"[label="{{Stmt\ -1:\ return\ xatoul(numstr}|True}", color="black", fontname="Calibri", style="filled", fillcolor="white"];
"1035397405" -> "1916471696"[label="1", color="black", style="setlinewidth(1)"];
"906031742"[label="{{Function\ -1:\ xatou32}|True}", color="blue", fontname="Calibri", style="filled", fillcolor="white"];
"1035397405" -> "906031742"[label="1", color="black", style="setlinewidth(1)"];
"1176176489"[label="{{Stmt\ -1:\ return\ BUG_xatou32_u}|True}", color="black", fontname="Calibri", style="filled", fillcolor="white"];
"1176176489" -> "1678924183"[label="1", color="black", style="setlinewidth(1)"];
"1176176489" -> "906031742"[label="1", color="black", style="setlinewidth(1)"];
"904479315"[label="{{Stmt\ -1:\ return\ xatou(numstr)}|True}", color="black", fontname="Calibri", style="filled", fillcolor="white"];
"904479315" -> "1708144302"[label="1", color="black", style="setlinewidth(1)"];
"904479315" -> "906031742"[label="1", color="black", style="setlinewidth(1)"];
"1788984836"[label="{{Expr\ -1:\ (((92233720368547758}|True}", color="black", fontname="Calibri", style="filled", fillcolor="white"];
"1788984836" -> "1176176489"[label="1", color="black", style="setlinewidth(1)"];
"1788984836" -> "1035397405"[label="1", color="black", style="setlinewidth(1)"];
"1156341884"[label="{{Expr\ -1:\ (((2147483647\ *\ 2U)\ }|True}", color="black", fontname="Calibri", style="filled", fillcolor="white"];
"1156341884" -> "1788984836"[label="1", color="black", style="setlinewidth(1)"];
"1156341884" -> "904479315"[label="1", color="black", style="setlinewidth(1)"];
"906031742" -> "1156341884"[label="1", color="black", style="setlinewidth(1)"];
"1618503964"[label="{{Decl\ -1:\ bb_strtoull}|True}", color="blue", fontname="Calibri", style="filled", fillcolor="white"];
"1218204792"[label="{{Stmt\ -1:\ return\ bb_strtoull(a}|True}", color="black", fontname="Calibri", style="filled", fillcolor="white"];
"1218204792" -> "1618503964"[label="1", color="black", style="setlinewidth(1)"];
"1603465720"[label="{{Function\ -1:\ bb_strtoul}|True}", color="blue", fontname="Calibri", style="filled", fillcolor="white"];
"1218204792" -> "1603465720"[label="1", color="black", style="setlinewidth(1)"];
"1603465720" -> "1218204792"[label="1", color="black", style="setlinewidth(1)"];
"2059546564"[label="{{Decl\ -1:\ bb_strtoll}|True}", color="blue", fontname="Calibri", style="filled", fillcolor="white"];
"1390740889"[label="{{Stmt\ -1:\ return\ bb_strtoll(ar}|True}", color="black", fontname="Calibri", style="filled", fillcolor="white"];
"1390740889" -> "2059546564"[label="1", color="black", style="setlinewidth(1)"];
"1159860484"[label="{{Function\ -1:\ bb_strtol}|True}", color="blue", fontname="Calibri", style="filled", fillcolor="white"];
"1390740889" -> "1159860484"[label="1", color="black", style="setlinewidth(1)"];
"1159860484" -> "1390740889"[label="1", color="black", style="setlinewidth(1)"];
"1218204792" -> "1618503964"[label="1", color="black", style="setlinewidth(1)"];
"1218204792" -> "1603465720"[label="1", color="black", style="setlinewidth(1)"];
"1603465720" -> "1218204792"[label="1", color="black", style="setlinewidth(1)"];
"183343139"[label="{{Decl\ -1:\ BUG_bb_strtou32_unimplemented}|True}", color="blue", fontname="Calibri", style="filled", fillcolor="white"];
"389970220"[label="{{Decl\ -1:\ bb_strtou}|True}", color="blue", fontname="Calibri", style="filled", fillcolor="white"];
"172333204"[label="{{Stmt\ -1:\ return\ bb_strtoul(ar}|True}", color="black", fontname="Calibri", style="filled", fillcolor="white"];
"172333204" -> "1603465720"[label="1", color="black", style="setlinewidth(1)"];
"571144165"[label="{{Function\ -1:\ bb_strtou32}|True}", color="blue", fontname="Calibri", style="filled", fillcolor="white"];
"172333204" -> "571144165"[label="1", color="black", style="setlinewidth(1)"];
"1620241533"[label="{{Stmt\ -1:\ return\ BUG_bb_strtou}|True}", color="black", fontname="Calibri", style="filled", fillcolor="white"];
"1620241533" -> "183343139"[label="1", color="black", style="setlinewidth(1)"];
"1620241533" -> "571144165"[label="1", color="black", style="setlinewidth(1)"];
"1027582552"[label="{{Stmt\ -1:\ return\ bb_strtou(arg}|True}", color="black", fontname="Calibri", style="filled", fillcolor="white"];
"1027582552" -> "389970220"[label="1", color="black", style="setlinewidth(1)"];
"1027582552" -> "571144165"[label="1", color="black", style="setlinewidth(1)"];
"2108201554"[label="{{Expr\ -1:\ (sizeof(uint32_t\ )\ =}|True}", color="black", fontname="Calibri", style="filled", fillcolor="white"];
"2108201554" -> "1620241533"[label="1", color="black", style="setlinewidth(1)"];
"2108201554" -> "172333204"[label="1", color="black", style="setlinewidth(1)"];
"686698957"[label="{{Expr\ -1:\ (sizeof(uint32_t\ )\ =}|True}", color="black", fontname="Calibri", style="filled", fillcolor="white"];
"686698957" -> "2108201554"[label="1", color="black", style="setlinewidth(1)"];
"686698957" -> "1027582552"[label="1", color="black", style="setlinewidth(1)"];
"571144165" -> "686698957"[label="1", color="black", style="setlinewidth(1)"];
"1980665024"[label="{{Stmt\ -1:\ return\ (b\ \<=\ ('z'\ -\ }|True}", color="black", fontname="Calibri", style="filled", fillcolor="white"];
"1948582557"[label="{{Function\ -1:\ bb_ascii_isalnum}|True}", color="blue", fontname="Calibri", style="filled", fillcolor="white"];
"1980665024" -> "1948582557"[label="1", color="black", style="setlinewidth(1)"];
"1708500621"[label="{{Stmt\ -1:\ return\ (b\ \<=\ 9);}|True}", color="black", fontname="Calibri", style="filled", fillcolor="white"];
"1708500621" -> "1948582557"[label="1", color="black", style="setlinewidth(1)"];
"1750622377"[label="{{Stmt\ -1:\ (b\ =\ ((a\ \|\ 0x20)\ -\ '}|True}", color="black", fontname="Calibri", style="filled", fillcolor="white"];
"1750622377" -> "1980665024"[label="1", color="black", style="setlinewidth(1)"];
"197995501"[label="{{Expr\ -1:\ (b\ \<=\ 9)}|True}", color="black", fontname="Calibri", style="filled", fillcolor="white"];
"197995501" -> "1750622377"[label="1", color="black", style="setlinewidth(1)"];
"197995501" -> "1708500621"[label="1", color="black", style="setlinewidth(1)"];
"49084821"[label="{{Stmt\ -1:\ unsigned\ char\ b\ =\ \ (}|True}", color="black", fontname="Calibri", style="filled", fillcolor="white"];
"49084821" -> "197995501"[label="1", color="black", style="setlinewidth(1)"];
"1948582557" -> "49084821"[label="1", color="black", style="setlinewidth(1)"];
"50576689"[label="{{Stmt\ -1:\ return\ (b\ \<=\ ('f'\ -\ }|True}", color="black", fontname="Calibri", style="filled", fillcolor="white"];
"367797047"[label="{{Function\ -1:\ bb_ascii_isxdigit}|True}", color="blue", fontname="Calibri", style="filled", fillcolor="white"];
"50576689" -> "367797047"[label="1", color="black", style="setlinewidth(1)"];
"751365434"[label="{{Stmt\ -1:\ return\ (b\ \<=\ 9);}|True}", color="black", fontname="Calibri", style="filled", fillcolor="white"];
"751365434" -> "367797047"[label="1", color="black", style="setlinewidth(1)"];
"136778540"[label="{{Stmt\ -1:\ (b\ =\ ((a\ \|\ 0x20)\ -\ '}|True}", color="black", fontname="Calibri", style="filled", fillcolor="white"];
"136778540" -> "50576689"[label="1", color="black", style="setlinewidth(1)"];
"1714893413"[label="{{Expr\ -1:\ (b\ \<=\ 9)}|True}", color="black", fontname="Calibri", style="filled", fillcolor="white"];
"1714893413" -> "136778540"[label="1", color="black", style="setlinewidth(1)"];
"1714893413" -> "751365434"[label="1", color="black", style="setlinewidth(1)"];
"390679014"[label="{{Stmt\ -1:\ unsigned\ char\ b\ =\ \ (}|True}", color="black", fontname="Calibri", style="filled", fillcolor="white"];
"390679014" -> "1714893413"[label="1", color="black", style="setlinewidth(1)"];
"367797047" -> "390679014"[label="1", color="black", style="setlinewidth(1)"];
"168257575"[label="{{Stmt\ -1:\ (a\ -=\ ('a'\ -\ 'A'));}|True}", color="black", fontname="Calibri", style="filled", fillcolor="white"];
"28615093"[label="{{Stmt\ -1:\ return\ a;}|True}", color="black", fontname="Calibri", style="filled", fillcolor="white"];
"168257575" -> "28615093"[label="1", color="black", style="setlinewidth(1)"];
"1951007364"[label="{{Function\ -1:\ bb_ascii_toupper}|True}", color="blue", fontname="Calibri", style="filled", fillcolor="white"];
"28615093" -> "1951007364"[label="1", color="black", style="setlinewidth(1)"];
"1254830391"[label="{{Expr\ -1:\ (b\ \<=\ ('z'\ -\ 'a'))}|True}", color="black", fontname="Calibri", style="filled", fillcolor="white"];
"1254830391" -> "28615093"[label="1", color="black", style="setlinewidth(1)"];
"1254830391" -> "168257575"[label="1", color="black", style="setlinewidth(1)"];
"1192299242"[label="{{Stmt\ -1:\ unsigned\ char\ b\ =\ \ (}|True}", color="black", fontname="Calibri", style="filled", fillcolor="white"];
"1192299242" -> "1254830391"[label="1", color="black", style="setlinewidth(1)"];
"1951007364" -> "1192299242"[label="1", color="black", style="setlinewidth(1)"];
"1706158324"[label="{{Stmt\ -1:\ (a\ +=\ ('a'\ -\ 'A'));}|True}", color="black", fontname="Calibri", style="filled", fillcolor="white"];
"1191392983"[label="{{Stmt\ -1:\ return\ a;}|True}", color="black", fontname="Calibri", style="filled", fillcolor="white"];
"1706158324" -> "1191392983"[label="1", color="black", style="setlinewidth(1)"];
"87469155"[label="{{Function\ -1:\ bb_ascii_tolower}|True}", color="blue", fontname="Calibri", style="filled", fillcolor="white"];
"1191392983" -> "87469155"[label="1", color="black", style="setlinewidth(1)"];
"1305241297"[label="{{Expr\ -1:\ (b\ \<=\ ('Z'\ -\ 'A'))}|True}", color="black", fontname="Calibri", style="filled", fillcolor="white"];
"1305241297" -> "1191392983"[label="1", color="black", style="setlinewidth(1)"];
"1305241297" -> "1706158324"[label="1", color="black", style="setlinewidth(1)"];
"1936520006"[label="{{Stmt\ -1:\ unsigned\ char\ b\ =\ \ (}|True}", color="black", fontname="Calibri", style="filled", fillcolor="white"];
"1936520006" -> "1305241297"[label="1", color="black", style="setlinewidth(1)"];
"87469155" -> "1936520006"[label="1", color="black", style="setlinewidth(1)"];
"1182071652"[label="{{Decl\ -1:\ fcntl}|True}", color="blue", fontname="Calibri", style="filled", fillcolor="white"];
"993367760"[label="{{Stmt\ 24:\ break;}|True}", color="black", fontname="Calibri", style="filled", fillcolor="white"];
"757972478"[label="{{Expr\ -1:\ (fd\ \<\ 0)}|True}", color="black", fontname="Calibri", style="filled", fillcolor="white"];
"993367760" -> "757972478"[label="1", color="black", style="setlinewidth(1)"];
"617264566"[label="{{Expr\ -1:\ f++}|True}", color="black", fontname="Calibri", style="filled", fillcolor="white"];
"1423961233"[label="{{Expr\ -1:\ (f\ \<\ 5)}|True}", color="black", fontname="Calibri", style="filled", fillcolor="white"];
"617264566" -> "1423961233"[label="1", color="black", style="setlinewidth(1)"];
"299213738"[label="{{Stmt\ -1:\ fcntl(fd\ ,\ 4\ ,\ mode)}|True}", color="black", fontname="Calibri", style="filled", fillcolor="white"];
"299213738" -> "1182071652"[label="1", color="black", style="setlinewidth(1)"];
"293145490"[label="{{Stmt\ -1:\ return\ fd;}|True}", color="black", fontname="Calibri", style="filled", fillcolor="white"];
"299213738" -> "293145490"[label="1", color="black", style="setlinewidth(1)"];
"483513434"[label="{{Function\ -1:\ device_open}|True}", color="blue", fontname="Calibri", style="filled", fillcolor="white"];
"293145490" -> "483513434"[label="1", color="black", style="setlinewidth(1)"];
"506472034"[label="{{Expr\ -1:\ (fd\ \>=\ 0)}|True}", color="black", fontname="Calibri", style="filled", fillcolor="white"];
"281689702"[label="{{Decl\ -1:\ open}|True}", color="blue", fontname="Calibri", style="filled", fillcolor="white"];
"506472034" -> "281689702"[label="1", color="black", style="setlinewidth(1)"];
"506472034" -> "617264566"[label="1", color="black", style="setlinewidth(1)"];
"506472034" -> "993367760"[label="1", color="black", style="setlinewidth(1)"];
"90122077"[label="{{Stmt\ -1:\ return\ fd;}|True}", color="black", fontname="Calibri", style="filled", fillcolor="white"];
"90122077" -> "483513434"[label="1", color="black", style="setlinewidth(1)"];
"1085048872"[label="{{Expr\ -1:\ (m\ !=\ mode)}|True}", color="black", fontname="Calibri", style="filled", fillcolor="white"];
"1085048872" -> "293145490"[label="1", color="black", style="setlinewidth(1)"];
"1085048872" -> "299213738"[label="1", color="black", style="setlinewidth(1)"];
"1310547726"[label="{{Stmt\ -1:\ (fd\ =\ open(device\ ,\ }|True}", color="black", fontname="Calibri", style="filled", fillcolor="white"];
"1310547726" -> "281689702"[label="1", color="black", style="setlinewidth(1)"];
"1310547726" -> "506472034"[label="1", color="black", style="setlinewidth(1)"];
"757972478" -> "1085048872"[label="1", color="black", style="setlinewidth(1)"];
"757972478" -> "90122077"[label="1", color="black", style="setlinewidth(1)"];
"1423961233" -> "757972478"[label="1", color="black", style="setlinewidth(1)"];
"1423961233" -> "1310547726"[label="1", color="black", style="setlinewidth(1)"];
"1847505291"[label="{{Expr\ -1:\ (f\ =\ 0)}|True}", color="black", fontname="Calibri", style="filled", fillcolor="white"];
"1847505291" -> "1423961233"[label="1", color="black", style="setlinewidth(1)"];
"1863646130"[label="{{Stmt\ -1:\ (m\ =\ (mode\ \|\ 04000))}|True}", color="black", fontname="Calibri", style="filled", fillcolor="white"];
"1863646130" -> "1847505291"[label="1", color="black", style="setlinewidth(1)"];
"447562806"[label="{{Stmt\ -1:\ int\ m,\ f,\ fd;}|True}", color="black", fontname="Calibri", style="filled", fillcolor="white"];
"447562806" -> "1863646130"[label="1", color="black", style="setlinewidth(1)"];
"483513434" -> "447562806"[label="1", color="black", style="setlinewidth(1)"];
}
