digraph "busybox-1.18.5/libbb/inode_hash.c" {
node [shape=record];
"1341874667"[label="{{Decl\ -1:\ xstrtoull_range_sfx}|True}", color="blue", fontname="Calibri", style="filled", fillcolor="white"];
"2065407546"[label="{{Stmt\ -1:\ return\ xstrtoull_ran}|True}", color="black", fontname="Calibri", style="filled", fillcolor="white"];
"2065407546" -> "1341874667"[label="1", color="black", style="setlinewidth(1)"];
"1853736362"[label="{{Function\ -1:\ xstrtoul_range_sfx}|True}", color="blue", fontname="Calibri", style="filled", fillcolor="white"];
"2065407546" -> "1853736362"[label="1", color="black", style="setlinewidth(1)"];
"1853736362" -> "2065407546"[label="1", color="black", style="setlinewidth(1)"];
"1846837109"[label="{{Decl\ -1:\ xstrtoull_range}|True}", color="blue", fontname="Calibri", style="filled", fillcolor="white"];
"2006121365"[label="{{Stmt\ -1:\ return\ xstrtoull_ran}|True}", color="black", fontname="Calibri", style="filled", fillcolor="white"];
"2006121365" -> "1846837109"[label="1", color="black", style="setlinewidth(1)"];
"950176494"[label="{{Function\ -1:\ xstrtoul_range}|True}", color="blue", fontname="Calibri", style="filled", fillcolor="white"];
"2006121365" -> "950176494"[label="1", color="black", style="setlinewidth(1)"];
"950176494" -> "2006121365"[label="1", color="black", style="setlinewidth(1)"];
"1319097904"[label="{{Decl\ -1:\ xstrtoull_sfx}|True}", color="blue", fontname="Calibri", style="filled", fillcolor="white"];
"1465836770"[label="{{Stmt\ -1:\ return\ xstrtoull_sfx}|True}", color="black", fontname="Calibri", style="filled", fillcolor="white"];
"1465836770" -> "1319097904"[label="1", color="black", style="setlinewidth(1)"];
"881834482"[label="{{Function\ -1:\ xstrtoul_sfx}|True}", color="blue", fontname="Calibri", style="filled", fillcolor="white"];
"1465836770" -> "881834482"[label="1", color="black", style="setlinewidth(1)"];
"881834482" -> "1465836770"[label="1", color="black", style="setlinewidth(1)"];
"1727263506"[label="{{Decl\ -1:\ xstrtoull}|True}", color="blue", fontname="Calibri", style="filled", fillcolor="white"];
"1947094401"[label="{{Stmt\ -1:\ return\ xstrtoull(str}|True}", color="black", fontname="Calibri", style="filled", fillcolor="white"];
"1947094401" -> "1727263506"[label="1", color="black", style="setlinewidth(1)"];
"1194055238"[label="{{Function\ -1:\ xstrtoul}|True}", color="blue", fontname="Calibri", style="filled", fillcolor="white"];
"1947094401" -> "1194055238"[label="1", color="black", style="setlinewidth(1)"];
"1194055238" -> "1947094401"[label="1", color="black", style="setlinewidth(1)"];
"1306037867"[label="{{Decl\ -1:\ xatoull_range_sfx}|True}", color="blue", fontname="Calibri", style="filled", fillcolor="white"];
"2008278932"[label="{{Stmt\ -1:\ return\ xatoull_range}|True}", color="black", fontname="Calibri", style="filled", fillcolor="white"];
"2008278932" -> "1306037867"[label="1", color="black", style="setlinewidth(1)"];
"910299607"[label="{{Function\ -1:\ xatoul_range_sfx}|True}", color="blue", fontname="Calibri", style="filled", fillcolor="white"];
"2008278932" -> "910299607"[label="1", color="black", style="setlinewidth(1)"];
"910299607" -> "2008278932"[label="1", color="black", style="setlinewidth(1)"];
"716329727"[label="{{Decl\ -1:\ xatoull_range}|True}", color="blue", fontname="Calibri", style="filled", fillcolor="white"];
"1383009903"[label="{{Stmt\ -1:\ return\ xatoull_range}|True}", color="black", fontname="Calibri", style="filled", fillcolor="white"];
"1383009903" -> "716329727"[label="1", color="black", style="setlinewidth(1)"];
"1759974085"[label="{{Function\ -1:\ xatoul_range}|True}", color="blue", fontname="Calibri", style="filled", fillcolor="white"];
"1383009903" -> "1759974085"[label="1", color="black", style="setlinewidth(1)"];
"1759974085" -> "1383009903"[label="1", color="black", style="setlinewidth(1)"];
"1291225542"[label="{{Decl\ -1:\ xatoull_sfx}|True}", color="blue", fontname="Calibri", style="filled", fillcolor="white"];
"456798594"[label="{{Stmt\ -1:\ return\ xatoull_sfx(s}|True}", color="black", fontname="Calibri", style="filled", fillcolor="white"];
"456798594" -> "1291225542"[label="1", color="black", style="setlinewidth(1)"];
"2125040330"[label="{{Function\ -1:\ xatoul_sfx}|True}", color="blue", fontname="Calibri", style="filled", fillcolor="white"];
"456798594" -> "2125040330"[label="1", color="black", style="setlinewidth(1)"];
"2125040330" -> "456798594"[label="1", color="black", style="setlinewidth(1)"];
"940459090"[label="{{Decl\ -1:\ xatoull}|True}", color="blue", fontname="Calibri", style="filled", fillcolor="white"];
"271766817"[label="{{Stmt\ -1:\ return\ xatoull(str);}|True}", color="black", fontname="Calibri", style="filled", fillcolor="white"];
"271766817" -> "940459090"[label="1", color="black", style="setlinewidth(1)"];
"204908241"[label="{{Function\ -1:\ xatoul}|True}", color="blue", fontname="Calibri", style="filled", fillcolor="white"];
"271766817" -> "204908241"[label="1", color="black", style="setlinewidth(1)"];
"204908241" -> "271766817"[label="1", color="black", style="setlinewidth(1)"];
"1229195071"[label="{{Decl\ -1:\ xstrtoll_range_sfx}|True}", color="blue", fontname="Calibri", style="filled", fillcolor="white"];
"1662906633"[label="{{Stmt\ -1:\ return\ xstrtoll_rang}|True}", color="black", fontname="Calibri", style="filled", fillcolor="white"];
"1662906633" -> "1229195071"[label="1", color="black", style="setlinewidth(1)"];
"1300510693"[label="{{Function\ -1:\ xstrtol_range_sfx}|True}", color="blue", fontname="Calibri", style="filled", fillcolor="white"];
"1662906633" -> "1300510693"[label="1", color="black", style="setlinewidth(1)"];
"1300510693" -> "1662906633"[label="1", color="black", style="setlinewidth(1)"];
"182810973"[label="{{Decl\ -1:\ xstrtoll_range}|True}", color="blue", fontname="Calibri", style="filled", fillcolor="white"];
"28273754"[label="{{Stmt\ -1:\ return\ xstrtoll_rang}|True}", color="black", fontname="Calibri", style="filled", fillcolor="white"];
"28273754" -> "182810973"[label="1", color="black", style="setlinewidth(1)"];
"1130792342"[label="{{Function\ -1:\ xstrtol_range}|True}", color="blue", fontname="Calibri", style="filled", fillcolor="white"];
"28273754" -> "1130792342"[label="1", color="black", style="setlinewidth(1)"];
"1130792342" -> "28273754"[label="1", color="black", style="setlinewidth(1)"];
"30819992"[label="{{Decl\ -1:\ xstrtoll}|True}", color="blue", fontname="Calibri", style="filled", fillcolor="white"];
"182638593"[label="{{Stmt\ -1:\ return\ xstrtoll(str\ }|True}", color="black", fontname="Calibri", style="filled", fillcolor="white"];
"182638593" -> "30819992"[label="1", color="black", style="setlinewidth(1)"];
"1671828645"[label="{{Function\ -1:\ xstrtol}|True}", color="blue", fontname="Calibri", style="filled", fillcolor="white"];
"182638593" -> "1671828645"[label="1", color="black", style="setlinewidth(1)"];
"1671828645" -> "182638593"[label="1", color="black", style="setlinewidth(1)"];
"423975229"[label="{{Decl\ -1:\ xatoll_range_sfx}|True}", color="blue", fontname="Calibri", style="filled", fillcolor="white"];
"718699574"[label="{{Stmt\ -1:\ return\ xatoll_range_}|True}", color="black", fontname="Calibri", style="filled", fillcolor="white"];
"718699574" -> "423975229"[label="1", color="black", style="setlinewidth(1)"];
"1700712206"[label="{{Function\ -1:\ xatol_range_sfx}|True}", color="blue", fontname="Calibri", style="filled", fillcolor="white"];
"718699574" -> "1700712206"[label="1", color="black", style="setlinewidth(1)"];
"1700712206" -> "718699574"[label="1", color="black", style="setlinewidth(1)"];
"935633010"[label="{{Decl\ -1:\ xatoll_range}|True}", color="blue", fontname="Calibri", style="filled", fillcolor="white"];
"906031742"[label="{{Stmt\ -1:\ return\ xatoll_range(}|True}", color="black", fontname="Calibri", style="filled", fillcolor="white"];
"906031742" -> "935633010"[label="1", color="black", style="setlinewidth(1)"];
"557743728"[label="{{Function\ -1:\ xatol_range}|True}", color="blue", fontname="Calibri", style="filled", fillcolor="white"];
"906031742" -> "557743728"[label="1", color="black", style="setlinewidth(1)"];
"557743728" -> "906031742"[label="1", color="black", style="setlinewidth(1)"];
"1105335821"[label="{{Decl\ -1:\ xatoll_sfx}|True}", color="blue", fontname="Calibri", style="filled", fillcolor="white"];
"492456547"[label="{{Stmt\ -1:\ return\ xatoll_sfx(st}|True}", color="black", fontname="Calibri", style="filled", fillcolor="white"];
"492456547" -> "1105335821"[label="1", color="black", style="setlinewidth(1)"];
"705998895"[label="{{Function\ -1:\ xatol_sfx}|True}", color="blue", fontname="Calibri", style="filled", fillcolor="white"];
"492456547" -> "705998895"[label="1", color="black", style="setlinewidth(1)"];
"705998895" -> "492456547"[label="1", color="black", style="setlinewidth(1)"];
"2062287781"[label="{{Decl\ -1:\ xatoll}|True}", color="blue", fontname="Calibri", style="filled", fillcolor="white"];
"1618503964"[label="{{Stmt\ -1:\ return\ xatoll(str);}|True}", color="black", fontname="Calibri", style="filled", fillcolor="white"];
"1618503964" -> "2062287781"[label="1", color="black", style="setlinewidth(1)"];
"875762467"[label="{{Function\ -1:\ xatol}|True}", color="blue", fontname="Calibri", style="filled", fillcolor="white"];
"1618503964" -> "875762467"[label="1", color="black", style="setlinewidth(1)"];
"875762467" -> "1618503964"[label="1", color="black", style="setlinewidth(1)"];
"271766817" -> "940459090"[label="1", color="black", style="setlinewidth(1)"];
"271766817" -> "204908241"[label="1", color="black", style="setlinewidth(1)"];
"204908241" -> "271766817"[label="1", color="black", style="setlinewidth(1)"];
"103445413"[label="{{Decl\ -1:\ BUG_xatou32_unimplemented}|True}", color="blue", fontname="Calibri", style="filled", fillcolor="white"];
"1861543927"[label="{{Decl\ -1:\ xatou}|True}", color="blue", fontname="Calibri", style="filled", fillcolor="white"];
"766949946"[label="{{Stmt\ -1:\ return\ xatoul(numstr}|True}", color="black", fontname="Calibri", style="filled", fillcolor="white"];
"766949946" -> "204908241"[label="1", color="black", style="setlinewidth(1)"];
"540725424"[label="{{Function\ -1:\ xatou32}|True}", color="blue", fontname="Calibri", style="filled", fillcolor="white"];
"766949946" -> "540725424"[label="1", color="black", style="setlinewidth(1)"];
"1858197969"[label="{{Stmt\ -1:\ return\ BUG_xatou32_u}|True}", color="black", fontname="Calibri", style="filled", fillcolor="white"];
"1858197969" -> "103445413"[label="1", color="black", style="setlinewidth(1)"];
"1858197969" -> "540725424"[label="1", color="black", style="setlinewidth(1)"];
"245786688"[label="{{Stmt\ -1:\ return\ xatou(numstr)}|True}", color="black", fontname="Calibri", style="filled", fillcolor="white"];
"245786688" -> "1861543927"[label="1", color="black", style="setlinewidth(1)"];
"245786688" -> "540725424"[label="1", color="black", style="setlinewidth(1)"];
"1633987613"[label="{{Expr\ -1:\ (((92233720368547758}|True}", color="black", fontname="Calibri", style="filled", fillcolor="white"];
"1633987613" -> "1858197969"[label="1", color="black", style="setlinewidth(1)"];
"1633987613" -> "766949946"[label="1", color="black", style="setlinewidth(1)"];
"323600496"[label="{{Expr\ -1:\ (((2147483647\ *\ 2U)\ }|True}", color="black", fontname="Calibri", style="filled", fillcolor="white"];
"323600496" -> "1633987613"[label="1", color="black", style="setlinewidth(1)"];
"323600496" -> "245786688"[label="1", color="black", style="setlinewidth(1)"];
"540725424" -> "323600496"[label="1", color="black", style="setlinewidth(1)"];
"1093141464"[label="{{Decl\ -1:\ bb_strtoull}|True}", color="blue", fontname="Calibri", style="filled", fillcolor="white"];
"1076029447"[label="{{Stmt\ -1:\ return\ bb_strtoull(a}|True}", color="black", fontname="Calibri", style="filled", fillcolor="white"];
"1076029447" -> "1093141464"[label="1", color="black", style="setlinewidth(1)"];
"76832813"[label="{{Function\ -1:\ bb_strtoul}|True}", color="blue", fontname="Calibri", style="filled", fillcolor="white"];
"1076029447" -> "76832813"[label="1", color="black", style="setlinewidth(1)"];
"76832813" -> "1076029447"[label="1", color="black", style="setlinewidth(1)"];
"1076792130"[label="{{Decl\ -1:\ bb_strtoll}|True}", color="blue", fontname="Calibri", style="filled", fillcolor="white"];
"1046330198"[label="{{Stmt\ -1:\ return\ bb_strtoll(ar}|True}", color="black", fontname="Calibri", style="filled", fillcolor="white"];
"1046330198" -> "1076792130"[label="1", color="black", style="setlinewidth(1)"];
"783326064"[label="{{Function\ -1:\ bb_strtol}|True}", color="blue", fontname="Calibri", style="filled", fillcolor="white"];
"1046330198" -> "783326064"[label="1", color="black", style="setlinewidth(1)"];
"783326064" -> "1046330198"[label="1", color="black", style="setlinewidth(1)"];
"1076029447" -> "1093141464"[label="1", color="black", style="setlinewidth(1)"];
"1076029447" -> "76832813"[label="1", color="black", style="setlinewidth(1)"];
"76832813" -> "1076029447"[label="1", color="black", style="setlinewidth(1)"];
"1466743137"[label="{{Decl\ -1:\ BUG_bb_strtou32_unimplemented}|True}", color="blue", fontname="Calibri", style="filled", fillcolor="white"];
"1446063932"[label="{{Decl\ -1:\ bb_strtou}|True}", color="blue", fontname="Calibri", style="filled", fillcolor="white"];
"1589950786"[label="{{Stmt\ -1:\ return\ bb_strtoul(ar}|True}", color="black", fontname="Calibri", style="filled", fillcolor="white"];
"1589950786" -> "76832813"[label="1", color="black", style="setlinewidth(1)"];
"1820549719"[label="{{Function\ -1:\ bb_strtou32}|True}", color="blue", fontname="Calibri", style="filled", fillcolor="white"];
"1589950786" -> "1820549719"[label="1", color="black", style="setlinewidth(1)"];
"1154562277"[label="{{Stmt\ -1:\ return\ BUG_bb_strtou}|True}", color="black", fontname="Calibri", style="filled", fillcolor="white"];
"1154562277" -> "1466743137"[label="1", color="black", style="setlinewidth(1)"];
"1154562277" -> "1820549719"[label="1", color="black", style="setlinewidth(1)"];
"2000447808"[label="{{Stmt\ -1:\ return\ bb_strtou(arg}|True}", color="black", fontname="Calibri", style="filled", fillcolor="white"];
"2000447808" -> "1446063932"[label="1", color="black", style="setlinewidth(1)"];
"2000447808" -> "1820549719"[label="1", color="black", style="setlinewidth(1)"];
"331663701"[label="{{Expr\ -1:\ (sizeof(uint32_t\ )\ =}|True}", color="black", fontname="Calibri", style="filled", fillcolor="white"];
"331663701" -> "1154562277"[label="1", color="black", style="setlinewidth(1)"];
"331663701" -> "1589950786"[label="1", color="black", style="setlinewidth(1)"];
"1475293393"[label="{{Expr\ -1:\ (sizeof(uint32_t\ )\ =}|True}", color="black", fontname="Calibri", style="filled", fillcolor="white"];
"1475293393" -> "331663701"[label="1", color="black", style="setlinewidth(1)"];
"1475293393" -> "2000447808"[label="1", color="black", style="setlinewidth(1)"];
"1820549719" -> "1475293393"[label="1", color="black", style="setlinewidth(1)"];
"1368822013"[label="{{Stmt\ -1:\ return\ (b\ \<=\ ('z'\ -\ }|True}", color="black", fontname="Calibri", style="filled", fillcolor="white"];
"853922109"[label="{{Function\ -1:\ bb_ascii_isalnum}|True}", color="blue", fontname="Calibri", style="filled", fillcolor="white"];
"1368822013" -> "853922109"[label="1", color="black", style="setlinewidth(1)"];
"172744800"[label="{{Stmt\ -1:\ return\ (b\ \<=\ 9);}|True}", color="black", fontname="Calibri", style="filled", fillcolor="white"];
"172744800" -> "853922109"[label="1", color="black", style="setlinewidth(1)"];
"1826238780"[label="{{Stmt\ -1:\ (b\ =\ ((a\ \|\ 0x20)\ -\ '}|True}", color="black", fontname="Calibri", style="filled", fillcolor="white"];
"1826238780" -> "1368822013"[label="1", color="black", style="setlinewidth(1)"];
"1293897684"[label="{{Expr\ -1:\ (b\ \<=\ 9)}|True}", color="black", fontname="Calibri", style="filled", fillcolor="white"];
"1293897684" -> "1826238780"[label="1", color="black", style="setlinewidth(1)"];
"1293897684" -> "172744800"[label="1", color="black", style="setlinewidth(1)"];
"1865195542"[label="{{Stmt\ -1:\ unsigned\ char\ b\ =\ \ (}|True}", color="black", fontname="Calibri", style="filled", fillcolor="white"];
"1865195542" -> "1293897684"[label="1", color="black", style="setlinewidth(1)"];
"853922109" -> "1865195542"[label="1", color="black", style="setlinewidth(1)"];
"83894739"[label="{{Stmt\ -1:\ return\ (b\ \<=\ ('f'\ -\ }|True}", color="black", fontname="Calibri", style="filled", fillcolor="white"];
"769922700"[label="{{Function\ -1:\ bb_ascii_isxdigit}|True}", color="blue", fontname="Calibri", style="filled", fillcolor="white"];
"83894739" -> "769922700"[label="1", color="black", style="setlinewidth(1)"];
"304985353"[label="{{Stmt\ -1:\ return\ (b\ \<=\ 9);}|True}", color="black", fontname="Calibri", style="filled", fillcolor="white"];
"304985353" -> "769922700"[label="1", color="black", style="setlinewidth(1)"];
"1578111448"[label="{{Stmt\ -1:\ (b\ =\ ((a\ \|\ 0x20)\ -\ '}|True}", color="black", fontname="Calibri", style="filled", fillcolor="white"];
"1578111448" -> "83894739"[label="1", color="black", style="setlinewidth(1)"];
"532040857"[label="{{Expr\ -1:\ (b\ \<=\ 9)}|True}", color="black", fontname="Calibri", style="filled", fillcolor="white"];
"532040857" -> "1578111448"[label="1", color="black", style="setlinewidth(1)"];
"532040857" -> "304985353"[label="1", color="black", style="setlinewidth(1)"];
"428166734"[label="{{Stmt\ -1:\ unsigned\ char\ b\ =\ \ (}|True}", color="black", fontname="Calibri", style="filled", fillcolor="white"];
"428166734" -> "532040857"[label="1", color="black", style="setlinewidth(1)"];
"769922700" -> "428166734"[label="1", color="black", style="setlinewidth(1)"];
"1154472898"[label="{{Stmt\ -1:\ (a\ -=\ ('a'\ -\ 'A'));}|True}", color="black", fontname="Calibri", style="filled", fillcolor="white"];
"70690145"[label="{{Stmt\ -1:\ return\ a;}|True}", color="black", fontname="Calibri", style="filled", fillcolor="white"];
"1154472898" -> "70690145"[label="1", color="black", style="setlinewidth(1)"];
"1181351999"[label="{{Function\ -1:\ bb_ascii_toupper}|True}", color="blue", fontname="Calibri", style="filled", fillcolor="white"];
"70690145" -> "1181351999"[label="1", color="black", style="setlinewidth(1)"];
"116735684"[label="{{Expr\ -1:\ (b\ \<=\ ('z'\ -\ 'a'))}|True}", color="black", fontname="Calibri", style="filled", fillcolor="white"];
"116735684" -> "70690145"[label="1", color="black", style="setlinewidth(1)"];
"116735684" -> "1154472898"[label="1", color="black", style="setlinewidth(1)"];
"1266836731"[label="{{Stmt\ -1:\ unsigned\ char\ b\ =\ \ (}|True}", color="black", fontname="Calibri", style="filled", fillcolor="white"];
"1266836731" -> "116735684"[label="1", color="black", style="setlinewidth(1)"];
"1181351999" -> "1266836731"[label="1", color="black", style="setlinewidth(1)"];
"1032041889"[label="{{Stmt\ -1:\ (a\ +=\ ('a'\ -\ 'A'));}|True}", color="black", fontname="Calibri", style="filled", fillcolor="white"];
"1658351414"[label="{{Stmt\ -1:\ return\ a;}|True}", color="black", fontname="Calibri", style="filled", fillcolor="white"];
"1032041889" -> "1658351414"[label="1", color="black", style="setlinewidth(1)"];
"680365130"[label="{{Function\ -1:\ bb_ascii_tolower}|True}", color="blue", fontname="Calibri", style="filled", fillcolor="white"];
"1658351414" -> "680365130"[label="1", color="black", style="setlinewidth(1)"];
"1115664851"[label="{{Expr\ -1:\ (b\ \<=\ ('Z'\ -\ 'A'))}|True}", color="black", fontname="Calibri", style="filled", fillcolor="white"];
"1115664851" -> "1658351414"[label="1", color="black", style="setlinewidth(1)"];
"1115664851" -> "1032041889"[label="1", color="black", style="setlinewidth(1)"];
"993342238"[label="{{Stmt\ -1:\ unsigned\ char\ b\ =\ \ (}|True}", color="black", fontname="Calibri", style="filled", fillcolor="white"];
"993342238" -> "1115664851"[label="1", color="black", style="setlinewidth(1)"];
"680365130" -> "993342238"[label="1", color="black", style="setlinewidth(1)"];
"1309448617"[label="{{Stmt\ -1:\ return\ bucket-\>name;}|True}", color="black", fontname="Calibri", style="filled", fillcolor="white"];
"127921344"[label="{{Function\ -1:\ is_in_ino_dev_hashtable}|True}", color="blue", fontname="Calibri", style="filled", fillcolor="white"];
"1309448617" -> "127921344"[label="1", color="black", style="setlinewidth(1)"];
"455858476"[label="{{Stmt\ -1:\ (bucket\ =\ bucket-\>ne}|True}", color="black", fontname="Calibri", style="filled", fillcolor="white"];
"961373265"[label="{{Expr\ -1:\ (bucket\ !=\ ((void\ *)}|True}", color="black", fontname="Calibri", style="filled", fillcolor="white"];
"455858476" -> "961373265"[label="1", color="black", style="setlinewidth(1)"];
"110682455"[label="{{Stmt\ -1:\ return\ ((void\ *)\ 0);}|True}", color="black", fontname="Calibri", style="filled", fillcolor="white"];
"110682455" -> "127921344"[label="1", color="black", style="setlinewidth(1)"];
"885598175"[label="{{Expr\ -1:\ ((bucket-\>ino\ ==\ sta}|True}", color="black", fontname="Calibri", style="filled", fillcolor="white"];
"885598175" -> "455858476"[label="1", color="black", style="setlinewidth(1)"];
"885598175" -> "1309448617"[label="1", color="black", style="setlinewidth(1)"];
"961373265" -> "885598175"[label="1", color="black", style="setlinewidth(1)"];
"961373265" -> "110682455"[label="1", color="black", style="setlinewidth(1)"];
"343802177"[label="{{Stmt\ -1:\ return\ ((void\ *)\ 0);}|True}", color="black", fontname="Calibri", style="filled", fillcolor="white"];
"343802177" -> "127921344"[label="1", color="black", style="setlinewidth(1)"];
"332651170"[label="{{Stmt\ -1:\ (bucket\ =\ ino_dev_ha}|True}", color="black", fontname="Calibri", style="filled", fillcolor="white"];
"332651170" -> "961373265"[label="1", color="black", style="setlinewidth(1)"];
"669502578"[label="{{Expr\ -1:\ (!\ ino_dev_hashtable}|True}", color="black", fontname="Calibri", style="filled", fillcolor="white"];
"669502578" -> "332651170"[label="1", color="black", style="setlinewidth(1)"];
"669502578" -> "343802177"[label="1", color="black", style="setlinewidth(1)"];
"904305213"[label="{{Stmt\ -1:\ ino_dev_hashtable_bu}|True}", color="black", fontname="Calibri", style="filled", fillcolor="white"];
"904305213" -> "669502578"[label="1", color="black", style="setlinewidth(1)"];
"127921344" -> "904305213"[label="1", color="black", style="setlinewidth(1)"];
"257397807"[label="{{Decl\ -1:\ xzalloc}|True}", color="blue", fontname="Calibri", style="filled", fillcolor="white"];
"1393741224"[label="{{Stmt\ -1:\ (ino_dev_hashtable[i}|True}", color="black", fontname="Calibri", style="filled", fillcolor="white"];
"1393741224" -> "257397807"[label="1", color="black", style="setlinewidth(1)"];
"377211156"[label="{{Decl\ -1:\ strcpy}|True}", color="blue", fontname="Calibri", style="filled", fillcolor="white"];
"1393741224" -> "377211156"[label="1", color="black", style="setlinewidth(1)"];
"339070189"[label="{{Decl\ -1:\ xmalloc}|True}", color="blue", fontname="Calibri", style="filled", fillcolor="white"];
"1393741224" -> "339070189"[label="1", color="black", style="setlinewidth(1)"];
"1869755094"[label="{{Function\ -1:\ add_to_ino_dev_hashtable}|True}", color="blue", fontname="Calibri", style="filled", fillcolor="white"];
"1393741224" -> "1869755094"[label="1", color="black", style="setlinewidth(1)"];
"1729492261"[label="{{Stmt\ -1:\ (ino_dev_hashtable\ =}|True}", color="black", fontname="Calibri", style="filled", fillcolor="white"];
"1729492261" -> "257397807"[label="1", color="black", style="setlinewidth(1)"];
"150136459"[label="{{Stmt\ -1:\ (bucket-\>next\ =\ ino_}|True}", color="black", fontname="Calibri", style="filled", fillcolor="white"];
"1729492261" -> "150136459"[label="1", color="black", style="setlinewidth(1)"];
"150136459" -> "1393741224"[label="1", color="black", style="setlinewidth(1)"];
"342070846"[label="{{Expr\ -1:\ (!\ ino_dev_hashtable}|True}", color="black", fontname="Calibri", style="filled", fillcolor="white"];
"342070846" -> "150136459"[label="1", color="black", style="setlinewidth(1)"];
"342070846" -> "1729492261"[label="1", color="black", style="setlinewidth(1)"];
"103900922"[label="{{Stmt\ -1:\ strcpy(bucket-\>name\ }|True}", color="black", fontname="Calibri", style="filled", fillcolor="white"];
"103900922" -> "377211156"[label="1", color="black", style="setlinewidth(1)"];
"103900922" -> "342070846"[label="1", color="black", style="setlinewidth(1)"];
"1808540949"[label="{{Stmt\ -1:\ (bucket-\>dev\ =\ statb}|True}", color="black", fontname="Calibri", style="filled", fillcolor="white"];
"1808540949" -> "103900922"[label="1", color="black", style="setlinewidth(1)"];
"693765017"[label="{{Stmt\ -1:\ (bucket-\>ino\ =\ statb}|True}", color="black", fontname="Calibri", style="filled", fillcolor="white"];
"693765017" -> "1808540949"[label="1", color="black", style="setlinewidth(1)"];
"1919164421"[label="{{Stmt\ -1:\ (name\ =\ \\\"\\\");}|True}", color="black", fontname="Calibri", style="filled", fillcolor="white"];
"1537373408"[label="{{Stmt\ -1:\ (bucket\ =\ xmalloc((s}|True}", color="black", fontname="Calibri", style="filled", fillcolor="white"];
"1919164421" -> "1537373408"[label="1", color="black", style="setlinewidth(1)"];
"1537373408" -> "339070189"[label="1", color="black", style="setlinewidth(1)"];
"1537373408" -> "693765017"[label="1", color="black", style="setlinewidth(1)"];
"179590728"[label="{{Expr\ -1:\ (!\ name)}|True}", color="black", fontname="Calibri", style="filled", fillcolor="white"];
"179590728" -> "1537373408"[label="1", color="black", style="setlinewidth(1)"];
"179590728" -> "1919164421"[label="1", color="black", style="setlinewidth(1)"];
"1190966907"[label="{{Stmt\ -1:\ (i\ =\ (statbuf-\>st_in}|True}", color="black", fontname="Calibri", style="filled", fillcolor="white"];
"1190966907" -> "179590728"[label="1", color="black", style="setlinewidth(1)"];
"755847534"[label="{{Stmt\ -1:\ ino_dev_hashtable_bu}|True}", color="black", fontname="Calibri", style="filled", fillcolor="white"];
"755847534" -> "1190966907"[label="1", color="black", style="setlinewidth(1)"];
"1340949694"[label="{{Stmt\ -1:\ int\ i;}|True}", color="black", fontname="Calibri", style="filled", fillcolor="white"];
"1340949694" -> "755847534"[label="1", color="black", style="setlinewidth(1)"];
"1869755094" -> "1340949694"[label="1", color="black", style="setlinewidth(1)"];
"417351970"[label="{{Stmt\ -1:\ (ino_dev_hashtable[i}|(def(CONFIG_DU)\|def(CONFIG_FEATURE_CLEAN_UP))}", color="black", fontname="Calibri", style="filled", fillcolor="#CD5200"];
"1046040635"[label="{{Decl\ -1:\ free}|(def(CONFIG_DU)\|def(CONFIG_FEATURE_CLEAN_UP))}", color="blue", fontname="Calibri", style="filled", fillcolor="#CD5200"];
"417351970" -> "1046040635"[label="(definedEx(CONFIG_DU) || definedEx(CONFIG_FEATURE_CLEAN_UP))", color="red", style="setlinewidth(1)"];
"748611705"[label="{{Expr\ -1:\ (ino_dev_hashtable[i}|(def(CONFIG_DU)\|def(CONFIG_FEATURE_CLEAN_UP))}", color="black", fontname="Calibri", style="filled", fillcolor="#CD5200"];
"417351970" -> "748611705"[label="(definedEx(CONFIG_DU) || definedEx(CONFIG_FEATURE_CLEAN_UP))", color="red", style="setlinewidth(1)"];
"938750733"[label="{{Stmt\ -1:\ free(\l#if\ (definedEx}|(def(CONFIG_DU)\|def(CONFIG_FEATURE_CLEAN_UP))}", color="black", fontname="Calibri", style="filled", fillcolor="#CD5200"];
"938750733" -> "1046040635"[label="(definedEx(CONFIG_DU) || definedEx(CONFIG_FEATURE_CLEAN_UP))", color="red", style="setlinewidth(1)"];
"938750733" -> "417351970"[label="(definedEx(CONFIG_DU) || definedEx(CONFIG_FEATURE_CLEAN_UP))", color="red", style="setlinewidth(1)"];
"669773757"[label="{{Expr\ -1:\ i++}|(def(CONFIG_DU)\|def(CONFIG_FEATURE_CLEAN_UP))}", color="black", fontname="Calibri", style="filled", fillcolor="#CD5200"];
"273595857"[label="{{Expr\ -1:\ (ino_dev_hashtable\ &}|(def(CONFIG_DU)\|def(CONFIG_FEATURE_CLEAN_UP))}", color="black", fontname="Calibri", style="filled", fillcolor="#CD5200"];
"669773757" -> "273595857"[label="(definedEx(CONFIG_DU) || definedEx(CONFIG_FEATURE_CLEAN_UP))", color="red", style="setlinewidth(1)"];
"847794453"[label="{{Stmt\ -1:\ (bucket\ =\ ino_dev_ha}|(def(CONFIG_DU)\|def(CONFIG_FEATURE_CLEAN_UP))}", color="black", fontname="Calibri", style="filled", fillcolor="#CD5200"];
"847794453" -> "938750733"[label="(definedEx(CONFIG_DU) || definedEx(CONFIG_FEATURE_CLEAN_UP))", color="red", style="setlinewidth(1)"];
"935645254"[label="{{Stmt\ -1:\ (ino_dev_hashtable\ =}|(def(CONFIG_DU)\|def(CONFIG_FEATURE_CLEAN_UP))}", color="black", fontname="Calibri", style="filled", fillcolor="#CD5200"];
"935645254" -> "1046040635"[label="(definedEx(CONFIG_DU) || definedEx(CONFIG_FEATURE_CLEAN_UP))", color="red", style="setlinewidth(1)"];
"2116104916"[label="{{Function\ -1:\ reset_ino_dev_hashtable}|(def(CONFIG_DU)\|def(CONFIG_FEATURE_CLEAN_UP))}", color="blue", fontname="Calibri", style="filled", fillcolor="#CD5200"];
"935645254" -> "2116104916"[label="(definedEx(CONFIG_DU) || definedEx(CONFIG_FEATURE_CLEAN_UP))", color="red", style="setlinewidth(1)"];
"748611705" -> "847794453"[label="(definedEx(CONFIG_DU) || definedEx(CONFIG_FEATURE_CLEAN_UP))", color="red", style="setlinewidth(1)"];
"748611705" -> "1046040635"[label="(definedEx(CONFIG_DU) || definedEx(CONFIG_FEATURE_CLEAN_UP))", color="red", style="setlinewidth(1)"];
"748611705" -> "669773757"[label="(definedEx(CONFIG_DU) || definedEx(CONFIG_FEATURE_CLEAN_UP))", color="red", style="setlinewidth(1)"];
"547629219"[label="{{Stmt\ -1:\ free(\l#if\ (definedEx}|(def(CONFIG_DU)\|def(CONFIG_FEATURE_CLEAN_UP))}", color="black", fontname="Calibri", style="filled", fillcolor="#CD5200"];
"547629219" -> "1046040635"[label="(definedEx(CONFIG_DU) || definedEx(CONFIG_FEATURE_CLEAN_UP))", color="red", style="setlinewidth(1)"];
"547629219" -> "935645254"[label="(definedEx(CONFIG_DU) || definedEx(CONFIG_FEATURE_CLEAN_UP))", color="red", style="setlinewidth(1)"];
"273595857" -> "547629219"[label="(definedEx(CONFIG_DU) || definedEx(CONFIG_FEATURE_CLEAN_UP))", color="red", style="setlinewidth(1)"];
"273595857" -> "748611705"[label="(definedEx(CONFIG_DU) || definedEx(CONFIG_FEATURE_CLEAN_UP))", color="red", style="setlinewidth(1)"];
"1198363563"[label="{{Expr\ -1:\ (i\ =\ 0)}|(def(CONFIG_DU)\|def(CONFIG_FEATURE_CLEAN_UP))}", color="black", fontname="Calibri", style="filled", fillcolor="#CD5200"];
"1198363563" -> "273595857"[label="(definedEx(CONFIG_DU) || definedEx(CONFIG_FEATURE_CLEAN_UP))", color="red", style="setlinewidth(1)"];
"1635577308"[label="{{Stmt\ -1:\ ino_dev_hashtable_bu}|(def(CONFIG_DU)\|def(CONFIG_FEATURE_CLEAN_UP))}", color="black", fontname="Calibri", style="filled", fillcolor="#CD5200"];
"1635577308" -> "1198363563"[label="(definedEx(CONFIG_DU) || definedEx(CONFIG_FEATURE_CLEAN_UP))", color="red", style="setlinewidth(1)"];
"34841915"[label="{{Stmt\ -1:\ int\ \l#if\ (definedEx(}|(def(CONFIG_DU)\|def(CONFIG_FEATURE_CLEAN_UP))}", color="black", fontname="Calibri", style="filled", fillcolor="#CD5200"];
"34841915" -> "1635577308"[label="(definedEx(CONFIG_DU) || definedEx(CONFIG_FEATURE_CLEAN_UP))", color="red", style="setlinewidth(1)"];
"2116104916" -> "34841915"[label="(definedEx(CONFIG_DU) || definedEx(CONFIG_FEATURE_CLEAN_UP))", color="red", style="setlinewidth(1)"];
}
