digraph "busybox-1.18.5/libbb/perror_nomsg.c" {
node [shape=record];
"480779844"[label="{{Decl\ -1:\ bb_perror_msg}|True}", color="blue", fontname="Calibri", style="filled", fillcolor="white"];
"597279351"[label="{{Stmt\ -1:\ bb_perror_msg(0);}|True}", color="black", fontname="Calibri", style="filled", fillcolor="white"];
"597279351" -> "480779844"[label="1", color="black", style="setlinewidth(1)"];
"73594452"[label="{{Function\ -1:\ bb_perror_nomsg}|True}", color="blue", fontname="Calibri", style="filled", fillcolor="white"];
"597279351" -> "73594452"[label="1", color="black", style="setlinewidth(1)"];
"73594452" -> "597279351"[label="1", color="black", style="setlinewidth(1)"];
}
