digraph "busybox-1.18.5/libbb/print_flags.c" {
node [shape=record];
"1954866073"[label="{{Decl\ -1:\ xstrtoull_range_sfx}|True}", color="blue", fontname="Calibri", style="filled", fillcolor="white"];
"1163371805"[label="{{Stmt\ -1:\ return\ xstrtoull_ran}|True}", color="black", fontname="Calibri", style="filled", fillcolor="white"];
"1163371805" -> "1954866073"[label="1", color="black", style="setlinewidth(1)"];
"1225038864"[label="{{Function\ -1:\ xstrtoul_range_sfx}|True}", color="blue", fontname="Calibri", style="filled", fillcolor="white"];
"1163371805" -> "1225038864"[label="1", color="black", style="setlinewidth(1)"];
"1225038864" -> "1163371805"[label="1", color="black", style="setlinewidth(1)"];
"336815516"[label="{{Decl\ -1:\ xstrtoull_range}|True}", color="blue", fontname="Calibri", style="filled", fillcolor="white"];
"1550993760"[label="{{Stmt\ -1:\ return\ xstrtoull_ran}|True}", color="black", fontname="Calibri", style="filled", fillcolor="white"];
"1550993760" -> "336815516"[label="1", color="black", style="setlinewidth(1)"];
"1846837109"[label="{{Function\ -1:\ xstrtoul_range}|True}", color="blue", fontname="Calibri", style="filled", fillcolor="white"];
"1550993760" -> "1846837109"[label="1", color="black", style="setlinewidth(1)"];
"1846837109" -> "1550993760"[label="1", color="black", style="setlinewidth(1)"];
"373708748"[label="{{Decl\ -1:\ xstrtoull_sfx}|True}", color="blue", fontname="Calibri", style="filled", fillcolor="white"];
"194450253"[label="{{Stmt\ -1:\ return\ xstrtoull_sfx}|True}", color="black", fontname="Calibri", style="filled", fillcolor="white"];
"194450253" -> "373708748"[label="1", color="black", style="setlinewidth(1)"];
"1281015218"[label="{{Function\ -1:\ xstrtoul_sfx}|True}", color="blue", fontname="Calibri", style="filled", fillcolor="white"];
"194450253" -> "1281015218"[label="1", color="black", style="setlinewidth(1)"];
"1281015218" -> "194450253"[label="1", color="black", style="setlinewidth(1)"];
"500058829"[label="{{Decl\ -1:\ xstrtoull}|True}", color="blue", fontname="Calibri", style="filled", fillcolor="white"];
"1588190319"[label="{{Stmt\ -1:\ return\ xstrtoull(str}|True}", color="black", fontname="Calibri", style="filled", fillcolor="white"];
"1588190319" -> "500058829"[label="1", color="black", style="setlinewidth(1)"];
"2134445795"[label="{{Function\ -1:\ xstrtoul}|True}", color="blue", fontname="Calibri", style="filled", fillcolor="white"];
"1588190319" -> "2134445795"[label="1", color="black", style="setlinewidth(1)"];
"2134445795" -> "1588190319"[label="1", color="black", style="setlinewidth(1)"];
"540424767"[label="{{Decl\ -1:\ xatoull_range_sfx}|True}", color="blue", fontname="Calibri", style="filled", fillcolor="white"];
"648084217"[label="{{Stmt\ -1:\ return\ xatoull_range}|True}", color="black", fontname="Calibri", style="filled", fillcolor="white"];
"648084217" -> "540424767"[label="1", color="black", style="setlinewidth(1)"];
"1033374612"[label="{{Function\ -1:\ xatoul_range_sfx}|True}", color="blue", fontname="Calibri", style="filled", fillcolor="white"];
"648084217" -> "1033374612"[label="1", color="black", style="setlinewidth(1)"];
"1033374612" -> "648084217"[label="1", color="black", style="setlinewidth(1)"];
"252701193"[label="{{Decl\ -1:\ xatoull_range}|True}", color="blue", fontname="Calibri", style="filled", fillcolor="white"];
"742976600"[label="{{Stmt\ -1:\ return\ xatoull_range}|True}", color="black", fontname="Calibri", style="filled", fillcolor="white"];
"742976600" -> "252701193"[label="1", color="black", style="setlinewidth(1)"];
"1480403089"[label="{{Function\ -1:\ xatoul_range}|True}", color="blue", fontname="Calibri", style="filled", fillcolor="white"];
"742976600" -> "1480403089"[label="1", color="black", style="setlinewidth(1)"];
"1480403089" -> "742976600"[label="1", color="black", style="setlinewidth(1)"];
"880134034"[label="{{Decl\ -1:\ xatoull_sfx}|True}", color="blue", fontname="Calibri", style="filled", fillcolor="white"];
"637509495"[label="{{Stmt\ -1:\ return\ xatoull_sfx(s}|True}", color="black", fontname="Calibri", style="filled", fillcolor="white"];
"637509495" -> "880134034"[label="1", color="black", style="setlinewidth(1)"];
"1345081357"[label="{{Function\ -1:\ xatoul_sfx}|True}", color="blue", fontname="Calibri", style="filled", fillcolor="white"];
"637509495" -> "1345081357"[label="1", color="black", style="setlinewidth(1)"];
"1345081357" -> "637509495"[label="1", color="black", style="setlinewidth(1)"];
"1978623027"[label="{{Decl\ -1:\ xatoull}|True}", color="blue", fontname="Calibri", style="filled", fillcolor="white"];
"352592699"[label="{{Stmt\ -1:\ return\ xatoull(str);}|True}", color="black", fontname="Calibri", style="filled", fillcolor="white"];
"352592699" -> "1978623027"[label="1", color="black", style="setlinewidth(1)"];
"1374848409"[label="{{Function\ -1:\ xatoul}|True}", color="blue", fontname="Calibri", style="filled", fillcolor="white"];
"352592699" -> "1374848409"[label="1", color="black", style="setlinewidth(1)"];
"1374848409" -> "352592699"[label="1", color="black", style="setlinewidth(1)"];
"1979286834"[label="{{Decl\ -1:\ xstrtoll_range_sfx}|True}", color="blue", fontname="Calibri", style="filled", fillcolor="white"];
"1097918184"[label="{{Stmt\ -1:\ return\ xstrtoll_rang}|True}", color="black", fontname="Calibri", style="filled", fillcolor="white"];
"1097918184" -> "1979286834"[label="1", color="black", style="setlinewidth(1)"];
"439127820"[label="{{Function\ -1:\ xstrtol_range_sfx}|True}", color="blue", fontname="Calibri", style="filled", fillcolor="white"];
"1097918184" -> "439127820"[label="1", color="black", style="setlinewidth(1)"];
"439127820" -> "1097918184"[label="1", color="black", style="setlinewidth(1)"];
"1265012913"[label="{{Decl\ -1:\ xstrtoll_range}|True}", color="blue", fontname="Calibri", style="filled", fillcolor="white"];
"221385059"[label="{{Stmt\ -1:\ return\ xstrtoll_rang}|True}", color="black", fontname="Calibri", style="filled", fillcolor="white"];
"221385059" -> "1265012913"[label="1", color="black", style="setlinewidth(1)"];
"562116461"[label="{{Function\ -1:\ xstrtol_range}|True}", color="blue", fontname="Calibri", style="filled", fillcolor="white"];
"221385059" -> "562116461"[label="1", color="black", style="setlinewidth(1)"];
"562116461" -> "221385059"[label="1", color="black", style="setlinewidth(1)"];
"1492178323"[label="{{Decl\ -1:\ xstrtoll}|True}", color="blue", fontname="Calibri", style="filled", fillcolor="white"];
"180347057"[label="{{Stmt\ -1:\ return\ xstrtoll(str\ }|True}", color="black", fontname="Calibri", style="filled", fillcolor="white"];
"180347057" -> "1492178323"[label="1", color="black", style="setlinewidth(1)"];
"378046164"[label="{{Function\ -1:\ xstrtol}|True}", color="blue", fontname="Calibri", style="filled", fillcolor="white"];
"180347057" -> "378046164"[label="1", color="black", style="setlinewidth(1)"];
"378046164" -> "180347057"[label="1", color="black", style="setlinewidth(1)"];
"999638625"[label="{{Decl\ -1:\ xatoll_range_sfx}|True}", color="blue", fontname="Calibri", style="filled", fillcolor="white"];
"1505495569"[label="{{Stmt\ -1:\ return\ xatoll_range_}|True}", color="black", fontname="Calibri", style="filled", fillcolor="white"];
"1505495569" -> "999638625"[label="1", color="black", style="setlinewidth(1)"];
"1338549382"[label="{{Function\ -1:\ xatol_range_sfx}|True}", color="blue", fontname="Calibri", style="filled", fillcolor="white"];
"1505495569" -> "1338549382"[label="1", color="black", style="setlinewidth(1)"];
"1338549382" -> "1505495569"[label="1", color="black", style="setlinewidth(1)"];
"1152795076"[label="{{Decl\ -1:\ xatoll_range}|True}", color="blue", fontname="Calibri", style="filled", fillcolor="white"];
"2003558112"[label="{{Stmt\ -1:\ return\ xatoll_range(}|True}", color="black", fontname="Calibri", style="filled", fillcolor="white"];
"2003558112" -> "1152795076"[label="1", color="black", style="setlinewidth(1)"];
"1212721986"[label="{{Function\ -1:\ xatol_range}|True}", color="blue", fontname="Calibri", style="filled", fillcolor="white"];
"2003558112" -> "1212721986"[label="1", color="black", style="setlinewidth(1)"];
"1212721986" -> "2003558112"[label="1", color="black", style="setlinewidth(1)"];
"2036786029"[label="{{Decl\ -1:\ xatoll_sfx}|True}", color="blue", fontname="Calibri", style="filled", fillcolor="white"];
"1215814045"[label="{{Stmt\ -1:\ return\ xatoll_sfx(st}|True}", color="black", fontname="Calibri", style="filled", fillcolor="white"];
"1215814045" -> "2036786029"[label="1", color="black", style="setlinewidth(1)"];
"695055674"[label="{{Function\ -1:\ xatol_sfx}|True}", color="blue", fontname="Calibri", style="filled", fillcolor="white"];
"1215814045" -> "695055674"[label="1", color="black", style="setlinewidth(1)"];
"695055674" -> "1215814045"[label="1", color="black", style="setlinewidth(1)"];
"1208065208"[label="{{Decl\ -1:\ xatoll}|True}", color="blue", fontname="Calibri", style="filled", fillcolor="white"];
"1548463763"[label="{{Stmt\ -1:\ return\ xatoll(str);}|True}", color="black", fontname="Calibri", style="filled", fillcolor="white"];
"1548463763" -> "1208065208"[label="1", color="black", style="setlinewidth(1)"];
"2006121365"[label="{{Function\ -1:\ xatol}|True}", color="blue", fontname="Calibri", style="filled", fillcolor="white"];
"1548463763" -> "2006121365"[label="1", color="black", style="setlinewidth(1)"];
"2006121365" -> "1548463763"[label="1", color="black", style="setlinewidth(1)"];
"352592699" -> "1978623027"[label="1", color="black", style="setlinewidth(1)"];
"352592699" -> "1374848409"[label="1", color="black", style="setlinewidth(1)"];
"1374848409" -> "352592699"[label="1", color="black", style="setlinewidth(1)"];
"1963840931"[label="{{Decl\ -1:\ BUG_xatou32_unimplemented}|True}", color="blue", fontname="Calibri", style="filled", fillcolor="white"];
"1088735006"[label="{{Decl\ -1:\ xatou}|True}", color="blue", fontname="Calibri", style="filled", fillcolor="white"];
"1330522256"[label="{{Stmt\ -1:\ return\ xatoul(numstr}|True}", color="black", fontname="Calibri", style="filled", fillcolor="white"];
"1330522256" -> "1374848409"[label="1", color="black", style="setlinewidth(1)"];
"1556678227"[label="{{Function\ -1:\ xatou32}|True}", color="blue", fontname="Calibri", style="filled", fillcolor="white"];
"1330522256" -> "1556678227"[label="1", color="black", style="setlinewidth(1)"];
"1929196788"[label="{{Stmt\ -1:\ return\ BUG_xatou32_u}|True}", color="black", fontname="Calibri", style="filled", fillcolor="white"];
"1929196788" -> "1963840931"[label="1", color="black", style="setlinewidth(1)"];
"1929196788" -> "1556678227"[label="1", color="black", style="setlinewidth(1)"];
"1035397405"[label="{{Stmt\ -1:\ return\ xatou(numstr)}|True}", color="black", fontname="Calibri", style="filled", fillcolor="white"];
"1035397405" -> "1088735006"[label="1", color="black", style="setlinewidth(1)"];
"1035397405" -> "1556678227"[label="1", color="black", style="setlinewidth(1)"];
"1780382270"[label="{{Expr\ -1:\ (((92233720368547758}|True}", color="black", fontname="Calibri", style="filled", fillcolor="white"];
"1780382270" -> "1929196788"[label="1", color="black", style="setlinewidth(1)"];
"1780382270" -> "1330522256"[label="1", color="black", style="setlinewidth(1)"];
"1788984836"[label="{{Expr\ -1:\ (((2147483647\ *\ 2U)\ }|True}", color="black", fontname="Calibri", style="filled", fillcolor="white"];
"1788984836" -> "1780382270"[label="1", color="black", style="setlinewidth(1)"];
"1788984836" -> "1035397405"[label="1", color="black", style="setlinewidth(1)"];
"1556678227" -> "1788984836"[label="1", color="black", style="setlinewidth(1)"];
"359038419"[label="{{Decl\ -1:\ bb_strtoull}|True}", color="blue", fontname="Calibri", style="filled", fillcolor="white"];
"1512390832"[label="{{Stmt\ -1:\ return\ bb_strtoull(a}|True}", color="black", fontname="Calibri", style="filled", fillcolor="white"];
"1512390832" -> "359038419"[label="1", color="black", style="setlinewidth(1)"];
"1506692648"[label="{{Function\ -1:\ bb_strtoul}|True}", color="blue", fontname="Calibri", style="filled", fillcolor="white"];
"1512390832" -> "1506692648"[label="1", color="black", style="setlinewidth(1)"];
"1506692648" -> "1512390832"[label="1", color="black", style="setlinewidth(1)"];
"154699689"[label="{{Decl\ -1:\ bb_strtoll}|True}", color="blue", fontname="Calibri", style="filled", fillcolor="white"];
"1904693648"[label="{{Stmt\ -1:\ return\ bb_strtoll(ar}|True}", color="black", fontname="Calibri", style="filled", fillcolor="white"];
"1904693648" -> "154699689"[label="1", color="black", style="setlinewidth(1)"];
"104404258"[label="{{Function\ -1:\ bb_strtol}|True}", color="blue", fontname="Calibri", style="filled", fillcolor="white"];
"1904693648" -> "104404258"[label="1", color="black", style="setlinewidth(1)"];
"104404258" -> "1904693648"[label="1", color="black", style="setlinewidth(1)"];
"1512390832" -> "359038419"[label="1", color="black", style="setlinewidth(1)"];
"1512390832" -> "1506692648"[label="1", color="black", style="setlinewidth(1)"];
"1506692648" -> "1512390832"[label="1", color="black", style="setlinewidth(1)"];
"1071708129"[label="{{Decl\ -1:\ BUG_bb_strtou32_unimplemented}|True}", color="blue", fontname="Calibri", style="filled", fillcolor="white"];
"2125448530"[label="{{Decl\ -1:\ bb_strtou}|True}", color="blue", fontname="Calibri", style="filled", fillcolor="white"];
"2028687179"[label="{{Stmt\ -1:\ return\ bb_strtoul(ar}|True}", color="black", fontname="Calibri", style="filled", fillcolor="white"];
"2028687179" -> "1506692648"[label="1", color="black", style="setlinewidth(1)"];
"1909041901"[label="{{Function\ -1:\ bb_strtou32}|True}", color="blue", fontname="Calibri", style="filled", fillcolor="white"];
"2028687179" -> "1909041901"[label="1", color="black", style="setlinewidth(1)"];
"1553795451"[label="{{Stmt\ -1:\ return\ BUG_bb_strtou}|True}", color="black", fontname="Calibri", style="filled", fillcolor="white"];
"1553795451" -> "1071708129"[label="1", color="black", style="setlinewidth(1)"];
"1553795451" -> "1909041901"[label="1", color="black", style="setlinewidth(1)"];
"1578858081"[label="{{Stmt\ -1:\ return\ bb_strtou(arg}|True}", color="black", fontname="Calibri", style="filled", fillcolor="white"];
"1578858081" -> "2125448530"[label="1", color="black", style="setlinewidth(1)"];
"1578858081" -> "1909041901"[label="1", color="black", style="setlinewidth(1)"];
"1590147755"[label="{{Expr\ -1:\ (sizeof(uint32_t\ )\ =}|True}", color="black", fontname="Calibri", style="filled", fillcolor="white"];
"1590147755" -> "1553795451"[label="1", color="black", style="setlinewidth(1)"];
"1590147755" -> "2028687179"[label="1", color="black", style="setlinewidth(1)"];
"745490551"[label="{{Expr\ -1:\ (sizeof(uint32_t\ )\ =}|True}", color="black", fontname="Calibri", style="filled", fillcolor="white"];
"745490551" -> "1590147755"[label="1", color="black", style="setlinewidth(1)"];
"745490551" -> "1578858081"[label="1", color="black", style="setlinewidth(1)"];
"1909041901" -> "745490551"[label="1", color="black", style="setlinewidth(1)"];
"986684924"[label="{{Stmt\ -1:\ return\ (b\ \<=\ ('z'\ -\ }|True}", color="black", fontname="Calibri", style="filled", fillcolor="white"];
"1613266949"[label="{{Function\ -1:\ bb_ascii_isalnum}|True}", color="blue", fontname="Calibri", style="filled", fillcolor="white"];
"986684924" -> "1613266949"[label="1", color="black", style="setlinewidth(1)"];
"161894169"[label="{{Stmt\ -1:\ return\ (b\ \<=\ 9);}|True}", color="black", fontname="Calibri", style="filled", fillcolor="white"];
"161894169" -> "1613266949"[label="1", color="black", style="setlinewidth(1)"];
"1107032863"[label="{{Stmt\ -1:\ (b\ =\ ((a\ \|\ 0x20)\ -\ '}|True}", color="black", fontname="Calibri", style="filled", fillcolor="white"];
"1107032863" -> "986684924"[label="1", color="black", style="setlinewidth(1)"];
"1030225134"[label="{{Expr\ -1:\ (b\ \<=\ 9)}|True}", color="black", fontname="Calibri", style="filled", fillcolor="white"];
"1030225134" -> "1107032863"[label="1", color="black", style="setlinewidth(1)"];
"1030225134" -> "161894169"[label="1", color="black", style="setlinewidth(1)"];
"188567078"[label="{{Stmt\ -1:\ unsigned\ char\ b\ =\ \ (}|True}", color="black", fontname="Calibri", style="filled", fillcolor="white"];
"188567078" -> "1030225134"[label="1", color="black", style="setlinewidth(1)"];
"1613266949" -> "188567078"[label="1", color="black", style="setlinewidth(1)"];
"1060929765"[label="{{Stmt\ -1:\ return\ (b\ \<=\ ('f'\ -\ }|True}", color="black", fontname="Calibri", style="filled", fillcolor="white"];
"2136135080"[label="{{Function\ -1:\ bb_ascii_isxdigit}|True}", color="blue", fontname="Calibri", style="filled", fillcolor="white"];
"1060929765" -> "2136135080"[label="1", color="black", style="setlinewidth(1)"];
"1881162276"[label="{{Stmt\ -1:\ return\ (b\ \<=\ 9);}|True}", color="black", fontname="Calibri", style="filled", fillcolor="white"];
"1881162276" -> "2136135080"[label="1", color="black", style="setlinewidth(1)"];
"652960705"[label="{{Stmt\ -1:\ (b\ =\ ((a\ \|\ 0x20)\ -\ '}|True}", color="black", fontname="Calibri", style="filled", fillcolor="white"];
"652960705" -> "1060929765"[label="1", color="black", style="setlinewidth(1)"];
"528345062"[label="{{Expr\ -1:\ (b\ \<=\ 9)}|True}", color="black", fontname="Calibri", style="filled", fillcolor="white"];
"528345062" -> "652960705"[label="1", color="black", style="setlinewidth(1)"];
"528345062" -> "1881162276"[label="1", color="black", style="setlinewidth(1)"];
"215470268"[label="{{Stmt\ -1:\ unsigned\ char\ b\ =\ \ (}|True}", color="black", fontname="Calibri", style="filled", fillcolor="white"];
"215470268" -> "528345062"[label="1", color="black", style="setlinewidth(1)"];
"2136135080" -> "215470268"[label="1", color="black", style="setlinewidth(1)"];
"1414614368"[label="{{Stmt\ -1:\ (a\ -=\ ('a'\ -\ 'A'));}|True}", color="black", fontname="Calibri", style="filled", fillcolor="white"];
"880846150"[label="{{Stmt\ -1:\ return\ a;}|True}", color="black", fontname="Calibri", style="filled", fillcolor="white"];
"1414614368" -> "880846150"[label="1", color="black", style="setlinewidth(1)"];
"939892827"[label="{{Function\ -1:\ bb_ascii_toupper}|True}", color="blue", fontname="Calibri", style="filled", fillcolor="white"];
"880846150" -> "939892827"[label="1", color="black", style="setlinewidth(1)"];
"98574442"[label="{{Expr\ -1:\ (b\ \<=\ ('z'\ -\ 'a'))}|True}", color="black", fontname="Calibri", style="filled", fillcolor="white"];
"98574442" -> "880846150"[label="1", color="black", style="setlinewidth(1)"];
"98574442" -> "1414614368"[label="1", color="black", style="setlinewidth(1)"];
"1790791190"[label="{{Stmt\ -1:\ unsigned\ char\ b\ =\ \ (}|True}", color="black", fontname="Calibri", style="filled", fillcolor="white"];
"1790791190" -> "98574442"[label="1", color="black", style="setlinewidth(1)"];
"939892827" -> "1790791190"[label="1", color="black", style="setlinewidth(1)"];
"1829128269"[label="{{Stmt\ -1:\ (a\ +=\ ('a'\ -\ 'A'));}|True}", color="black", fontname="Calibri", style="filled", fillcolor="white"];
"967491514"[label="{{Stmt\ -1:\ return\ a;}|True}", color="black", fontname="Calibri", style="filled", fillcolor="white"];
"1829128269" -> "967491514"[label="1", color="black", style="setlinewidth(1)"];
"569992912"[label="{{Function\ -1:\ bb_ascii_tolower}|True}", color="blue", fontname="Calibri", style="filled", fillcolor="white"];
"967491514" -> "569992912"[label="1", color="black", style="setlinewidth(1)"];
"483513434"[label="{{Expr\ -1:\ (b\ \<=\ ('Z'\ -\ 'A'))}|True}", color="black", fontname="Calibri", style="filled", fillcolor="white"];
"483513434" -> "967491514"[label="1", color="black", style="setlinewidth(1)"];
"483513434" -> "1829128269"[label="1", color="black", style="setlinewidth(1)"];
"2059365257"[label="{{Stmt\ -1:\ unsigned\ char\ b\ =\ \ (}|True}", color="black", fontname="Calibri", style="filled", fillcolor="white"];
"2059365257" -> "483513434"[label="1", color="black", style="setlinewidth(1)"];
"569992912" -> "2059365257"[label="1", color="black", style="setlinewidth(1)"];
"1420054021"[label="{{Expr\ 17:\ \\\"\\\"}|True}", color="black", fontname="Calibri", style="filled", fillcolor="white"];
"905101846"[label="{{Expr\ 17:\ need_separator}|True}", color="black", fontname="Calibri", style="filled", fillcolor="white"];
"276043966"[label="{{Decl\ -1:\ strlen}|True}", color="blue", fontname="Calibri", style="filled", fillcolor="white"];
"770398287"[label="{{Expr\ 17:\ need_separator}|True}", color="black", fontname="Calibri", style="filled", fillcolor="white"];
"770398287" -> "905101846"[label="1", color="black", style="setlinewidth(1)"];
"770398287" -> "1420054021"[label="1", color="black", style="setlinewidth(1)"];
"704061609"[label="{{Decl\ -1:\ printf}|True}", color="blue", fontname="Calibri", style="filled", fillcolor="white"];
"1182321360"[label="{{Stmt\ -1:\ (labels\ +=\ (strlen(l}|True}", color="black", fontname="Calibri", style="filled", fillcolor="white"];
"1182321360" -> "276043966"[label="1", color="black", style="setlinewidth(1)"];
"1182321360" -> "704061609"[label="1", color="black", style="setlinewidth(1)"];
"994070542"[label="{{Expr\ -1:\ (*labels)}|True}", color="black", fontname="Calibri", style="filled", fillcolor="white"];
"1182321360" -> "994070542"[label="1", color="black", style="setlinewidth(1)"];
"598222051"[label="{{Stmt\ -1:\ printf(\\\"%s%s\\\"\ ,\ (nee}|True}", color="black", fontname="Calibri", style="filled", fillcolor="white"];
"598222051" -> "704061609"[label="1", color="black", style="setlinewidth(1)"];
"598222051" -> "770398287"[label="1", color="black", style="setlinewidth(1)"];
"125673725"[label="{{Stmt\ -1:\ masks++;}|True}", color="black", fontname="Calibri", style="filled", fillcolor="white"];
"125673725" -> "1182321360"[label="1", color="black", style="setlinewidth(1)"];
"275828654"[label="{{Stmt\ -1:\ return\ flags;}|True}", color="black", fontname="Calibri", style="filled", fillcolor="white"];
"286682713"[label="{{Function\ -1:\ print_flags_separated}|True}", color="blue", fontname="Calibri", style="filled", fillcolor="white"];
"275828654" -> "286682713"[label="1", color="black", style="setlinewidth(1)"];
"705777004"[label="{{Expr\ -1:\ (flags\ &\ (*masks))}|True}", color="black", fontname="Calibri", style="filled", fillcolor="white"];
"705777004" -> "125673725"[label="1", color="black", style="setlinewidth(1)"];
"705777004" -> "598222051"[label="1", color="black", style="setlinewidth(1)"];
"994070542" -> "705777004"[label="1", color="black", style="setlinewidth(1)"];
"994070542" -> "275828654"[label="1", color="black", style="setlinewidth(1)"];
"1310547726"[label="{{Stmt\ -1:\ const\ char\ *need_sep}|True}", color="black", fontname="Calibri", style="filled", fillcolor="white"];
"1310547726" -> "994070542"[label="1", color="black", style="setlinewidth(1)"];
"286682713" -> "1310547726"[label="1", color="black", style="setlinewidth(1)"];
"770398287" -> "905101846"[label="1", color="black", style="setlinewidth(1)"];
"770398287" -> "1420054021"[label="1", color="black", style="setlinewidth(1)"];
"1182321360" -> "276043966"[label="1", color="black", style="setlinewidth(1)"];
"1182321360" -> "704061609"[label="1", color="black", style="setlinewidth(1)"];
"1182321360" -> "994070542"[label="1", color="black", style="setlinewidth(1)"];
"598222051" -> "704061609"[label="1", color="black", style="setlinewidth(1)"];
"598222051" -> "770398287"[label="1", color="black", style="setlinewidth(1)"];
"125673725" -> "1182321360"[label="1", color="black", style="setlinewidth(1)"];
"275828654" -> "286682713"[label="1", color="black", style="setlinewidth(1)"];
"705777004" -> "125673725"[label="1", color="black", style="setlinewidth(1)"];
"705777004" -> "598222051"[label="1", color="black", style="setlinewidth(1)"];
"994070542" -> "705777004"[label="1", color="black", style="setlinewidth(1)"];
"994070542" -> "275828654"[label="1", color="black", style="setlinewidth(1)"];
"1310547726" -> "994070542"[label="1", color="black", style="setlinewidth(1)"];
"286682713" -> "1310547726"[label="1", color="black", style="setlinewidth(1)"];
"420842023"[label="{{Stmt\ -1:\ return\ print_flags_s}|True}", color="black", fontname="Calibri", style="filled", fillcolor="white"];
"420842023" -> "286682713"[label="1", color="black", style="setlinewidth(1)"];
"115248369"[label="{{Function\ -1:\ print_flags}|True}", color="blue", fontname="Calibri", style="filled", fillcolor="white"];
"420842023" -> "115248369"[label="1", color="black", style="setlinewidth(1)"];
"115248369" -> "420842023"[label="1", color="black", style="setlinewidth(1)"];
}
