digraph "busybox-1.18.5/libbb/recursive_action.c" {
node [shape=record];
"1207704983"[label="{{Decl\ -1:\ xstrtoull_range_sfx}|True}", color="blue", fontname="Calibri", style="filled", fillcolor="white"];
"1812474943"[label="{{Stmt\ -1:\ return\ xstrtoull_ran}|True}", color="black", fontname="Calibri", style="filled", fillcolor="white"];
"1812474943" -> "1207704983"[label="1", color="black", style="setlinewidth(1)"];
"1022763623"[label="{{Function\ -1:\ xstrtoul_range_sfx}|True}", color="blue", fontname="Calibri", style="filled", fillcolor="white"];
"1812474943" -> "1022763623"[label="1", color="black", style="setlinewidth(1)"];
"1022763623" -> "1812474943"[label="1", color="black", style="setlinewidth(1)"];
"367795169"[label="{{Decl\ -1:\ xstrtoull_range}|True}", color="blue", fontname="Calibri", style="filled", fillcolor="white"];
"1918689750"[label="{{Stmt\ -1:\ return\ xstrtoull_ran}|True}", color="black", fontname="Calibri", style="filled", fillcolor="white"];
"1918689750" -> "367795169"[label="1", color="black", style="setlinewidth(1)"];
"1997186910"[label="{{Function\ -1:\ xstrtoul_range}|True}", color="blue", fontname="Calibri", style="filled", fillcolor="white"];
"1918689750" -> "1997186910"[label="1", color="black", style="setlinewidth(1)"];
"1997186910" -> "1918689750"[label="1", color="black", style="setlinewidth(1)"];
"674347810"[label="{{Decl\ -1:\ xstrtoull_sfx}|True}", color="blue", fontname="Calibri", style="filled", fillcolor="white"];
"706296649"[label="{{Stmt\ -1:\ return\ xstrtoull_sfx}|True}", color="black", fontname="Calibri", style="filled", fillcolor="white"];
"706296649" -> "674347810"[label="1", color="black", style="setlinewidth(1)"];
"410165276"[label="{{Function\ -1:\ xstrtoul_sfx}|True}", color="blue", fontname="Calibri", style="filled", fillcolor="white"];
"706296649" -> "410165276"[label="1", color="black", style="setlinewidth(1)"];
"410165276" -> "706296649"[label="1", color="black", style="setlinewidth(1)"];
"1099806206"[label="{{Decl\ -1:\ xstrtoull}|True}", color="blue", fontname="Calibri", style="filled", fillcolor="white"];
"1346528950"[label="{{Stmt\ -1:\ return\ xstrtoull(str}|True}", color="black", fontname="Calibri", style="filled", fillcolor="white"];
"1346528950" -> "1099806206"[label="1", color="black", style="setlinewidth(1)"];
"463053456"[label="{{Function\ -1:\ xstrtoul}|True}", color="blue", fontname="Calibri", style="filled", fillcolor="white"];
"1346528950" -> "463053456"[label="1", color="black", style="setlinewidth(1)"];
"463053456" -> "1346528950"[label="1", color="black", style="setlinewidth(1)"];
"766046018"[label="{{Decl\ -1:\ xatoull_range_sfx}|True}", color="blue", fontname="Calibri", style="filled", fillcolor="white"];
"1154776934"[label="{{Stmt\ -1:\ return\ xatoull_range}|True}", color="black", fontname="Calibri", style="filled", fillcolor="white"];
"1154776934" -> "766046018"[label="1", color="black", style="setlinewidth(1)"];
"193160278"[label="{{Function\ -1:\ xatoul_range_sfx}|True}", color="blue", fontname="Calibri", style="filled", fillcolor="white"];
"1154776934" -> "193160278"[label="1", color="black", style="setlinewidth(1)"];
"193160278" -> "1154776934"[label="1", color="black", style="setlinewidth(1)"];
"720232362"[label="{{Decl\ -1:\ xatoull_range}|True}", color="blue", fontname="Calibri", style="filled", fillcolor="white"];
"389107230"[label="{{Stmt\ -1:\ return\ xatoull_range}|True}", color="black", fontname="Calibri", style="filled", fillcolor="white"];
"389107230" -> "720232362"[label="1", color="black", style="setlinewidth(1)"];
"1382735270"[label="{{Function\ -1:\ xatoul_range}|True}", color="blue", fontname="Calibri", style="filled", fillcolor="white"];
"389107230" -> "1382735270"[label="1", color="black", style="setlinewidth(1)"];
"1382735270" -> "389107230"[label="1", color="black", style="setlinewidth(1)"];
"804134937"[label="{{Decl\ -1:\ xatoull_sfx}|True}", color="blue", fontname="Calibri", style="filled", fillcolor="white"];
"1142951595"[label="{{Stmt\ -1:\ return\ xatoull_sfx(s}|True}", color="black", fontname="Calibri", style="filled", fillcolor="white"];
"1142951595" -> "804134937"[label="1", color="black", style="setlinewidth(1)"];
"153168343"[label="{{Function\ -1:\ xatoul_sfx}|True}", color="blue", fontname="Calibri", style="filled", fillcolor="white"];
"1142951595" -> "153168343"[label="1", color="black", style="setlinewidth(1)"];
"153168343" -> "1142951595"[label="1", color="black", style="setlinewidth(1)"];
"1589228348"[label="{{Decl\ -1:\ xatoull}|True}", color="blue", fontname="Calibri", style="filled", fillcolor="white"];
"1391710138"[label="{{Stmt\ -1:\ return\ xatoull(str);}|True}", color="black", fontname="Calibri", style="filled", fillcolor="white"];
"1391710138" -> "1589228348"[label="1", color="black", style="setlinewidth(1)"];
"1135424415"[label="{{Function\ -1:\ xatoul}|True}", color="blue", fontname="Calibri", style="filled", fillcolor="white"];
"1391710138" -> "1135424415"[label="1", color="black", style="setlinewidth(1)"];
"1135424415" -> "1391710138"[label="1", color="black", style="setlinewidth(1)"];
"296233813"[label="{{Decl\ -1:\ xstrtoll_range_sfx}|True}", color="blue", fontname="Calibri", style="filled", fillcolor="white"];
"1308735736"[label="{{Stmt\ -1:\ return\ xstrtoll_rang}|True}", color="black", fontname="Calibri", style="filled", fillcolor="white"];
"1308735736" -> "296233813"[label="1", color="black", style="setlinewidth(1)"];
"695826629"[label="{{Function\ -1:\ xstrtol_range_sfx}|True}", color="blue", fontname="Calibri", style="filled", fillcolor="white"];
"1308735736" -> "695826629"[label="1", color="black", style="setlinewidth(1)"];
"695826629" -> "1308735736"[label="1", color="black", style="setlinewidth(1)"];
"1122831925"[label="{{Decl\ -1:\ xstrtoll_range}|True}", color="blue", fontname="Calibri", style="filled", fillcolor="white"];
"1041649459"[label="{{Stmt\ -1:\ return\ xstrtoll_rang}|True}", color="black", fontname="Calibri", style="filled", fillcolor="white"];
"1041649459" -> "1122831925"[label="1", color="black", style="setlinewidth(1)"];
"617960088"[label="{{Function\ -1:\ xstrtol_range}|True}", color="blue", fontname="Calibri", style="filled", fillcolor="white"];
"1041649459" -> "617960088"[label="1", color="black", style="setlinewidth(1)"];
"617960088" -> "1041649459"[label="1", color="black", style="setlinewidth(1)"];
"1984496829"[label="{{Decl\ -1:\ xstrtoll}|True}", color="blue", fontname="Calibri", style="filled", fillcolor="white"];
"161570270"[label="{{Stmt\ -1:\ return\ xstrtoll(str\ }|True}", color="black", fontname="Calibri", style="filled", fillcolor="white"];
"161570270" -> "1984496829"[label="1", color="black", style="setlinewidth(1)"];
"484672687"[label="{{Function\ -1:\ xstrtol}|True}", color="blue", fontname="Calibri", style="filled", fillcolor="white"];
"161570270" -> "484672687"[label="1", color="black", style="setlinewidth(1)"];
"484672687" -> "161570270"[label="1", color="black", style="setlinewidth(1)"];
"188351073"[label="{{Decl\ -1:\ xatoll_range_sfx}|True}", color="blue", fontname="Calibri", style="filled", fillcolor="white"];
"1520542627"[label="{{Stmt\ -1:\ return\ xatoll_range_}|True}", color="black", fontname="Calibri", style="filled", fillcolor="white"];
"1520542627" -> "188351073"[label="1", color="black", style="setlinewidth(1)"];
"1505495569"[label="{{Function\ -1:\ xatol_range_sfx}|True}", color="blue", fontname="Calibri", style="filled", fillcolor="white"];
"1520542627" -> "1505495569"[label="1", color="black", style="setlinewidth(1)"];
"1505495569" -> "1520542627"[label="1", color="black", style="setlinewidth(1)"];
"2057129851"[label="{{Decl\ -1:\ xatoll_range}|True}", color="blue", fontname="Calibri", style="filled", fillcolor="white"];
"879753110"[label="{{Stmt\ -1:\ return\ xatoll_range(}|True}", color="black", fontname="Calibri", style="filled", fillcolor="white"];
"879753110" -> "2057129851"[label="1", color="black", style="setlinewidth(1)"];
"695055674"[label="{{Function\ -1:\ xatol_range}|True}", color="blue", fontname="Calibri", style="filled", fillcolor="white"];
"879753110" -> "695055674"[label="1", color="black", style="setlinewidth(1)"];
"695055674" -> "879753110"[label="1", color="black", style="setlinewidth(1)"];
"1922763875"[label="{{Decl\ -1:\ xatoll_sfx}|True}", color="blue", fontname="Calibri", style="filled", fillcolor="white"];
"777829026"[label="{{Stmt\ -1:\ return\ xatoll_sfx(st}|True}", color="black", fontname="Calibri", style="filled", fillcolor="white"];
"777829026" -> "1922763875"[label="1", color="black", style="setlinewidth(1)"];
"779890585"[label="{{Function\ -1:\ xatol_sfx}|True}", color="blue", fontname="Calibri", style="filled", fillcolor="white"];
"777829026" -> "779890585"[label="1", color="black", style="setlinewidth(1)"];
"779890585" -> "777829026"[label="1", color="black", style="setlinewidth(1)"];
"650761918"[label="{{Decl\ -1:\ xatoll}|True}", color="blue", fontname="Calibri", style="filled", fillcolor="white"];
"1777380050"[label="{{Stmt\ -1:\ return\ xatoll(str);}|True}", color="black", fontname="Calibri", style="filled", fillcolor="white"];
"1777380050" -> "650761918"[label="1", color="black", style="setlinewidth(1)"];
"1540159731"[label="{{Function\ -1:\ xatol}|True}", color="blue", fontname="Calibri", style="filled", fillcolor="white"];
"1777380050" -> "1540159731"[label="1", color="black", style="setlinewidth(1)"];
"1540159731" -> "1777380050"[label="1", color="black", style="setlinewidth(1)"];
"1391710138" -> "1589228348"[label="1", color="black", style="setlinewidth(1)"];
"1391710138" -> "1135424415"[label="1", color="black", style="setlinewidth(1)"];
"1135424415" -> "1391710138"[label="1", color="black", style="setlinewidth(1)"];
"86866331"[label="{{Decl\ -1:\ BUG_xatou32_unimplemented}|True}", color="blue", fontname="Calibri", style="filled", fillcolor="white"];
"447155215"[label="{{Decl\ -1:\ xatou}|True}", color="blue", fontname="Calibri", style="filled", fillcolor="white"];
"2062015672"[label="{{Stmt\ -1:\ return\ xatoul(numstr}|True}", color="black", fontname="Calibri", style="filled", fillcolor="white"];
"2062015672" -> "1135424415"[label="1", color="black", style="setlinewidth(1)"];
"851363558"[label="{{Function\ -1:\ xatou32}|True}", color="blue", fontname="Calibri", style="filled", fillcolor="white"];
"2062015672" -> "851363558"[label="1", color="black", style="setlinewidth(1)"];
"1970307023"[label="{{Stmt\ -1:\ return\ BUG_xatou32_u}|True}", color="black", fontname="Calibri", style="filled", fillcolor="white"];
"1970307023" -> "86866331"[label="1", color="black", style="setlinewidth(1)"];
"1970307023" -> "851363558"[label="1", color="black", style="setlinewidth(1)"];
"1256652947"[label="{{Stmt\ -1:\ return\ xatou(numstr)}|True}", color="black", fontname="Calibri", style="filled", fillcolor="white"];
"1256652947" -> "447155215"[label="1", color="black", style="setlinewidth(1)"];
"1256652947" -> "851363558"[label="1", color="black", style="setlinewidth(1)"];
"603629071"[label="{{Expr\ -1:\ (((92233720368547758}|True}", color="black", fontname="Calibri", style="filled", fillcolor="white"];
"603629071" -> "1970307023"[label="1", color="black", style="setlinewidth(1)"];
"603629071" -> "2062015672"[label="1", color="black", style="setlinewidth(1)"];
"829832346"[label="{{Expr\ -1:\ (((2147483647\ *\ 2U)\ }|True}", color="black", fontname="Calibri", style="filled", fillcolor="white"];
"829832346" -> "603629071"[label="1", color="black", style="setlinewidth(1)"];
"829832346" -> "1256652947"[label="1", color="black", style="setlinewidth(1)"];
"851363558" -> "829832346"[label="1", color="black", style="setlinewidth(1)"];
"1068384627"[label="{{Decl\ -1:\ bb_strtoull}|True}", color="blue", fontname="Calibri", style="filled", fillcolor="white"];
"2120373926"[label="{{Stmt\ -1:\ return\ bb_strtoull(a}|True}", color="black", fontname="Calibri", style="filled", fillcolor="white"];
"2120373926" -> "1068384627"[label="1", color="black", style="setlinewidth(1)"];
"970946365"[label="{{Function\ -1:\ bb_strtoul}|True}", color="blue", fontname="Calibri", style="filled", fillcolor="white"];
"2120373926" -> "970946365"[label="1", color="black", style="setlinewidth(1)"];
"970946365" -> "2120373926"[label="1", color="black", style="setlinewidth(1)"];
"1045497804"[label="{{Decl\ -1:\ bb_strtoll}|True}", color="blue", fontname="Calibri", style="filled", fillcolor="white"];
"1184511427"[label="{{Stmt\ -1:\ return\ bb_strtoll(ar}|True}", color="black", fontname="Calibri", style="filled", fillcolor="white"];
"1184511427" -> "1045497804"[label="1", color="black", style="setlinewidth(1)"];
"1452406605"[label="{{Function\ -1:\ bb_strtol}|True}", color="blue", fontname="Calibri", style="filled", fillcolor="white"];
"1184511427" -> "1452406605"[label="1", color="black", style="setlinewidth(1)"];
"1452406605" -> "1184511427"[label="1", color="black", style="setlinewidth(1)"];
"2120373926" -> "1068384627"[label="1", color="black", style="setlinewidth(1)"];
"2120373926" -> "970946365"[label="1", color="black", style="setlinewidth(1)"];
"970946365" -> "2120373926"[label="1", color="black", style="setlinewidth(1)"];
"1330623108"[label="{{Decl\ -1:\ BUG_bb_strtou32_unimplemented}|True}", color="blue", fontname="Calibri", style="filled", fillcolor="white"];
"139539209"[label="{{Decl\ -1:\ bb_strtou}|True}", color="blue", fontname="Calibri", style="filled", fillcolor="white"];
"1787217409"[label="{{Stmt\ -1:\ return\ bb_strtoul(ar}|True}", color="black", fontname="Calibri", style="filled", fillcolor="white"];
"1787217409" -> "970946365"[label="1", color="black", style="setlinewidth(1)"];
"343963033"[label="{{Function\ -1:\ bb_strtou32}|True}", color="blue", fontname="Calibri", style="filled", fillcolor="white"];
"1787217409" -> "343963033"[label="1", color="black", style="setlinewidth(1)"];
"596020877"[label="{{Stmt\ -1:\ return\ BUG_bb_strtou}|True}", color="black", fontname="Calibri", style="filled", fillcolor="white"];
"596020877" -> "1330623108"[label="1", color="black", style="setlinewidth(1)"];
"596020877" -> "343963033"[label="1", color="black", style="setlinewidth(1)"];
"1434753974"[label="{{Stmt\ -1:\ return\ bb_strtou(arg}|True}", color="black", fontname="Calibri", style="filled", fillcolor="white"];
"1434753974" -> "139539209"[label="1", color="black", style="setlinewidth(1)"];
"1434753974" -> "343963033"[label="1", color="black", style="setlinewidth(1)"];
"1269166904"[label="{{Expr\ -1:\ (sizeof(uint32_t\ )\ =}|True}", color="black", fontname="Calibri", style="filled", fillcolor="white"];
"1269166904" -> "596020877"[label="1", color="black", style="setlinewidth(1)"];
"1269166904" -> "1787217409"[label="1", color="black", style="setlinewidth(1)"];
"1995692709"[label="{{Expr\ -1:\ (sizeof(uint32_t\ )\ =}|True}", color="black", fontname="Calibri", style="filled", fillcolor="white"];
"1995692709" -> "1269166904"[label="1", color="black", style="setlinewidth(1)"];
"1995692709" -> "1434753974"[label="1", color="black", style="setlinewidth(1)"];
"343963033" -> "1995692709"[label="1", color="black", style="setlinewidth(1)"];
"1917852972"[label="{{Stmt\ -1:\ return\ (b\ \<=\ ('z'\ -\ }|True}", color="black", fontname="Calibri", style="filled", fillcolor="white"];
"1331339401"[label="{{Function\ -1:\ bb_ascii_isalnum}|True}", color="blue", fontname="Calibri", style="filled", fillcolor="white"];
"1917852972" -> "1331339401"[label="1", color="black", style="setlinewidth(1)"];
"1327154165"[label="{{Stmt\ -1:\ return\ (b\ \<=\ 9);}|True}", color="black", fontname="Calibri", style="filled", fillcolor="white"];
"1327154165" -> "1331339401"[label="1", color="black", style="setlinewidth(1)"];
"215470268"[label="{{Stmt\ -1:\ (b\ =\ ((a\ \|\ 0x20)\ -\ '}|True}", color="black", fontname="Calibri", style="filled", fillcolor="white"];
"215470268" -> "1917852972"[label="1", color="black", style="setlinewidth(1)"];
"1075223349"[label="{{Expr\ -1:\ (b\ \<=\ 9)}|True}", color="black", fontname="Calibri", style="filled", fillcolor="white"];
"1075223349" -> "215470268"[label="1", color="black", style="setlinewidth(1)"];
"1075223349" -> "1327154165"[label="1", color="black", style="setlinewidth(1)"];
"1201471002"[label="{{Stmt\ -1:\ unsigned\ char\ b\ =\ \ (}|True}", color="black", fontname="Calibri", style="filled", fillcolor="white"];
"1201471002" -> "1075223349"[label="1", color="black", style="setlinewidth(1)"];
"1331339401" -> "1201471002"[label="1", color="black", style="setlinewidth(1)"];
"1536605373"[label="{{Stmt\ -1:\ return\ (b\ \<=\ ('f'\ -\ }|True}", color="black", fontname="Calibri", style="filled", fillcolor="white"];
"831941592"[label="{{Function\ -1:\ bb_ascii_isxdigit}|True}", color="blue", fontname="Calibri", style="filled", fillcolor="white"];
"1536605373" -> "831941592"[label="1", color="black", style="setlinewidth(1)"];
"1648793"[label="{{Stmt\ -1:\ return\ (b\ \<=\ 9);}|True}", color="black", fontname="Calibri", style="filled", fillcolor="white"];
"1648793" -> "831941592"[label="1", color="black", style="setlinewidth(1)"];
"802522050"[label="{{Stmt\ -1:\ (b\ =\ ((a\ \|\ 0x20)\ -\ '}|True}", color="black", fontname="Calibri", style="filled", fillcolor="white"];
"802522050" -> "1536605373"[label="1", color="black", style="setlinewidth(1)"];
"715184321"[label="{{Expr\ -1:\ (b\ \<=\ 9)}|True}", color="black", fontname="Calibri", style="filled", fillcolor="white"];
"715184321" -> "802522050"[label="1", color="black", style="setlinewidth(1)"];
"715184321" -> "1648793"[label="1", color="black", style="setlinewidth(1)"];
"1457634698"[label="{{Stmt\ -1:\ unsigned\ char\ b\ =\ \ (}|True}", color="black", fontname="Calibri", style="filled", fillcolor="white"];
"1457634698" -> "715184321"[label="1", color="black", style="setlinewidth(1)"];
"831941592" -> "1457634698"[label="1", color="black", style="setlinewidth(1)"];
"794436542"[label="{{Stmt\ -1:\ (a\ -=\ ('a'\ -\ 'A'));}|True}", color="black", fontname="Calibri", style="filled", fillcolor="white"];
"332164990"[label="{{Stmt\ -1:\ return\ a;}|True}", color="black", fontname="Calibri", style="filled", fillcolor="white"];
"794436542" -> "332164990"[label="1", color="black", style="setlinewidth(1)"];
"16332935"[label="{{Function\ -1:\ bb_ascii_toupper}|True}", color="blue", fontname="Calibri", style="filled", fillcolor="white"];
"332164990" -> "16332935"[label="1", color="black", style="setlinewidth(1)"];
"757935700"[label="{{Expr\ -1:\ (b\ \<=\ ('z'\ -\ 'a'))}|True}", color="black", fontname="Calibri", style="filled", fillcolor="white"];
"757935700" -> "332164990"[label="1", color="black", style="setlinewidth(1)"];
"757935700" -> "794436542"[label="1", color="black", style="setlinewidth(1)"];
"1764863564"[label="{{Stmt\ -1:\ unsigned\ char\ b\ =\ \ (}|True}", color="black", fontname="Calibri", style="filled", fillcolor="white"];
"1764863564" -> "757935700"[label="1", color="black", style="setlinewidth(1)"];
"16332935" -> "1764863564"[label="1", color="black", style="setlinewidth(1)"];
"555373864"[label="{{Stmt\ -1:\ (a\ +=\ ('a'\ -\ 'A'));}|True}", color="black", fontname="Calibri", style="filled", fillcolor="white"];
"2019545752"[label="{{Stmt\ -1:\ return\ a;}|True}", color="black", fontname="Calibri", style="filled", fillcolor="white"];
"555373864" -> "2019545752"[label="1", color="black", style="setlinewidth(1)"];
"178664054"[label="{{Function\ -1:\ bb_ascii_tolower}|True}", color="blue", fontname="Calibri", style="filled", fillcolor="white"];
"2019545752" -> "178664054"[label="1", color="black", style="setlinewidth(1)"];
"1863646130"[label="{{Expr\ -1:\ (b\ \<=\ ('Z'\ -\ 'A'))}|True}", color="black", fontname="Calibri", style="filled", fillcolor="white"];
"1863646130" -> "2019545752"[label="1", color="black", style="setlinewidth(1)"];
"1863646130" -> "555373864"[label="1", color="black", style="setlinewidth(1)"];
"40449511"[label="{{Stmt\ -1:\ unsigned\ char\ b\ =\ \ (}|True}", color="black", fontname="Calibri", style="filled", fillcolor="white"];
"40449511" -> "1863646130"[label="1", color="black", style="setlinewidth(1)"];
"178664054" -> "40449511"[label="1", color="black", style="setlinewidth(1)"];
"1947059550"[label="{{Stmt\ -1:\ return\ ((int\ )\ 1);}|True}", color="black", fontname="Calibri", style="filled", fillcolor="white"];
"258818643"[label="{{Function\ -1:\ true_action}|True}", color="blue", fontname="Calibri", style="filled", fillcolor="white"];
"1947059550" -> "258818643"[label="1", color="black", style="setlinewidth(1)"];
"258818643" -> "1947059550"[label="1", color="black", style="setlinewidth(1)"];
"943030490"[label="{{Decl\ -1:\ bb_simple_perror_msg}|True}", color="blue", fontname="Calibri", style="filled", fillcolor="white"];
"1473912795"[label="{{Stmt\ -1:\ bb_simple_perror_msg}|True}", color="black", fontname="Calibri", style="filled", fillcolor="white"];
"1473912795" -> "943030490"[label="1", color="black", style="setlinewidth(1)"];
"1663001813"[label="{{Stmt\ -1:\ return\ ((int\ )\ 0);}|True}", color="black", fontname="Calibri", style="filled", fillcolor="white"];
"1473912795" -> "1663001813"[label="1", color="black", style="setlinewidth(1)"];
"1718712222"[label="{{Function\ -1:\ recursive_action}|True}", color="blue", fontname="Calibri", style="filled", fillcolor="white"];
"1663001813" -> "1718712222"[label="1", color="black", style="setlinewidth(1)"];
"904305213"[label="{{Expr\ -1:\ (!\ (flags\ &\ ACTION_Q}|True}", color="black", fontname="Calibri", style="filled", fillcolor="white"];
"904305213" -> "1663001813"[label="1", color="black", style="setlinewidth(1)"];
"904305213" -> "1473912795"[label="1", color="black", style="setlinewidth(1)"];
"1040198009"[label="{{Stmt\ -1:\ return\ ((int\ )\ 1);}|True}", color="black", fontname="Calibri", style="filled", fillcolor="white"];
"1040198009" -> "1718712222"[label="1", color="black", style="setlinewidth(1)"];
"832536600"[label="{{Stmt\ -1:\ done_nak_warn:}|True}", color="black", fontname="Calibri", style="filled", fillcolor="white"];
"832536600" -> "904305213"[label="1", color="black", style="setlinewidth(1)"];
"1644869903"[label="{{Decl\ -1:\ readdir}|True}", color="blue", fontname="Calibri", style="filled", fillcolor="white"];
"1266836731"[label="{{Stmt\ -1:\ goto\ done_nak_warn;}|True}", color="black", fontname="Calibri", style="filled", fillcolor="white"];
"1266836731" -> "832536600"[label="1", color="black", style="setlinewidth(1)"];
"1715026047"[label="{{Expr\ -1:\ (status\ ==\ ((int\ )\ 2}|True}", color="black", fontname="Calibri", style="filled", fillcolor="white"];
"1440402325"[label="{{Stmt\ -1:\ (dir\ =\ opendir(fileN}|True}", color="black", fontname="Calibri", style="filled", fillcolor="white"];
"1715026047" -> "1440402325"[label="1", color="black", style="setlinewidth(1)"];
"1715026047" -> "1040198009"[label="1", color="black", style="setlinewidth(1)"];
"70690145"[label="{{Stmt\ -1:\ goto\ done_nak_warn;}|True}", color="black", fontname="Calibri", style="filled", fillcolor="white"];
"70690145" -> "832536600"[label="1", color="black", style="setlinewidth(1)"];
"680365130"[label="{{Stmt\ -1:\ (status\ =\ ((int\ )\ 1)}|True}", color="black", fontname="Calibri", style="filled", fillcolor="white"];
"680365130" -> "1644869903"[label="1", color="black", style="setlinewidth(1)"];
"1300782379"[label="{{Expr\ -1:\ (!\ status)}|True}", color="black", fontname="Calibri", style="filled", fillcolor="white"];
"1300782379" -> "1715026047"[label="1", color="black", style="setlinewidth(1)"];
"1300782379" -> "1266836731"[label="1", color="black", style="setlinewidth(1)"];
"126108252"[label="{{Expr\ -1:\ (!\ dir)}|True}", color="black", fontname="Calibri", style="filled", fillcolor="white"];
"126108252" -> "680365130"[label="1", color="black", style="setlinewidth(1)"];
"126108252" -> "70690145"[label="1", color="black", style="setlinewidth(1)"];
"46671574"[label="{{Decl\ -1:\ opendir}|True}", color="blue", fontname="Calibri", style="filled", fillcolor="white"];
"406691592"[label="{{Stmt\ -1:\ (status\ =\ dirAction(}|True}", color="black", fontname="Calibri", style="filled", fillcolor="white"];
"406691592" -> "1300782379"[label="1", color="black", style="setlinewidth(1)"];
"1440402325" -> "46671574"[label="1", color="black", style="setlinewidth(1)"];
"1440402325" -> "126108252"[label="1", color="black", style="setlinewidth(1)"];
"2080879949"[label="{{Stmt\ -1:\ return\ dirAction(fil}|True}", color="black", fontname="Calibri", style="filled", fillcolor="white"];
"2080879949" -> "1718712222"[label="1", color="black", style="setlinewidth(1)"];
"628274730"[label="{{Expr\ -1:\ (!\ (flags\ &\ ACTION_D}|True}", color="black", fontname="Calibri", style="filled", fillcolor="white"];
"628274730" -> "1440402325"[label="1", color="black", style="setlinewidth(1)"];
"628274730" -> "406691592"[label="1", color="black", style="setlinewidth(1)"];
"73728309"[label="{{Stmt\ -1:\ return\ fileAction(fi}|True}", color="black", fontname="Calibri", style="filled", fillcolor="white"];
"73728309" -> "1718712222"[label="1", color="black", style="setlinewidth(1)"];
"1141547774"[label="{{Expr\ -1:\ (!\ (flags\ &\ ACTION_R}|True}", color="black", fontname="Calibri", style="filled", fillcolor="white"];
"1141547774" -> "628274730"[label="1", color="black", style="setlinewidth(1)"];
"1141547774" -> "2080879949"[label="1", color="black", style="setlinewidth(1)"];
"1370683631"[label="{{Decl\ -1:\ lstat}|True}", color="blue", fontname="Calibri", style="filled", fillcolor="white"];
"1303016115"[label="{{Expr\ -1:\ (!\ ((statbuf.st_mode}|True}", color="black", fontname="Calibri", style="filled", fillcolor="white"];
"1303016115" -> "1141547774"[label="1", color="black", style="setlinewidth(1)"];
"1303016115" -> "73728309"[label="1", color="black", style="setlinewidth(1)"];
"1008564900"[label="{{Expr\ -1:\ (status\ \<\ 0)}|True}", color="black", fontname="Calibri", style="filled", fillcolor="white"];
"1008564900" -> "1303016115"[label="1", color="black", style="setlinewidth(1)"];
"1008564900" -> "1370683631"[label="1", color="black", style="setlinewidth(1)"];
"1085101484"[label="{{Expr\ 76:\ lstat}|True}", color="black", fontname="Calibri", style="filled", fillcolor="white"];
"1085101484" -> "1008564900"[label="1", color="black", style="setlinewidth(1)"];
"494930045"[label="{{Expr\ 76:\ stat}|True}", color="black", fontname="Calibri", style="filled", fillcolor="white"];
"494930045" -> "1008564900"[label="1", color="black", style="setlinewidth(1)"];
"317417999"[label="{{Expr\ 76:\ follow}|True}", color="black", fontname="Calibri", style="filled", fillcolor="white"];
"317417999" -> "494930045"[label="1", color="black", style="setlinewidth(1)"];
"317417999" -> "1085101484"[label="1", color="black", style="setlinewidth(1)"];
"2081145865"[label="{{Stmt\ -1:\ (status\ =\ (follow\ ?\ }|True}", color="black", fontname="Calibri", style="filled", fillcolor="white"];
"2081145865" -> "317417999"[label="1", color="black", style="setlinewidth(1)"];
"59125256"[label="{{Stmt\ -1:\ (follow\ =\ (ACTION_FO}|True}", color="black", fontname="Calibri", style="filled", fillcolor="white"];
"374106418"[label="{{Stmt\ -1:\ (follow\ &=\ flags);}|True}", color="black", fontname="Calibri", style="filled", fillcolor="white"];
"59125256" -> "374106418"[label="1", color="black", style="setlinewidth(1)"];
"374106418" -> "2081145865"[label="1", color="black", style="setlinewidth(1)"];
"161252006"[label="{{Expr\ -1:\ (depth\ ==\ 0)}|True}", color="black", fontname="Calibri", style="filled", fillcolor="white"];
"161252006" -> "374106418"[label="1", color="black", style="setlinewidth(1)"];
"161252006" -> "59125256"[label="1", color="black", style="setlinewidth(1)"];
"1230196976"[label="{{Stmt\ -1:\ (dirAction\ =\ true_ac}|True}", color="black", fontname="Calibri", style="filled", fillcolor="white"];
"717749973"[label="{{Stmt\ -1:\ (follow\ =\ ACTION_FOL}|True}", color="black", fontname="Calibri", style="filled", fillcolor="white"];
"1230196976" -> "717749973"[label="1", color="black", style="setlinewidth(1)"];
"717749973" -> "161252006"[label="1", color="black", style="setlinewidth(1)"];
"804092951"[label="{{Stmt\ -1:\ (fileAction\ =\ true_a}|True}", color="black", fontname="Calibri", style="filled", fillcolor="white"];
"607980586"[label="{{Expr\ -1:\ (!\ dirAction)}|True}", color="black", fontname="Calibri", style="filled", fillcolor="white"];
"804092951" -> "607980586"[label="1", color="black", style="setlinewidth(1)"];
"607980586" -> "717749973"[label="1", color="black", style="setlinewidth(1)"];
"607980586" -> "1230196976"[label="1", color="black", style="setlinewidth(1)"];
"522603478"[label="{{Expr\ -1:\ (!\ fileAction)}|True}", color="black", fontname="Calibri", style="filled", fillcolor="white"];
"522603478" -> "607980586"[label="1", color="black", style="setlinewidth(1)"];
"522603478" -> "804092951"[label="1", color="black", style="setlinewidth(1)"];
"288645036"[label="{{Stmt\ -1:\ struct\ dirent\ \ *next}|True}", color="black", fontname="Calibri", style="filled", fillcolor="white"];
"288645036" -> "522603478"[label="1", color="black", style="setlinewidth(1)"];
"10939842"[label="{{Stmt\ -1:\ DIR\ *dir;}|True}", color="black", fontname="Calibri", style="filled", fillcolor="white"];
"10939842" -> "288645036"[label="1", color="black", style="setlinewidth(1)"];
"1459186267"[label="{{Stmt\ -1:\ int\ status;}|True}", color="black", fontname="Calibri", style="filled", fillcolor="white"];
"1459186267" -> "10939842"[label="1", color="black", style="setlinewidth(1)"];
"381034641"[label="{{Stmt\ -1:\ unsigned\ follow;}|True}", color="black", fontname="Calibri", style="filled", fillcolor="white"];
"381034641" -> "1459186267"[label="1", color="black", style="setlinewidth(1)"];
"2113487604"[label="{{Stmt\ -1:\ struct\ stat\ \ statbuf}|True}", color="black", fontname="Calibri", style="filled", fillcolor="white"];
"2113487604" -> "381034641"[label="1", color="black", style="setlinewidth(1)"];
"1718712222" -> "2113487604"[label="1", color="black", style="setlinewidth(1)"];
}
