digraph "busybox-1.18.5/libbb/skip_whitespace.c" {
node [shape=record];
"27415788"[label="{{Decl\ -1:\ xstrtoull_range_sfx}|True}", color="blue", fontname="Calibri", style="filled", fillcolor="white"];
"2095749749"[label="{{Stmt\ -1:\ return\ xstrtoull_ran}|True}", color="black", fontname="Calibri", style="filled", fillcolor="white"];
"2095749749" -> "27415788"[label="1", color="black", style="setlinewidth(1)"];
"1994777873"[label="{{Function\ -1:\ xstrtoul_range_sfx}|True}", color="blue", fontname="Calibri", style="filled", fillcolor="white"];
"2095749749" -> "1994777873"[label="1", color="black", style="setlinewidth(1)"];
"1994777873" -> "2095749749"[label="1", color="black", style="setlinewidth(1)"];
"1641552118"[label="{{Decl\ -1:\ xstrtoull_range}|True}", color="blue", fontname="Calibri", style="filled", fillcolor="white"];
"52925524"[label="{{Stmt\ -1:\ return\ xstrtoull_ran}|True}", color="black", fontname="Calibri", style="filled", fillcolor="white"];
"52925524" -> "1641552118"[label="1", color="black", style="setlinewidth(1)"];
"484672687"[label="{{Function\ -1:\ xstrtoul_range}|True}", color="blue", fontname="Calibri", style="filled", fillcolor="white"];
"52925524" -> "484672687"[label="1", color="black", style="setlinewidth(1)"];
"484672687" -> "52925524"[label="1", color="black", style="setlinewidth(1)"];
"1162769811"[label="{{Decl\ -1:\ xstrtoull_sfx}|True}", color="blue", fontname="Calibri", style="filled", fillcolor="white"];
"611245343"[label="{{Stmt\ -1:\ return\ xstrtoull_sfx}|True}", color="black", fontname="Calibri", style="filled", fillcolor="white"];
"611245343" -> "1162769811"[label="1", color="black", style="setlinewidth(1)"];
"792074236"[label="{{Function\ -1:\ xstrtoul_sfx}|True}", color="blue", fontname="Calibri", style="filled", fillcolor="white"];
"611245343" -> "792074236"[label="1", color="black", style="setlinewidth(1)"];
"792074236" -> "611245343"[label="1", color="black", style="setlinewidth(1)"];
"237571112"[label="{{Decl\ -1:\ xstrtoull}|True}", color="blue", fontname="Calibri", style="filled", fillcolor="white"];
"1528364454"[label="{{Stmt\ -1:\ return\ xstrtoull(str}|True}", color="black", fontname="Calibri", style="filled", fillcolor="white"];
"1528364454" -> "237571112"[label="1", color="black", style="setlinewidth(1)"];
"1925222794"[label="{{Function\ -1:\ xstrtoul}|True}", color="blue", fontname="Calibri", style="filled", fillcolor="white"];
"1528364454" -> "1925222794"[label="1", color="black", style="setlinewidth(1)"];
"1925222794" -> "1528364454"[label="1", color="black", style="setlinewidth(1)"];
"1714491829"[label="{{Decl\ -1:\ xatoull_range_sfx}|True}", color="blue", fontname="Calibri", style="filled", fillcolor="white"];
"1133546825"[label="{{Stmt\ -1:\ return\ xatoull_range}|True}", color="black", fontname="Calibri", style="filled", fillcolor="white"];
"1133546825" -> "1714491829"[label="1", color="black", style="setlinewidth(1)"];
"881834482"[label="{{Function\ -1:\ xatoul_range_sfx}|True}", color="blue", fontname="Calibri", style="filled", fillcolor="white"];
"1133546825" -> "881834482"[label="1", color="black", style="setlinewidth(1)"];
"881834482" -> "1133546825"[label="1", color="black", style="setlinewidth(1)"];
"937148019"[label="{{Decl\ -1:\ xatoull_range}|True}", color="blue", fontname="Calibri", style="filled", fillcolor="white"];
"2140408375"[label="{{Stmt\ -1:\ return\ xatoull_range}|True}", color="black", fontname="Calibri", style="filled", fillcolor="white"];
"2140408375" -> "937148019"[label="1", color="black", style="setlinewidth(1)"];
"1655061437"[label="{{Function\ -1:\ xatoul_range}|True}", color="blue", fontname="Calibri", style="filled", fillcolor="white"];
"2140408375" -> "1655061437"[label="1", color="black", style="setlinewidth(1)"];
"1655061437" -> "2140408375"[label="1", color="black", style="setlinewidth(1)"];
"2140118453"[label="{{Decl\ -1:\ xatoull_sfx}|True}", color="blue", fontname="Calibri", style="filled", fillcolor="white"];
"1212877220"[label="{{Stmt\ -1:\ return\ xatoull_sfx(s}|True}", color="black", fontname="Calibri", style="filled", fillcolor="white"];
"1212877220" -> "2140118453"[label="1", color="black", style="setlinewidth(1)"];
"1050536474"[label="{{Function\ -1:\ xatoul_sfx}|True}", color="blue", fontname="Calibri", style="filled", fillcolor="white"];
"1212877220" -> "1050536474"[label="1", color="black", style="setlinewidth(1)"];
"1050536474" -> "1212877220"[label="1", color="black", style="setlinewidth(1)"];
"1392487344"[label="{{Decl\ -1:\ xatoull}|True}", color="blue", fontname="Calibri", style="filled", fillcolor="white"];
"932855071"[label="{{Stmt\ -1:\ return\ xatoull(str);}|True}", color="black", fontname="Calibri", style="filled", fillcolor="white"];
"932855071" -> "1392487344"[label="1", color="black", style="setlinewidth(1)"];
"573597068"[label="{{Function\ -1:\ xatoul}|True}", color="blue", fontname="Calibri", style="filled", fillcolor="white"];
"932855071" -> "573597068"[label="1", color="black", style="setlinewidth(1)"];
"573597068" -> "932855071"[label="1", color="black", style="setlinewidth(1)"];
"192720809"[label="{{Decl\ -1:\ xstrtoll_range_sfx}|True}", color="blue", fontname="Calibri", style="filled", fillcolor="white"];
"456798594"[label="{{Stmt\ -1:\ return\ xstrtoll_rang}|True}", color="black", fontname="Calibri", style="filled", fillcolor="white"];
"456798594" -> "192720809"[label="1", color="black", style="setlinewidth(1)"];
"1715693848"[label="{{Function\ -1:\ xstrtol_range_sfx}|True}", color="blue", fontname="Calibri", style="filled", fillcolor="white"];
"456798594" -> "1715693848"[label="1", color="black", style="setlinewidth(1)"];
"1715693848" -> "456798594"[label="1", color="black", style="setlinewidth(1)"];
"1423579300"[label="{{Decl\ -1:\ xstrtoll_range}|True}", color="blue", fontname="Calibri", style="filled", fillcolor="white"];
"87335075"[label="{{Stmt\ -1:\ return\ xstrtoll_rang}|True}", color="black", fontname="Calibri", style="filled", fillcolor="white"];
"87335075" -> "1423579300"[label="1", color="black", style="setlinewidth(1)"];
"1548937525"[label="{{Function\ -1:\ xstrtol_range}|True}", color="blue", fontname="Calibri", style="filled", fillcolor="white"];
"87335075" -> "1548937525"[label="1", color="black", style="setlinewidth(1)"];
"1548937525" -> "87335075"[label="1", color="black", style="setlinewidth(1)"];
"1017485511"[label="{{Decl\ -1:\ xstrtoll}|True}", color="blue", fontname="Calibri", style="filled", fillcolor="white"];
"2013871406"[label="{{Stmt\ -1:\ return\ xstrtoll(str\ }|True}", color="black", fontname="Calibri", style="filled", fillcolor="white"];
"2013871406" -> "1017485511"[label="1", color="black", style="setlinewidth(1)"];
"1771941160"[label="{{Function\ -1:\ xstrtol}|True}", color="blue", fontname="Calibri", style="filled", fillcolor="white"];
"2013871406" -> "1771941160"[label="1", color="black", style="setlinewidth(1)"];
"1771941160" -> "2013871406"[label="1", color="black", style="setlinewidth(1)"];
"1860825468"[label="{{Decl\ -1:\ xatoll_range_sfx}|True}", color="blue", fontname="Calibri", style="filled", fillcolor="white"];
"4447765"[label="{{Stmt\ -1:\ return\ xatoll_range_}|True}", color="black", fontname="Calibri", style="filled", fillcolor="white"];
"4447765" -> "1860825468"[label="1", color="black", style="setlinewidth(1)"];
"1960491009"[label="{{Function\ -1:\ xatol_range_sfx}|True}", color="blue", fontname="Calibri", style="filled", fillcolor="white"];
"4447765" -> "1960491009"[label="1", color="black", style="setlinewidth(1)"];
"1960491009" -> "4447765"[label="1", color="black", style="setlinewidth(1)"];
"1233206856"[label="{{Decl\ -1:\ xatoll_range}|True}", color="blue", fontname="Calibri", style="filled", fillcolor="white"];
"862704672"[label="{{Stmt\ -1:\ return\ xatoll_range(}|True}", color="black", fontname="Calibri", style="filled", fillcolor="white"];
"862704672" -> "1233206856"[label="1", color="black", style="setlinewidth(1)"];
"1251234494"[label="{{Function\ -1:\ xatol_range}|True}", color="blue", fontname="Calibri", style="filled", fillcolor="white"];
"862704672" -> "1251234494"[label="1", color="black", style="setlinewidth(1)"];
"1251234494" -> "862704672"[label="1", color="black", style="setlinewidth(1)"];
"620495331"[label="{{Decl\ -1:\ xatoll_sfx}|True}", color="blue", fontname="Calibri", style="filled", fillcolor="white"];
"718699574"[label="{{Stmt\ -1:\ return\ xatoll_sfx(st}|True}", color="black", fontname="Calibri", style="filled", fillcolor="white"];
"718699574" -> "620495331"[label="1", color="black", style="setlinewidth(1)"];
"2087800329"[label="{{Function\ -1:\ xatol_sfx}|True}", color="blue", fontname="Calibri", style="filled", fillcolor="white"];
"718699574" -> "2087800329"[label="1", color="black", style="setlinewidth(1)"];
"2087800329" -> "718699574"[label="1", color="black", style="setlinewidth(1)"];
"1980378778"[label="{{Decl\ -1:\ xatoll}|True}", color="blue", fontname="Calibri", style="filled", fillcolor="white"];
"913928442"[label="{{Stmt\ -1:\ return\ xatoll(str);}|True}", color="black", fontname="Calibri", style="filled", fillcolor="white"];
"913928442" -> "1980378778"[label="1", color="black", style="setlinewidth(1)"];
"1061939863"[label="{{Function\ -1:\ xatol}|True}", color="blue", fontname="Calibri", style="filled", fillcolor="white"];
"913928442" -> "1061939863"[label="1", color="black", style="setlinewidth(1)"];
"1061939863" -> "913928442"[label="1", color="black", style="setlinewidth(1)"];
"932855071" -> "1392487344"[label="1", color="black", style="setlinewidth(1)"];
"932855071" -> "573597068"[label="1", color="black", style="setlinewidth(1)"];
"573597068" -> "932855071"[label="1", color="black", style="setlinewidth(1)"];
"898632076"[label="{{Decl\ -1:\ BUG_xatou32_unimplemented}|True}", color="blue", fontname="Calibri", style="filled", fillcolor="white"];
"1245268225"[label="{{Decl\ -1:\ xatou}|True}", color="blue", fontname="Calibri", style="filled", fillcolor="white"];
"711031426"[label="{{Stmt\ -1:\ return\ xatoul(numstr}|True}", color="black", fontname="Calibri", style="filled", fillcolor="white"];
"711031426" -> "573597068"[label="1", color="black", style="setlinewidth(1)"];
"977092463"[label="{{Function\ -1:\ xatou32}|True}", color="blue", fontname="Calibri", style="filled", fillcolor="white"];
"711031426" -> "977092463"[label="1", color="black", style="setlinewidth(1)"];
"1186718344"[label="{{Stmt\ -1:\ return\ BUG_xatou32_u}|True}", color="black", fontname="Calibri", style="filled", fillcolor="white"];
"1186718344" -> "898632076"[label="1", color="black", style="setlinewidth(1)"];
"1186718344" -> "977092463"[label="1", color="black", style="setlinewidth(1)"];
"382924223"[label="{{Stmt\ -1:\ return\ xatou(numstr)}|True}", color="black", fontname="Calibri", style="filled", fillcolor="white"];
"382924223" -> "1245268225"[label="1", color="black", style="setlinewidth(1)"];
"382924223" -> "977092463"[label="1", color="black", style="setlinewidth(1)"];
"841120773"[label="{{Expr\ -1:\ (((92233720368547758}|True}", color="black", fontname="Calibri", style="filled", fillcolor="white"];
"841120773" -> "1186718344"[label="1", color="black", style="setlinewidth(1)"];
"841120773" -> "711031426"[label="1", color="black", style="setlinewidth(1)"];
"1020037731"[label="{{Expr\ -1:\ (((2147483647\ *\ 2U)\ }|True}", color="black", fontname="Calibri", style="filled", fillcolor="white"];
"1020037731" -> "841120773"[label="1", color="black", style="setlinewidth(1)"];
"1020037731" -> "382924223"[label="1", color="black", style="setlinewidth(1)"];
"977092463" -> "1020037731"[label="1", color="black", style="setlinewidth(1)"];
"1544522429"[label="{{Decl\ -1:\ bb_strtoull}|True}", color="blue", fontname="Calibri", style="filled", fillcolor="white"];
"12455184"[label="{{Stmt\ -1:\ return\ bb_strtoull(a}|True}", color="black", fontname="Calibri", style="filled", fillcolor="white"];
"12455184" -> "1544522429"[label="1", color="black", style="setlinewidth(1)"];
"1487014735"[label="{{Function\ -1:\ bb_strtoul}|True}", color="blue", fontname="Calibri", style="filled", fillcolor="white"];
"12455184" -> "1487014735"[label="1", color="black", style="setlinewidth(1)"];
"1487014735" -> "12455184"[label="1", color="black", style="setlinewidth(1)"];
"2007586948"[label="{{Decl\ -1:\ bb_strtoll}|True}", color="blue", fontname="Calibri", style="filled", fillcolor="white"];
"766829840"[label="{{Stmt\ -1:\ return\ bb_strtoll(ar}|True}", color="black", fontname="Calibri", style="filled", fillcolor="white"];
"766829840" -> "2007586948"[label="1", color="black", style="setlinewidth(1)"];
"2017600524"[label="{{Function\ -1:\ bb_strtol}|True}", color="blue", fontname="Calibri", style="filled", fillcolor="white"];
"766829840" -> "2017600524"[label="1", color="black", style="setlinewidth(1)"];
"2017600524" -> "766829840"[label="1", color="black", style="setlinewidth(1)"];
"12455184" -> "1544522429"[label="1", color="black", style="setlinewidth(1)"];
"12455184" -> "1487014735"[label="1", color="black", style="setlinewidth(1)"];
"1487014735" -> "12455184"[label="1", color="black", style="setlinewidth(1)"];
"1939841071"[label="{{Decl\ -1:\ BUG_bb_strtou32_unimplemented}|True}", color="blue", fontname="Calibri", style="filled", fillcolor="white"];
"1548800708"[label="{{Decl\ -1:\ bb_strtou}|True}", color="blue", fontname="Calibri", style="filled", fillcolor="white"];
"1782047963"[label="{{Stmt\ -1:\ return\ bb_strtoul(ar}|True}", color="black", fontname="Calibri", style="filled", fillcolor="white"];
"1782047963" -> "1487014735"[label="1", color="black", style="setlinewidth(1)"];
"1959194829"[label="{{Function\ -1:\ bb_strtou32}|True}", color="blue", fontname="Calibri", style="filled", fillcolor="white"];
"1782047963" -> "1959194829"[label="1", color="black", style="setlinewidth(1)"];
"2141196255"[label="{{Stmt\ -1:\ return\ BUG_bb_strtou}|True}", color="black", fontname="Calibri", style="filled", fillcolor="white"];
"2141196255" -> "1939841071"[label="1", color="black", style="setlinewidth(1)"];
"2141196255" -> "1959194829"[label="1", color="black", style="setlinewidth(1)"];
"34733169"[label="{{Stmt\ -1:\ return\ bb_strtou(arg}|True}", color="black", fontname="Calibri", style="filled", fillcolor="white"];
"34733169" -> "1548800708"[label="1", color="black", style="setlinewidth(1)"];
"34733169" -> "1959194829"[label="1", color="black", style="setlinewidth(1)"];
"1717265975"[label="{{Expr\ -1:\ (sizeof(uint32_t\ )\ =}|True}", color="black", fontname="Calibri", style="filled", fillcolor="white"];
"1717265975" -> "2141196255"[label="1", color="black", style="setlinewidth(1)"];
"1717265975" -> "1782047963"[label="1", color="black", style="setlinewidth(1)"];
"638821712"[label="{{Expr\ -1:\ (sizeof(uint32_t\ )\ =}|True}", color="black", fontname="Calibri", style="filled", fillcolor="white"];
"638821712" -> "1717265975"[label="1", color="black", style="setlinewidth(1)"];
"638821712" -> "34733169"[label="1", color="black", style="setlinewidth(1)"];
"1959194829" -> "638821712"[label="1", color="black", style="setlinewidth(1)"];
"804092951"[label="{{Stmt\ -1:\ return\ (b\ \<=\ ('z'\ -\ }|True}", color="black", fontname="Calibri", style="filled", fillcolor="white"];
"793974350"[label="{{Function\ -1:\ bb_ascii_isalnum}|True}", color="blue", fontname="Calibri", style="filled", fillcolor="white"];
"804092951" -> "793974350"[label="1", color="black", style="setlinewidth(1)"];
"753810601"[label="{{Stmt\ -1:\ return\ (b\ \<=\ 9);}|True}", color="black", fontname="Calibri", style="filled", fillcolor="white"];
"753810601" -> "793974350"[label="1", color="black", style="setlinewidth(1)"];
"1804849987"[label="{{Stmt\ -1:\ (b\ =\ ((a\ \|\ 0x20)\ -\ '}|True}", color="black", fontname="Calibri", style="filled", fillcolor="white"];
"1804849987" -> "804092951"[label="1", color="black", style="setlinewidth(1)"];
"1802109772"[label="{{Expr\ -1:\ (b\ \<=\ 9)}|True}", color="black", fontname="Calibri", style="filled", fillcolor="white"];
"1802109772" -> "1804849987"[label="1", color="black", style="setlinewidth(1)"];
"1802109772" -> "753810601"[label="1", color="black", style="setlinewidth(1)"];
"252975933"[label="{{Stmt\ -1:\ unsigned\ char\ b\ =\ \ (}|True}", color="black", fontname="Calibri", style="filled", fillcolor="white"];
"252975933" -> "1802109772"[label="1", color="black", style="setlinewidth(1)"];
"793974350" -> "252975933"[label="1", color="black", style="setlinewidth(1)"];
"2071446503"[label="{{Stmt\ -1:\ return\ (b\ \<=\ ('f'\ -\ }|True}", color="black", fontname="Calibri", style="filled", fillcolor="white"];
"2095505963"[label="{{Function\ -1:\ bb_ascii_isxdigit}|True}", color="blue", fontname="Calibri", style="filled", fillcolor="white"];
"2071446503" -> "2095505963"[label="1", color="black", style="setlinewidth(1)"];
"941371872"[label="{{Stmt\ -1:\ return\ (b\ \<=\ 9);}|True}", color="black", fontname="Calibri", style="filled", fillcolor="white"];
"941371872" -> "2095505963"[label="1", color="black", style="setlinewidth(1)"];
"269017891"[label="{{Stmt\ -1:\ (b\ =\ ((a\ \|\ 0x20)\ -\ '}|True}", color="black", fontname="Calibri", style="filled", fillcolor="white"];
"269017891" -> "2071446503"[label="1", color="black", style="setlinewidth(1)"];
"1522679135"[label="{{Expr\ -1:\ (b\ \<=\ 9)}|True}", color="black", fontname="Calibri", style="filled", fillcolor="white"];
"1522679135" -> "269017891"[label="1", color="black", style="setlinewidth(1)"];
"1522679135" -> "941371872"[label="1", color="black", style="setlinewidth(1)"];
"1921932557"[label="{{Stmt\ -1:\ unsigned\ char\ b\ =\ \ (}|True}", color="black", fontname="Calibri", style="filled", fillcolor="white"];
"1921932557" -> "1522679135"[label="1", color="black", style="setlinewidth(1)"];
"2095505963" -> "1921932557"[label="1", color="black", style="setlinewidth(1)"];
"1319553393"[label="{{Stmt\ -1:\ (a\ -=\ ('a'\ -\ 'A'));}|True}", color="black", fontname="Calibri", style="filled", fillcolor="white"];
"1141547774"[label="{{Stmt\ -1:\ return\ a;}|True}", color="black", fontname="Calibri", style="filled", fillcolor="white"];
"1319553393" -> "1141547774"[label="1", color="black", style="setlinewidth(1)"];
"1450776117"[label="{{Function\ -1:\ bb_ascii_toupper}|True}", color="blue", fontname="Calibri", style="filled", fillcolor="white"];
"1141547774" -> "1450776117"[label="1", color="black", style="setlinewidth(1)"];
"315343831"[label="{{Expr\ -1:\ (b\ \<=\ ('z'\ -\ 'a'))}|True}", color="black", fontname="Calibri", style="filled", fillcolor="white"];
"315343831" -> "1141547774"[label="1", color="black", style="setlinewidth(1)"];
"315343831" -> "1319553393"[label="1", color="black", style="setlinewidth(1)"];
"1602004915"[label="{{Stmt\ -1:\ unsigned\ char\ b\ =\ \ (}|True}", color="black", fontname="Calibri", style="filled", fillcolor="white"];
"1602004915" -> "315343831"[label="1", color="black", style="setlinewidth(1)"];
"1450776117" -> "1602004915"[label="1", color="black", style="setlinewidth(1)"];
"865917393"[label="{{Stmt\ -1:\ (a\ +=\ ('a'\ -\ 'A'));}|True}", color="black", fontname="Calibri", style="filled", fillcolor="white"];
"1783051099"[label="{{Stmt\ -1:\ return\ a;}|True}", color="black", fontname="Calibri", style="filled", fillcolor="white"];
"865917393" -> "1783051099"[label="1", color="black", style="setlinewidth(1)"];
"540553883"[label="{{Function\ -1:\ bb_ascii_tolower}|True}", color="blue", fontname="Calibri", style="filled", fillcolor="white"];
"1783051099" -> "540553883"[label="1", color="black", style="setlinewidth(1)"];
"1566739424"[label="{{Expr\ -1:\ (b\ \<=\ ('Z'\ -\ 'A'))}|True}", color="black", fontname="Calibri", style="filled", fillcolor="white"];
"1566739424" -> "1783051099"[label="1", color="black", style="setlinewidth(1)"];
"1566739424" -> "865917393"[label="1", color="black", style="setlinewidth(1)"];
"709625174"[label="{{Stmt\ -1:\ unsigned\ char\ b\ =\ \ (}|True}", color="black", fontname="Calibri", style="filled", fillcolor="white"];
"709625174" -> "1566739424"[label="1", color="black", style="setlinewidth(1)"];
"540553883" -> "709625174"[label="1", color="black", style="setlinewidth(1)"];
"2027399587"[label="{{Stmt\ -1:\ return\ ((char\ *)\ s);}|True}", color="black", fontname="Calibri", style="filled", fillcolor="white"];
"384318494"[label="{{Function\ -1:\ skip_whitespace}|True}", color="blue", fontname="Calibri", style="filled", fillcolor="white"];
"2027399587" -> "384318494"[label="1", color="black", style="setlinewidth(1)"];
"565122288"[label="{{Stmt\ -1:\ s++;}|True}", color="black", fontname="Calibri", style="filled", fillcolor="white"];
"824445694"[label="{{Expr\ -1:\ (((*s)\ ==\ '\ ')\ \|\|\ ((}|True}", color="black", fontname="Calibri", style="filled", fillcolor="white"];
"565122288" -> "824445694"[label="1", color="black", style="setlinewidth(1)"];
"824445694" -> "565122288"[label="1", color="black", style="setlinewidth(1)"];
"824445694" -> "2027399587"[label="1", color="black", style="setlinewidth(1)"];
"384318494" -> "824445694"[label="1", color="black", style="setlinewidth(1)"];
"1004960343"[label="{{Stmt\ -1:\ return\ ((char\ *)\ s);}|True}", color="black", fontname="Calibri", style="filled", fillcolor="white"];
"1382403757"[label="{{Function\ -1:\ skip_non_whitespace}|True}", color="blue", fontname="Calibri", style="filled", fillcolor="white"];
"1004960343" -> "1382403757"[label="1", color="black", style="setlinewidth(1)"];
"1347008603"[label="{{Stmt\ -1:\ s++;}|True}", color="black", fontname="Calibri", style="filled", fillcolor="white"];
"1869444332"[label="{{Expr\ -1:\ (((*s)\ !=\ '\0')\ &&\ (}|True}", color="black", fontname="Calibri", style="filled", fillcolor="white"];
"1347008603" -> "1869444332"[label="1", color="black", style="setlinewidth(1)"];
"1869444332" -> "1347008603"[label="1", color="black", style="setlinewidth(1)"];
"1869444332" -> "1004960343"[label="1", color="black", style="setlinewidth(1)"];
"1382403757" -> "1869444332"[label="1", color="black", style="setlinewidth(1)"];
"222652883"[label="{{Decl\ -1:\ strncmp}|True}", color="blue", fontname="Calibri", style="filled", fillcolor="white"];
"17671586"[label="{{Function\ -1:\ skip_dev_pfx}|True}", color="blue", fontname="Calibri", style="filled", fillcolor="white"];
"17671586" -> "222652883"[label="1", color="black", style="setlinewidth(1)"];
}
