digraph "busybox-1.18.5/libbb/warn_ignoring_args.c" {
node [shape=record];
"1044944955"[label="{{Decl\ -1:\ xstrtoull_range_sfx}|True}", color="blue", fontname="Calibri", style="filled", fillcolor="white"];
"956743572"[label="{{Stmt\ -1:\ return\ xstrtoull_ran}|True}", color="black", fontname="Calibri", style="filled", fillcolor="white"];
"956743572" -> "1044944955"[label="1", color="black", style="setlinewidth(1)"];
"66304332"[label="{{Function\ -1:\ xstrtoul_range_sfx}|True}", color="blue", fontname="Calibri", style="filled", fillcolor="white"];
"956743572" -> "66304332"[label="1", color="black", style="setlinewidth(1)"];
"66304332" -> "956743572"[label="1", color="black", style="setlinewidth(1)"];
"1124897329"[label="{{Decl\ -1:\ xstrtoull_range}|True}", color="blue", fontname="Calibri", style="filled", fillcolor="white"];
"1016242660"[label="{{Stmt\ -1:\ return\ xstrtoull_ran}|True}", color="black", fontname="Calibri", style="filled", fillcolor="white"];
"1016242660" -> "1124897329"[label="1", color="black", style="setlinewidth(1)"];
"1454833039"[label="{{Function\ -1:\ xstrtoul_range}|True}", color="blue", fontname="Calibri", style="filled", fillcolor="white"];
"1016242660" -> "1454833039"[label="1", color="black", style="setlinewidth(1)"];
"1454833039" -> "1016242660"[label="1", color="black", style="setlinewidth(1)"];
"439611515"[label="{{Decl\ -1:\ xstrtoull_sfx}|True}", color="blue", fontname="Calibri", style="filled", fillcolor="white"];
"461805374"[label="{{Stmt\ -1:\ return\ xstrtoull_sfx}|True}", color="black", fontname="Calibri", style="filled", fillcolor="white"];
"461805374" -> "439611515"[label="1", color="black", style="setlinewidth(1)"];
"1505495569"[label="{{Function\ -1:\ xstrtoul_sfx}|True}", color="blue", fontname="Calibri", style="filled", fillcolor="white"];
"461805374" -> "1505495569"[label="1", color="black", style="setlinewidth(1)"];
"1505495569" -> "461805374"[label="1", color="black", style="setlinewidth(1)"];
"1129101173"[label="{{Decl\ -1:\ xstrtoull}|True}", color="blue", fontname="Calibri", style="filled", fillcolor="white"];
"856675034"[label="{{Stmt\ -1:\ return\ xstrtoull(str}|True}", color="black", fontname="Calibri", style="filled", fillcolor="white"];
"856675034" -> "1129101173"[label="1", color="black", style="setlinewidth(1)"];
"697892520"[label="{{Function\ -1:\ xstrtoul}|True}", color="blue", fontname="Calibri", style="filled", fillcolor="white"];
"856675034" -> "697892520"[label="1", color="black", style="setlinewidth(1)"];
"697892520" -> "856675034"[label="1", color="black", style="setlinewidth(1)"];
"1691548601"[label="{{Decl\ -1:\ xatoull_range_sfx}|True}", color="blue", fontname="Calibri", style="filled", fillcolor="white"];
"1364363002"[label="{{Stmt\ -1:\ return\ xatoull_range}|True}", color="black", fontname="Calibri", style="filled", fillcolor="white"];
"1364363002" -> "1691548601"[label="1", color="black", style="setlinewidth(1)"];
"1215814045"[label="{{Function\ -1:\ xatoul_range_sfx}|True}", color="blue", fontname="Calibri", style="filled", fillcolor="white"];
"1364363002" -> "1215814045"[label="1", color="black", style="setlinewidth(1)"];
"1215814045" -> "1364363002"[label="1", color="black", style="setlinewidth(1)"];
"258885537"[label="{{Decl\ -1:\ xatoull_range}|True}", color="blue", fontname="Calibri", style="filled", fillcolor="white"];
"1947094401"[label="{{Stmt\ -1:\ return\ xatoull_range}|True}", color="black", fontname="Calibri", style="filled", fillcolor="white"];
"1947094401" -> "258885537"[label="1", color="black", style="setlinewidth(1)"];
"386195006"[label="{{Function\ -1:\ xatoul_range}|True}", color="blue", fontname="Calibri", style="filled", fillcolor="white"];
"1947094401" -> "386195006"[label="1", color="black", style="setlinewidth(1)"];
"386195006" -> "1947094401"[label="1", color="black", style="setlinewidth(1)"];
"1983025766"[label="{{Decl\ -1:\ xatoull_sfx}|True}", color="blue", fontname="Calibri", style="filled", fillcolor="white"];
"198121747"[label="{{Stmt\ -1:\ return\ xatoull_sfx(s}|True}", color="black", fontname="Calibri", style="filled", fillcolor="white"];
"198121747" -> "1983025766"[label="1", color="black", style="setlinewidth(1)"];
"1830458131"[label="{{Function\ -1:\ xatoul_sfx}|True}", color="blue", fontname="Calibri", style="filled", fillcolor="white"];
"198121747" -> "1830458131"[label="1", color="black", style="setlinewidth(1)"];
"1830458131" -> "198121747"[label="1", color="black", style="setlinewidth(1)"];
"1402185131"[label="{{Decl\ -1:\ xatoull}|True}", color="blue", fontname="Calibri", style="filled", fillcolor="white"];
"808025905"[label="{{Stmt\ -1:\ return\ xatoull(str);}|True}", color="black", fontname="Calibri", style="filled", fillcolor="white"];
"808025905" -> "1402185131"[label="1", color="black", style="setlinewidth(1)"];
"1406968151"[label="{{Function\ -1:\ xatoul}|True}", color="blue", fontname="Calibri", style="filled", fillcolor="white"];
"808025905" -> "1406968151"[label="1", color="black", style="setlinewidth(1)"];
"1406968151" -> "808025905"[label="1", color="black", style="setlinewidth(1)"];
"258005602"[label="{{Decl\ -1:\ xstrtoll_range_sfx}|True}", color="blue", fontname="Calibri", style="filled", fillcolor="white"];
"352344397"[label="{{Stmt\ -1:\ return\ xstrtoll_rang}|True}", color="black", fontname="Calibri", style="filled", fillcolor="white"];
"352344397" -> "258005602"[label="1", color="black", style="setlinewidth(1)"];
"1271498924"[label="{{Function\ -1:\ xstrtol_range_sfx}|True}", color="blue", fontname="Calibri", style="filled", fillcolor="white"];
"352344397" -> "1271498924"[label="1", color="black", style="setlinewidth(1)"];
"1271498924" -> "352344397"[label="1", color="black", style="setlinewidth(1)"];
"1774675200"[label="{{Decl\ -1:\ xstrtoll_range}|True}", color="blue", fontname="Calibri", style="filled", fillcolor="white"];
"271766817"[label="{{Stmt\ -1:\ return\ xstrtoll_rang}|True}", color="black", fontname="Calibri", style="filled", fillcolor="white"];
"271766817" -> "1774675200"[label="1", color="black", style="setlinewidth(1)"];
"1207739010"[label="{{Function\ -1:\ xstrtol_range}|True}", color="blue", fontname="Calibri", style="filled", fillcolor="white"];
"271766817" -> "1207739010"[label="1", color="black", style="setlinewidth(1)"];
"1207739010" -> "271766817"[label="1", color="black", style="setlinewidth(1)"];
"597993923"[label="{{Decl\ -1:\ xstrtoll}|True}", color="blue", fontname="Calibri", style="filled", fillcolor="white"];
"1775649763"[label="{{Stmt\ -1:\ return\ xstrtoll(str\ }|True}", color="black", fontname="Calibri", style="filled", fillcolor="white"];
"1775649763" -> "597993923"[label="1", color="black", style="setlinewidth(1)"];
"322682835"[label="{{Function\ -1:\ xstrtol}|True}", color="blue", fontname="Calibri", style="filled", fillcolor="white"];
"1775649763" -> "322682835"[label="1", color="black", style="setlinewidth(1)"];
"322682835" -> "1775649763"[label="1", color="black", style="setlinewidth(1)"];
"1723096462"[label="{{Decl\ -1:\ xatoll_range_sfx}|True}", color="blue", fontname="Calibri", style="filled", fillcolor="white"];
"771744259"[label="{{Stmt\ -1:\ return\ xatoll_range_}|True}", color="black", fontname="Calibri", style="filled", fillcolor="white"];
"771744259" -> "1723096462"[label="1", color="black", style="setlinewidth(1)"];
"65567455"[label="{{Function\ -1:\ xatol_range_sfx}|True}", color="blue", fontname="Calibri", style="filled", fillcolor="white"];
"771744259" -> "65567455"[label="1", color="black", style="setlinewidth(1)"];
"65567455" -> "771744259"[label="1", color="black", style="setlinewidth(1)"];
"331684261"[label="{{Decl\ -1:\ xatoll_range}|True}", color="blue", fontname="Calibri", style="filled", fillcolor="white"];
"804104960"[label="{{Stmt\ -1:\ return\ xatoll_range(}|True}", color="black", fontname="Calibri", style="filled", fillcolor="white"];
"804104960" -> "331684261"[label="1", color="black", style="setlinewidth(1)"];
"623126883"[label="{{Function\ -1:\ xatol_range}|True}", color="blue", fontname="Calibri", style="filled", fillcolor="white"];
"804104960" -> "623126883"[label="1", color="black", style="setlinewidth(1)"];
"623126883" -> "804104960"[label="1", color="black", style="setlinewidth(1)"];
"1868049534"[label="{{Decl\ -1:\ xatoll_sfx}|True}", color="blue", fontname="Calibri", style="filled", fillcolor="white"];
"1055406501"[label="{{Stmt\ -1:\ return\ xatoll_sfx(st}|True}", color="black", fontname="Calibri", style="filled", fillcolor="white"];
"1055406501" -> "1868049534"[label="1", color="black", style="setlinewidth(1)"];
"1460074866"[label="{{Function\ -1:\ xatol_sfx}|True}", color="blue", fontname="Calibri", style="filled", fillcolor="white"];
"1055406501" -> "1460074866"[label="1", color="black", style="setlinewidth(1)"];
"1460074866" -> "1055406501"[label="1", color="black", style="setlinewidth(1)"];
"1825688360"[label="{{Decl\ -1:\ xatoll}|True}", color="blue", fontname="Calibri", style="filled", fillcolor="white"];
"286687224"[label="{{Stmt\ -1:\ return\ xatoll(str);}|True}", color="black", fontname="Calibri", style="filled", fillcolor="white"];
"286687224" -> "1825688360"[label="1", color="black", style="setlinewidth(1)"];
"1773595649"[label="{{Function\ -1:\ xatol}|True}", color="blue", fontname="Calibri", style="filled", fillcolor="white"];
"286687224" -> "1773595649"[label="1", color="black", style="setlinewidth(1)"];
"1773595649" -> "286687224"[label="1", color="black", style="setlinewidth(1)"];
"808025905" -> "1402185131"[label="1", color="black", style="setlinewidth(1)"];
"808025905" -> "1406968151"[label="1", color="black", style="setlinewidth(1)"];
"1406968151" -> "808025905"[label="1", color="black", style="setlinewidth(1)"];
"736405622"[label="{{Decl\ -1:\ BUG_xatou32_unimplemented}|True}", color="blue", fontname="Calibri", style="filled", fillcolor="white"];
"453516638"[label="{{Decl\ -1:\ xatou}|True}", color="blue", fontname="Calibri", style="filled", fillcolor="white"];
"1946409549"[label="{{Stmt\ -1:\ return\ xatoul(numstr}|True}", color="black", fontname="Calibri", style="filled", fillcolor="white"];
"1946409549" -> "1406968151"[label="1", color="black", style="setlinewidth(1)"];
"1195779012"[label="{{Function\ -1:\ xatou32}|True}", color="blue", fontname="Calibri", style="filled", fillcolor="white"];
"1946409549" -> "1195779012"[label="1", color="black", style="setlinewidth(1)"];
"491593426"[label="{{Stmt\ -1:\ return\ BUG_xatou32_u}|True}", color="black", fontname="Calibri", style="filled", fillcolor="white"];
"491593426" -> "736405622"[label="1", color="black", style="setlinewidth(1)"];
"491593426" -> "1195779012"[label="1", color="black", style="setlinewidth(1)"];
"1051068594"[label="{{Stmt\ -1:\ return\ xatou(numstr)}|True}", color="black", fontname="Calibri", style="filled", fillcolor="white"];
"1051068594" -> "453516638"[label="1", color="black", style="setlinewidth(1)"];
"1051068594" -> "1195779012"[label="1", color="black", style="setlinewidth(1)"];
"412190916"[label="{{Expr\ -1:\ (((92233720368547758}|True}", color="black", fontname="Calibri", style="filled", fillcolor="white"];
"412190916" -> "491593426"[label="1", color="black", style="setlinewidth(1)"];
"412190916" -> "1946409549"[label="1", color="black", style="setlinewidth(1)"];
"1429772546"[label="{{Expr\ -1:\ (((2147483647\ *\ 2U)\ }|True}", color="black", fontname="Calibri", style="filled", fillcolor="white"];
"1429772546" -> "412190916"[label="1", color="black", style="setlinewidth(1)"];
"1429772546" -> "1051068594"[label="1", color="black", style="setlinewidth(1)"];
"1195779012" -> "1429772546"[label="1", color="black", style="setlinewidth(1)"];
"1073749643"[label="{{Decl\ -1:\ bb_strtoull}|True}", color="blue", fontname="Calibri", style="filled", fillcolor="white"];
"648846266"[label="{{Stmt\ -1:\ return\ bb_strtoull(a}|True}", color="black", fontname="Calibri", style="filled", fillcolor="white"];
"648846266" -> "1073749643"[label="1", color="black", style="setlinewidth(1)"];
"1576528316"[label="{{Function\ -1:\ bb_strtoul}|True}", color="blue", fontname="Calibri", style="filled", fillcolor="white"];
"648846266" -> "1576528316"[label="1", color="black", style="setlinewidth(1)"];
"1576528316" -> "648846266"[label="1", color="black", style="setlinewidth(1)"];
"1968890711"[label="{{Decl\ -1:\ bb_strtoll}|True}", color="blue", fontname="Calibri", style="filled", fillcolor="white"];
"2140013192"[label="{{Stmt\ -1:\ return\ bb_strtoll(ar}|True}", color="black", fontname="Calibri", style="filled", fillcolor="white"];
"2140013192" -> "1968890711"[label="1", color="black", style="setlinewidth(1)"];
"2109984210"[label="{{Function\ -1:\ bb_strtol}|True}", color="blue", fontname="Calibri", style="filled", fillcolor="white"];
"2140013192" -> "2109984210"[label="1", color="black", style="setlinewidth(1)"];
"2109984210" -> "2140013192"[label="1", color="black", style="setlinewidth(1)"];
"648846266" -> "1073749643"[label="1", color="black", style="setlinewidth(1)"];
"648846266" -> "1576528316"[label="1", color="black", style="setlinewidth(1)"];
"1576528316" -> "648846266"[label="1", color="black", style="setlinewidth(1)"];
"236712959"[label="{{Decl\ -1:\ BUG_bb_strtou32_unimplemented}|True}", color="blue", fontname="Calibri", style="filled", fillcolor="white"];
"2121081392"[label="{{Decl\ -1:\ bb_strtou}|True}", color="blue", fontname="Calibri", style="filled", fillcolor="white"];
"908033506"[label="{{Stmt\ -1:\ return\ bb_strtoul(ar}|True}", color="black", fontname="Calibri", style="filled", fillcolor="white"];
"908033506" -> "1576528316"[label="1", color="black", style="setlinewidth(1)"];
"1249471376"[label="{{Function\ -1:\ bb_strtou32}|True}", color="blue", fontname="Calibri", style="filled", fillcolor="white"];
"908033506" -> "1249471376"[label="1", color="black", style="setlinewidth(1)"];
"2107542095"[label="{{Stmt\ -1:\ return\ BUG_bb_strtou}|True}", color="black", fontname="Calibri", style="filled", fillcolor="white"];
"2107542095" -> "236712959"[label="1", color="black", style="setlinewidth(1)"];
"2107542095" -> "1249471376"[label="1", color="black", style="setlinewidth(1)"];
"451656"[label="{{Stmt\ -1:\ return\ bb_strtou(arg}|True}", color="black", fontname="Calibri", style="filled", fillcolor="white"];
"451656" -> "2121081392"[label="1", color="black", style="setlinewidth(1)"];
"451656" -> "1249471376"[label="1", color="black", style="setlinewidth(1)"];
"1040163182"[label="{{Expr\ -1:\ (sizeof(uint32_t\ )\ =}|True}", color="black", fontname="Calibri", style="filled", fillcolor="white"];
"1040163182" -> "2107542095"[label="1", color="black", style="setlinewidth(1)"];
"1040163182" -> "908033506"[label="1", color="black", style="setlinewidth(1)"];
"1621324839"[label="{{Expr\ -1:\ (sizeof(uint32_t\ )\ =}|True}", color="black", fontname="Calibri", style="filled", fillcolor="white"];
"1621324839" -> "1040163182"[label="1", color="black", style="setlinewidth(1)"];
"1621324839" -> "451656"[label="1", color="black", style="setlinewidth(1)"];
"1249471376" -> "1621324839"[label="1", color="black", style="setlinewidth(1)"];
"859134377"[label="{{Stmt\ -1:\ return\ (b\ \<=\ ('z'\ -\ }|True}", color="black", fontname="Calibri", style="filled", fillcolor="white"];
"2019382859"[label="{{Function\ -1:\ bb_ascii_isalnum}|True}", color="blue", fontname="Calibri", style="filled", fillcolor="white"];
"859134377" -> "2019382859"[label="1", color="black", style="setlinewidth(1)"];
"1460876899"[label="{{Stmt\ -1:\ return\ (b\ \<=\ 9);}|True}", color="black", fontname="Calibri", style="filled", fillcolor="white"];
"1460876899" -> "2019382859"[label="1", color="black", style="setlinewidth(1)"];
"280340729"[label="{{Stmt\ -1:\ (b\ =\ ((a\ \|\ 0x20)\ -\ '}|True}", color="black", fontname="Calibri", style="filled", fillcolor="white"];
"280340729" -> "859134377"[label="1", color="black", style="setlinewidth(1)"];
"185424966"[label="{{Expr\ -1:\ (b\ \<=\ 9)}|True}", color="black", fontname="Calibri", style="filled", fillcolor="white"];
"185424966" -> "280340729"[label="1", color="black", style="setlinewidth(1)"];
"185424966" -> "1460876899"[label="1", color="black", style="setlinewidth(1)"];
"1806910187"[label="{{Stmt\ -1:\ unsigned\ char\ b\ =\ \ (}|True}", color="black", fontname="Calibri", style="filled", fillcolor="white"];
"1806910187" -> "185424966"[label="1", color="black", style="setlinewidth(1)"];
"2019382859" -> "1806910187"[label="1", color="black", style="setlinewidth(1)"];
"1008564900"[label="{{Stmt\ -1:\ return\ (b\ \<=\ ('f'\ -\ }|True}", color="black", fontname="Calibri", style="filled", fillcolor="white"];
"1804849987"[label="{{Function\ -1:\ bb_ascii_isxdigit}|True}", color="blue", fontname="Calibri", style="filled", fillcolor="white"];
"1008564900" -> "1804849987"[label="1", color="black", style="setlinewidth(1)"];
"1091178914"[label="{{Stmt\ -1:\ return\ (b\ \<=\ 9);}|True}", color="black", fontname="Calibri", style="filled", fillcolor="white"];
"1091178914" -> "1804849987"[label="1", color="black", style="setlinewidth(1)"];
"317417999"[label="{{Stmt\ -1:\ (b\ =\ ((a\ \|\ 0x20)\ -\ '}|True}", color="black", fontname="Calibri", style="filled", fillcolor="white"];
"317417999" -> "1008564900"[label="1", color="black", style="setlinewidth(1)"];
"645119727"[label="{{Expr\ -1:\ (b\ \<=\ 9)}|True}", color="black", fontname="Calibri", style="filled", fillcolor="white"];
"645119727" -> "317417999"[label="1", color="black", style="setlinewidth(1)"];
"645119727" -> "1091178914"[label="1", color="black", style="setlinewidth(1)"];
"888705094"[label="{{Stmt\ -1:\ unsigned\ char\ b\ =\ \ (}|True}", color="black", fontname="Calibri", style="filled", fillcolor="white"];
"888705094" -> "645119727"[label="1", color="black", style="setlinewidth(1)"];
"1804849987" -> "888705094"[label="1", color="black", style="setlinewidth(1)"];
"1464587156"[label="{{Stmt\ -1:\ (a\ -=\ ('a'\ -\ 'A'));}|True}", color="black", fontname="Calibri", style="filled", fillcolor="white"];
"2119387000"[label="{{Stmt\ -1:\ return\ a;}|True}", color="black", fontname="Calibri", style="filled", fillcolor="white"];
"1464587156" -> "2119387000"[label="1", color="black", style="setlinewidth(1)"];
"269017891"[label="{{Function\ -1:\ bb_ascii_toupper}|True}", color="blue", fontname="Calibri", style="filled", fillcolor="white"];
"2119387000" -> "269017891"[label="1", color="black", style="setlinewidth(1)"];
"1988265491"[label="{{Expr\ -1:\ (b\ \<=\ ('z'\ -\ 'a'))}|True}", color="black", fontname="Calibri", style="filled", fillcolor="white"];
"1988265491" -> "2119387000"[label="1", color="black", style="setlinewidth(1)"];
"1988265491" -> "1464587156"[label="1", color="black", style="setlinewidth(1)"];
"684283256"[label="{{Stmt\ -1:\ unsigned\ char\ b\ =\ \ (}|True}", color="black", fontname="Calibri", style="filled", fillcolor="white"];
"684283256" -> "1988265491"[label="1", color="black", style="setlinewidth(1)"];
"269017891" -> "684283256"[label="1", color="black", style="setlinewidth(1)"];
"1496730678"[label="{{Stmt\ -1:\ (a\ +=\ ('a'\ -\ 'A'));}|True}", color="black", fontname="Calibri", style="filled", fillcolor="white"];
"2037096675"[label="{{Stmt\ -1:\ return\ a;}|True}", color="black", fontname="Calibri", style="filled", fillcolor="white"];
"1496730678" -> "2037096675"[label="1", color="black", style="setlinewidth(1)"];
"428166734"[label="{{Function\ -1:\ bb_ascii_tolower}|True}", color="blue", fontname="Calibri", style="filled", fillcolor="white"];
"2037096675" -> "428166734"[label="1", color="black", style="setlinewidth(1)"];
"1269605941"[label="{{Expr\ -1:\ (b\ \<=\ ('Z'\ -\ 'A'))}|True}", color="black", fontname="Calibri", style="filled", fillcolor="white"];
"1269605941" -> "2037096675"[label="1", color="black", style="setlinewidth(1)"];
"1269605941" -> "1496730678"[label="1", color="black", style="setlinewidth(1)"];
"1992846129"[label="{{Stmt\ -1:\ unsigned\ char\ b\ =\ \ (}|True}", color="black", fontname="Calibri", style="filled", fillcolor="white"];
"1992846129" -> "1269605941"[label="1", color="black", style="setlinewidth(1)"];
"428166734" -> "1992846129"[label="1", color="black", style="setlinewidth(1)"];
"1757602129"[label="{{Stmt\ -1:\ bb_error_msg(\l#if\ de}|def(CONFIG_DESKTOP)}", color="black", fontname="Calibri", style="filled", fillcolor="#CD5200"];
"1823841241"[label="{{Decl\ -1:\ bb_error_msg}|def(CONFIG_DESKTOP)}", color="blue", fontname="Calibri", style="filled", fillcolor="#CD5200"];
"1757602129" -> "1823841241"[label="definedEx(CONFIG_DESKTOP)", color="red", style="setlinewidth(1)"];
"1892503301"[label="{{Function\ -1:\ bb_warn_ignoring_args}|def(CONFIG_DESKTOP)}", color="blue", fontname="Calibri", style="filled", fillcolor="#CD5200"];
"1757602129" -> "1892503301"[label="definedEx(CONFIG_DESKTOP)", color="red", style="setlinewidth(1)"];
"1521925392"[label="{{Expr\ 14:\ arg}|def(CONFIG_DESKTOP)}", color="black", fontname="Calibri", style="filled", fillcolor="#CD5200"];
"1521925392" -> "1823841241"[label="definedEx(CONFIG_DESKTOP)", color="red", style="setlinewidth(1)"];
"1521925392" -> "1892503301"[label="definedEx(CONFIG_DESKTOP)", color="red", style="setlinewidth(1)"];
"1521925392" -> "1757602129"[label="definedEx(CONFIG_DESKTOP)", color="red", style="setlinewidth(1)"];
"1892503301" -> "1521925392"[label="definedEx(CONFIG_DESKTOP)", color="red", style="setlinewidth(1)"];
}
