digraph "busybox-1.18.5/libbb/write.c" {
node [shape=record];
"470332308"[label="{{Decl\ -1:\ xstrtoull_range_sfx}|True}", color="blue", fontname="Calibri", style="filled", fillcolor="white"];
"1496234924"[label="{{Stmt\ -1:\ return\ xstrtoull_ran}|True}", color="black", fontname="Calibri", style="filled", fillcolor="white"];
"1496234924" -> "470332308"[label="1", color="black", style="setlinewidth(1)"];
"1342256370"[label="{{Function\ -1:\ xstrtoul_range_sfx}|True}", color="blue", fontname="Calibri", style="filled", fillcolor="white"];
"1496234924" -> "1342256370"[label="1", color="black", style="setlinewidth(1)"];
"1342256370" -> "1496234924"[label="1", color="black", style="setlinewidth(1)"];
"2057129851"[label="{{Decl\ -1:\ xstrtoull_range}|True}", color="blue", fontname="Calibri", style="filled", fillcolor="white"];
"158180959"[label="{{Stmt\ -1:\ return\ xstrtoull_ran}|True}", color="black", fontname="Calibri", style="filled", fillcolor="white"];
"158180959" -> "2057129851"[label="1", color="black", style="setlinewidth(1)"];
"961559233"[label="{{Function\ -1:\ xstrtoul_range}|True}", color="blue", fontname="Calibri", style="filled", fillcolor="white"];
"158180959" -> "961559233"[label="1", color="black", style="setlinewidth(1)"];
"961559233" -> "158180959"[label="1", color="black", style="setlinewidth(1)"];
"635273083"[label="{{Decl\ -1:\ xstrtoull_sfx}|True}", color="blue", fontname="Calibri", style="filled", fillcolor="white"];
"2065407546"[label="{{Stmt\ -1:\ return\ xstrtoull_sfx}|True}", color="black", fontname="Calibri", style="filled", fillcolor="white"];
"2065407546" -> "635273083"[label="1", color="black", style="setlinewidth(1)"];
"738349763"[label="{{Function\ -1:\ xstrtoul_sfx}|True}", color="blue", fontname="Calibri", style="filled", fillcolor="white"];
"2065407546" -> "738349763"[label="1", color="black", style="setlinewidth(1)"];
"738349763" -> "2065407546"[label="1", color="black", style="setlinewidth(1)"];
"1483890662"[label="{{Decl\ -1:\ xstrtoull}|True}", color="blue", fontname="Calibri", style="filled", fillcolor="white"];
"1011702487"[label="{{Stmt\ -1:\ return\ xstrtoull(str}|True}", color="black", fontname="Calibri", style="filled", fillcolor="white"];
"1011702487" -> "1483890662"[label="1", color="black", style="setlinewidth(1)"];
"1619701892"[label="{{Function\ -1:\ xstrtoul}|True}", color="blue", fontname="Calibri", style="filled", fillcolor="white"];
"1011702487" -> "1619701892"[label="1", color="black", style="setlinewidth(1)"];
"1619701892" -> "1011702487"[label="1", color="black", style="setlinewidth(1)"];
"62657225"[label="{{Decl\ -1:\ xatoull_range_sfx}|True}", color="blue", fontname="Calibri", style="filled", fillcolor="white"];
"834916013"[label="{{Stmt\ -1:\ return\ xatoull_range}|True}", color="black", fontname="Calibri", style="filled", fillcolor="white"];
"834916013" -> "62657225"[label="1", color="black", style="setlinewidth(1)"];
"418892140"[label="{{Function\ -1:\ xatoul_range_sfx}|True}", color="blue", fontname="Calibri", style="filled", fillcolor="white"];
"834916013" -> "418892140"[label="1", color="black", style="setlinewidth(1)"];
"418892140" -> "834916013"[label="1", color="black", style="setlinewidth(1)"];
"1604018747"[label="{{Decl\ -1:\ xatoull_range}|True}", color="blue", fontname="Calibri", style="filled", fillcolor="white"];
"112840691"[label="{{Stmt\ -1:\ return\ xatoull_range}|True}", color="black", fontname="Calibri", style="filled", fillcolor="white"];
"112840691" -> "1604018747"[label="1", color="black", style="setlinewidth(1)"];
"1540392765"[label="{{Function\ -1:\ xatoul_range}|True}", color="blue", fontname="Calibri", style="filled", fillcolor="white"];
"112840691" -> "1540392765"[label="1", color="black", style="setlinewidth(1)"];
"1540392765" -> "112840691"[label="1", color="black", style="setlinewidth(1)"];
"1199467561"[label="{{Decl\ -1:\ xatoull_sfx}|True}", color="blue", fontname="Calibri", style="filled", fillcolor="white"];
"107677142"[label="{{Stmt\ -1:\ return\ xatoull_sfx(s}|True}", color="black", fontname="Calibri", style="filled", fillcolor="white"];
"107677142" -> "1199467561"[label="1", color="black", style="setlinewidth(1)"];
"910299607"[label="{{Function\ -1:\ xatoul_sfx}|True}", color="blue", fontname="Calibri", style="filled", fillcolor="white"];
"107677142" -> "910299607"[label="1", color="black", style="setlinewidth(1)"];
"910299607" -> "107677142"[label="1", color="black", style="setlinewidth(1)"];
"1054358619"[label="{{Decl\ -1:\ xatoull}|True}", color="blue", fontname="Calibri", style="filled", fillcolor="white"];
"391830493"[label="{{Stmt\ -1:\ return\ xatoull(str);}|True}", color="black", fontname="Calibri", style="filled", fillcolor="white"];
"391830493" -> "1054358619"[label="1", color="black", style="setlinewidth(1)"];
"1184033401"[label="{{Function\ -1:\ xatoul}|True}", color="blue", fontname="Calibri", style="filled", fillcolor="white"];
"391830493" -> "1184033401"[label="1", color="black", style="setlinewidth(1)"];
"1184033401" -> "391830493"[label="1", color="black", style="setlinewidth(1)"];
"1687455318"[label="{{Decl\ -1:\ xstrtoll_range_sfx}|True}", color="blue", fontname="Calibri", style="filled", fillcolor="white"];
"1517602964"[label="{{Stmt\ -1:\ return\ xstrtoll_rang}|True}", color="black", fontname="Calibri", style="filled", fillcolor="white"];
"1517602964" -> "1687455318"[label="1", color="black", style="setlinewidth(1)"];
"352869987"[label="{{Function\ -1:\ xstrtol_range_sfx}|True}", color="blue", fontname="Calibri", style="filled", fillcolor="white"];
"1517602964" -> "352869987"[label="1", color="black", style="setlinewidth(1)"];
"352869987" -> "1517602964"[label="1", color="black", style="setlinewidth(1)"];
"1341222369"[label="{{Decl\ -1:\ xstrtoll_range}|True}", color="blue", fontname="Calibri", style="filled", fillcolor="white"];
"1885228820"[label="{{Stmt\ -1:\ return\ xstrtoll_rang}|True}", color="black", fontname="Calibri", style="filled", fillcolor="white"];
"1885228820" -> "1341222369"[label="1", color="black", style="setlinewidth(1)"];
"1726271323"[label="{{Function\ -1:\ xstrtol_range}|True}", color="blue", fontname="Calibri", style="filled", fillcolor="white"];
"1885228820" -> "1726271323"[label="1", color="black", style="setlinewidth(1)"];
"1726271323" -> "1885228820"[label="1", color="black", style="setlinewidth(1)"];
"1526211799"[label="{{Decl\ -1:\ xstrtoll}|True}", color="blue", fontname="Calibri", style="filled", fillcolor="white"];
"1439059988"[label="{{Stmt\ -1:\ return\ xstrtoll(str\ }|True}", color="black", fontname="Calibri", style="filled", fillcolor="white"];
"1439059988" -> "1526211799"[label="1", color="black", style="setlinewidth(1)"];
"1959163194"[label="{{Function\ -1:\ xstrtol}|True}", color="blue", fontname="Calibri", style="filled", fillcolor="white"];
"1439059988" -> "1959163194"[label="1", color="black", style="setlinewidth(1)"];
"1959163194" -> "1439059988"[label="1", color="black", style="setlinewidth(1)"];
"790130154"[label="{{Decl\ -1:\ xatoll_range_sfx}|True}", color="blue", fontname="Calibri", style="filled", fillcolor="white"];
"1737949152"[label="{{Stmt\ -1:\ return\ xatoll_range_}|True}", color="black", fontname="Calibri", style="filled", fillcolor="white"];
"1737949152" -> "790130154"[label="1", color="black", style="setlinewidth(1)"];
"1356518705"[label="{{Function\ -1:\ xatol_range_sfx}|True}", color="blue", fontname="Calibri", style="filled", fillcolor="white"];
"1737949152" -> "1356518705"[label="1", color="black", style="setlinewidth(1)"];
"1356518705" -> "1737949152"[label="1", color="black", style="setlinewidth(1)"];
"1602408001"[label="{{Decl\ -1:\ xatoll_range}|True}", color="blue", fontname="Calibri", style="filled", fillcolor="white"];
"1881137891"[label="{{Stmt\ -1:\ return\ xatoll_range(}|True}", color="black", fontname="Calibri", style="filled", fillcolor="white"];
"1881137891" -> "1602408001"[label="1", color="black", style="setlinewidth(1)"];
"1325796638"[label="{{Function\ -1:\ xatol_range}|True}", color="blue", fontname="Calibri", style="filled", fillcolor="white"];
"1881137891" -> "1325796638"[label="1", color="black", style="setlinewidth(1)"];
"1325796638" -> "1881137891"[label="1", color="black", style="setlinewidth(1)"];
"1984665985"[label="{{Decl\ -1:\ xatoll_sfx}|True}", color="blue", fontname="Calibri", style="filled", fillcolor="white"];
"1415669916"[label="{{Stmt\ -1:\ return\ xatoll_sfx(st}|True}", color="black", fontname="Calibri", style="filled", fillcolor="white"];
"1415669916" -> "1984665985"[label="1", color="black", style="setlinewidth(1)"];
"522682057"[label="{{Function\ -1:\ xatol_sfx}|True}", color="blue", fontname="Calibri", style="filled", fillcolor="white"];
"1415669916" -> "522682057"[label="1", color="black", style="setlinewidth(1)"];
"522682057" -> "1415669916"[label="1", color="black", style="setlinewidth(1)"];
"423975229"[label="{{Decl\ -1:\ xatoll}|True}", color="blue", fontname="Calibri", style="filled", fillcolor="white"];
"1754261018"[label="{{Stmt\ -1:\ return\ xatoll(str);}|True}", color="black", fontname="Calibri", style="filled", fillcolor="white"];
"1754261018" -> "423975229"[label="1", color="black", style="setlinewidth(1)"];
"1696122673"[label="{{Function\ -1:\ xatol}|True}", color="blue", fontname="Calibri", style="filled", fillcolor="white"];
"1754261018" -> "1696122673"[label="1", color="black", style="setlinewidth(1)"];
"1696122673" -> "1754261018"[label="1", color="black", style="setlinewidth(1)"];
"391830493" -> "1054358619"[label="1", color="black", style="setlinewidth(1)"];
"391830493" -> "1184033401"[label="1", color="black", style="setlinewidth(1)"];
"1184033401" -> "391830493"[label="1", color="black", style="setlinewidth(1)"];
"1430305405"[label="{{Decl\ -1:\ BUG_xatou32_unimplemented}|True}", color="blue", fontname="Calibri", style="filled", fillcolor="white"];
"900484301"[label="{{Decl\ -1:\ xatou}|True}", color="blue", fontname="Calibri", style="filled", fillcolor="white"];
"403913770"[label="{{Stmt\ -1:\ return\ xatoul(numstr}|True}", color="black", fontname="Calibri", style="filled", fillcolor="white"];
"403913770" -> "1184033401"[label="1", color="black", style="setlinewidth(1)"];
"1180440638"[label="{{Function\ -1:\ xatou32}|True}", color="blue", fontname="Calibri", style="filled", fillcolor="white"];
"403913770" -> "1180440638"[label="1", color="black", style="setlinewidth(1)"];
"630063584"[label="{{Stmt\ -1:\ return\ BUG_xatou32_u}|True}", color="black", fontname="Calibri", style="filled", fillcolor="white"];
"630063584" -> "1430305405"[label="1", color="black", style="setlinewidth(1)"];
"630063584" -> "1180440638"[label="1", color="black", style="setlinewidth(1)"];
"1558391694"[label="{{Stmt\ -1:\ return\ xatou(numstr)}|True}", color="black", fontname="Calibri", style="filled", fillcolor="white"];
"1558391694" -> "900484301"[label="1", color="black", style="setlinewidth(1)"];
"1558391694" -> "1180440638"[label="1", color="black", style="setlinewidth(1)"];
"1331073790"[label="{{Expr\ -1:\ (((92233720368547758}|True}", color="black", fontname="Calibri", style="filled", fillcolor="white"];
"1331073790" -> "630063584"[label="1", color="black", style="setlinewidth(1)"];
"1331073790" -> "403913770"[label="1", color="black", style="setlinewidth(1)"];
"121027865"[label="{{Expr\ -1:\ (((2147483647\ *\ 2U)\ }|True}", color="black", fontname="Calibri", style="filled", fillcolor="white"];
"121027865" -> "1331073790"[label="1", color="black", style="setlinewidth(1)"];
"121027865" -> "1558391694"[label="1", color="black", style="setlinewidth(1)"];
"1180440638" -> "121027865"[label="1", color="black", style="setlinewidth(1)"];
"89529075"[label="{{Decl\ -1:\ bb_strtoull}|True}", color="blue", fontname="Calibri", style="filled", fillcolor="white"];
"1093141464"[label="{{Stmt\ -1:\ return\ bb_strtoull(a}|True}", color="black", fontname="Calibri", style="filled", fillcolor="white"];
"1093141464" -> "89529075"[label="1", color="black", style="setlinewidth(1)"];
"205058015"[label="{{Function\ -1:\ bb_strtoul}|True}", color="blue", fontname="Calibri", style="filled", fillcolor="white"];
"1093141464" -> "205058015"[label="1", color="black", style="setlinewidth(1)"];
"205058015" -> "1093141464"[label="1", color="black", style="setlinewidth(1)"];
"896105405"[label="{{Decl\ -1:\ bb_strtoll}|True}", color="blue", fontname="Calibri", style="filled", fillcolor="white"];
"1889207554"[label="{{Stmt\ -1:\ return\ bb_strtoll(ar}|True}", color="black", fontname="Calibri", style="filled", fillcolor="white"];
"1889207554" -> "896105405"[label="1", color="black", style="setlinewidth(1)"];
"932665926"[label="{{Function\ -1:\ bb_strtol}|True}", color="blue", fontname="Calibri", style="filled", fillcolor="white"];
"1889207554" -> "932665926"[label="1", color="black", style="setlinewidth(1)"];
"932665926" -> "1889207554"[label="1", color="black", style="setlinewidth(1)"];
"1093141464" -> "89529075"[label="1", color="black", style="setlinewidth(1)"];
"1093141464" -> "205058015"[label="1", color="black", style="setlinewidth(1)"];
"205058015" -> "1093141464"[label="1", color="black", style="setlinewidth(1)"];
"2088400398"[label="{{Decl\ -1:\ BUG_bb_strtou32_unimplemented}|True}", color="blue", fontname="Calibri", style="filled", fillcolor="white"];
"1650418173"[label="{{Decl\ -1:\ bb_strtou}|True}", color="blue", fontname="Calibri", style="filled", fillcolor="white"];
"1168165518"[label="{{Stmt\ -1:\ return\ bb_strtoul(ar}|True}", color="black", fontname="Calibri", style="filled", fillcolor="white"];
"1168165518" -> "205058015"[label="1", color="black", style="setlinewidth(1)"];
"827319093"[label="{{Function\ -1:\ bb_strtou32}|True}", color="blue", fontname="Calibri", style="filled", fillcolor="white"];
"1168165518" -> "827319093"[label="1", color="black", style="setlinewidth(1)"];
"10775679"[label="{{Stmt\ -1:\ return\ BUG_bb_strtou}|True}", color="black", fontname="Calibri", style="filled", fillcolor="white"];
"10775679" -> "2088400398"[label="1", color="black", style="setlinewidth(1)"];
"10775679" -> "827319093"[label="1", color="black", style="setlinewidth(1)"];
"91078892"[label="{{Stmt\ -1:\ return\ bb_strtou(arg}|True}", color="black", fontname="Calibri", style="filled", fillcolor="white"];
"91078892" -> "1650418173"[label="1", color="black", style="setlinewidth(1)"];
"91078892" -> "827319093"[label="1", color="black", style="setlinewidth(1)"];
"30732123"[label="{{Expr\ -1:\ (sizeof(uint32_t\ )\ =}|True}", color="black", fontname="Calibri", style="filled", fillcolor="white"];
"30732123" -> "10775679"[label="1", color="black", style="setlinewidth(1)"];
"30732123" -> "1168165518"[label="1", color="black", style="setlinewidth(1)"];
"225818346"[label="{{Expr\ -1:\ (sizeof(uint32_t\ )\ =}|True}", color="black", fontname="Calibri", style="filled", fillcolor="white"];
"225818346" -> "30732123"[label="1", color="black", style="setlinewidth(1)"];
"225818346" -> "91078892"[label="1", color="black", style="setlinewidth(1)"];
"827319093" -> "225818346"[label="1", color="black", style="setlinewidth(1)"];
"1802109772"[label="{{Stmt\ -1:\ return\ (b\ \<=\ ('z'\ -\ }|True}", color="black", fontname="Calibri", style="filled", fillcolor="white"];
"226134804"[label="{{Function\ -1:\ bb_ascii_isalnum}|True}", color="blue", fontname="Calibri", style="filled", fillcolor="white"];
"1802109772" -> "226134804"[label="1", color="black", style="setlinewidth(1)"];
"252975933"[label="{{Stmt\ -1:\ return\ (b\ \<=\ 9);}|True}", color="black", fontname="Calibri", style="filled", fillcolor="white"];
"252975933" -> "226134804"[label="1", color="black", style="setlinewidth(1)"];
"966946388"[label="{{Stmt\ -1:\ (b\ =\ ((a\ \|\ 0x20)\ -\ '}|True}", color="black", fontname="Calibri", style="filled", fillcolor="white"];
"966946388" -> "1802109772"[label="1", color="black", style="setlinewidth(1)"];
"844336336"[label="{{Expr\ -1:\ (b\ \<=\ 9)}|True}", color="black", fontname="Calibri", style="filled", fillcolor="white"];
"844336336" -> "966946388"[label="1", color="black", style="setlinewidth(1)"];
"844336336" -> "252975933"[label="1", color="black", style="setlinewidth(1)"];
"793974350"[label="{{Stmt\ -1:\ unsigned\ char\ b\ =\ \ (}|True}", color="black", fontname="Calibri", style="filled", fillcolor="white"];
"793974350" -> "844336336"[label="1", color="black", style="setlinewidth(1)"];
"226134804" -> "793974350"[label="1", color="black", style="setlinewidth(1)"];
"1522679135"[label="{{Stmt\ -1:\ return\ (b\ \<=\ ('f'\ -\ }|True}", color="black", fontname="Calibri", style="filled", fillcolor="white"];
"1275486301"[label="{{Function\ -1:\ bb_ascii_isxdigit}|True}", color="blue", fontname="Calibri", style="filled", fillcolor="white"];
"1522679135" -> "1275486301"[label="1", color="black", style="setlinewidth(1)"];
"1921932557"[label="{{Stmt\ -1:\ return\ (b\ \<=\ 9);}|True}", color="black", fontname="Calibri", style="filled", fillcolor="white"];
"1921932557" -> "1275486301"[label="1", color="black", style="setlinewidth(1)"];
"1842940668"[label="{{Stmt\ -1:\ (b\ =\ ((a\ \|\ 0x20)\ -\ '}|True}", color="black", fontname="Calibri", style="filled", fillcolor="white"];
"1842940668" -> "1522679135"[label="1", color="black", style="setlinewidth(1)"];
"235673062"[label="{{Expr\ -1:\ (b\ \<=\ 9)}|True}", color="black", fontname="Calibri", style="filled", fillcolor="white"];
"235673062" -> "1842940668"[label="1", color="black", style="setlinewidth(1)"];
"235673062" -> "1921932557"[label="1", color="black", style="setlinewidth(1)"];
"2095505963"[label="{{Stmt\ -1:\ unsigned\ char\ b\ =\ \ (}|True}", color="black", fontname="Calibri", style="filled", fillcolor="white"];
"2095505963" -> "235673062"[label="1", color="black", style="setlinewidth(1)"];
"1275486301" -> "2095505963"[label="1", color="black", style="setlinewidth(1)"];
"1303016115"[label="{{Stmt\ -1:\ (a\ -=\ ('a'\ -\ 'A'));}|True}", color="black", fontname="Calibri", style="filled", fillcolor="white"];
"2113836715"[label="{{Stmt\ -1:\ return\ a;}|True}", color="black", fontname="Calibri", style="filled", fillcolor="white"];
"1303016115" -> "2113836715"[label="1", color="black", style="setlinewidth(1)"];
"605213325"[label="{{Function\ -1:\ bb_ascii_toupper}|True}", color="blue", fontname="Calibri", style="filled", fillcolor="white"];
"2113836715" -> "605213325"[label="1", color="black", style="setlinewidth(1)"];
"2145796884"[label="{{Expr\ -1:\ (b\ \<=\ ('z'\ -\ 'a'))}|True}", color="black", fontname="Calibri", style="filled", fillcolor="white"];
"2145796884" -> "2113836715"[label="1", color="black", style="setlinewidth(1)"];
"2145796884" -> "1303016115"[label="1", color="black", style="setlinewidth(1)"];
"664870381"[label="{{Stmt\ -1:\ unsigned\ char\ b\ =\ \ (}|True}", color="black", fontname="Calibri", style="filled", fillcolor="white"];
"664870381" -> "2145796884"[label="1", color="black", style="setlinewidth(1)"];
"605213325" -> "664870381"[label="1", color="black", style="setlinewidth(1)"];
"1441607179"[label="{{Stmt\ -1:\ (a\ +=\ ('a'\ -\ 'A'));}|True}", color="black", fontname="Calibri", style="filled", fillcolor="white"];
"874393059"[label="{{Stmt\ -1:\ return\ a;}|True}", color="black", fontname="Calibri", style="filled", fillcolor="white"];
"1441607179" -> "874393059"[label="1", color="black", style="setlinewidth(1)"];
"2119387000"[label="{{Function\ -1:\ bb_ascii_tolower}|True}", color="blue", fontname="Calibri", style="filled", fillcolor="white"];
"874393059" -> "2119387000"[label="1", color="black", style="setlinewidth(1)"];
"1757780474"[label="{{Expr\ -1:\ (b\ \<=\ ('Z'\ -\ 'A'))}|True}", color="black", fontname="Calibri", style="filled", fillcolor="white"];
"1757780474" -> "874393059"[label="1", color="black", style="setlinewidth(1)"];
"1757780474" -> "1441607179"[label="1", color="black", style="setlinewidth(1)"];
"1233284771"[label="{{Stmt\ -1:\ unsigned\ char\ b\ =\ \ (}|True}", color="black", fontname="Calibri", style="filled", fillcolor="white"];
"1233284771" -> "1757780474"[label="1", color="black", style="setlinewidth(1)"];
"2119387000" -> "1233284771"[label="1", color="black", style="setlinewidth(1)"];
"1111295262"[label="{{Decl\ -1:\ close}|True}", color="blue", fontname="Calibri", style="filled", fillcolor="white"];
"581550195"[label="{{Stmt\ -1:\ close(fd);}|True}", color="black", fontname="Calibri", style="filled", fillcolor="white"];
"581550195" -> "1111295262"[label="1", color="black", style="setlinewidth(1)"];
"138336014"[label="{{Decl\ -1:\ xwrite_str}|True}", color="blue", fontname="Calibri", style="filled", fillcolor="white"];
"581550195" -> "138336014"[label="1", color="black", style="setlinewidth(1)"];
"1273454458"[label="{{Decl\ -1:\ xopen}|True}", color="blue", fontname="Calibri", style="filled", fillcolor="white"];
"581550195" -> "1273454458"[label="1", color="black", style="setlinewidth(1)"];
"978835692"[label="{{Function\ -1:\ xopen_xwrite_close}|True}", color="blue", fontname="Calibri", style="filled", fillcolor="white"];
"581550195" -> "978835692"[label="1", color="black", style="setlinewidth(1)"];
"894288614"[label="{{Stmt\ -1:\ xwrite_str(fd\ ,\ str)}|True}", color="black", fontname="Calibri", style="filled", fillcolor="white"];
"894288614" -> "138336014"[label="1", color="black", style="setlinewidth(1)"];
"894288614" -> "581550195"[label="1", color="black", style="setlinewidth(1)"];
"116735684"[label="{{Stmt\ -1:\ int\ fd\ =\ \ xopen(file}|True}", color="black", fontname="Calibri", style="filled", fillcolor="white"];
"116735684" -> "1273454458"[label="1", color="black", style="setlinewidth(1)"];
"116735684" -> "894288614"[label="1", color="black", style="setlinewidth(1)"];
"978835692" -> "116735684"[label="1", color="black", style="setlinewidth(1)"];
}
