digraph "busybox-1.18.5/libbb/xreadlink.c" {
node [shape=record];
"24093021"[label="{{Decl\ -1:\ xstrtoull_range_sfx}|True}", color="blue", fontname="Calibri", style="filled", fillcolor="white"];
"1858362382"[label="{{Stmt\ -1:\ return\ xstrtoull_ran}|True}", color="black", fontname="Calibri", style="filled", fillcolor="white"];
"1858362382" -> "24093021"[label="1", color="black", style="setlinewidth(1)"];
"833022628"[label="{{Function\ -1:\ xstrtoul_range_sfx}|True}", color="blue", fontname="Calibri", style="filled", fillcolor="white"];
"1858362382" -> "833022628"[label="1", color="black", style="setlinewidth(1)"];
"833022628" -> "1858362382"[label="1", color="black", style="setlinewidth(1)"];
"1321679444"[label="{{Decl\ -1:\ xstrtoull_range}|True}", color="blue", fontname="Calibri", style="filled", fillcolor="white"];
"966650316"[label="{{Stmt\ -1:\ return\ xstrtoull_ran}|True}", color="black", fontname="Calibri", style="filled", fillcolor="white"];
"966650316" -> "1321679444"[label="1", color="black", style="setlinewidth(1)"];
"959836157"[label="{{Function\ -1:\ xstrtoul_range}|True}", color="blue", fontname="Calibri", style="filled", fillcolor="white"];
"966650316" -> "959836157"[label="1", color="black", style="setlinewidth(1)"];
"959836157" -> "966650316"[label="1", color="black", style="setlinewidth(1)"];
"528594557"[label="{{Decl\ -1:\ xstrtoull_sfx}|True}", color="blue", fontname="Calibri", style="filled", fillcolor="white"];
"1662443653"[label="{{Stmt\ -1:\ return\ xstrtoull_sfx}|True}", color="black", fontname="Calibri", style="filled", fillcolor="white"];
"1662443653" -> "528594557"[label="1", color="black", style="setlinewidth(1)"];
"868802114"[label="{{Function\ -1:\ xstrtoul_sfx}|True}", color="blue", fontname="Calibri", style="filled", fillcolor="white"];
"1662443653" -> "868802114"[label="1", color="black", style="setlinewidth(1)"];
"868802114" -> "1662443653"[label="1", color="black", style="setlinewidth(1)"];
"1733408593"[label="{{Decl\ -1:\ xstrtoull}|True}", color="blue", fontname="Calibri", style="filled", fillcolor="white"];
"150330727"[label="{{Stmt\ -1:\ return\ xstrtoull(str}|True}", color="black", fontname="Calibri", style="filled", fillcolor="white"];
"150330727" -> "1733408593"[label="1", color="black", style="setlinewidth(1)"];
"1364363002"[label="{{Function\ -1:\ xstrtoul}|True}", color="blue", fontname="Calibri", style="filled", fillcolor="white"];
"150330727" -> "1364363002"[label="1", color="black", style="setlinewidth(1)"];
"1364363002" -> "150330727"[label="1", color="black", style="setlinewidth(1)"];
"1820990115"[label="{{Decl\ -1:\ xatoull_range_sfx}|True}", color="blue", fontname="Calibri", style="filled", fillcolor="white"];
"115322315"[label="{{Stmt\ -1:\ return\ xatoull_range}|True}", color="black", fontname="Calibri", style="filled", fillcolor="white"];
"115322315" -> "1820990115"[label="1", color="black", style="setlinewidth(1)"];
"1155142087"[label="{{Function\ -1:\ xatoul_range_sfx}|True}", color="blue", fontname="Calibri", style="filled", fillcolor="white"];
"115322315" -> "1155142087"[label="1", color="black", style="setlinewidth(1)"];
"1155142087" -> "115322315"[label="1", color="black", style="setlinewidth(1)"];
"1585662774"[label="{{Decl\ -1:\ xatoull_range}|True}", color="blue", fontname="Calibri", style="filled", fillcolor="white"];
"500629589"[label="{{Stmt\ -1:\ return\ xatoull_range}|True}", color="black", fontname="Calibri", style="filled", fillcolor="white"];
"500629589" -> "1585662774"[label="1", color="black", style="setlinewidth(1)"];
"855673971"[label="{{Function\ -1:\ xatoul_range}|True}", color="blue", fontname="Calibri", style="filled", fillcolor="white"];
"500629589" -> "855673971"[label="1", color="black", style="setlinewidth(1)"];
"855673971" -> "500629589"[label="1", color="black", style="setlinewidth(1)"];
"1618644517"[label="{{Decl\ -1:\ xatoull_sfx}|True}", color="blue", fontname="Calibri", style="filled", fillcolor="white"];
"689740529"[label="{{Stmt\ -1:\ return\ xatoull_sfx(s}|True}", color="black", fontname="Calibri", style="filled", fillcolor="white"];
"689740529" -> "1618644517"[label="1", color="black", style="setlinewidth(1)"];
"932855071"[label="{{Function\ -1:\ xatoul_sfx}|True}", color="blue", fontname="Calibri", style="filled", fillcolor="white"];
"689740529" -> "932855071"[label="1", color="black", style="setlinewidth(1)"];
"932855071" -> "689740529"[label="1", color="black", style="setlinewidth(1)"];
"1857508461"[label="{{Decl\ -1:\ xatoull}|True}", color="blue", fontname="Calibri", style="filled", fillcolor="white"];
"1703914137"[label="{{Stmt\ -1:\ return\ xatoull(str);}|True}", color="black", fontname="Calibri", style="filled", fillcolor="white"];
"1703914137" -> "1857508461"[label="1", color="black", style="setlinewidth(1)"];
"664739753"[label="{{Function\ -1:\ xatoul}|True}", color="blue", fontname="Calibri", style="filled", fillcolor="white"];
"1703914137" -> "664739753"[label="1", color="black", style="setlinewidth(1)"];
"664739753" -> "1703914137"[label="1", color="black", style="setlinewidth(1)"];
"940459090"[label="{{Decl\ -1:\ xstrtoll_range_sfx}|True}", color="blue", fontname="Calibri", style="filled", fillcolor="white"];
"1859343171"[label="{{Stmt\ -1:\ return\ xstrtoll_rang}|True}", color="black", fontname="Calibri", style="filled", fillcolor="white"];
"1859343171" -> "940459090"[label="1", color="black", style="setlinewidth(1)"];
"1369240586"[label="{{Function\ -1:\ xstrtol_range_sfx}|True}", color="blue", fontname="Calibri", style="filled", fillcolor="white"];
"1859343171" -> "1369240586"[label="1", color="black", style="setlinewidth(1)"];
"1369240586" -> "1859343171"[label="1", color="black", style="setlinewidth(1)"];
"1860825468"[label="{{Decl\ -1:\ xstrtoll_range}|True}", color="blue", fontname="Calibri", style="filled", fillcolor="white"];
"31901968"[label="{{Stmt\ -1:\ return\ xstrtoll_rang}|True}", color="black", fontname="Calibri", style="filled", fillcolor="white"];
"31901968" -> "1860825468"[label="1", color="black", style="setlinewidth(1)"];
"65567455"[label="{{Function\ -1:\ xstrtol_range}|True}", color="blue", fontname="Calibri", style="filled", fillcolor="white"];
"31901968" -> "65567455"[label="1", color="black", style="setlinewidth(1)"];
"65567455" -> "31901968"[label="1", color="black", style="setlinewidth(1)"];
"1027066858"[label="{{Decl\ -1:\ xstrtoll}|True}", color="blue", fontname="Calibri", style="filled", fillcolor="white"];
"1694780807"[label="{{Stmt\ -1:\ return\ xstrtoll(str\ }|True}", color="black", fontname="Calibri", style="filled", fillcolor="white"];
"1694780807" -> "1027066858"[label="1", color="black", style="setlinewidth(1)"];
"1891472693"[label="{{Function\ -1:\ xstrtol}|True}", color="blue", fontname="Calibri", style="filled", fillcolor="white"];
"1694780807" -> "1891472693"[label="1", color="black", style="setlinewidth(1)"];
"1891472693" -> "1694780807"[label="1", color="black", style="setlinewidth(1)"];
"851863065"[label="{{Decl\ -1:\ xatoll_range_sfx}|True}", color="blue", fontname="Calibri", style="filled", fillcolor="white"];
"1192953099"[label="{{Stmt\ -1:\ return\ xatoll_range_}|True}", color="black", fontname="Calibri", style="filled", fillcolor="white"];
"1192953099" -> "851863065"[label="1", color="black", style="setlinewidth(1)"];
"1881137891"[label="{{Function\ -1:\ xatol_range_sfx}|True}", color="blue", fontname="Calibri", style="filled", fillcolor="white"];
"1192953099" -> "1881137891"[label="1", color="black", style="setlinewidth(1)"];
"1881137891" -> "1192953099"[label="1", color="black", style="setlinewidth(1)"];
"377076993"[label="{{Decl\ -1:\ xatoll_range}|True}", color="blue", fontname="Calibri", style="filled", fillcolor="white"];
"1592178839"[label="{{Stmt\ -1:\ return\ xatoll_range(}|True}", color="black", fontname="Calibri", style="filled", fillcolor="white"];
"1592178839" -> "377076993"[label="1", color="black", style="setlinewidth(1)"];
"1731632160"[label="{{Function\ -1:\ xatol_range}|True}", color="blue", fontname="Calibri", style="filled", fillcolor="white"];
"1592178839" -> "1731632160"[label="1", color="black", style="setlinewidth(1)"];
"1731632160" -> "1592178839"[label="1", color="black", style="setlinewidth(1)"];
"1792851291"[label="{{Decl\ -1:\ xatoll_sfx}|True}", color="blue", fontname="Calibri", style="filled", fillcolor="white"];
"2014436626"[label="{{Stmt\ -1:\ return\ xatoll_sfx(st}|True}", color="black", fontname="Calibri", style="filled", fillcolor="white"];
"2014436626" -> "1792851291"[label="1", color="black", style="setlinewidth(1)"];
"1056331036"[label="{{Function\ -1:\ xatol_sfx}|True}", color="blue", fontname="Calibri", style="filled", fillcolor="white"];
"2014436626" -> "1056331036"[label="1", color="black", style="setlinewidth(1)"];
"1056331036" -> "2014436626"[label="1", color="black", style="setlinewidth(1)"];
"961559233"[label="{{Decl\ -1:\ xatoll}|True}", color="blue", fontname="Calibri", style="filled", fillcolor="white"];
"875762467"[label="{{Stmt\ -1:\ return\ xatoll(str);}|True}", color="black", fontname="Calibri", style="filled", fillcolor="white"];
"875762467" -> "961559233"[label="1", color="black", style="setlinewidth(1)"];
"1776896125"[label="{{Function\ -1:\ xatol}|True}", color="blue", fontname="Calibri", style="filled", fillcolor="white"];
"875762467" -> "1776896125"[label="1", color="black", style="setlinewidth(1)"];
"1776896125" -> "875762467"[label="1", color="black", style="setlinewidth(1)"];
"1703914137" -> "1857508461"[label="1", color="black", style="setlinewidth(1)"];
"1703914137" -> "664739753"[label="1", color="black", style="setlinewidth(1)"];
"664739753" -> "1703914137"[label="1", color="black", style="setlinewidth(1)"];
"1205164160"[label="{{Decl\ -1:\ BUG_xatou32_unimplemented}|True}", color="blue", fontname="Calibri", style="filled", fillcolor="white"];
"2115562712"[label="{{Decl\ -1:\ xatou}|True}", color="blue", fontname="Calibri", style="filled", fillcolor="white"];
"245786688"[label="{{Stmt\ -1:\ return\ xatoul(numstr}|True}", color="black", fontname="Calibri", style="filled", fillcolor="white"];
"245786688" -> "664739753"[label="1", color="black", style="setlinewidth(1)"];
"1166631724"[label="{{Function\ -1:\ xatou32}|True}", color="blue", fontname="Calibri", style="filled", fillcolor="white"];
"245786688" -> "1166631724"[label="1", color="black", style="setlinewidth(1)"];
"875292092"[label="{{Stmt\ -1:\ return\ BUG_xatou32_u}|True}", color="black", fontname="Calibri", style="filled", fillcolor="white"];
"875292092" -> "1205164160"[label="1", color="black", style="setlinewidth(1)"];
"875292092" -> "1166631724"[label="1", color="black", style="setlinewidth(1)"];
"692942430"[label="{{Stmt\ -1:\ return\ xatou(numstr)}|True}", color="black", fontname="Calibri", style="filled", fillcolor="white"];
"692942430" -> "2115562712"[label="1", color="black", style="setlinewidth(1)"];
"692942430" -> "1166631724"[label="1", color="black", style="setlinewidth(1)"];
"323600496"[label="{{Expr\ -1:\ (((92233720368547758}|True}", color="black", fontname="Calibri", style="filled", fillcolor="white"];
"323600496" -> "875292092"[label="1", color="black", style="setlinewidth(1)"];
"323600496" -> "245786688"[label="1", color="black", style="setlinewidth(1)"];
"736595190"[label="{{Expr\ -1:\ (((2147483647\ *\ 2U)\ }|True}", color="black", fontname="Calibri", style="filled", fillcolor="white"];
"736595190" -> "323600496"[label="1", color="black", style="setlinewidth(1)"];
"736595190" -> "692942430"[label="1", color="black", style="setlinewidth(1)"];
"1166631724" -> "736595190"[label="1", color="black", style="setlinewidth(1)"];
"1682678557"[label="{{Decl\ -1:\ bb_strtoull}|True}", color="blue", fontname="Calibri", style="filled", fillcolor="white"];
"647681646"[label="{{Stmt\ -1:\ return\ bb_strtoull(a}|True}", color="black", fontname="Calibri", style="filled", fillcolor="white"];
"647681646" -> "1682678557"[label="1", color="black", style="setlinewidth(1)"];
"1145597988"[label="{{Function\ -1:\ bb_strtoul}|True}", color="blue", fontname="Calibri", style="filled", fillcolor="white"];
"647681646" -> "1145597988"[label="1", color="black", style="setlinewidth(1)"];
"1145597988" -> "647681646"[label="1", color="black", style="setlinewidth(1)"];
"1768415524"[label="{{Decl\ -1:\ bb_strtoll}|True}", color="blue", fontname="Calibri", style="filled", fillcolor="white"];
"1170962543"[label="{{Stmt\ -1:\ return\ bb_strtoll(ar}|True}", color="black", fontname="Calibri", style="filled", fillcolor="white"];
"1170962543" -> "1768415524"[label="1", color="black", style="setlinewidth(1)"];
"1703065608"[label="{{Function\ -1:\ bb_strtol}|True}", color="blue", fontname="Calibri", style="filled", fillcolor="white"];
"1170962543" -> "1703065608"[label="1", color="black", style="setlinewidth(1)"];
"1703065608" -> "1170962543"[label="1", color="black", style="setlinewidth(1)"];
"647681646" -> "1682678557"[label="1", color="black", style="setlinewidth(1)"];
"647681646" -> "1145597988"[label="1", color="black", style="setlinewidth(1)"];
"1145597988" -> "647681646"[label="1", color="black", style="setlinewidth(1)"];
"97237448"[label="{{Decl\ -1:\ BUG_bb_strtou32_unimplemented}|True}", color="blue", fontname="Calibri", style="filled", fillcolor="white"];
"1939841071"[label="{{Decl\ -1:\ bb_strtou}|True}", color="blue", fontname="Calibri", style="filled", fillcolor="white"];
"548444796"[label="{{Stmt\ -1:\ return\ bb_strtoul(ar}|True}", color="black", fontname="Calibri", style="filled", fillcolor="white"];
"548444796" -> "1145597988"[label="1", color="black", style="setlinewidth(1)"];
"1717265975"[label="{{Function\ -1:\ bb_strtou32}|True}", color="blue", fontname="Calibri", style="filled", fillcolor="white"];
"548444796" -> "1717265975"[label="1", color="black", style="setlinewidth(1)"];
"1405532694"[label="{{Stmt\ -1:\ return\ BUG_bb_strtou}|True}", color="black", fontname="Calibri", style="filled", fillcolor="white"];
"1405532694" -> "97237448"[label="1", color="black", style="setlinewidth(1)"];
"1405532694" -> "1717265975"[label="1", color="black", style="setlinewidth(1)"];
"199599944"[label="{{Stmt\ -1:\ return\ bb_strtou(arg}|True}", color="black", fontname="Calibri", style="filled", fillcolor="white"];
"199599944" -> "1939841071"[label="1", color="black", style="setlinewidth(1)"];
"199599944" -> "1717265975"[label="1", color="black", style="setlinewidth(1)"];
"1181048956"[label="{{Expr\ -1:\ (sizeof(uint32_t\ )\ =}|True}", color="black", fontname="Calibri", style="filled", fillcolor="white"];
"1181048956" -> "1405532694"[label="1", color="black", style="setlinewidth(1)"];
"1181048956" -> "548444796"[label="1", color="black", style="setlinewidth(1)"];
"1042821326"[label="{{Expr\ -1:\ (sizeof(uint32_t\ )\ =}|True}", color="black", fontname="Calibri", style="filled", fillcolor="white"];
"1042821326" -> "1181048956"[label="1", color="black", style="setlinewidth(1)"];
"1042821326" -> "199599944"[label="1", color="black", style="setlinewidth(1)"];
"1717265975" -> "1042821326"[label="1", color="black", style="setlinewidth(1)"];
"1118965466"[label="{{Stmt\ -1:\ return\ (b\ \<=\ ('z'\ -\ }|True}", color="black", fontname="Calibri", style="filled", fillcolor="white"];
"117823072"[label="{{Function\ -1:\ bb_ascii_isalnum}|True}", color="blue", fontname="Calibri", style="filled", fillcolor="white"];
"1118965466" -> "117823072"[label="1", color="black", style="setlinewidth(1)"];
"1522679135"[label="{{Stmt\ -1:\ return\ (b\ \<=\ 9);}|True}", color="black", fontname="Calibri", style="filled", fillcolor="white"];
"1522679135" -> "117823072"[label="1", color="black", style="setlinewidth(1)"];
"941371872"[label="{{Stmt\ -1:\ (b\ =\ ((a\ \|\ 0x20)\ -\ '}|True}", color="black", fontname="Calibri", style="filled", fillcolor="white"];
"941371872" -> "1118965466"[label="1", color="black", style="setlinewidth(1)"];
"249596213"[label="{{Expr\ -1:\ (b\ \<=\ 9)}|True}", color="black", fontname="Calibri", style="filled", fillcolor="white"];
"249596213" -> "941371872"[label="1", color="black", style="setlinewidth(1)"];
"249596213" -> "1522679135"[label="1", color="black", style="setlinewidth(1)"];
"235673062"[label="{{Stmt\ -1:\ unsigned\ char\ b\ =\ \ (}|True}", color="black", fontname="Calibri", style="filled", fillcolor="white"];
"235673062" -> "249596213"[label="1", color="black", style="setlinewidth(1)"];
"117823072" -> "235673062"[label="1", color="black", style="setlinewidth(1)"];
"2036261138"[label="{{Stmt\ -1:\ return\ (b\ \<=\ ('f'\ -\ }|True}", color="black", fontname="Calibri", style="filled", fillcolor="white"];
"1875435457"[label="{{Function\ -1:\ bb_ascii_isxdigit}|True}", color="blue", fontname="Calibri", style="filled", fillcolor="white"];
"2036261138" -> "1875435457"[label="1", color="black", style="setlinewidth(1)"];
"2128080888"[label="{{Stmt\ -1:\ return\ (b\ \<=\ 9);}|True}", color="black", fontname="Calibri", style="filled", fillcolor="white"];
"2128080888" -> "1875435457"[label="1", color="black", style="setlinewidth(1)"];
"1453502763"[label="{{Stmt\ -1:\ (b\ =\ ((a\ \|\ 0x20)\ -\ '}|True}", color="black", fontname="Calibri", style="filled", fillcolor="white"];
"1453502763" -> "2036261138"[label="1", color="black", style="setlinewidth(1)"];
"110521789"[label="{{Expr\ -1:\ (b\ \<=\ 9)}|True}", color="black", fontname="Calibri", style="filled", fillcolor="white"];
"110521789" -> "1453502763"[label="1", color="black", style="setlinewidth(1)"];
"110521789" -> "2128080888"[label="1", color="black", style="setlinewidth(1)"];
"1501845725"[label="{{Stmt\ -1:\ unsigned\ char\ b\ =\ \ (}|True}", color="black", fontname="Calibri", style="filled", fillcolor="white"];
"1501845725" -> "110521789"[label="1", color="black", style="setlinewidth(1)"];
"1875435457" -> "1501845725"[label="1", color="black", style="setlinewidth(1)"];
"917261895"[label="{{Stmt\ -1:\ (a\ -=\ ('a'\ -\ 'A'));}|True}", color="black", fontname="Calibri", style="filled", fillcolor="white"];
"1381417618"[label="{{Stmt\ -1:\ return\ a;}|True}", color="black", fontname="Calibri", style="filled", fillcolor="white"];
"917261895" -> "1381417618"[label="1", color="black", style="setlinewidth(1)"];
"2080879949"[label="{{Function\ -1:\ bb_ascii_toupper}|True}", color="blue", fontname="Calibri", style="filled", fillcolor="white"];
"1381417618" -> "2080879949"[label="1", color="black", style="setlinewidth(1)"];
"1954607518"[label="{{Expr\ -1:\ (b\ \<=\ ('z'\ -\ 'a'))}|True}", color="black", fontname="Calibri", style="filled", fillcolor="white"];
"1954607518" -> "1381417618"[label="1", color="black", style="setlinewidth(1)"];
"1954607518" -> "917261895"[label="1", color="black", style="setlinewidth(1)"];
"2076547835"[label="{{Stmt\ -1:\ unsigned\ char\ b\ =\ \ (}|True}", color="black", fontname="Calibri", style="filled", fillcolor="white"];
"2076547835" -> "1954607518"[label="1", color="black", style="setlinewidth(1)"];
"2080879949" -> "2076547835"[label="1", color="black", style="setlinewidth(1)"];
"2027399587"[label="{{Stmt\ -1:\ (a\ +=\ ('a'\ -\ 'A'));}|True}", color="black", fontname="Calibri", style="filled", fillcolor="white"];
"1305029624"[label="{{Stmt\ -1:\ return\ a;}|True}", color="black", fontname="Calibri", style="filled", fillcolor="white"];
"2027399587" -> "1305029624"[label="1", color="black", style="setlinewidth(1)"];
"2091050683"[label="{{Function\ -1:\ bb_ascii_tolower}|True}", color="blue", fontname="Calibri", style="filled", fillcolor="white"];
"1305029624" -> "2091050683"[label="1", color="black", style="setlinewidth(1)"];
"1328877391"[label="{{Expr\ -1:\ (b\ \<=\ ('Z'\ -\ 'A'))}|True}", color="black", fontname="Calibri", style="filled", fillcolor="white"];
"1328877391" -> "1305029624"[label="1", color="black", style="setlinewidth(1)"];
"1328877391" -> "2027399587"[label="1", color="black", style="setlinewidth(1)"];
"708535942"[label="{{Stmt\ -1:\ unsigned\ char\ b\ =\ \ (}|True}", color="black", fontname="Calibri", style="filled", fillcolor="white"];
"708535942" -> "1328877391"[label="1", color="black", style="setlinewidth(1)"];
"2091050683" -> "708535942"[label="1", color="black", style="setlinewidth(1)"];
"913549335"[label="{{Stmt\ -1:\ return\ buf;}|True}", color="black", fontname="Calibri", style="filled", fillcolor="white"];
"1115664851"[label="{{Function\ -1:\ xmalloc_readlink}|True}", color="blue", fontname="Calibri", style="filled", fillcolor="white"];
"913549335" -> "1115664851"[label="1", color="black", style="setlinewidth(1)"];
"1553573083"[label="{{Stmt\ -1:\ return\ ((void\ *)\ 0);}|True}", color="black", fontname="Calibri", style="filled", fillcolor="white"];
"1553573083" -> "1115664851"[label="1", color="black", style="setlinewidth(1)"];
"1044546292"[label="{{Stmt\ -1:\ (buf[readsize]\ =\ '\0}|True}", color="black", fontname="Calibri", style="filled", fillcolor="white"];
"1044546292" -> "913549335"[label="1", color="black", style="setlinewidth(1)"];
"2101525141"[label="{{Stmt\ -1:\ free(buf);}|True}", color="black", fontname="Calibri", style="filled", fillcolor="white"];
"2098571625"[label="{{Decl\ -1:\ free}|True}", color="blue", fontname="Calibri", style="filled", fillcolor="white"];
"2101525141" -> "2098571625"[label="1", color="black", style="setlinewidth(1)"];
"2101525141" -> "1553573083"[label="1", color="black", style="setlinewidth(1)"];
"17671586"[label="{{Expr\ -1:\ (bufsize\ \<\ (readsize}|True}", color="black", fontname="Calibri", style="filled", fillcolor="white"];
"1892770485"[label="{{Stmt\ -1:\ (bufsize\ +=\ GROWBY);}|True}", color="black", fontname="Calibri", style="filled", fillcolor="white"];
"17671586" -> "1892770485"[label="1", color="black", style="setlinewidth(1)"];
"17671586" -> "1044546292"[label="1", color="black", style="setlinewidth(1)"];
"1126043408"[label="{{Expr\ -1:\ (readsize\ ==\ (-\ 1))}|True}", color="black", fontname="Calibri", style="filled", fillcolor="white"];
"1126043408" -> "2098571625"[label="1", color="black", style="setlinewidth(1)"];
"1076592703"[label="{{Decl\ -1:\ readlink}|True}", color="blue", fontname="Calibri", style="filled", fillcolor="white"];
"1126043408" -> "1076592703"[label="1", color="black", style="setlinewidth(1)"];
"1052877191"[label="{{Decl\ -1:\ xrealloc}|True}", color="blue", fontname="Calibri", style="filled", fillcolor="white"];
"1126043408" -> "1052877191"[label="1", color="black", style="setlinewidth(1)"];
"1126043408" -> "17671586"[label="1", color="black", style="setlinewidth(1)"];
"1126043408" -> "2101525141"[label="1", color="black", style="setlinewidth(1)"];
"1915810907"[label="{{Stmt\ -1:\ (readsize\ =\ readlink}|True}", color="black", fontname="Calibri", style="filled", fillcolor="white"];
"1915810907" -> "1076592703"[label="1", color="black", style="setlinewidth(1)"];
"1915810907" -> "1126043408"[label="1", color="black", style="setlinewidth(1)"];
"1387405626"[label="{{Stmt\ -1:\ (buf\ =\ xrealloc(buf\ }|True}", color="black", fontname="Calibri", style="filled", fillcolor="white"];
"1387405626" -> "1052877191"[label="1", color="black", style="setlinewidth(1)"];
"1387405626" -> "1915810907"[label="1", color="black", style="setlinewidth(1)"];
"1892770485" -> "1387405626"[label="1", color="black", style="setlinewidth(1)"];
"261810542"[label="{{Stmt\ -1:\ int\ bufsize\ =\ \ 0,\ re}|True}", color="black", fontname="Calibri", style="filled", fillcolor="white"];
"261810542" -> "1892770485"[label="1", color="black", style="setlinewidth(1)"];
"1317352834"[label="{{Stmt\ -1:\ char\ *buf\ =\ \ ((void\ }|True}", color="black", fontname="Calibri", style="filled", fillcolor="white"];
"1317352834" -> "261810542"[label="1", color="black", style="setlinewidth(1)"];
"286230331"[label="{{Stmt\ -1:\ enum\ \ \{\l\ \ GROWBY\ =\ 8}|True}", color="black", fontname="Calibri", style="filled", fillcolor="white"];
"286230331" -> "1317352834"[label="1", color="black", style="setlinewidth(1)"];
"1115664851" -> "286230331"[label="1", color="black", style="setlinewidth(1)"];
"913549335" -> "1115664851"[label="1", color="black", style="setlinewidth(1)"];
"1022022678"[label="{{Stmt\ -1:\ free(linkpath);}|True}", color="black", fontname="Calibri", style="filled", fillcolor="white"];
"1022022678" -> "2098571625"[label="1", color="black", style="setlinewidth(1)"];
"2019090948"[label="{{Decl\ -1:\ strcpy}|True}", color="blue", fontname="Calibri", style="filled", fillcolor="white"];
"1022022678" -> "2019090948"[label="1", color="black", style="setlinewidth(1)"];
"723063659"[label="{{Decl\ -1:\ bb_get_last_path_component_strip}|True}", color="blue", fontname="Calibri", style="filled", fillcolor="white"];
"1022022678" -> "723063659"[label="1", color="black", style="setlinewidth(1)"];
"1022022678" -> "1052877191"[label="1", color="black", style="setlinewidth(1)"];
"714595757"[label="{{Decl\ -1:\ strlen}|True}", color="blue", fontname="Calibri", style="filled", fillcolor="white"];
"1022022678" -> "714595757"[label="1", color="black", style="setlinewidth(1)"];
"1022022678" -> "1115664851"[label="1", color="black", style="setlinewidth(1)"];
"765007167"[label="{{Expr\ 58:\ 1}|True}", color="black", fontname="Calibri", style="filled", fillcolor="white"];
"1022022678" -> "765007167"[label="1", color="black", style="setlinewidth(1)"];
"1553573083" -> "1115664851"[label="1", color="black", style="setlinewidth(1)"];
"1044546292" -> "913549335"[label="1", color="black", style="setlinewidth(1)"];
"1759940131"[label="{{Stmt\ -1:\ strcpy(lpc\ ,\ linkpat}|True}", color="black", fontname="Calibri", style="filled", fillcolor="white"];
"1759940131" -> "2019090948"[label="1", color="black", style="setlinewidth(1)"];
"1759940131" -> "1022022678"[label="1", color="black", style="setlinewidth(1)"];
"2101525141" -> "2098571625"[label="1", color="black", style="setlinewidth(1)"];
"2101525141" -> "1553573083"[label="1", color="black", style="setlinewidth(1)"];
"17671586" -> "1892770485"[label="1", color="black", style="setlinewidth(1)"];
"17671586" -> "1044546292"[label="1", color="black", style="setlinewidth(1)"];
"140990784"[label="{{Stmt\ -1:\ return\ ((void\ *)\ 0);}|True}", color="black", fontname="Calibri", style="filled", fillcolor="white"];
"1901726489"[label="{{Function\ -1:\ xmalloc_follow_symlinks}|True}", color="blue", fontname="Calibri", style="filled", fillcolor="white"];
"140990784" -> "1901726489"[label="1", color="black", style="setlinewidth(1)"];
"1729492261"[label="{{Stmt\ -1:\ (lpc\ =\ bb_get_last_p}|True}", color="black", fontname="Calibri", style="filled", fillcolor="white"];
"1729492261" -> "723063659"[label="1", color="black", style="setlinewidth(1)"];
"1729492261" -> "1759940131"[label="1", color="black", style="setlinewidth(1)"];
"1126043408" -> "2098571625"[label="1", color="black", style="setlinewidth(1)"];
"1126043408" -> "1076592703"[label="1", color="black", style="setlinewidth(1)"];
"1126043408" -> "1052877191"[label="1", color="black", style="setlinewidth(1)"];
"1126043408" -> "17671586"[label="1", color="black", style="setlinewidth(1)"];
"1126043408" -> "2101525141"[label="1", color="black", style="setlinewidth(1)"];
"736162963"[label="{{Stmt\ -1:\ free(buf);}|True}", color="black", fontname="Calibri", style="filled", fillcolor="white"];
"736162963" -> "2098571625"[label="1", color="black", style="setlinewidth(1)"];
"736162963" -> "140990784"[label="1", color="black", style="setlinewidth(1)"];
"729840317"[label="{{Stmt\ -1:\ (buf\ =\ xrealloc(buf\ }|True}", color="black", fontname="Calibri", style="filled", fillcolor="white"];
"729840317" -> "1052877191"[label="1", color="black", style="setlinewidth(1)"];
"729840317" -> "1729492261"[label="1", color="black", style="setlinewidth(1)"];
"1271808482"[label="{{Stmt\ -1:\ (buf\ =\ linkpath);}|True}", color="black", fontname="Calibri", style="filled", fillcolor="white"];
"108795340"[label="{{Stmt\ -1:\ jump_in:}|True}", color="black", fontname="Calibri", style="filled", fillcolor="white"];
"1271808482" -> "108795340"[label="1", color="black", style="setlinewidth(1)"];
"1915810907" -> "1076592703"[label="1", color="black", style="setlinewidth(1)"];
"1915810907" -> "1126043408"[label="1", color="black", style="setlinewidth(1)"];
"1069711566"[label="{{Stmt\ -1:\ free_buf_ret_null:}|True}", color="black", fontname="Calibri", style="filled", fillcolor="white"];
"1069711566" -> "736162963"[label="1", color="black", style="setlinewidth(1)"];
"1833709498"[label="{{Stmt\ -1:\ (bufsize\ +=\ strlen(l}|True}", color="black", fontname="Calibri", style="filled", fillcolor="white"];
"1833709498" -> "714595757"[label="1", color="black", style="setlinewidth(1)"];
"1833709498" -> "729840317"[label="1", color="black", style="setlinewidth(1)"];
"770853660"[label="{{Stmt\ -1:\ free(buf);}|True}", color="black", fontname="Calibri", style="filled", fillcolor="white"];
"770853660" -> "2098571625"[label="1", color="black", style="setlinewidth(1)"];
"770853660" -> "1271808482"[label="1", color="black", style="setlinewidth(1)"];
"1387405626" -> "1052877191"[label="1", color="black", style="setlinewidth(1)"];
"1387405626" -> "1915810907"[label="1", color="black", style="setlinewidth(1)"];
"1914923754"[label="{{Stmt\ -1:\ return\ buf;}|True}", color="black", fontname="Calibri", style="filled", fillcolor="white"];
"1914923754" -> "1901726489"[label="1", color="black", style="setlinewidth(1)"];
"137371501"[label="{{Stmt\ -1:\ goto\ free_buf_ret_nu}|True}", color="black", fontname="Calibri", style="filled", fillcolor="white"];
"137371501" -> "1069711566"[label="1", color="black", style="setlinewidth(1)"];
"1877845960"[label="{{Stmt\ -1:\ free(linkpath);}|True}", color="black", fontname="Calibri", style="filled", fillcolor="white"];
"1877845960" -> "2098571625"[label="1", color="black", style="setlinewidth(1)"];
"1877845960" -> "1069711566"[label="1", color="black", style="setlinewidth(1)"];
"1226050034"[label="{{Expr\ -1:\ ((*linkpath)\ !=\ '/')}|True}", color="black", fontname="Calibri", style="filled", fillcolor="white"];
"1226050034" -> "770853660"[label="1", color="black", style="setlinewidth(1)"];
"1226050034" -> "1833709498"[label="1", color="black", style="setlinewidth(1)"];
"1892770485" -> "1387405626"[label="1", color="black", style="setlinewidth(1)"];
"755847534"[label="{{Expr\ -1:\ (((*bb_errno)\ ==\ 22)}|True}", color="black", fontname="Calibri", style="filled", fillcolor="white"];
"755847534" -> "137371501"[label="1", color="black", style="setlinewidth(1)"];
"755847534" -> "1914923754"[label="1", color="black", style="setlinewidth(1)"];
"120628979"[label="{{Expr\ -1:\ (!\ --looping)}|True}", color="black", fontname="Calibri", style="filled", fillcolor="white"];
"120628979" -> "1226050034"[label="1", color="black", style="setlinewidth(1)"];
"120628979" -> "1877845960"[label="1", color="black", style="setlinewidth(1)"];
"261810542" -> "1892770485"[label="1", color="black", style="setlinewidth(1)"];
"1340949694"[label="{{Expr\ -1:\ (!\ linkpath)}|True}", color="black", fontname="Calibri", style="filled", fillcolor="white"];
"1340949694" -> "120628979"[label="1", color="black", style="setlinewidth(1)"];
"1340949694" -> "755847534"[label="1", color="black", style="setlinewidth(1)"];
"1317352834" -> "261810542"[label="1", color="black", style="setlinewidth(1)"];
"1230178052"[label="{{Stmt\ -1:\ (linkpath\ =\ xmalloc_}|True}", color="black", fontname="Calibri", style="filled", fillcolor="white"];
"1230178052" -> "1115664851"[label="1", color="black", style="setlinewidth(1)"];
"1230178052" -> "1340949694"[label="1", color="black", style="setlinewidth(1)"];
"286230331" -> "1317352834"[label="1", color="black", style="setlinewidth(1)"];
"765007167" -> "1230178052"[label="1", color="black", style="setlinewidth(1)"];
"765007167" -> "714595757"[label="1", color="black", style="setlinewidth(1)"];
"765007167" -> "2098571625"[label="1", color="black", style="setlinewidth(1)"];
"765007167" -> "2019090948"[label="1", color="black", style="setlinewidth(1)"];
"765007167" -> "723063659"[label="1", color="black", style="setlinewidth(1)"];
"765007167" -> "1052877191"[label="1", color="black", style="setlinewidth(1)"];
"765007167" -> "1115664851"[label="1", color="black", style="setlinewidth(1)"];
"1271456806"[label="{{Decl\ -1:\ xstrdup}|True}", color="blue", fontname="Calibri", style="filled", fillcolor="white"];
"765007167" -> "1271456806"[label="1", color="black", style="setlinewidth(1)"];
"765007167" -> "1901726489"[label="1", color="black", style="setlinewidth(1)"];
"1115664851" -> "286230331"[label="1", color="black", style="setlinewidth(1)"];
"824384054"[label="{{Stmt\ -1:\ (bufsize\ =\ (strlen(b}|True}", color="black", fontname="Calibri", style="filled", fillcolor="white"];
"824384054" -> "714595757"[label="1", color="black", style="setlinewidth(1)"];
"824384054" -> "2098571625"[label="1", color="black", style="setlinewidth(1)"];
"824384054" -> "2019090948"[label="1", color="black", style="setlinewidth(1)"];
"824384054" -> "723063659"[label="1", color="black", style="setlinewidth(1)"];
"824384054" -> "1052877191"[label="1", color="black", style="setlinewidth(1)"];
"824384054" -> "1115664851"[label="1", color="black", style="setlinewidth(1)"];
"824384054" -> "765007167"[label="1", color="black", style="setlinewidth(1)"];
"108795340" -> "824384054"[label="1", color="black", style="setlinewidth(1)"];
"254025158"[label="{{Stmt\ -1:\ goto\ jump_in;}|True}", color="black", fontname="Calibri", style="filled", fillcolor="white"];
"254025158" -> "108795340"[label="1", color="black", style="setlinewidth(1)"];
"1097309105"[label="{{Stmt\ -1:\ (buf\ =\ xstrdup(path)}|True}", color="black", fontname="Calibri", style="filled", fillcolor="white"];
"1097309105" -> "1271456806"[label="1", color="black", style="setlinewidth(1)"];
"1097309105" -> "254025158"[label="1", color="black", style="setlinewidth(1)"];
"1675781855"[label="{{Stmt\ -1:\ int\ looping\ =\ \ (20\ +}|True}", color="black", fontname="Calibri", style="filled", fillcolor="white"];
"1675781855" -> "1097309105"[label="1", color="black", style="setlinewidth(1)"];
"334626358"[label="{{Stmt\ -1:\ int\ bufsize;}|True}", color="black", fontname="Calibri", style="filled", fillcolor="white"];
"334626358" -> "1675781855"[label="1", color="black", style="setlinewidth(1)"];
"899728792"[label="{{Stmt\ -1:\ char\ *linkpath;}|True}", color="black", fontname="Calibri", style="filled", fillcolor="white"];
"899728792" -> "334626358"[label="1", color="black", style="setlinewidth(1)"];
"1484297382"[label="{{Stmt\ -1:\ char\ *lpc;}|True}", color="black", fontname="Calibri", style="filled", fillcolor="white"];
"1484297382" -> "899728792"[label="1", color="black", style="setlinewidth(1)"];
"565055178"[label="{{Stmt\ -1:\ char\ *buf;}|True}", color="black", fontname="Calibri", style="filled", fillcolor="white"];
"565055178" -> "1484297382"[label="1", color="black", style="setlinewidth(1)"];
"1901726489" -> "565055178"[label="1", color="black", style="setlinewidth(1)"];
"913549335" -> "1115664851"[label="1", color="black", style="setlinewidth(1)"];
"1553573083" -> "1115664851"[label="1", color="black", style="setlinewidth(1)"];
"1044546292" -> "913549335"[label="1", color="black", style="setlinewidth(1)"];
"2101525141" -> "2098571625"[label="1", color="black", style="setlinewidth(1)"];
"2101525141" -> "1553573083"[label="1", color="black", style="setlinewidth(1)"];
"17671586" -> "1892770485"[label="1", color="black", style="setlinewidth(1)"];
"17671586" -> "1044546292"[label="1", color="black", style="setlinewidth(1)"];
"1126043408" -> "2098571625"[label="1", color="black", style="setlinewidth(1)"];
"1126043408" -> "1076592703"[label="1", color="black", style="setlinewidth(1)"];
"1126043408" -> "1052877191"[label="1", color="black", style="setlinewidth(1)"];
"1126043408" -> "17671586"[label="1", color="black", style="setlinewidth(1)"];
"1126043408" -> "2101525141"[label="1", color="black", style="setlinewidth(1)"];
"1915810907" -> "1076592703"[label="1", color="black", style="setlinewidth(1)"];
"1915810907" -> "1126043408"[label="1", color="black", style="setlinewidth(1)"];
"70501506"[label="{{Decl\ -1:\ strerror}|True}", color="blue", fontname="Calibri", style="filled", fillcolor="white"];
"1231424607"[label="{{Decl\ -1:\ bb_error_msg}|True}", color="blue", fontname="Calibri", style="filled", fillcolor="white"];
"1387405626" -> "1052877191"[label="1", color="black", style="setlinewidth(1)"];
"1387405626" -> "1915810907"[label="1", color="black", style="setlinewidth(1)"];
"433206712"[label="{{Stmt\ -1:\ (errmsg\ =\ strerror(e}|True}", color="black", fontname="Calibri", style="filled", fillcolor="white"];
"433206712" -> "70501506"[label="1", color="black", style="setlinewidth(1)"];
"957555162"[label="{{Stmt\ -1:\ bb_error_msg(\\\"%s:\ ca}|True}", color="black", fontname="Calibri", style="filled", fillcolor="white"];
"433206712" -> "957555162"[label="1", color="black", style="setlinewidth(1)"];
"957555162" -> "1231424607"[label="1", color="black", style="setlinewidth(1)"];
"957555162" -> "70501506"[label="1", color="black", style="setlinewidth(1)"];
"646355014"[label="{{Stmt\ -1:\ return\ buf;}|True}", color="black", fontname="Calibri", style="filled", fillcolor="white"];
"957555162" -> "646355014"[label="1", color="black", style="setlinewidth(1)"];
"1892770485" -> "1387405626"[label="1", color="black", style="setlinewidth(1)"];
"547629219"[label="{{Expr\ -1:\ (err\ !=\ 22)}|True}", color="black", fontname="Calibri", style="filled", fillcolor="white"];
"547629219" -> "957555162"[label="1", color="black", style="setlinewidth(1)"];
"547629219" -> "433206712"[label="1", color="black", style="setlinewidth(1)"];
"261810542" -> "1892770485"[label="1", color="black", style="setlinewidth(1)"];
"1146079205"[label="{{Stmt\ -1:\ int\ err\ =\ \ (*bb_errn}|True}", color="black", fontname="Calibri", style="filled", fillcolor="white"];
"1146079205" -> "547629219"[label="1", color="black", style="setlinewidth(1)"];
"1317352834" -> "261810542"[label="1", color="black", style="setlinewidth(1)"];
"75819932"[label="{{Stmt\ -1:\ const\ char\ *errmsg\ =}|True}", color="black", fontname="Calibri", style="filled", fillcolor="white"];
"75819932" -> "1146079205"[label="1", color="black", style="setlinewidth(1)"];
"1635577308"[label="{{Function\ -1:\ xmalloc_readlink_or_warn}|True}", color="blue", fontname="Calibri", style="filled", fillcolor="white"];
"646355014" -> "1635577308"[label="1", color="black", style="setlinewidth(1)"];
"286230331" -> "1317352834"[label="1", color="black", style="setlinewidth(1)"];
"216307032"[label="{{Expr\ -1:\ (!\ buf)}|True}", color="black", fontname="Calibri", style="filled", fillcolor="white"];
"216307032" -> "646355014"[label="1", color="black", style="setlinewidth(1)"];
"216307032" -> "75819932"[label="1", color="black", style="setlinewidth(1)"];
"1115664851" -> "286230331"[label="1", color="black", style="setlinewidth(1)"];
"2144584715"[label="{{Stmt\ -1:\ char\ *buf\ =\ \ xmalloc}|True}", color="black", fontname="Calibri", style="filled", fillcolor="white"];
"2144584715" -> "1115664851"[label="1", color="black", style="setlinewidth(1)"];
"2144584715" -> "216307032"[label="1", color="black", style="setlinewidth(1)"];
"1635577308" -> "2144584715"[label="1", color="black", style="setlinewidth(1)"];
"113529014"[label="{{Decl\ -1:\ realpath}|True}", color="blue", fontname="Calibri", style="filled", fillcolor="white"];
"514105044"[label="{{Stmt\ -1:\ return\ realpath(path}|True}", color="black", fontname="Calibri", style="filled", fillcolor="white"];
"514105044" -> "113529014"[label="1", color="black", style="setlinewidth(1)"];
"1925874610"[label="{{Function\ -1:\ xmalloc_realpath}|True}", color="blue", fontname="Calibri", style="filled", fillcolor="white"];
"514105044" -> "1925874610"[label="1", color="black", style="setlinewidth(1)"];
"1925874610" -> "514105044"[label="1", color="black", style="setlinewidth(1)"];
}
