digraph "busybox-1.18.5/e2fsprogs/chattr.c" {
node [shape=record];
"1593853606"[label="{{Decl\ -1:\ xstrtoull_range_sfx}|True}", color="blue", fontname="Calibri", style="filled", fillcolor="white"];
"975409706"[label="{{Stmt\ -1:\ return\ xstrtoull_ran}|True}", color="black", fontname="Calibri", style="filled", fillcolor="white"];
"975409706" -> "1593853606"[label="1", color="black", style="setlinewidth(1)"];
"826989472"[label="{{Function\ -1:\ xstrtoul_range_sfx}|True}", color="blue", fontname="Calibri", style="filled", fillcolor="white"];
"975409706" -> "826989472"[label="1", color="black", style="setlinewidth(1)"];
"826989472" -> "975409706"[label="1", color="black", style="setlinewidth(1)"];
"1839729081"[label="{{Decl\ -1:\ xstrtoull_range}|True}", color="blue", fontname="Calibri", style="filled", fillcolor="white"];
"928970580"[label="{{Stmt\ -1:\ return\ xstrtoull_ran}|True}", color="black", fontname="Calibri", style="filled", fillcolor="white"];
"928970580" -> "1839729081"[label="1", color="black", style="setlinewidth(1)"];
"1548463763"[label="{{Function\ -1:\ xstrtoul_range}|True}", color="blue", fontname="Calibri", style="filled", fillcolor="white"];
"928970580" -> "1548463763"[label="1", color="black", style="setlinewidth(1)"];
"1548463763" -> "928970580"[label="1", color="black", style="setlinewidth(1)"];
"1148074682"[label="{{Decl\ -1:\ xstrtoull_sfx}|True}", color="blue", fontname="Calibri", style="filled", fillcolor="white"];
"429131828"[label="{{Stmt\ -1:\ return\ xstrtoull_sfx}|True}", color="black", fontname="Calibri", style="filled", fillcolor="white"];
"429131828" -> "1148074682"[label="1", color="black", style="setlinewidth(1)"];
"1155142087"[label="{{Function\ -1:\ xstrtoul_sfx}|True}", color="blue", fontname="Calibri", style="filled", fillcolor="white"];
"429131828" -> "1155142087"[label="1", color="black", style="setlinewidth(1)"];
"1155142087" -> "429131828"[label="1", color="black", style="setlinewidth(1)"];
"463053456"[label="{{Decl\ -1:\ xstrtoull}|True}", color="blue", fontname="Calibri", style="filled", fillcolor="white"];
"912659216"[label="{{Stmt\ -1:\ return\ xstrtoull(str}|True}", color="black", fontname="Calibri", style="filled", fillcolor="white"];
"912659216" -> "463053456"[label="1", color="black", style="setlinewidth(1)"];
"1191898611"[label="{{Function\ -1:\ xstrtoul}|True}", color="blue", fontname="Calibri", style="filled", fillcolor="white"];
"912659216" -> "1191898611"[label="1", color="black", style="setlinewidth(1)"];
"1191898611" -> "912659216"[label="1", color="black", style="setlinewidth(1)"];
"1897568563"[label="{{Decl\ -1:\ xatoull_range_sfx}|True}", color="blue", fontname="Calibri", style="filled", fillcolor="white"];
"7611598"[label="{{Stmt\ -1:\ return\ xatoull_range}|True}", color="black", fontname="Calibri", style="filled", fillcolor="white"];
"7611598" -> "1897568563"[label="1", color="black", style="setlinewidth(1)"];
"391830493"[label="{{Function\ -1:\ xatoul_range_sfx}|True}", color="blue", fontname="Calibri", style="filled", fillcolor="white"];
"7611598" -> "391830493"[label="1", color="black", style="setlinewidth(1)"];
"391830493" -> "7611598"[label="1", color="black", style="setlinewidth(1)"];
"1961512153"[label="{{Decl\ -1:\ xatoull_range}|True}", color="blue", fontname="Calibri", style="filled", fillcolor="white"];
"764159952"[label="{{Stmt\ -1:\ return\ xatoull_range}|True}", color="black", fontname="Calibri", style="filled", fillcolor="white"];
"764159952" -> "1961512153"[label="1", color="black", style="setlinewidth(1)"];
"357638038"[label="{{Function\ -1:\ xatoul_range}|True}", color="blue", fontname="Calibri", style="filled", fillcolor="white"];
"764159952" -> "357638038"[label="1", color="black", style="setlinewidth(1)"];
"357638038" -> "764159952"[label="1", color="black", style="setlinewidth(1)"];
"1316683903"[label="{{Decl\ -1:\ xatoull_sfx}|True}", color="blue", fontname="Calibri", style="filled", fillcolor="white"];
"1859343171"[label="{{Stmt\ -1:\ return\ xatoull_sfx(s}|True}", color="black", fontname="Calibri", style="filled", fillcolor="white"];
"1859343171" -> "1316683903"[label="1", color="black", style="setlinewidth(1)"];
"271766817"[label="{{Function\ -1:\ xatoul_sfx}|True}", color="blue", fontname="Calibri", style="filled", fillcolor="white"];
"1859343171" -> "271766817"[label="1", color="black", style="setlinewidth(1)"];
"271766817" -> "1859343171"[label="1", color="black", style="setlinewidth(1)"];
"349168734"[label="{{Decl\ -1:\ xatoull}|True}", color="blue", fontname="Calibri", style="filled", fillcolor="white"];
"917334764"[label="{{Stmt\ -1:\ return\ xatoull(str);}|True}", color="black", fontname="Calibri", style="filled", fillcolor="white"];
"917334764" -> "349168734"[label="1", color="black", style="setlinewidth(1)"];
"595173782"[label="{{Function\ -1:\ xatoul}|True}", color="blue", fontname="Calibri", style="filled", fillcolor="white"];
"917334764" -> "595173782"[label="1", color="black", style="setlinewidth(1)"];
"595173782" -> "917334764"[label="1", color="black", style="setlinewidth(1)"];
"1593194890"[label="{{Decl\ -1:\ xstrtoll_range_sfx}|True}", color="blue", fontname="Calibri", style="filled", fillcolor="white"];
"747999167"[label="{{Stmt\ -1:\ return\ xstrtoll_rang}|True}", color="black", fontname="Calibri", style="filled", fillcolor="white"];
"747999167" -> "1593194890"[label="1", color="black", style="setlinewidth(1)"];
"1959763949"[label="{{Function\ -1:\ xstrtol_range_sfx}|True}", color="blue", fontname="Calibri", style="filled", fillcolor="white"];
"747999167" -> "1959763949"[label="1", color="black", style="setlinewidth(1)"];
"1959763949" -> "747999167"[label="1", color="black", style="setlinewidth(1)"];
"423975229"[label="{{Decl\ -1:\ xstrtoll_range}|True}", color="blue", fontname="Calibri", style="filled", fillcolor="white"];
"451579021"[label="{{Stmt\ -1:\ return\ xstrtoll_rang}|True}", color="black", fontname="Calibri", style="filled", fillcolor="white"];
"451579021" -> "423975229"[label="1", color="black", style="setlinewidth(1)"];
"1030282903"[label="{{Function\ -1:\ xstrtol_range}|True}", color="blue", fontname="Calibri", style="filled", fillcolor="white"];
"451579021" -> "1030282903"[label="1", color="black", style="setlinewidth(1)"];
"1030282903" -> "451579021"[label="1", color="black", style="setlinewidth(1)"];
"1950030121"[label="{{Decl\ -1:\ xstrtoll}|True}", color="blue", fontname="Calibri", style="filled", fillcolor="white"];
"712629000"[label="{{Stmt\ -1:\ return\ xstrtoll(str\ }|True}", color="black", fontname="Calibri", style="filled", fillcolor="white"];
"712629000" -> "1950030121"[label="1", color="black", style="setlinewidth(1)"];
"1035834833"[label="{{Function\ -1:\ xstrtol}|True}", color="blue", fontname="Calibri", style="filled", fillcolor="white"];
"712629000" -> "1035834833"[label="1", color="black", style="setlinewidth(1)"];
"1035834833" -> "712629000"[label="1", color="black", style="setlinewidth(1)"];
"111057350"[label="{{Decl\ -1:\ xatoll_range_sfx}|True}", color="blue", fontname="Calibri", style="filled", fillcolor="white"];
"2014436626"[label="{{Stmt\ -1:\ return\ xatoll_range_}|True}", color="black", fontname="Calibri", style="filled", fillcolor="white"];
"2014436626" -> "111057350"[label="1", color="black", style="setlinewidth(1)"];
"848125254"[label="{{Function\ -1:\ xatol_range_sfx}|True}", color="blue", fontname="Calibri", style="filled", fillcolor="white"];
"2014436626" -> "848125254"[label="1", color="black", style="setlinewidth(1)"];
"848125254" -> "2014436626"[label="1", color="black", style="setlinewidth(1)"];
"484672687"[label="{{Decl\ -1:\ xatoll_range}|True}", color="blue", fontname="Calibri", style="filled", fillcolor="white"];
"183779345"[label="{{Stmt\ -1:\ return\ xatoll_range(}|True}", color="black", fontname="Calibri", style="filled", fillcolor="white"];
"183779345" -> "484672687"[label="1", color="black", style="setlinewidth(1)"];
"312492876"[label="{{Function\ -1:\ xatol_range}|True}", color="blue", fontname="Calibri", style="filled", fillcolor="white"];
"183779345" -> "312492876"[label="1", color="black", style="setlinewidth(1)"];
"312492876" -> "183779345"[label="1", color="black", style="setlinewidth(1)"];
"1283954375"[label="{{Decl\ -1:\ xatoll_sfx}|True}", color="blue", fontname="Calibri", style="filled", fillcolor="white"];
"1983289893"[label="{{Stmt\ -1:\ return\ xatoll_sfx(st}|True}", color="black", fontname="Calibri", style="filled", fillcolor="white"];
"1983289893" -> "1283954375"[label="1", color="black", style="setlinewidth(1)"];
"1304007080"[label="{{Function\ -1:\ xatol_sfx}|True}", color="blue", fontname="Calibri", style="filled", fillcolor="white"];
"1983289893" -> "1304007080"[label="1", color="black", style="setlinewidth(1)"];
"1304007080" -> "1983289893"[label="1", color="black", style="setlinewidth(1)"];
"1440060721"[label="{{Decl\ -1:\ xatoll}|True}", color="blue", fontname="Calibri", style="filled", fillcolor="white"];
"1229653422"[label="{{Stmt\ -1:\ return\ xatoll(str);}|True}", color="black", fontname="Calibri", style="filled", fillcolor="white"];
"1229653422" -> "1440060721"[label="1", color="black", style="setlinewidth(1)"];
"100886927"[label="{{Function\ -1:\ xatol}|True}", color="blue", fontname="Calibri", style="filled", fillcolor="white"];
"1229653422" -> "100886927"[label="1", color="black", style="setlinewidth(1)"];
"100886927" -> "1229653422"[label="1", color="black", style="setlinewidth(1)"];
"917334764" -> "349168734"[label="1", color="black", style="setlinewidth(1)"];
"917334764" -> "595173782"[label="1", color="black", style="setlinewidth(1)"];
"595173782" -> "917334764"[label="1", color="black", style="setlinewidth(1)"];
"1167618388"[label="{{Decl\ -1:\ BUG_xatou32_unimplemented}|True}", color="blue", fontname="Calibri", style="filled", fillcolor="white"];
"179331370"[label="{{Decl\ -1:\ xatou}|True}", color="blue", fontname="Calibri", style="filled", fillcolor="white"];
"540520315"[label="{{Stmt\ -1:\ return\ xatoul(numstr}|True}", color="black", fontname="Calibri", style="filled", fillcolor="white"];
"540520315" -> "595173782"[label="1", color="black", style="setlinewidth(1)"];
"2069814239"[label="{{Function\ -1:\ xatou32}|True}", color="blue", fontname="Calibri", style="filled", fillcolor="white"];
"540520315" -> "2069814239"[label="1", color="black", style="setlinewidth(1)"];
"1664961570"[label="{{Stmt\ -1:\ return\ BUG_xatou32_u}|True}", color="black", fontname="Calibri", style="filled", fillcolor="white"];
"1664961570" -> "1167618388"[label="1", color="black", style="setlinewidth(1)"];
"1664961570" -> "2069814239"[label="1", color="black", style="setlinewidth(1)"];
"2017600524"[label="{{Stmt\ -1:\ return\ xatou(numstr)}|True}", color="black", fontname="Calibri", style="filled", fillcolor="white"];
"2017600524" -> "179331370"[label="1", color="black", style="setlinewidth(1)"];
"2017600524" -> "2069814239"[label="1", color="black", style="setlinewidth(1)"];
"788696404"[label="{{Expr\ -1:\ (((92233720368547758}|True}", color="black", fontname="Calibri", style="filled", fillcolor="white"];
"788696404" -> "1664961570"[label="1", color="black", style="setlinewidth(1)"];
"788696404" -> "540520315"[label="1", color="black", style="setlinewidth(1)"];
"683487429"[label="{{Expr\ -1:\ (((2147483647\ *\ 2U)\ }|True}", color="black", fontname="Calibri", style="filled", fillcolor="white"];
"683487429" -> "788696404"[label="1", color="black", style="setlinewidth(1)"];
"683487429" -> "2017600524"[label="1", color="black", style="setlinewidth(1)"];
"2069814239" -> "683487429"[label="1", color="black", style="setlinewidth(1)"];
"99488628"[label="{{Decl\ -1:\ bb_strtoull}|True}", color="blue", fontname="Calibri", style="filled", fillcolor="white"];
"1326198179"[label="{{Stmt\ -1:\ return\ bb_strtoull(a}|True}", color="black", fontname="Calibri", style="filled", fillcolor="white"];
"1326198179" -> "99488628"[label="1", color="black", style="setlinewidth(1)"];
"1942865373"[label="{{Function\ -1:\ bb_strtoul}|True}", color="blue", fontname="Calibri", style="filled", fillcolor="white"];
"1326198179" -> "1942865373"[label="1", color="black", style="setlinewidth(1)"];
"1942865373" -> "1326198179"[label="1", color="black", style="setlinewidth(1)"];
"1682530609"[label="{{Decl\ -1:\ bb_strtoll}|True}", color="blue", fontname="Calibri", style="filled", fillcolor="white"];
"1007827786"[label="{{Stmt\ -1:\ return\ bb_strtoll(ar}|True}", color="black", fontname="Calibri", style="filled", fillcolor="white"];
"1007827786" -> "1682530609"[label="1", color="black", style="setlinewidth(1)"];
"1738964628"[label="{{Function\ -1:\ bb_strtol}|True}", color="blue", fontname="Calibri", style="filled", fillcolor="white"];
"1007827786" -> "1738964628"[label="1", color="black", style="setlinewidth(1)"];
"1738964628" -> "1007827786"[label="1", color="black", style="setlinewidth(1)"];
"1326198179" -> "99488628"[label="1", color="black", style="setlinewidth(1)"];
"1326198179" -> "1942865373"[label="1", color="black", style="setlinewidth(1)"];
"1942865373" -> "1326198179"[label="1", color="black", style="setlinewidth(1)"];
"1992613818"[label="{{Decl\ -1:\ BUG_bb_strtou32_unimplemented}|True}", color="blue", fontname="Calibri", style="filled", fillcolor="white"];
"1466743137"[label="{{Decl\ -1:\ bb_strtou}|True}", color="blue", fontname="Calibri", style="filled", fillcolor="white"];
"216309538"[label="{{Stmt\ -1:\ return\ bb_strtoul(ar}|True}", color="black", fontname="Calibri", style="filled", fillcolor="white"];
"216309538" -> "1942865373"[label="1", color="black", style="setlinewidth(1)"];
"331663701"[label="{{Function\ -1:\ bb_strtou32}|True}", color="blue", fontname="Calibri", style="filled", fillcolor="white"];
"216309538" -> "331663701"[label="1", color="black", style="setlinewidth(1)"];
"437811141"[label="{{Stmt\ -1:\ return\ BUG_bb_strtou}|True}", color="black", fontname="Calibri", style="filled", fillcolor="white"];
"437811141" -> "1992613818"[label="1", color="black", style="setlinewidth(1)"];
"437811141" -> "331663701"[label="1", color="black", style="setlinewidth(1)"];
"1826801639"[label="{{Stmt\ -1:\ return\ bb_strtou(arg}|True}", color="black", fontname="Calibri", style="filled", fillcolor="white"];
"1826801639" -> "1466743137"[label="1", color="black", style="setlinewidth(1)"];
"1826801639" -> "331663701"[label="1", color="black", style="setlinewidth(1)"];
"494504556"[label="{{Expr\ -1:\ (sizeof(uint32_t\ )\ =}|True}", color="black", fontname="Calibri", style="filled", fillcolor="white"];
"494504556" -> "437811141"[label="1", color="black", style="setlinewidth(1)"];
"494504556" -> "216309538"[label="1", color="black", style="setlinewidth(1)"];
"860523288"[label="{{Expr\ -1:\ (sizeof(uint32_t\ )\ =}|True}", color="black", fontname="Calibri", style="filled", fillcolor="white"];
"860523288" -> "494504556"[label="1", color="black", style="setlinewidth(1)"];
"860523288" -> "1826801639"[label="1", color="black", style="setlinewidth(1)"];
"331663701" -> "860523288"[label="1", color="black", style="setlinewidth(1)"];
"1265135150"[label="{{Stmt\ -1:\ return\ (b\ \<=\ ('z'\ -\ }|True}", color="black", fontname="Calibri", style="filled", fillcolor="white"];
"1808549342"[label="{{Function\ -1:\ bb_ascii_isalnum}|True}", color="blue", fontname="Calibri", style="filled", fillcolor="white"];
"1265135150" -> "1808549342"[label="1", color="black", style="setlinewidth(1)"];
"532040857"[label="{{Stmt\ -1:\ return\ (b\ \<=\ 9);}|True}", color="black", fontname="Calibri", style="filled", fillcolor="white"];
"532040857" -> "1808549342"[label="1", color="black", style="setlinewidth(1)"];
"304985353"[label="{{Stmt\ -1:\ (b\ =\ ((a\ \|\ 0x20)\ -\ '}|True}", color="black", fontname="Calibri", style="filled", fillcolor="white"];
"304985353" -> "1265135150"[label="1", color="black", style="setlinewidth(1)"];
"1319553393"[label="{{Expr\ -1:\ (b\ \<=\ 9)}|True}", color="black", fontname="Calibri", style="filled", fillcolor="white"];
"1319553393" -> "304985353"[label="1", color="black", style="setlinewidth(1)"];
"1319553393" -> "532040857"[label="1", color="black", style="setlinewidth(1)"];
"671710124"[label="{{Stmt\ -1:\ unsigned\ char\ b\ =\ \ (}|True}", color="black", fontname="Calibri", style="filled", fillcolor="white"];
"671710124" -> "1319553393"[label="1", color="black", style="setlinewidth(1)"];
"1808549342" -> "671710124"[label="1", color="black", style="setlinewidth(1)"];
"894288614"[label="{{Stmt\ -1:\ return\ (b\ \<=\ ('f'\ -\ }|True}", color="black", fontname="Calibri", style="filled", fillcolor="white"];
"236294811"[label="{{Function\ -1:\ bb_ascii_isxdigit}|True}", color="blue", fontname="Calibri", style="filled", fillcolor="white"];
"894288614" -> "236294811"[label="1", color="black", style="setlinewidth(1)"];
"1582860960"[label="{{Stmt\ -1:\ return\ (b\ \<=\ 9);}|True}", color="black", fontname="Calibri", style="filled", fillcolor="white"];
"1582860960" -> "236294811"[label="1", color="black", style="setlinewidth(1)"];
"1872820411"[label="{{Stmt\ -1:\ (b\ =\ ((a\ \|\ 0x20)\ -\ '}|True}", color="black", fontname="Calibri", style="filled", fillcolor="white"];
"1872820411" -> "894288614"[label="1", color="black", style="setlinewidth(1)"];
"384318494"[label="{{Expr\ -1:\ (b\ \<=\ 9)}|True}", color="black", fontname="Calibri", style="filled", fillcolor="white"];
"384318494" -> "1872820411"[label="1", color="black", style="setlinewidth(1)"];
"384318494" -> "1582860960"[label="1", color="black", style="setlinewidth(1)"];
"1437124522"[label="{{Stmt\ -1:\ unsigned\ char\ b\ =\ \ (}|True}", color="black", fontname="Calibri", style="filled", fillcolor="white"];
"1437124522" -> "384318494"[label="1", color="black", style="setlinewidth(1)"];
"236294811" -> "1437124522"[label="1", color="black", style="setlinewidth(1)"];
"1256875558"[label="{{Stmt\ -1:\ (a\ -=\ ('a'\ -\ 'A'));}|True}", color="black", fontname="Calibri", style="filled", fillcolor="white"];
"1761753481"[label="{{Stmt\ -1:\ return\ a;}|True}", color="black", fontname="Calibri", style="filled", fillcolor="white"];
"1256875558" -> "1761753481"[label="1", color="black", style="setlinewidth(1)"];
"916049868"[label="{{Function\ -1:\ bb_ascii_toupper}|True}", color="blue", fontname="Calibri", style="filled", fillcolor="white"];
"1761753481" -> "916049868"[label="1", color="black", style="setlinewidth(1)"];
"1587606416"[label="{{Expr\ -1:\ (b\ \<=\ ('z'\ -\ 'a'))}|True}", color="black", fontname="Calibri", style="filled", fillcolor="white"];
"1587606416" -> "1761753481"[label="1", color="black", style="setlinewidth(1)"];
"1587606416" -> "1256875558"[label="1", color="black", style="setlinewidth(1)"];
"765253084"[label="{{Stmt\ -1:\ unsigned\ char\ b\ =\ \ (}|True}", color="black", fontname="Calibri", style="filled", fillcolor="white"];
"765253084" -> "1587606416"[label="1", color="black", style="setlinewidth(1)"];
"916049868" -> "765253084"[label="1", color="black", style="setlinewidth(1)"];
"1920295739"[label="{{Stmt\ -1:\ (a\ +=\ ('a'\ -\ 'A'));}|True}", color="black", fontname="Calibri", style="filled", fillcolor="white"];
"342897961"[label="{{Stmt\ -1:\ return\ a;}|True}", color="black", fontname="Calibri", style="filled", fillcolor="white"];
"1920295739" -> "342897961"[label="1", color="black", style="setlinewidth(1)"];
"309803837"[label="{{Function\ -1:\ bb_ascii_tolower}|True}", color="blue", fontname="Calibri", style="filled", fillcolor="white"];
"342897961" -> "309803837"[label="1", color="black", style="setlinewidth(1)"];
"17671586"[label="{{Expr\ -1:\ (b\ \<=\ ('Z'\ -\ 'A'))}|True}", color="black", fontname="Calibri", style="filled", fillcolor="white"];
"17671586" -> "342897961"[label="1", color="black", style="setlinewidth(1)"];
"17671586" -> "1920295739"[label="1", color="black", style="setlinewidth(1)"];
"906055117"[label="{{Stmt\ -1:\ unsigned\ char\ b\ =\ \ (}|True}", color="black", fontname="Calibri", style="filled", fillcolor="white"];
"906055117" -> "17671586"[label="1", color="black", style="setlinewidth(1)"];
"309803837" -> "906055117"[label="1", color="black", style="setlinewidth(1)"];
"1416752296"[label="{{Decl\ -1:\ bb_show_usage}|True}", color="blue", fontname="Calibri", style="filled", fillcolor="white"];
"1055779261"[label="{{Stmt\ -1:\ return\ (&e2attr_flag}|True}", color="black", fontname="Calibri", style="filled", fillcolor="white"];
"1634739226"[label="{{Function\ -1:\ get_flag}|True}", color="blue", fontname="Calibri", style="filled", fillcolor="white"];
"1055779261" -> "1634739226"[label="1", color="black", style="setlinewidth(1)"];
"1592737147"[label="{{Stmt\ -1:\ bb_show_usage();}|True}", color="black", fontname="Calibri", style="filled", fillcolor="white"];
"1592737147" -> "1416752296"[label="1", color="black", style="setlinewidth(1)"];
"1952774940"[label="{{Decl\ -1:\ strchr}|True}", color="blue", fontname="Calibri", style="filled", fillcolor="white"];
"1592737147" -> "1952774940"[label="1", color="black", style="setlinewidth(1)"];
"1592737147" -> "1634739226"[label="1", color="black", style="setlinewidth(1)"];
"1297152004"[label="{{Expr\ 41:\ fp}|True}", color="black", fontname="Calibri", style="filled", fillcolor="white"];
"1297152004" -> "1592737147"[label="1", color="black", style="setlinewidth(1)"];
"1297152004" -> "1055779261"[label="1", color="black", style="setlinewidth(1)"];
"1612783872"[label="{{Stmt\ -1:\ const\ char\ *fp\ =\ \ st}|True}", color="black", fontname="Calibri", style="filled", fillcolor="white"];
"1612783872" -> "1952774940"[label="1", color="black", style="setlinewidth(1)"];
"1612783872" -> "1297152004"[label="1", color="black", style="setlinewidth(1)"];
"1634739226" -> "1612783872"[label="1", color="black", style="setlinewidth(1)"];
"1055779261" -> "1634739226"[label="1", color="black", style="setlinewidth(1)"];
"1592737147" -> "1416752296"[label="1", color="black", style="setlinewidth(1)"];
"1592737147" -> "1952774940"[label="1", color="black", style="setlinewidth(1)"];
"1592737147" -> "1634739226"[label="1", color="black", style="setlinewidth(1)"];
"1297152004" -> "1592737147"[label="1", color="black", style="setlinewidth(1)"];
"1297152004" -> "1055779261"[label="1", color="black", style="setlinewidth(1)"];
"1612783872" -> "1952774940"[label="1", color="black", style="setlinewidth(1)"];
"1612783872" -> "1297152004"[label="1", color="black", style="setlinewidth(1)"];
"1634739226" -> "1612783872"[label="1", color="black", style="setlinewidth(1)"];
"1676117080"[label="{{Stmt\ -1:\ return\ 1;}|True}", color="black", fontname="Calibri", style="filled", fillcolor="white"];
"1569660367"[label="{{Function\ -1:\ decode_arg}|True}", color="blue", fontname="Calibri", style="filled", fillcolor="white"];
"1676117080" -> "1569660367"[label="1", color="black", style="setlinewidth(1)"];
"983485341"[label="{{Stmt\ -1:\ ((*fl)\ \|=\ get_flag((}|True}", color="black", fontname="Calibri", style="filled", fillcolor="white"];
"983485341" -> "1634739226"[label="1", color="black", style="setlinewidth(1)"];
"2036375575"[label="{{Expr\ -1:\ (*arg)}|True}", color="black", fontname="Calibri", style="filled", fillcolor="white"];
"983485341" -> "2036375575"[label="1", color="black", style="setlinewidth(1)"];
"2036375575" -> "983485341"[label="1", color="black", style="setlinewidth(1)"];
"2036375575" -> "1676117080"[label="1", color="black", style="setlinewidth(1)"];
"1582817960"[label="{{Stmt\ -1:\ (gp-\>flags\ \|=\ 4);}|True}", color="black", fontname="Calibri", style="filled", fillcolor="white"];
"1582817960" -> "2036375575"[label="1", color="black", style="setlinewidth(1)"];
"578725778"[label="{{Stmt\ -1:\ return\ 0;}|True}", color="black", fontname="Calibri", style="filled", fillcolor="white"];
"578725778" -> "1569660367"[label="1", color="black", style="setlinewidth(1)"];
"796962821"[label="{{Stmt\ -1:\ (fl\ =\ (&gp-\>rf));}|True}", color="black", fontname="Calibri", style="filled", fillcolor="white"];
"796962821" -> "2036375575"[label="1", color="black", style="setlinewidth(1)"];
"375261086"[label="{{Stmt\ -1:\ (gp-\>flags\ \|=\ 1);}|True}", color="black", fontname="Calibri", style="filled", fillcolor="white"];
"375261086" -> "2036375575"[label="1", color="black", style="setlinewidth(1)"];
"2083367996"[label="{{Expr\ -1:\ (opt\ ==\ '=')}|True}", color="black", fontname="Calibri", style="filled", fillcolor="white"];
"2083367996" -> "578725778"[label="1", color="black", style="setlinewidth(1)"];
"2083367996" -> "1582817960"[label="1", color="black", style="setlinewidth(1)"];
"552685843"[label="{{Stmt\ -1:\ (gp-\>flags\ \|=\ 2);}|True}", color="black", fontname="Calibri", style="filled", fillcolor="white"];
"552685843" -> "796962821"[label="1", color="black", style="setlinewidth(1)"];
"336860026"[label="{{Expr\ -1:\ (opt\ ==\ '+')}|True}", color="black", fontname="Calibri", style="filled", fillcolor="white"];
"336860026" -> "2083367996"[label="1", color="black", style="setlinewidth(1)"];
"336860026" -> "375261086"[label="1", color="black", style="setlinewidth(1)"];
"996013411"[label="{{Expr\ -1:\ (opt\ ==\ '-')}|True}", color="black", fontname="Calibri", style="filled", fillcolor="white"];
"996013411" -> "336860026"[label="1", color="black", style="setlinewidth(1)"];
"996013411" -> "552685843"[label="1", color="black", style="setlinewidth(1)"];
"1300210073"[label="{{Stmt\ -1:\ (fl\ =\ (&gp-\>af));}|True}", color="black", fontname="Calibri", style="filled", fillcolor="white"];
"1300210073" -> "996013411"[label="1", color="black", style="setlinewidth(1)"];
"912316675"[label="{{Stmt\ -1:\ char\ opt\ =\ \ (*arg++)}|True}", color="black", fontname="Calibri", style="filled", fillcolor="white"];
"912316675" -> "1300210073"[label="1", color="black", style="setlinewidth(1)"];
"215406303"[label="{{Stmt\ -1:\ unsigned\ long\ *fl;}|True}", color="black", fontname="Calibri", style="filled", fillcolor="white"];
"215406303" -> "912316675"[label="1", color="black", style="setlinewidth(1)"];
"1569660367" -> "215406303"[label="1", color="black", style="setlinewidth(1)"];
"1623740804"[label="{{Decl\ -1:\ lstat}|True}", color="blue", fontname="Calibri", style="filled", fillcolor="white"];
"1394796101"[label="{{Stmt\ -1:\ struct\ stat\ \ st;}|True}", color="black", fontname="Calibri", style="filled", fillcolor="white"];
"1394796101" -> "1623740804"[label="1", color="black", style="setlinewidth(1)"];
"1000385192"[label="{{Decl\ -1:\ free}|True}", color="blue", fontname="Calibri", style="filled", fillcolor="white"];
"1300129007"[label="{{Stmt\ -1:\ unsigned\ long\ fsflag}|True}", color="black", fontname="Calibri", style="filled", fillcolor="white"];
"1300129007" -> "1394796101"[label="1", color="black", style="setlinewidth(1)"];
"1221553793"[label="{{Stmt\ -1:\ free(path);}|True}", color="black", fontname="Calibri", style="filled", fillcolor="white"];
"1221553793" -> "1000385192"[label="1", color="black", style="setlinewidth(1)"];
"259804592"[label="{{Function\ -1:\ change_attributes}|True}", color="blue", fontname="Calibri", style="filled", fillcolor="white"];
"1221553793" -> "259804592"[label="1", color="black", style="setlinewidth(1)"];
"809676129"[label="{{Stmt\ -1:\ return\ 0;}|True}", color="black", fontname="Calibri", style="filled", fillcolor="white"];
"1221553793" -> "809676129"[label="1", color="black", style="setlinewidth(1)"];
"259804592" -> "1300129007"[label="1", color="black", style="setlinewidth(1)"];
"1290939690"[label="{{Stmt\ -1:\ change_attributes(pa}|True}", color="black", fontname="Calibri", style="filled", fillcolor="white"];
"1290939690" -> "259804592"[label="1", color="black", style="setlinewidth(1)"];
"1290939690" -> "1221553793"[label="1", color="black", style="setlinewidth(1)"];
"1415902736"[label="{{Function\ -1:\ chattr_dir_proc}|True}", color="blue", fontname="Calibri", style="filled", fillcolor="white"];
"809676129" -> "1415902736"[label="1", color="black", style="setlinewidth(1)"];
"570361406"[label="{{Expr\ 74:\ path}|True}", color="black", fontname="Calibri", style="filled", fillcolor="white"];
"570361406" -> "809676129"[label="1", color="black", style="setlinewidth(1)"];
"570361406" -> "1290939690"[label="1", color="black", style="setlinewidth(1)"];
"886707815"[label="{{Decl\ -1:\ concat_subpath_file}|True}", color="blue", fontname="Calibri", style="filled", fillcolor="white"];
"959962375"[label="{{Stmt\ -1:\ char\ *path\ =\ \ concat}|True}", color="black", fontname="Calibri", style="filled", fillcolor="white"];
"959962375" -> "886707815"[label="1", color="black", style="setlinewidth(1)"];
"959962375" -> "570361406"[label="1", color="black", style="setlinewidth(1)"];
"1415902736" -> "959962375"[label="1", color="black", style="setlinewidth(1)"];
"1394796101" -> "1623740804"[label="1", color="black", style="setlinewidth(1)"];
"1300129007" -> "1394796101"[label="1", color="black", style="setlinewidth(1)"];
"259804592" -> "1300129007"[label="1", color="black", style="setlinewidth(1)"];
"1055779261" -> "1634739226"[label="1", color="black", style="setlinewidth(1)"];
"1592737147" -> "1416752296"[label="1", color="black", style="setlinewidth(1)"];
"1592737147" -> "1952774940"[label="1", color="black", style="setlinewidth(1)"];
"1592737147" -> "1634739226"[label="1", color="black", style="setlinewidth(1)"];
"1297152004" -> "1592737147"[label="1", color="black", style="setlinewidth(1)"];
"1297152004" -> "1055779261"[label="1", color="black", style="setlinewidth(1)"];
"1612783872" -> "1952774940"[label="1", color="black", style="setlinewidth(1)"];
"1612783872" -> "1297152004"[label="1", color="black", style="setlinewidth(1)"];
"1634739226" -> "1612783872"[label="1", color="black", style="setlinewidth(1)"];
"1676117080" -> "1569660367"[label="1", color="black", style="setlinewidth(1)"];
"983485341" -> "1634739226"[label="1", color="black", style="setlinewidth(1)"];
"983485341" -> "2036375575"[label="1", color="black", style="setlinewidth(1)"];
"2036375575" -> "983485341"[label="1", color="black", style="setlinewidth(1)"];
"2036375575" -> "1676117080"[label="1", color="black", style="setlinewidth(1)"];
"1582817960" -> "2036375575"[label="1", color="black", style="setlinewidth(1)"];
"578725778" -> "1569660367"[label="1", color="black", style="setlinewidth(1)"];
"1394796101" -> "1623740804"[label="1", color="black", style="setlinewidth(1)"];
"796962821" -> "2036375575"[label="1", color="black", style="setlinewidth(1)"];
"375261086" -> "2036375575"[label="1", color="black", style="setlinewidth(1)"];
"2083367996" -> "578725778"[label="1", color="black", style="setlinewidth(1)"];
"2083367996" -> "1582817960"[label="1", color="black", style="setlinewidth(1)"];
"1872882052"[label="{{Stmt\ -1:\ return\ 0;}|True}", color="black", fontname="Calibri", style="filled", fillcolor="white"];
"798223172"[label="{{Function\ -1:\ chattr_main}|True}", color="blue", fontname="Calibri", style="filled", fillcolor="white"];
"1872882052" -> "798223172"[label="1", color="black", style="setlinewidth(1)"];
"1300129007" -> "1394796101"[label="1", color="black", style="setlinewidth(1)"];
"552685843" -> "796962821"[label="1", color="black", style="setlinewidth(1)"];
"336860026" -> "2083367996"[label="1", color="black", style="setlinewidth(1)"];
"336860026" -> "375261086"[label="1", color="black", style="setlinewidth(1)"];
"459746262"[label="{{Expr\ -1:\ (*++argv)}|True}", color="black", fontname="Calibri", style="filled", fillcolor="white"];
"1541061495"[label="{{Stmt\ -1:\ change_attributes((*}|True}", color="black", fontname="Calibri", style="filled", fillcolor="white"];
"459746262" -> "1541061495"[label="1", color="black", style="setlinewidth(1)"];
"459746262" -> "1872882052"[label="1", color="black", style="setlinewidth(1)"];
"259804592" -> "1300129007"[label="1", color="black", style="setlinewidth(1)"];
"943661014"[label="{{Stmt\ 151:\ continue;}|True}", color="black", fontname="Calibri", style="filled", fillcolor="white"];
"1644588380"[label="{{Expr\ -1:\ (arg\ =\ (*++argv))}|True}", color="black", fontname="Calibri", style="filled", fillcolor="white"];
"943661014" -> "1644588380"[label="1", color="black", style="setlinewidth(1)"];
"917334764" -> "349168734"[label="1", color="black", style="setlinewidth(1)"];
"917334764" -> "595173782"[label="1", color="black", style="setlinewidth(1)"];
"996013411" -> "336860026"[label="1", color="black", style="setlinewidth(1)"];
"996013411" -> "552685843"[label="1", color="black", style="setlinewidth(1)"];
"319361640"[label="{{Stmt\ -1:\ bb_error_msg_and_die}|True}", color="black", fontname="Calibri", style="filled", fillcolor="white"];
"1913598907"[label="{{Decl\ -1:\ bb_error_msg_and_die}|True}", color="blue", fontname="Calibri", style="filled", fillcolor="white"];
"319361640" -> "1913598907"[label="1", color="black", style="setlinewidth(1)"];
"319361640" -> "1541061495"[label="1", color="black", style="setlinewidth(1)"];
"1541061495" -> "259804592"[label="1", color="black", style="setlinewidth(1)"];
"1541061495" -> "459746262"[label="1", color="black", style="setlinewidth(1)"];
"74076711"[label="{{Stmt\ -1:\ (g.flags\ \|=\ 8);}|True}", color="black", fontname="Calibri", style="filled", fillcolor="white"];
"74076711" -> "943661014"[label="1", color="black", style="setlinewidth(1)"];
"595173782" -> "917334764"[label="1", color="black", style="setlinewidth(1)"];
"1300210073" -> "996013411"[label="1", color="black", style="setlinewidth(1)"];
"1957957411"[label="{{Stmt\ -1:\ bb_error_msg_and_die}|True}", color="black", fontname="Calibri", style="filled", fillcolor="white"];
"1957957411" -> "1913598907"[label="1", color="black", style="setlinewidth(1)"];
"1323698745"[label="{{Expr\ -1:\ (!\ g.flags)}|True}", color="black", fontname="Calibri", style="filled", fillcolor="white"];
"1957957411" -> "1323698745"[label="1", color="black", style="setlinewidth(1)"];
"1323698745" -> "1541061495"[label="1", color="black", style="setlinewidth(1)"];
"1323698745" -> "319361640"[label="1", color="black", style="setlinewidth(1)"];
"1834296038"[label="{{Stmt\ 144:\ continue;}|True}", color="black", fontname="Calibri", style="filled", fillcolor="white"];
"1834296038" -> "1644588380"[label="1", color="black", style="setlinewidth(1)"];
"1051298944"[label="{{Stmt\ -1:\ bb_show_usage();}|True}", color="black", fontname="Calibri", style="filled", fillcolor="white"];
"1051298944" -> "1416752296"[label="1", color="black", style="setlinewidth(1)"];
"191578722"[label="{{Stmt\ -1:\ (g.version\ =\ xatoul(}|True}", color="black", fontname="Calibri", style="filled", fillcolor="white"];
"1051298944" -> "191578722"[label="1", color="black", style="setlinewidth(1)"];
"191578722" -> "595173782"[label="1", color="black", style="setlinewidth(1)"];
"191578722" -> "74076711"[label="1", color="black", style="setlinewidth(1)"];
"912316675" -> "1300210073"[label="1", color="black", style="setlinewidth(1)"];
"1684330015"[label="{{Stmt\ -1:\ bb_error_msg_and_die}|True}", color="black", fontname="Calibri", style="filled", fillcolor="white"];
"1684330015" -> "1913598907"[label="1", color="black", style="setlinewidth(1)"];
"945768182"[label="{{Expr\ -1:\ (g.rf\ &\ g.af)}|True}", color="black", fontname="Calibri", style="filled", fillcolor="white"];
"1684330015" -> "945768182"[label="1", color="black", style="setlinewidth(1)"];
"945768182" -> "1323698745"[label="1", color="black", style="setlinewidth(1)"];
"945768182" -> "1957957411"[label="1", color="black", style="setlinewidth(1)"];
"995114056"[label="{{Stmt\ -1:\ (g.recursive\ =\ 1);}|True}", color="black", fontname="Calibri", style="filled", fillcolor="white"];
"995114056" -> "1834296038"[label="1", color="black", style="setlinewidth(1)"];
"1705237118"[label="{{Expr\ -1:\ (!\ (*++argv))}|True}", color="black", fontname="Calibri", style="filled", fillcolor="white"];
"1705237118" -> "191578722"[label="1", color="black", style="setlinewidth(1)"];
"1705237118" -> "1051298944"[label="1", color="black", style="setlinewidth(1)"];
"215406303" -> "912316675"[label="1", color="black", style="setlinewidth(1)"];
"2120923903"[label="{{Stmt\ -1:\ bb_show_usage();}|True}", color="black", fontname="Calibri", style="filled", fillcolor="white"];
"2120923903" -> "1416752296"[label="1", color="black", style="setlinewidth(1)"];
"78952235"[label="{{Expr\ -1:\ ((g.flags\ &\ 4)\ &&\ (g}|True}", color="black", fontname="Calibri", style="filled", fillcolor="white"];
"2120923903" -> "78952235"[label="1", color="black", style="setlinewidth(1)"];
"78952235" -> "945768182"[label="1", color="black", style="setlinewidth(1)"];
"78952235" -> "1684330015"[label="1", color="black", style="setlinewidth(1)"];
"1653397522"[label="{{Expr\ -1:\ (arg[1]\ ==\ 'R')}|True}", color="black", fontname="Calibri", style="filled", fillcolor="white"];
"1653397522" -> "1705237118"[label="1", color="black", style="setlinewidth(1)"];
"1653397522" -> "995114056"[label="1", color="black", style="setlinewidth(1)"];
"1569660367" -> "215406303"[label="1", color="black", style="setlinewidth(1)"];
"695367902"[label="{{Expr\ -1:\ (!\ (*argv))}|True}", color="black", fontname="Calibri", style="filled", fillcolor="white"];
"695367902" -> "78952235"[label="1", color="black", style="setlinewidth(1)"];
"695367902" -> "2120923903"[label="1", color="black", style="setlinewidth(1)"];
"742347380"[label="{{Expr\ -1:\ ((arg[0]\ ==\ '-')\ &&\ }|True}", color="black", fontname="Calibri", style="filled", fillcolor="white"];
"742347380" -> "1569660367"[label="1", color="black", style="setlinewidth(1)"];
"742347380" -> "1653397522"[label="1", color="black", style="setlinewidth(1)"];
"1644588380" -> "742347380"[label="1", color="black", style="setlinewidth(1)"];
"1644588380" -> "695367902"[label="1", color="black", style="setlinewidth(1)"];
"1739725713"[label="{{Decl\ -1:\ memset}|True}", color="blue", fontname="Calibri", style="filled", fillcolor="white"];
"1442312662"[label="{{Stmt\ -1:\ memset((&g)\ ,\ 0\ ,\ si}|True}", color="black", fontname="Calibri", style="filled", fillcolor="white"];
"1442312662" -> "1739725713"[label="1", color="black", style="setlinewidth(1)"];
"1442312662" -> "1644588380"[label="1", color="black", style="setlinewidth(1)"];
"828640377"[label="{{Stmt\ -1:\ char\ *arg;}|True}", color="black", fontname="Calibri", style="filled", fillcolor="white"];
"828640377" -> "1442312662"[label="1", color="black", style="setlinewidth(1)"];
"1479966646"[label="{{Stmt\ -1:\ struct\ globals\ \ g;}|True}", color="black", fontname="Calibri", style="filled", fillcolor="white"];
"1479966646" -> "828640377"[label="1", color="black", style="setlinewidth(1)"];
"798223172" -> "1479966646"[label="1", color="black", style="setlinewidth(1)"];
}
