digraph "busybox-1.18.5/selinux/getenforce.c" {
node [shape=record];
"737999996"[label="{{Decl\ -1:\ xstrtoull_range_sfx}|True}", color="blue", fontname="Calibri", style="filled", fillcolor="white"];
"1154567966"[label="{{Stmt\ -1:\ return\ xstrtoull_ran}|True}", color="black", fontname="Calibri", style="filled", fillcolor="white"];
"1154567966" -> "737999996"[label="1", color="black", style="setlinewidth(1)"];
"344491970"[label="{{Function\ -1:\ xstrtoul_range_sfx}|True}", color="blue", fontname="Calibri", style="filled", fillcolor="white"];
"1154567966" -> "344491970"[label="1", color="black", style="setlinewidth(1)"];
"344491970" -> "1154567966"[label="1", color="black", style="setlinewidth(1)"];
"1047679357"[label="{{Decl\ -1:\ xstrtoull_range}|True}", color="blue", fontname="Calibri", style="filled", fillcolor="white"];
"697892520"[label="{{Stmt\ -1:\ return\ xstrtoull_ran}|True}", color="black", fontname="Calibri", style="filled", fillcolor="white"];
"697892520" -> "1047679357"[label="1", color="black", style="setlinewidth(1)"];
"499057565"[label="{{Function\ -1:\ xstrtoul_range}|True}", color="blue", fontname="Calibri", style="filled", fillcolor="white"];
"697892520" -> "499057565"[label="1", color="black", style="setlinewidth(1)"];
"499057565" -> "697892520"[label="1", color="black", style="setlinewidth(1)"];
"1346455764"[label="{{Decl\ -1:\ xstrtoull_sfx}|True}", color="blue", fontname="Calibri", style="filled", fillcolor="white"];
"1623063733"[label="{{Stmt\ -1:\ return\ xstrtoull_sfx}|True}", color="black", fontname="Calibri", style="filled", fillcolor="white"];
"1623063733" -> "1346455764"[label="1", color="black", style="setlinewidth(1)"];
"925631987"[label="{{Function\ -1:\ xstrtoul_sfx}|True}", color="blue", fontname="Calibri", style="filled", fillcolor="white"];
"1623063733" -> "925631987"[label="1", color="black", style="setlinewidth(1)"];
"925631987" -> "1623063733"[label="1", color="black", style="setlinewidth(1)"];
"22800971"[label="{{Decl\ -1:\ xstrtoull}|True}", color="blue", fontname="Calibri", style="filled", fillcolor="white"];
"865251031"[label="{{Stmt\ -1:\ return\ xstrtoull(str}|True}", color="black", fontname="Calibri", style="filled", fillcolor="white"];
"865251031" -> "22800971"[label="1", color="black", style="setlinewidth(1)"];
"1082217009"[label="{{Function\ -1:\ xstrtoul}|True}", color="blue", fontname="Calibri", style="filled", fillcolor="white"];
"865251031" -> "1082217009"[label="1", color="black", style="setlinewidth(1)"];
"1082217009" -> "865251031"[label="1", color="black", style="setlinewidth(1)"];
"583209053"[label="{{Decl\ -1:\ xatoull_range_sfx}|True}", color="blue", fontname="Calibri", style="filled", fillcolor="white"];
"1806564442"[label="{{Stmt\ -1:\ return\ xatoull_range}|True}", color="black", fontname="Calibri", style="filled", fillcolor="white"];
"1806564442" -> "583209053"[label="1", color="black", style="setlinewidth(1)"];
"1083884608"[label="{{Function\ -1:\ xatoul_range_sfx}|True}", color="blue", fontname="Calibri", style="filled", fillcolor="white"];
"1806564442" -> "1083884608"[label="1", color="black", style="setlinewidth(1)"];
"1083884608" -> "1806564442"[label="1", color="black", style="setlinewidth(1)"];
"2140118453"[label="{{Decl\ -1:\ xatoull_range}|True}", color="blue", fontname="Calibri", style="filled", fillcolor="white"];
"1191212714"[label="{{Stmt\ -1:\ return\ xatoull_range}|True}", color="black", fontname="Calibri", style="filled", fillcolor="white"];
"1191212714" -> "2140118453"[label="1", color="black", style="setlinewidth(1)"];
"1762702902"[label="{{Function\ -1:\ xatoul_range}|True}", color="blue", fontname="Calibri", style="filled", fillcolor="white"];
"1191212714" -> "1762702902"[label="1", color="black", style="setlinewidth(1)"];
"1762702902" -> "1191212714"[label="1", color="black", style="setlinewidth(1)"];
"2044769903"[label="{{Decl\ -1:\ xatoull_sfx}|True}", color="blue", fontname="Calibri", style="filled", fillcolor="white"];
"1731035810"[label="{{Stmt\ -1:\ return\ xatoull_sfx(s}|True}", color="black", fontname="Calibri", style="filled", fillcolor="white"];
"1731035810" -> "2044769903"[label="1", color="black", style="setlinewidth(1)"];
"1183980310"[label="{{Function\ -1:\ xatoul_sfx}|True}", color="blue", fontname="Calibri", style="filled", fillcolor="white"];
"1731035810" -> "1183980310"[label="1", color="black", style="setlinewidth(1)"];
"1183980310" -> "1731035810"[label="1", color="black", style="setlinewidth(1)"];
"193160278"[label="{{Decl\ -1:\ xatoull}|True}", color="blue", fontname="Calibri", style="filled", fillcolor="white"];
"2001861786"[label="{{Stmt\ -1:\ return\ xatoull(str);}|True}", color="black", fontname="Calibri", style="filled", fillcolor="white"];
"2001861786" -> "193160278"[label="1", color="black", style="setlinewidth(1)"];
"230787242"[label="{{Function\ -1:\ xatoul}|True}", color="blue", fontname="Calibri", style="filled", fillcolor="white"];
"2001861786" -> "230787242"[label="1", color="black", style="setlinewidth(1)"];
"230787242" -> "2001861786"[label="1", color="black", style="setlinewidth(1)"];
"149747978"[label="{{Decl\ -1:\ xstrtoll_range_sfx}|True}", color="blue", fontname="Calibri", style="filled", fillcolor="white"];
"434545342"[label="{{Stmt\ -1:\ return\ xstrtoll_rang}|True}", color="black", fontname="Calibri", style="filled", fillcolor="white"];
"434545342" -> "149747978"[label="1", color="black", style="setlinewidth(1)"];
"938054691"[label="{{Function\ -1:\ xstrtol_range_sfx}|True}", color="blue", fontname="Calibri", style="filled", fillcolor="white"];
"434545342" -> "938054691"[label="1", color="black", style="setlinewidth(1)"];
"938054691" -> "434545342"[label="1", color="black", style="setlinewidth(1)"];
"1017485511"[label="{{Decl\ -1:\ xstrtoll_range}|True}", color="blue", fontname="Calibri", style="filled", fillcolor="white"];
"751637164"[label="{{Stmt\ -1:\ return\ xstrtoll_rang}|True}", color="black", fontname="Calibri", style="filled", fillcolor="white"];
"751637164" -> "1017485511"[label="1", color="black", style="setlinewidth(1)"];
"1040031466"[label="{{Function\ -1:\ xstrtol_range}|True}", color="blue", fontname="Calibri", style="filled", fillcolor="white"];
"751637164" -> "1040031466"[label="1", color="black", style="setlinewidth(1)"];
"1040031466" -> "751637164"[label="1", color="black", style="setlinewidth(1)"];
"349168734"[label="{{Decl\ -1:\ xstrtoll}|True}", color="blue", fontname="Calibri", style="filled", fillcolor="white"];
"1325796638"[label="{{Stmt\ -1:\ return\ xstrtoll(str\ }|True}", color="black", fontname="Calibri", style="filled", fillcolor="white"];
"1325796638" -> "349168734"[label="1", color="black", style="setlinewidth(1)"];
"288142596"[label="{{Function\ -1:\ xstrtol}|True}", color="blue", fontname="Calibri", style="filled", fillcolor="white"];
"1325796638" -> "288142596"[label="1", color="black", style="setlinewidth(1)"];
"288142596" -> "1325796638"[label="1", color="black", style="setlinewidth(1)"];
"1027066858"[label="{{Decl\ -1:\ xatoll_range_sfx}|True}", color="blue", fontname="Calibri", style="filled", fillcolor="white"];
"1536282437"[label="{{Stmt\ -1:\ return\ xatoll_range_}|True}", color="black", fontname="Calibri", style="filled", fillcolor="white"];
"1536282437" -> "1027066858"[label="1", color="black", style="setlinewidth(1)"];
"136717397"[label="{{Function\ -1:\ xatol_range_sfx}|True}", color="blue", fontname="Calibri", style="filled", fillcolor="white"];
"1536282437" -> "136717397"[label="1", color="black", style="setlinewidth(1)"];
"136717397" -> "1536282437"[label="1", color="black", style="setlinewidth(1)"];
"1709695688"[label="{{Decl\ -1:\ xatoll_range}|True}", color="blue", fontname="Calibri", style="filled", fillcolor="white"];
"1114735886"[label="{{Stmt\ -1:\ return\ xatoll_range(}|True}", color="black", fontname="Calibri", style="filled", fillcolor="white"];
"1114735886" -> "1709695688"[label="1", color="black", style="setlinewidth(1)"];
"2121828502"[label="{{Function\ -1:\ xatol_range}|True}", color="blue", fontname="Calibri", style="filled", fillcolor="white"];
"1114735886" -> "2121828502"[label="1", color="black", style="setlinewidth(1)"];
"2121828502" -> "1114735886"[label="1", color="black", style="setlinewidth(1)"];
"1245173695"[label="{{Decl\ -1:\ xatoll_sfx}|True}", color="blue", fontname="Calibri", style="filled", fillcolor="white"];
"1446025365"[label="{{Stmt\ -1:\ return\ xatoll_sfx(st}|True}", color="black", fontname="Calibri", style="filled", fillcolor="white"];
"1446025365" -> "1245173695"[label="1", color="black", style="setlinewidth(1)"];
"286687224"[label="{{Function\ -1:\ xatol_sfx}|True}", color="blue", fontname="Calibri", style="filled", fillcolor="white"];
"1446025365" -> "286687224"[label="1", color="black", style="setlinewidth(1)"];
"286687224" -> "1446025365"[label="1", color="black", style="setlinewidth(1)"];
"852360067"[label="{{Decl\ -1:\ xatoll}|True}", color="blue", fontname="Calibri", style="filled", fillcolor="white"];
"1156341884"[label="{{Stmt\ -1:\ return\ xatoll(str);}|True}", color="black", fontname="Calibri", style="filled", fillcolor="white"];
"1156341884" -> "852360067"[label="1", color="black", style="setlinewidth(1)"];
"414625944"[label="{{Function\ -1:\ xatol}|True}", color="blue", fontname="Calibri", style="filled", fillcolor="white"];
"1156341884" -> "414625944"[label="1", color="black", style="setlinewidth(1)"];
"414625944" -> "1156341884"[label="1", color="black", style="setlinewidth(1)"];
"2001861786" -> "193160278"[label="1", color="black", style="setlinewidth(1)"];
"2001861786" -> "230787242"[label="1", color="black", style="setlinewidth(1)"];
"230787242" -> "2001861786"[label="1", color="black", style="setlinewidth(1)"];
"2057963637"[label="{{Decl\ -1:\ BUG_xatou32_unimplemented}|True}", color="blue", fontname="Calibri", style="filled", fillcolor="white"];
"910145899"[label="{{Decl\ -1:\ xatou}|True}", color="blue", fontname="Calibri", style="filled", fillcolor="white"];
"1361585705"[label="{{Stmt\ -1:\ return\ xatoul(numstr}|True}", color="black", fontname="Calibri", style="filled", fillcolor="white"];
"1361585705" -> "230787242"[label="1", color="black", style="setlinewidth(1)"];
"686895292"[label="{{Function\ -1:\ xatou32}|True}", color="blue", fontname="Calibri", style="filled", fillcolor="white"];
"1361585705" -> "686895292"[label="1", color="black", style="setlinewidth(1)"];
"2007586948"[label="{{Stmt\ -1:\ return\ BUG_xatou32_u}|True}", color="black", fontname="Calibri", style="filled", fillcolor="white"];
"2007586948" -> "2057963637"[label="1", color="black", style="setlinewidth(1)"];
"2007586948" -> "686895292"[label="1", color="black", style="setlinewidth(1)"];
"1618631469"[label="{{Stmt\ -1:\ return\ xatou(numstr)}|True}", color="black", fontname="Calibri", style="filled", fillcolor="white"];
"1618631469" -> "910145899"[label="1", color="black", style="setlinewidth(1)"];
"1618631469" -> "686895292"[label="1", color="black", style="setlinewidth(1)"];
"570663154"[label="{{Expr\ -1:\ (((92233720368547758}|True}", color="black", fontname="Calibri", style="filled", fillcolor="white"];
"570663154" -> "2007586948"[label="1", color="black", style="setlinewidth(1)"];
"570663154" -> "1361585705"[label="1", color="black", style="setlinewidth(1)"];
"1186718344"[label="{{Expr\ -1:\ (((2147483647\ *\ 2U)\ }|True}", color="black", fontname="Calibri", style="filled", fillcolor="white"];
"1186718344" -> "570663154"[label="1", color="black", style="setlinewidth(1)"];
"1186718344" -> "1618631469"[label="1", color="black", style="setlinewidth(1)"];
"686895292" -> "1186718344"[label="1", color="black", style="setlinewidth(1)"];
"323600496"[label="{{Decl\ -1:\ bb_strtoull}|True}", color="blue", fontname="Calibri", style="filled", fillcolor="white"];
"1164362129"[label="{{Stmt\ -1:\ return\ bb_strtoull(a}|True}", color="black", fontname="Calibri", style="filled", fillcolor="white"];
"1164362129" -> "323600496"[label="1", color="black", style="setlinewidth(1)"];
"685731091"[label="{{Function\ -1:\ bb_strtoul}|True}", color="blue", fontname="Calibri", style="filled", fillcolor="white"];
"1164362129" -> "685731091"[label="1", color="black", style="setlinewidth(1)"];
"685731091" -> "1164362129"[label="1", color="black", style="setlinewidth(1)"];
"1102433901"[label="{{Decl\ -1:\ bb_strtoll}|True}", color="blue", fontname="Calibri", style="filled", fillcolor="white"];
"867124342"[label="{{Stmt\ -1:\ return\ bb_strtoll(ar}|True}", color="black", fontname="Calibri", style="filled", fillcolor="white"];
"867124342" -> "1102433901"[label="1", color="black", style="setlinewidth(1)"];
"906271895"[label="{{Function\ -1:\ bb_strtol}|True}", color="blue", fontname="Calibri", style="filled", fillcolor="white"];
"867124342" -> "906271895"[label="1", color="black", style="setlinewidth(1)"];
"906271895" -> "867124342"[label="1", color="black", style="setlinewidth(1)"];
"1164362129" -> "323600496"[label="1", color="black", style="setlinewidth(1)"];
"1164362129" -> "685731091"[label="1", color="black", style="setlinewidth(1)"];
"685731091" -> "1164362129"[label="1", color="black", style="setlinewidth(1)"];
"1673550773"[label="{{Decl\ -1:\ BUG_bb_strtou32_unimplemented}|True}", color="blue", fontname="Calibri", style="filled", fillcolor="white"];
"1286401538"[label="{{Decl\ -1:\ bb_strtou}|True}", color="blue", fontname="Calibri", style="filled", fillcolor="white"];
"316238111"[label="{{Stmt\ -1:\ return\ bb_strtoul(ar}|True}", color="black", fontname="Calibri", style="filled", fillcolor="white"];
"316238111" -> "685731091"[label="1", color="black", style="setlinewidth(1)"];
"638821712"[label="{{Function\ -1:\ bb_strtou32}|True}", color="blue", fontname="Calibri", style="filled", fillcolor="white"];
"316238111" -> "638821712"[label="1", color="black", style="setlinewidth(1)"];
"1181048956"[label="{{Stmt\ -1:\ return\ BUG_bb_strtou}|True}", color="black", fontname="Calibri", style="filled", fillcolor="white"];
"1181048956" -> "1673550773"[label="1", color="black", style="setlinewidth(1)"];
"1181048956" -> "638821712"[label="1", color="black", style="setlinewidth(1)"];
"1145967339"[label="{{Stmt\ -1:\ return\ bb_strtou(arg}|True}", color="black", fontname="Calibri", style="filled", fillcolor="white"];
"1145967339" -> "1286401538"[label="1", color="black", style="setlinewidth(1)"];
"1145967339" -> "638821712"[label="1", color="black", style="setlinewidth(1)"];
"1042821326"[label="{{Expr\ -1:\ (sizeof(uint32_t\ )\ =}|True}", color="black", fontname="Calibri", style="filled", fillcolor="white"];
"1042821326" -> "1181048956"[label="1", color="black", style="setlinewidth(1)"];
"1042821326" -> "316238111"[label="1", color="black", style="setlinewidth(1)"];
"536049824"[label="{{Expr\ -1:\ (sizeof(uint32_t\ )\ =}|True}", color="black", fontname="Calibri", style="filled", fillcolor="white"];
"536049824" -> "1042821326"[label="1", color="black", style="setlinewidth(1)"];
"536049824" -> "1145967339"[label="1", color="black", style="setlinewidth(1)"];
"638821712" -> "536049824"[label="1", color="black", style="setlinewidth(1)"];
"1147166395"[label="{{Stmt\ -1:\ return\ (b\ \<=\ ('z'\ -\ }|True}", color="black", fontname="Calibri", style="filled", fillcolor="white"];
"1329970364"[label="{{Function\ -1:\ bb_ascii_isalnum}|True}", color="blue", fontname="Calibri", style="filled", fillcolor="white"];
"1147166395" -> "1329970364"[label="1", color="black", style="setlinewidth(1)"];
"1771289257"[label="{{Stmt\ -1:\ return\ (b\ \<=\ 9);}|True}", color="black", fontname="Calibri", style="filled", fillcolor="white"];
"1771289257" -> "1329970364"[label="1", color="black", style="setlinewidth(1)"];
"997307966"[label="{{Stmt\ -1:\ (b\ =\ ((a\ \|\ 0x20)\ -\ '}|True}", color="black", fontname="Calibri", style="filled", fillcolor="white"];
"997307966" -> "1147166395"[label="1", color="black", style="setlinewidth(1)"];
"1727655241"[label="{{Expr\ -1:\ (b\ \<=\ 9)}|True}", color="black", fontname="Calibri", style="filled", fillcolor="white"];
"1727655241" -> "997307966"[label="1", color="black", style="setlinewidth(1)"];
"1727655241" -> "1771289257"[label="1", color="black", style="setlinewidth(1)"];
"1228459087"[label="{{Stmt\ -1:\ unsigned\ char\ b\ =\ \ (}|True}", color="black", fontname="Calibri", style="filled", fillcolor="white"];
"1228459087" -> "1727655241"[label="1", color="black", style="setlinewidth(1)"];
"1329970364" -> "1228459087"[label="1", color="black", style="setlinewidth(1)"];
"1464587156"[label="{{Stmt\ -1:\ return\ (b\ \<=\ ('f'\ -\ }|True}", color="black", fontname="Calibri", style="filled", fillcolor="white"];
"1865195542"[label="{{Function\ -1:\ bb_ascii_isxdigit}|True}", color="blue", fontname="Calibri", style="filled", fillcolor="white"];
"1464587156" -> "1865195542"[label="1", color="black", style="setlinewidth(1)"];
"417596898"[label="{{Stmt\ -1:\ return\ (b\ \<=\ 9);}|True}", color="black", fontname="Calibri", style="filled", fillcolor="white"];
"417596898" -> "1865195542"[label="1", color="black", style="setlinewidth(1)"];
"2145796884"[label="{{Stmt\ -1:\ (b\ =\ ((a\ \|\ 0x20)\ -\ '}|True}", color="black", fontname="Calibri", style="filled", fillcolor="white"];
"2145796884" -> "1464587156"[label="1", color="black", style="setlinewidth(1)"];
"1368822013"[label="{{Expr\ -1:\ (b\ \<=\ 9)}|True}", color="black", fontname="Calibri", style="filled", fillcolor="white"];
"1368822013" -> "2145796884"[label="1", color="black", style="setlinewidth(1)"];
"1368822013" -> "417596898"[label="1", color="black", style="setlinewidth(1)"];
"172744800"[label="{{Stmt\ -1:\ unsigned\ char\ b\ =\ \ (}|True}", color="black", fontname="Calibri", style="filled", fillcolor="white"];
"172744800" -> "1368822013"[label="1", color="black", style="setlinewidth(1)"];
"1865195542" -> "172744800"[label="1", color="black", style="setlinewidth(1)"];
"1496730678"[label="{{Stmt\ -1:\ (a\ -=\ ('a'\ -\ 'A'));}|True}", color="black", fontname="Calibri", style="filled", fillcolor="white"];
"2037096675"[label="{{Stmt\ -1:\ return\ a;}|True}", color="black", fontname="Calibri", style="filled", fillcolor="white"];
"1496730678" -> "2037096675"[label="1", color="black", style="setlinewidth(1)"];
"428166734"[label="{{Function\ -1:\ bb_ascii_toupper}|True}", color="blue", fontname="Calibri", style="filled", fillcolor="white"];
"2037096675" -> "428166734"[label="1", color="black", style="setlinewidth(1)"];
"1269605941"[label="{{Expr\ -1:\ (b\ \<=\ ('z'\ -\ 'a'))}|True}", color="black", fontname="Calibri", style="filled", fillcolor="white"];
"1269605941" -> "2037096675"[label="1", color="black", style="setlinewidth(1)"];
"1269605941" -> "1496730678"[label="1", color="black", style="setlinewidth(1)"];
"1992846129"[label="{{Stmt\ -1:\ unsigned\ char\ b\ =\ \ (}|True}", color="black", fontname="Calibri", style="filled", fillcolor="white"];
"1992846129" -> "1269605941"[label="1", color="black", style="setlinewidth(1)"];
"428166734" -> "1992846129"[label="1", color="black", style="setlinewidth(1)"];
"1693803282"[label="{{Stmt\ -1:\ (a\ +=\ ('a'\ -\ 'A'));}|True}", color="black", fontname="Calibri", style="filled", fillcolor="white"];
"999781201"[label="{{Stmt\ -1:\ return\ a;}|True}", color="black", fontname="Calibri", style="filled", fillcolor="white"];
"1693803282" -> "999781201"[label="1", color="black", style="setlinewidth(1)"];
"1853919145"[label="{{Function\ -1:\ bb_ascii_tolower}|True}", color="blue", fontname="Calibri", style="filled", fillcolor="white"];
"999781201" -> "1853919145"[label="1", color="black", style="setlinewidth(1)"];
"711246041"[label="{{Expr\ -1:\ (b\ \<=\ ('Z'\ -\ 'A'))}|True}", color="black", fontname="Calibri", style="filled", fillcolor="white"];
"711246041" -> "999781201"[label="1", color="black", style="setlinewidth(1)"];
"711246041" -> "1693803282"[label="1", color="black", style="setlinewidth(1)"];
"384318494"[label="{{Stmt\ -1:\ unsigned\ char\ b\ =\ \ (}|True}", color="black", fontname="Calibri", style="filled", fillcolor="white"];
"384318494" -> "711246041"[label="1", color="black", style="setlinewidth(1)"];
"1853919145" -> "384318494"[label="1", color="black", style="setlinewidth(1)"];
"1845421972"[label="{{Stmt\ -1:\ puts(\\\"Enforcing\\\");}|True}", color="black", fontname="Calibri", style="filled", fillcolor="white"];
"52130352"[label="{{Decl\ -1:\ puts}|True}", color="blue", fontname="Calibri", style="filled", fillcolor="white"];
"1845421972" -> "52130352"[label="1", color="black", style="setlinewidth(1)"];
"1128739187"[label="{{Decl\ -1:\ bb_error_msg_and_die}|True}", color="blue", fontname="Calibri", style="filled", fillcolor="white"];
"1845421972" -> "1128739187"[label="1", color="black", style="setlinewidth(1)"];
"1740715469"[label="{{Decl\ -1:\ security_getenforce}|True}", color="blue", fontname="Calibri", style="filled", fillcolor="white"];
"1845421972" -> "1740715469"[label="1", color="black", style="setlinewidth(1)"];
"2005204476"[label="{{Stmt\ -1:\ return\ 0;}|True}", color="black", fontname="Calibri", style="filled", fillcolor="white"];
"1845421972" -> "2005204476"[label="1", color="black", style="setlinewidth(1)"];
"1785660892"[label="{{Stmt\ -1:\ puts(\\\"Permissive\\\");}|True}", color="black", fontname="Calibri", style="filled", fillcolor="white"];
"1785660892" -> "52130352"[label="1", color="black", style="setlinewidth(1)"];
"1785660892" -> "1128739187"[label="1", color="black", style="setlinewidth(1)"];
"1785660892" -> "1740715469"[label="1", color="black", style="setlinewidth(1)"];
"1785660892" -> "2005204476"[label="1", color="black", style="setlinewidth(1)"];
"2095889990"[label="{{Stmt\ -1:\ bb_error_msg_and_die}|True}", color="black", fontname="Calibri", style="filled", fillcolor="white"];
"2095889990" -> "1128739187"[label="1", color="black", style="setlinewidth(1)"];
"701136762"[label="{{Expr\ 26:\ rc}|True}", color="black", fontname="Calibri", style="filled", fillcolor="white"];
"2095889990" -> "701136762"[label="1", color="black", style="setlinewidth(1)"];
"701136762" -> "1785660892"[label="1", color="black", style="setlinewidth(1)"];
"701136762" -> "1845421972"[label="1", color="black", style="setlinewidth(1)"];
"1387405626"[label="{{Expr\ -1:\ (rc\ \<\ 0)}|True}", color="black", fontname="Calibri", style="filled", fillcolor="white"];
"1387405626" -> "701136762"[label="1", color="black", style="setlinewidth(1)"];
"1387405626" -> "2095889990"[label="1", color="black", style="setlinewidth(1)"];
"416719737"[label="{{Function\ -1:\ getenforce_main}|True}", color="blue", fontname="Calibri", style="filled", fillcolor="white"];
"2005204476" -> "416719737"[label="1", color="black", style="setlinewidth(1)"];
"1920295739"[label="{{Stmt\ -1:\ (rc\ =\ security_geten}|True}", color="black", fontname="Calibri", style="filled", fillcolor="white"];
"1920295739" -> "1740715469"[label="1", color="black", style="setlinewidth(1)"];
"1920295739" -> "1387405626"[label="1", color="black", style="setlinewidth(1)"];
"1663001813"[label="{{Stmt\ -1:\ puts(\\\"Disabled\\\");}|True}", color="black", fontname="Calibri", style="filled", fillcolor="white"];
"1663001813" -> "52130352"[label="1", color="black", style="setlinewidth(1)"];
"1663001813" -> "1128739187"[label="1", color="black", style="setlinewidth(1)"];
"1663001813" -> "1740715469"[label="1", color="black", style="setlinewidth(1)"];
"1663001813" -> "2005204476"[label="1", color="black", style="setlinewidth(1)"];
"1007806776"[label="{{Stmt\ -1:\ bb_error_msg_and_die}|True}", color="black", fontname="Calibri", style="filled", fillcolor="white"];
"1007806776" -> "1128739187"[label="1", color="black", style="setlinewidth(1)"];
"17671586"[label="{{Expr\ -1:\ (rc\ ==\ 1)}|True}", color="black", fontname="Calibri", style="filled", fillcolor="white"];
"1007806776" -> "17671586"[label="1", color="black", style="setlinewidth(1)"];
"17671586" -> "1663001813"[label="1", color="black", style="setlinewidth(1)"];
"17671586" -> "1920295739"[label="1", color="black", style="setlinewidth(1)"];
"55786691"[label="{{Expr\ -1:\ (rc\ \<\ 0)}|True}", color="black", fontname="Calibri", style="filled", fillcolor="white"];
"55786691" -> "17671586"[label="1", color="black", style="setlinewidth(1)"];
"55786691" -> "1007806776"[label="1", color="black", style="setlinewidth(1)"];
"184858352"[label="{{Decl\ -1:\ is_selinux_enabled}|True}", color="blue", fontname="Calibri", style="filled", fillcolor="white"];
"1344655404"[label="{{Stmt\ -1:\ (rc\ =\ is_selinux_ena}|True}", color="black", fontname="Calibri", style="filled", fillcolor="white"];
"1344655404" -> "184858352"[label="1", color="black", style="setlinewidth(1)"];
"1344655404" -> "55786691"[label="1", color="black", style="setlinewidth(1)"];
"1243629518"[label="{{Stmt\ -1:\ int\ rc;}|True}", color="black", fontname="Calibri", style="filled", fillcolor="white"];
"1243629518" -> "1344655404"[label="1", color="black", style="setlinewidth(1)"];
"416719737" -> "1243629518"[label="1", color="black", style="setlinewidth(1)"];
}
