digraph "busybox-1.18.5/mailutils/mime.c" {
node [shape=record];
"1918689750"[label="{{Decl\ -1:\ xstrtoull_range_sfx}|True}", color="blue", fontname="Calibri", style="filled", fillcolor="white"];
"1790859751"[label="{{Stmt\ -1:\ return\ xstrtoull_ran}|True}", color="black", fontname="Calibri", style="filled", fillcolor="white"];
"1790859751" -> "1918689750"[label="1", color="black", style="setlinewidth(1)"];
"1928228501"[label="{{Function\ -1:\ xstrtoul_range_sfx}|True}", color="blue", fontname="Calibri", style="filled", fillcolor="white"];
"1790859751" -> "1928228501"[label="1", color="black", style="setlinewidth(1)"];
"1928228501" -> "1790859751"[label="1", color="black", style="setlinewidth(1)"];
"1033374612"[label="{{Decl\ -1:\ xstrtoull_range}|True}", color="blue", fontname="Calibri", style="filled", fillcolor="white"];
"1406968151"[label="{{Stmt\ -1:\ return\ xstrtoull_ran}|True}", color="black", fontname="Calibri", style="filled", fillcolor="white"];
"1406968151" -> "1033374612"[label="1", color="black", style="setlinewidth(1)"];
"910299607"[label="{{Function\ -1:\ xstrtoul_range}|True}", color="blue", fontname="Calibri", style="filled", fillcolor="white"];
"1406968151" -> "910299607"[label="1", color="black", style="setlinewidth(1)"];
"910299607" -> "1406968151"[label="1", color="black", style="setlinewidth(1)"];
"200729996"[label="{{Decl\ -1:\ xstrtoull_sfx}|True}", color="blue", fontname="Calibri", style="filled", fillcolor="white"];
"1403575067"[label="{{Stmt\ -1:\ return\ xstrtoull_sfx}|True}", color="black", fontname="Calibri", style="filled", fillcolor="white"];
"1403575067" -> "200729996"[label="1", color="black", style="setlinewidth(1)"];
"1212877220"[label="{{Function\ -1:\ xstrtoul_sfx}|True}", color="blue", fontname="Calibri", style="filled", fillcolor="white"];
"1403575067" -> "1212877220"[label="1", color="black", style="setlinewidth(1)"];
"1212877220" -> "1403575067"[label="1", color="black", style="setlinewidth(1)"];
"1961512153"[label="{{Decl\ -1:\ xstrtoull}|True}", color="blue", fontname="Calibri", style="filled", fillcolor="white"];
"1726271323"[label="{{Stmt\ -1:\ return\ xstrtoull(str}|True}", color="black", fontname="Calibri", style="filled", fillcolor="white"];
"1726271323" -> "1961512153"[label="1", color="black", style="setlinewidth(1)"];
"230787242"[label="{{Function\ -1:\ xstrtoul}|True}", color="blue", fontname="Calibri", style="filled", fillcolor="white"];
"1726271323" -> "230787242"[label="1", color="black", style="setlinewidth(1)"];
"230787242" -> "1726271323"[label="1", color="black", style="setlinewidth(1)"];
"222015130"[label="{{Decl\ -1:\ xatoull_range_sfx}|True}", color="blue", fontname="Calibri", style="filled", fillcolor="white"];
"1209627776"[label="{{Stmt\ -1:\ return\ xatoull_range}|True}", color="black", fontname="Calibri", style="filled", fillcolor="white"];
"1209627776" -> "222015130"[label="1", color="black", style="setlinewidth(1)"];
"456798594"[label="{{Function\ -1:\ xatoul_range_sfx}|True}", color="blue", fontname="Calibri", style="filled", fillcolor="white"];
"1209627776" -> "456798594"[label="1", color="black", style="setlinewidth(1)"];
"456798594" -> "1209627776"[label="1", color="black", style="setlinewidth(1)"];
"1906642101"[label="{{Decl\ -1:\ xatoull_range}|True}", color="blue", fontname="Calibri", style="filled", fillcolor="white"];
"1811173541"[label="{{Stmt\ -1:\ return\ xatoull_range}|True}", color="black", fontname="Calibri", style="filled", fillcolor="white"];
"1811173541" -> "1906642101"[label="1", color="black", style="setlinewidth(1)"];
"1183201131"[label="{{Function\ -1:\ xatoul_range}|True}", color="blue", fontname="Calibri", style="filled", fillcolor="white"];
"1811173541" -> "1183201131"[label="1", color="black", style="setlinewidth(1)"];
"1183201131" -> "1811173541"[label="1", color="black", style="setlinewidth(1)"];
"1812975325"[label="{{Decl\ -1:\ xatoull_sfx}|True}", color="blue", fontname="Calibri", style="filled", fillcolor="white"];
"4447765"[label="{{Stmt\ -1:\ return\ xatoull_sfx(s}|True}", color="black", fontname="Calibri", style="filled", fillcolor="white"];
"4447765" -> "1812975325"[label="1", color="black", style="setlinewidth(1)"];
"1434873735"[label="{{Function\ -1:\ xatoul_sfx}|True}", color="blue", fontname="Calibri", style="filled", fillcolor="white"];
"4447765" -> "1434873735"[label="1", color="black", style="setlinewidth(1)"];
"1434873735" -> "4447765"[label="1", color="black", style="setlinewidth(1)"];
"354561951"[label="{{Decl\ -1:\ xatoull}|True}", color="blue", fontname="Calibri", style="filled", fillcolor="white"];
"6036438"[label="{{Stmt\ -1:\ return\ xatoull(str);}|True}", color="black", fontname="Calibri", style="filled", fillcolor="white"];
"6036438" -> "354561951"[label="1", color="black", style="setlinewidth(1)"];
"1671828645"[label="{{Function\ -1:\ xatoul}|True}", color="blue", fontname="Calibri", style="filled", fillcolor="white"];
"6036438" -> "1671828645"[label="1", color="black", style="setlinewidth(1)"];
"1671828645" -> "6036438"[label="1", color="black", style="setlinewidth(1)"];
"1255735830"[label="{{Decl\ -1:\ xstrtoll_range_sfx}|True}", color="blue", fontname="Calibri", style="filled", fillcolor="white"];
"718699574"[label="{{Stmt\ -1:\ return\ xstrtoll_rang}|True}", color="black", fontname="Calibri", style="filled", fillcolor="white"];
"718699574" -> "1255735830"[label="1", color="black", style="setlinewidth(1)"];
"1952089565"[label="{{Function\ -1:\ xstrtol_range_sfx}|True}", color="blue", fontname="Calibri", style="filled", fillcolor="white"];
"718699574" -> "1952089565"[label="1", color="black", style="setlinewidth(1)"];
"1952089565" -> "718699574"[label="1", color="black", style="setlinewidth(1)"];
"603597777"[label="{{Decl\ -1:\ xstrtoll_range}|True}", color="blue", fontname="Calibri", style="filled", fillcolor="white"];
"14044122"[label="{{Stmt\ -1:\ return\ xstrtoll_rang}|True}", color="black", fontname="Calibri", style="filled", fillcolor="white"];
"14044122" -> "603597777"[label="1", color="black", style="setlinewidth(1)"];
"712629000"[label="{{Function\ -1:\ xstrtol_range}|True}", color="blue", fontname="Calibri", style="filled", fillcolor="white"];
"14044122" -> "712629000"[label="1", color="black", style="setlinewidth(1)"];
"712629000" -> "14044122"[label="1", color="black", style="setlinewidth(1)"];
"932141844"[label="{{Decl\ -1:\ xstrtoll}|True}", color="blue", fontname="Calibri", style="filled", fillcolor="white"];
"194832752"[label="{{Stmt\ -1:\ return\ xstrtoll(str\ }|True}", color="black", fontname="Calibri", style="filled", fillcolor="white"];
"194832752" -> "932141844"[label="1", color="black", style="setlinewidth(1)"];
"1500176858"[label="{{Function\ -1:\ xstrtol}|True}", color="blue", fontname="Calibri", style="filled", fillcolor="white"];
"194832752" -> "1500176858"[label="1", color="black", style="setlinewidth(1)"];
"1500176858" -> "194832752"[label="1", color="black", style="setlinewidth(1)"];
"1833972222"[label="{{Decl\ -1:\ xatoll_range_sfx}|True}", color="blue", fontname="Calibri", style="filled", fillcolor="white"];
"1321696488"[label="{{Stmt\ -1:\ return\ xatoll_range_}|True}", color="black", fontname="Calibri", style="filled", fillcolor="white"];
"1321696488" -> "1833972222"[label="1", color="black", style="setlinewidth(1)"];
"371205460"[label="{{Function\ -1:\ xatol_range_sfx}|True}", color="blue", fontname="Calibri", style="filled", fillcolor="white"];
"1321696488" -> "371205460"[label="1", color="black", style="setlinewidth(1)"];
"371205460" -> "1321696488"[label="1", color="black", style="setlinewidth(1)"];
"886197396"[label="{{Decl\ -1:\ xatoll_range}|True}", color="blue", fontname="Calibri", style="filled", fillcolor="white"];
"1603465720"[label="{{Stmt\ -1:\ return\ xatoll_range(}|True}", color="black", fontname="Calibri", style="filled", fillcolor="white"];
"1603465720" -> "886197396"[label="1", color="black", style="setlinewidth(1)"];
"1302272683"[label="{{Function\ -1:\ xatol_range}|True}", color="blue", fontname="Calibri", style="filled", fillcolor="white"];
"1603465720" -> "1302272683"[label="1", color="black", style="setlinewidth(1)"];
"1302272683" -> "1603465720"[label="1", color="black", style="setlinewidth(1)"];
"1011702487"[label="{{Decl\ -1:\ xatoll_sfx}|True}", color="blue", fontname="Calibri", style="filled", fillcolor="white"];
"1203832300"[label="{{Stmt\ -1:\ return\ xatoll_sfx(st}|True}", color="black", fontname="Calibri", style="filled", fillcolor="white"];
"1203832300" -> "1011702487"[label="1", color="black", style="setlinewidth(1)"];
"1726090002"[label="{{Function\ -1:\ xatol_sfx}|True}", color="blue", fontname="Calibri", style="filled", fillcolor="white"];
"1203832300" -> "1726090002"[label="1", color="black", style="setlinewidth(1)"];
"1726090002" -> "1203832300"[label="1", color="black", style="setlinewidth(1)"];
"722226418"[label="{{Decl\ -1:\ xatoll}|True}", color="blue", fontname="Calibri", style="filled", fillcolor="white"];
"365176307"[label="{{Stmt\ -1:\ return\ xatoll(str);}|True}", color="black", fontname="Calibri", style="filled", fillcolor="white"];
"365176307" -> "722226418"[label="1", color="black", style="setlinewidth(1)"];
"1331487662"[label="{{Function\ -1:\ xatol}|True}", color="blue", fontname="Calibri", style="filled", fillcolor="white"];
"365176307" -> "1331487662"[label="1", color="black", style="setlinewidth(1)"];
"1331487662" -> "365176307"[label="1", color="black", style="setlinewidth(1)"];
"6036438" -> "354561951"[label="1", color="black", style="setlinewidth(1)"];
"6036438" -> "1671828645"[label="1", color="black", style="setlinewidth(1)"];
"1671828645" -> "6036438"[label="1", color="black", style="setlinewidth(1)"];
"1679448959"[label="{{Decl\ -1:\ BUG_xatou32_unimplemented}|True}", color="blue", fontname="Calibri", style="filled", fillcolor="white"];
"1305886058"[label="{{Decl\ -1:\ xatou}|True}", color="blue", fontname="Calibri", style="filled", fillcolor="white"];
"1912542477"[label="{{Stmt\ -1:\ return\ xatoul(numstr}|True}", color="black", fontname="Calibri", style="filled", fillcolor="white"];
"1912542477" -> "1671828645"[label="1", color="black", style="setlinewidth(1)"];
"76832813"[label="{{Function\ -1:\ xatou32}|True}", color="blue", fontname="Calibri", style="filled", fillcolor="white"];
"1912542477" -> "76832813"[label="1", color="black", style="setlinewidth(1)"];
"1770316066"[label="{{Stmt\ -1:\ return\ BUG_xatou32_u}|True}", color="black", fontname="Calibri", style="filled", fillcolor="white"];
"1770316066" -> "1679448959"[label="1", color="black", style="setlinewidth(1)"];
"1770316066" -> "76832813"[label="1", color="black", style="setlinewidth(1)"];
"867124342"[label="{{Stmt\ -1:\ return\ xatou(numstr)}|True}", color="black", fontname="Calibri", style="filled", fillcolor="white"];
"867124342" -> "1305886058"[label="1", color="black", style="setlinewidth(1)"];
"867124342" -> "76832813"[label="1", color="black", style="setlinewidth(1)"];
"2005829810"[label="{{Expr\ -1:\ (((92233720368547758}|True}", color="black", fontname="Calibri", style="filled", fillcolor="white"];
"2005829810" -> "1770316066"[label="1", color="black", style="setlinewidth(1)"];
"2005829810" -> "1912542477"[label="1", color="black", style="setlinewidth(1)"];
"746168863"[label="{{Expr\ -1:\ (((2147483647\ *\ 2U)\ }|True}", color="black", fontname="Calibri", style="filled", fillcolor="white"];
"746168863" -> "2005829810"[label="1", color="black", style="setlinewidth(1)"];
"746168863" -> "867124342"[label="1", color="black", style="setlinewidth(1)"];
"76832813" -> "746168863"[label="1", color="black", style="setlinewidth(1)"];
"1780692227"[label="{{Decl\ -1:\ bb_strtoull}|True}", color="blue", fontname="Calibri", style="filled", fillcolor="white"];
"1145967339"[label="{{Stmt\ -1:\ return\ bb_strtoull(a}|True}", color="black", fontname="Calibri", style="filled", fillcolor="white"];
"1145967339" -> "1780692227"[label="1", color="black", style="setlinewidth(1)"];
"758275488"[label="{{Function\ -1:\ bb_strtoul}|True}", color="blue", fontname="Calibri", style="filled", fillcolor="white"];
"1145967339" -> "758275488"[label="1", color="black", style="setlinewidth(1)"];
"758275488" -> "1145967339"[label="1", color="black", style="setlinewidth(1)"];
"186572290"[label="{{Decl\ -1:\ bb_strtoll}|True}", color="blue", fontname="Calibri", style="filled", fillcolor="white"];
"522331624"[label="{{Stmt\ -1:\ return\ bb_strtoll(ar}|True}", color="black", fontname="Calibri", style="filled", fillcolor="white"];
"522331624" -> "186572290"[label="1", color="black", style="setlinewidth(1)"];
"519746975"[label="{{Function\ -1:\ bb_strtol}|True}", color="blue", fontname="Calibri", style="filled", fillcolor="white"];
"522331624" -> "519746975"[label="1", color="black", style="setlinewidth(1)"];
"519746975" -> "522331624"[label="1", color="black", style="setlinewidth(1)"];
"1145967339" -> "1780692227"[label="1", color="black", style="setlinewidth(1)"];
"1145967339" -> "758275488"[label="1", color="black", style="setlinewidth(1)"];
"758275488" -> "1145967339"[label="1", color="black", style="setlinewidth(1)"];
"1754866122"[label="{{Decl\ -1:\ BUG_bb_strtou32_unimplemented}|True}", color="blue", fontname="Calibri", style="filled", fillcolor="white"];
"2024330046"[label="{{Decl\ -1:\ bb_strtou}|True}", color="blue", fontname="Calibri", style="filled", fillcolor="white"];
"282523657"[label="{{Stmt\ -1:\ return\ bb_strtoul(ar}|True}", color="black", fontname="Calibri", style="filled", fillcolor="white"];
"282523657" -> "758275488"[label="1", color="black", style="setlinewidth(1)"];
"1139630149"[label="{{Function\ -1:\ bb_strtou32}|True}", color="blue", fontname="Calibri", style="filled", fillcolor="white"];
"282523657" -> "1139630149"[label="1", color="black", style="setlinewidth(1)"];
"857989457"[label="{{Stmt\ -1:\ return\ BUG_bb_strtou}|True}", color="black", fontname="Calibri", style="filled", fillcolor="white"];
"857989457" -> "1754866122"[label="1", color="black", style="setlinewidth(1)"];
"857989457" -> "1139630149"[label="1", color="black", style="setlinewidth(1)"];
"1488889057"[label="{{Stmt\ -1:\ return\ bb_strtou(arg}|True}", color="black", fontname="Calibri", style="filled", fillcolor="white"];
"1488889057" -> "2024330046"[label="1", color="black", style="setlinewidth(1)"];
"1488889057" -> "1139630149"[label="1", color="black", style="setlinewidth(1)"];
"1230333174"[label="{{Expr\ -1:\ (sizeof(uint32_t\ )\ =}|True}", color="black", fontname="Calibri", style="filled", fillcolor="white"];
"1230333174" -> "857989457"[label="1", color="black", style="setlinewidth(1)"];
"1230333174" -> "282523657"[label="1", color="black", style="setlinewidth(1)"];
"1015211830"[label="{{Expr\ -1:\ (sizeof(uint32_t\ )\ =}|True}", color="black", fontname="Calibri", style="filled", fillcolor="white"];
"1015211830" -> "1230333174"[label="1", color="black", style="setlinewidth(1)"];
"1015211830" -> "1488889057"[label="1", color="black", style="setlinewidth(1)"];
"1139630149" -> "1015211830"[label="1", color="black", style="setlinewidth(1)"];
"1354234808"[label="{{Stmt\ -1:\ return\ (b\ \<=\ ('z'\ -\ }|True}", color="black", fontname="Calibri", style="filled", fillcolor="white"];
"1496730678"[label="{{Function\ -1:\ bb_ascii_isalnum}|True}", color="blue", fontname="Calibri", style="filled", fillcolor="white"];
"1354234808" -> "1496730678"[label="1", color="black", style="setlinewidth(1)"];
"824833598"[label="{{Stmt\ -1:\ return\ (b\ \<=\ 9);}|True}", color="black", fontname="Calibri", style="filled", fillcolor="white"];
"824833598" -> "1496730678"[label="1", color="black", style="setlinewidth(1)"];
"1018231885"[label="{{Stmt\ -1:\ (b\ =\ ((a\ \|\ 0x20)\ -\ '}|True}", color="black", fontname="Calibri", style="filled", fillcolor="white"];
"1018231885" -> "1354234808"[label="1", color="black", style="setlinewidth(1)"];
"116735684"[label="{{Expr\ -1:\ (b\ \<=\ 9)}|True}", color="black", fontname="Calibri", style="filled", fillcolor="white"];
"116735684" -> "1018231885"[label="1", color="black", style="setlinewidth(1)"];
"116735684" -> "824833598"[label="1", color="black", style="setlinewidth(1)"];
"1266836731"[label="{{Stmt\ -1:\ unsigned\ char\ b\ =\ \ (}|True}", color="black", fontname="Calibri", style="filled", fillcolor="white"];
"1266836731" -> "116735684"[label="1", color="black", style="setlinewidth(1)"];
"1496730678" -> "1266836731"[label="1", color="black", style="setlinewidth(1)"];
"1243629518"[label="{{Stmt\ -1:\ return\ (b\ \<=\ ('f'\ -\ }|True}", color="black", fontname="Calibri", style="filled", fillcolor="white"];
"1016598734"[label="{{Function\ -1:\ bb_ascii_isxdigit}|True}", color="blue", fontname="Calibri", style="filled", fillcolor="white"];
"1243629518" -> "1016598734"[label="1", color="black", style="setlinewidth(1)"];
"1869444332"[label="{{Stmt\ -1:\ return\ (b\ \<=\ 9);}|True}", color="black", fontname="Calibri", style="filled", fillcolor="white"];
"1869444332" -> "1016598734"[label="1", color="black", style="setlinewidth(1)"];
"1761753481"[label="{{Stmt\ -1:\ (b\ =\ ((a\ \|\ 0x20)\ -\ '}|True}", color="black", fontname="Calibri", style="filled", fillcolor="white"];
"1761753481" -> "1243629518"[label="1", color="black", style="setlinewidth(1)"];
"121581329"[label="{{Expr\ -1:\ (b\ \<=\ 9)}|True}", color="black", fontname="Calibri", style="filled", fillcolor="white"];
"121581329" -> "1761753481"[label="1", color="black", style="setlinewidth(1)"];
"121581329" -> "1869444332"[label="1", color="black", style="setlinewidth(1)"];
"1305029624"[label="{{Stmt\ -1:\ unsigned\ char\ b\ =\ \ (}|True}", color="black", fontname="Calibri", style="filled", fillcolor="white"];
"1305029624" -> "121581329"[label="1", color="black", style="setlinewidth(1)"];
"1016598734" -> "1305029624"[label="1", color="black", style="setlinewidth(1)"];
"1915810907"[label="{{Stmt\ -1:\ (a\ -=\ ('a'\ -\ 'A'));}|True}", color="black", fontname="Calibri", style="filled", fillcolor="white"];
"2048253430"[label="{{Stmt\ -1:\ return\ a;}|True}", color="black", fontname="Calibri", style="filled", fillcolor="white"];
"1915810907" -> "2048253430"[label="1", color="black", style="setlinewidth(1)"];
"1410715537"[label="{{Function\ -1:\ bb_ascii_toupper}|True}", color="blue", fontname="Calibri", style="filled", fillcolor="white"];
"2048253430" -> "1410715537"[label="1", color="black", style="setlinewidth(1)"];
"748917056"[label="{{Expr\ -1:\ (b\ \<=\ ('z'\ -\ 'a'))}|True}", color="black", fontname="Calibri", style="filled", fillcolor="white"];
"748917056" -> "2048253430"[label="1", color="black", style="setlinewidth(1)"];
"748917056" -> "1915810907"[label="1", color="black", style="setlinewidth(1)"];
"720312707"[label="{{Stmt\ -1:\ unsigned\ char\ b\ =\ \ (}|True}", color="black", fontname="Calibri", style="filled", fillcolor="white"];
"720312707" -> "748917056"[label="1", color="black", style="setlinewidth(1)"];
"1410715537" -> "720312707"[label="1", color="black", style="setlinewidth(1)"];
"306958518"[label="{{Stmt\ -1:\ (a\ +=\ ('a'\ -\ 'A'));}|True}", color="black", fontname="Calibri", style="filled", fillcolor="white"];
"885598175"[label="{{Stmt\ -1:\ return\ a;}|True}", color="black", fontname="Calibri", style="filled", fillcolor="white"];
"306958518" -> "885598175"[label="1", color="black", style="setlinewidth(1)"];
"1586675995"[label="{{Function\ -1:\ bb_ascii_tolower}|True}", color="blue", fontname="Calibri", style="filled", fillcolor="white"];
"885598175" -> "1586675995"[label="1", color="black", style="setlinewidth(1)"];
"961373265"[label="{{Expr\ -1:\ (b\ \<=\ ('Z'\ -\ 'A'))}|True}", color="black", fontname="Calibri", style="filled", fillcolor="white"];
"961373265" -> "885598175"[label="1", color="black", style="setlinewidth(1)"];
"961373265" -> "306958518"[label="1", color="black", style="setlinewidth(1)"];
"2005204476"[label="{{Stmt\ -1:\ unsigned\ char\ b\ =\ \ (}|True}", color="black", fontname="Calibri", style="filled", fillcolor="white"];
"2005204476" -> "961373265"[label="1", color="black", style="setlinewidth(1)"];
"1586675995" -> "2005204476"[label="1", color="black", style="setlinewidth(1)"];
"425046508"[label="{{Decl\ -1:\ encode_base64}|True}", color="blue", fontname="Calibri", style="filled", fillcolor="white"];
"306824177"[label="{{Stmt\ -1:\ return\ 0;}|True}", color="black", fontname="Calibri", style="filled", fillcolor="white"];
"1425924540"[label="{{Function\ -1:\ makemime_main}|True}", color="blue", fontname="Calibri", style="filled", fillcolor="white"];
"306824177" -> "1425924540"[label="1", color="black", style="setlinewidth(1)"];
"1755023247"[label="{{Stmt\ -1:\ encode_base64((*argv}|True}", color="black", fontname="Calibri", style="filled", fillcolor="white"];
"1755023247" -> "425046508"[label="1", color="black", style="setlinewidth(1)"];
"849240308"[label="{{Decl\ -1:\ printf}|True}", color="blue", fontname="Calibri", style="filled", fillcolor="white"];
"1755023247" -> "849240308"[label="1", color="black", style="setlinewidth(1)"];
"321239767"[label="{{Expr\ -1:\ (*argv)}|True}", color="black", fontname="Calibri", style="filled", fillcolor="white"];
"1755023247" -> "321239767"[label="1", color="black", style="setlinewidth(1)"];
"224457113"[label="{{Stmt\ -1:\ printf(\\\"\n--%s--\n\\\"\ }|True}", color="black", fontname="Calibri", style="filled", fillcolor="white"];
"224457113" -> "849240308"[label="1", color="black", style="setlinewidth(1)"];
"224457113" -> "306824177"[label="1", color="black", style="setlinewidth(1)"];
"2144359765"[label="{{Stmt\ -1:\ printf(\\\"\n--%s\n\\\"\ \\\"C}|True}", color="black", fontname="Calibri", style="filled", fillcolor="white"];
"2144359765" -> "849240308"[label="1", color="black", style="setlinewidth(1)"];
"2144359765" -> "1755023247"[label="1", color="black", style="setlinewidth(1)"];
"321239767" -> "2144359765"[label="1", color="black", style="setlinewidth(1)"];
"321239767" -> "224457113"[label="1", color="black", style="setlinewidth(1)"];
"354861512"[label="{{Stmt\ -1:\ printf(\\\"Mime-Version}|True}", color="black", fontname="Calibri", style="filled", fillcolor="white"];
"354861512" -> "849240308"[label="1", color="black", style="setlinewidth(1)"];
"354861512" -> "321239767"[label="1", color="black", style="setlinewidth(1)"];
"245842285"[label="{{Decl\ -1:\ xasprintf}|True}", color="blue", fontname="Calibri", style="filled", fillcolor="white"];
"2000043926"[label="{{Expr\ -1:\ (l\ =\ l-\>link)}|True}", color="black", fontname="Calibri", style="filled", fillcolor="white"];
"1141186"[label="{{Expr\ 140:\ l}|True}", color="black", fontname="Calibri", style="filled", fillcolor="white"];
"2000043926" -> "1141186"[label="1", color="black", style="setlinewidth(1)"];
"814021362"[label="{{Decl\ -1:\ puts}|True}", color="blue", fontname="Calibri", style="filled", fillcolor="white"];
"354141487"[label="{{Stmt\ -1:\ (opt_output\ =\ xaspri}|True}", color="black", fontname="Calibri", style="filled", fillcolor="white"];
"354141487" -> "245842285"[label="1", color="black", style="setlinewidth(1)"];
"354141487" -> "354861512"[label="1", color="black", style="setlinewidth(1)"];
"599035542"[label="{{Decl\ -1:\ srand}|True}", color="blue", fontname="Calibri", style="filled", fillcolor="white"];
"1955893938"[label="{{Stmt\ -1:\ puts(l-\>data);}|True}", color="black", fontname="Calibri", style="filled", fillcolor="white"];
"1955893938" -> "814021362"[label="1", color="black", style="setlinewidth(1)"];
"1955893938" -> "2000043926"[label="1", color="black", style="setlinewidth(1)"];
"133851699"[label="{{Stmt\ -1:\ srand(monotonic_us()}|True}", color="black", fontname="Calibri", style="filled", fillcolor="white"];
"133851699" -> "599035542"[label="1", color="black", style="setlinewidth(1)"];
"133851699" -> "354141487"[label="1", color="black", style="setlinewidth(1)"];
"1141186" -> "133851699"[label="1", color="black", style="setlinewidth(1)"];
"1141186" -> "1955893938"[label="1", color="black", style="setlinewidth(1)"];
"1316626556"[label="{{Decl\ -1:\ freopen}|True}", color="blue", fontname="Calibri", style="filled", fillcolor="white"];
"400028905"[label="{{Stmt\ -1:\ ((*--argv)\ =\ ((char\ }|True}", color="black", fontname="Calibri", style="filled", fillcolor="white"];
"700876482"[label="{{Expr\ -1:\ (l\ =\ opt_headers)}|True}", color="black", fontname="Calibri", style="filled", fillcolor="white"];
"400028905" -> "700876482"[label="1", color="black", style="setlinewidth(1)"];
"700876482" -> "1141186"[label="1", color="black", style="setlinewidth(1)"];
"717675831"[label="{{Stmt\ -1:\ freopen(opt_output\ ,}|True}", color="black", fontname="Calibri", style="filled", fillcolor="white"];
"717675831" -> "1316626556"[label="1", color="black", style="setlinewidth(1)"];
"326889406"[label="{{Expr\ -1:\ (!\ (*argv))}|True}", color="black", fontname="Calibri", style="filled", fillcolor="white"];
"717675831" -> "326889406"[label="1", color="black", style="setlinewidth(1)"];
"326889406" -> "700876482"[label="1", color="black", style="setlinewidth(1)"];
"326889406" -> "400028905"[label="1", color="black", style="setlinewidth(1)"];
"422001849"[label="{{Expr\ -1:\ ((*ptr_to_globals).o}|True}", color="black", fontname="Calibri", style="filled", fillcolor="white"];
"422001849" -> "326889406"[label="1", color="black", style="setlinewidth(1)"];
"422001849" -> "717675831"[label="1", color="black", style="setlinewidth(1)"];
"558863646"[label="{{Stmt\ -1:\ (argv\ +=\ optind);}|True}", color="black", fontname="Calibri", style="filled", fillcolor="white"];
"558863646" -> "422001849"[label="1", color="black", style="setlinewidth(1)"];
"1768229182"[label="{{Decl\ -1:\ getopt32}|True}", color="blue", fontname="Calibri", style="filled", fillcolor="white"];
"975616506"[label="{{Stmt\ -1:\ ((*ptr_to_globals).o}|True}", color="black", fontname="Calibri", style="filled", fillcolor="white"];
"975616506" -> "1768229182"[label="1", color="black", style="setlinewidth(1)"];
"975616506" -> "558863646"[label="1", color="black", style="setlinewidth(1)"];
"693473428"[label="{{Stmt\ -1:\ (opt_complementary\ =}|True}", color="black", fontname="Calibri", style="filled", fillcolor="white"];
"693473428" -> "975616506"[label="1", color="black", style="setlinewidth(1)"];
"775252676"[label="{{Expr\ 21:\ 0}|True}", color="black", fontname="Calibri", style="filled", fillcolor="white"];
"867354536"[label="{{Stmt\ -1:\ ((*((struct\ globals\ }|True}", color="black", fontname="Calibri", style="filled", fillcolor="white"];
"775252676" -> "867354536"[label="1", color="black", style="setlinewidth(1)"];
"775252676" -> "693473428"[label="1", color="black", style="setlinewidth(1)"];
"2144277938"[label="{{Stmt\ -1:\ ((*ptr_to_globals).c}|True}", color="black", fontname="Calibri", style="filled", fillcolor="white"];
"194221374"[label="{{Decl\ -1:\ xzalloc}|True}", color="blue", fontname="Calibri", style="filled", fillcolor="white"];
"2144277938" -> "194221374"[label="1", color="black", style="setlinewidth(1)"];
"2144277938" -> "775252676"[label="1", color="black", style="setlinewidth(1)"];
"2134399153"[label="{{Stmt\ -1:\ ((*ptr_to_globals).o}|True}", color="black", fontname="Calibri", style="filled", fillcolor="white"];
"2134399153" -> "2144277938"[label="1", color="black", style="setlinewidth(1)"];
"1313558536"[label="{{Expr\ 1637:\ 0}|True}", color="black", fontname="Calibri", style="filled", fillcolor="white"];
"1313558536" -> "867354536"[label="1", color="black", style="setlinewidth(1)"];
"1313558536" -> "2134399153"[label="1", color="black", style="setlinewidth(1)"];
"1486198786"[label="{{Stmt\ -1:\ asm\ volatile\ (\\\"\\\");}|True}", color="black", fontname="Calibri", style="filled", fillcolor="white"];
"1486198786" -> "194221374"[label="1", color="black", style="setlinewidth(1)"];
"1486198786" -> "1313558536"[label="1", color="black", style="setlinewidth(1)"];
"867354536" -> "194221374"[label="1", color="black", style="setlinewidth(1)"];
"867354536" -> "1486198786"[label="1", color="black", style="setlinewidth(1)"];
"938750733"[label="{{Stmt\ -1:\ enum\ \ \{\l\ \ OPT_c\ =\ (1}|True}", color="black", fontname="Calibri", style="filled", fillcolor="white"];
"938750733" -> "867354536"[label="1", color="black", style="setlinewidth(1)"];
"654842001"[label="{{Stmt\ -1:\ const\ char\ *opt_outp}|True}", color="black", fontname="Calibri", style="filled", fillcolor="white"];
"654842001" -> "938750733"[label="1", color="black", style="setlinewidth(1)"];
"2144584715"[label="{{Stmt\ -1:\ llist_t\ *opt_headers}|True}", color="black", fontname="Calibri", style="filled", fillcolor="white"];
"2144584715" -> "654842001"[label="1", color="black", style="setlinewidth(1)"];
"1425924540" -> "2144584715"[label="1", color="black", style="setlinewidth(1)"];
"1446460734"[label="{{Decl\ -1:\ strcasecmp}|True}", color="blue", fontname="Calibri", style="filled", fillcolor="white"];
"1700812099"[label="{{Stmt\ -1:\ return\ (r\ ?\ r\ :\ defv}|True}", color="black", fontname="Calibri", style="filled", fillcolor="white"];
"1270080542"[label="{{Function\ -1:\ find_token}|True}", color="blue", fontname="Calibri", style="filled", fillcolor="white"];
"1700812099" -> "1270080542"[label="1", color="black", style="setlinewidth(1)"];
"1482221025"[label="{{Expr\ -1:\ (string_array[i]\ !=\ }|True}", color="black", fontname="Calibri", style="filled", fillcolor="white"];
"1482221025" -> "1700812099"[label="1", color="black", style="setlinewidth(1)"];
"1482221025" -> "1446460734"[label="1", color="black", style="setlinewidth(1)"];
"406910720"[label="{{Expr\ -1:\ (i\ =\ 0)}|True}", color="black", fontname="Calibri", style="filled", fillcolor="white"];
"406910720" -> "1482221025"[label="1", color="black", style="setlinewidth(1)"];
"189487829"[label="{{Stmt\ -1:\ int\ i;}|True}", color="black", fontname="Calibri", style="filled", fillcolor="white"];
"189487829" -> "406910720"[label="1", color="black", style="setlinewidth(1)"];
"59619033"[label="{{Stmt\ -1:\ const\ char\ *r\ =\ \ ((v}|True}", color="black", fontname="Calibri", style="filled", fillcolor="white"];
"59619033" -> "189487829"[label="1", color="black", style="setlinewidth(1)"];
"1270080542" -> "59619033"[label="1", color="black", style="setlinewidth(1)"];
"1700812099" -> "1270080542"[label="1", color="black", style="setlinewidth(1)"];
"1482221025" -> "1700812099"[label="1", color="black", style="setlinewidth(1)"];
"1482221025" -> "1446460734"[label="1", color="black", style="setlinewidth(1)"];
"406910720" -> "1482221025"[label="1", color="black", style="setlinewidth(1)"];
"1746515998"[label="{{Decl\ -1:\ bb_error_msg_and_die}|True}", color="blue", fontname="Calibri", style="filled", fillcolor="white"];
"189487829" -> "406910720"[label="1", color="black", style="setlinewidth(1)"];
"1770812714"[label="{{Stmt\ -1:\ return\ r;}|True}", color="black", fontname="Calibri", style="filled", fillcolor="white"];
"733200009"[label="{{Function\ -1:\ xfind_token}|True}", color="blue", fontname="Calibri", style="filled", fillcolor="white"];
"1770812714" -> "733200009"[label="1", color="black", style="setlinewidth(1)"];
"1321469597"[label="{{Stmt\ -1:\ bb_error_msg_and_die}|True}", color="black", fontname="Calibri", style="filled", fillcolor="white"];
"1321469597" -> "1746515998"[label="1", color="black", style="setlinewidth(1)"];
"1321469597" -> "1270080542"[label="1", color="black", style="setlinewidth(1)"];
"1321469597" -> "733200009"[label="1", color="black", style="setlinewidth(1)"];
"59619033" -> "189487829"[label="1", color="black", style="setlinewidth(1)"];
"998507149"[label="{{Expr\ 193:\ r}|True}", color="black", fontname="Calibri", style="filled", fillcolor="white"];
"998507149" -> "1321469597"[label="1", color="black", style="setlinewidth(1)"];
"998507149" -> "1770812714"[label="1", color="black", style="setlinewidth(1)"];
"1270080542" -> "59619033"[label="1", color="black", style="setlinewidth(1)"];
"312621992"[label="{{Stmt\ -1:\ const\ char\ *r\ =\ \ fin}|True}", color="black", fontname="Calibri", style="filled", fillcolor="white"];
"312621992" -> "1270080542"[label="1", color="black", style="setlinewidth(1)"];
"312621992" -> "998507149"[label="1", color="black", style="setlinewidth(1)"];
"733200009" -> "312621992"[label="1", color="black", style="setlinewidth(1)"];
"1815569855"[label="{{Decl\ -1:\ xmalloc_fgets_str}|True}", color="blue", fontname="Calibri", style="filled", fillcolor="white"];
"1558039573"[label="{{Stmt\ -1:\ (uniq\ =\ xasprintf(\\\"%}|True}", color="black", fontname="Calibri", style="filled", fillcolor="white"];
"1558039573" -> "245842285"[label="1", color="black", style="setlinewidth(1)"];
"1558039573" -> "1815569855"[label="1", color="black", style="setlinewidth(1)"];
"2107001715"[label="{{Stmt\ -1:\ const\ char\ *tokens[3}|True}", color="black", fontname="Calibri", style="filled", fillcolor="white"];
"2107001715" -> "1558039573"[label="1", color="black", style="setlinewidth(1)"];
"1202055717"[label="{{Stmt\ -1:\ int\ ntokens;}|True}", color="black", fontname="Calibri", style="filled", fillcolor="white"];
"1202055717" -> "2107001715"[label="1", color="black", style="setlinewidth(1)"];
"1792027802"[label="{{Stmt\ -1:\ const\ char\ *uniq;}|True}", color="black", fontname="Calibri", style="filled", fillcolor="white"];
"1792027802" -> "1202055717"[label="1", color="black", style="setlinewidth(1)"];
"1824810329"[label="{{Stmt\ -1:\ const\ char\ *delims\ =}|True}", color="black", fontname="Calibri", style="filled", fillcolor="white"];
"1824810329" -> "1792027802"[label="1", color="black", style="setlinewidth(1)"];
"1848274437"[label="{{Decl\ -1:\ strlen}|True}", color="blue", fontname="Calibri", style="filled", fillcolor="white"];
"928951365"[label="{{Stmt\ -1:\ int\ boundary_len\ =\ \ }|True}", color="black", fontname="Calibri", style="filled", fillcolor="white"];
"928951365" -> "1848274437"[label="1", color="black", style="setlinewidth(1)"];
"928951365" -> "1824810329"[label="1", color="black", style="setlinewidth(1)"];
"1737598137"[label="{{Stmt\ -1:\ const\ char\ *type;}|True}", color="black", fontname="Calibri", style="filled", fillcolor="white"];
"1737598137" -> "928951365"[label="1", color="black", style="setlinewidth(1)"];
"1782899135"[label="{{Stmt\ -1:\ char\ *line,\ *s,\ *p;}|True}", color="black", fontname="Calibri", style="filled", fillcolor="white"];
"1782899135" -> "1737598137"[label="1", color="black", style="setlinewidth(1)"];
"417054766"[label="{{Function\ -1:\ parse}|True}", color="blue", fontname="Calibri", style="filled", fillcolor="white"];
"417054766" -> "1782899135"[label="1", color="black", style="setlinewidth(1)"];
"1558039573" -> "245842285"[label="1", color="black", style="setlinewidth(1)"];
"1558039573" -> "1815569855"[label="1", color="black", style="setlinewidth(1)"];
"2107001715" -> "1558039573"[label="1", color="black", style="setlinewidth(1)"];
"1202055717" -> "2107001715"[label="1", color="black", style="setlinewidth(1)"];
"1792027802" -> "1202055717"[label="1", color="black", style="setlinewidth(1)"];
"1824810329" -> "1792027802"[label="1", color="black", style="setlinewidth(1)"];
"928951365" -> "1848274437"[label="1", color="black", style="setlinewidth(1)"];
"928951365" -> "1824810329"[label="1", color="black", style="setlinewidth(1)"];
"1737598137" -> "928951365"[label="1", color="black", style="setlinewidth(1)"];
"1782899135" -> "1737598137"[label="1", color="black", style="setlinewidth(1)"];
"417054766" -> "1782899135"[label="1", color="black", style="setlinewidth(1)"];
"1526396882"[label="{{Stmt\ -1:\ return\ parse(\\\"\\\"\ ,\ ((}|True}", color="black", fontname="Calibri", style="filled", fillcolor="white"];
"1526396882" -> "417054766"[label="1", color="black", style="setlinewidth(1)"];
"610358457"[label="{{Function\ -1:\ reformime_main}|True}", color="blue", fontname="Calibri", style="filled", fillcolor="white"];
"1526396882" -> "610358457"[label="1", color="black", style="setlinewidth(1)"];
"1901500342"[label="{{Stmt\ -1:\ (argv\ +=\ optind);}|True}", color="black", fontname="Calibri", style="filled", fillcolor="white"];
"1901500342" -> "1526396882"[label="1", color="black", style="setlinewidth(1)"];
"1048283860"[label="{{Stmt\ -1:\ ((*ptr_to_globals).o}|True}", color="black", fontname="Calibri", style="filled", fillcolor="white"];
"1048283860" -> "1768229182"[label="1", color="black", style="setlinewidth(1)"];
"1048283860" -> "1901500342"[label="1", color="black", style="setlinewidth(1)"];
"1977346097"[label="{{Stmt\ -1:\ (opt_complementary\ =}|True}", color="black", fontname="Calibri", style="filled", fillcolor="white"];
"1977346097" -> "1048283860"[label="1", color="black", style="setlinewidth(1)"];
"777873844"[label="{{Expr\ 21:\ 0}|True}", color="black", fontname="Calibri", style="filled", fillcolor="white"];
"2098164637"[label="{{Stmt\ -1:\ ((*((struct\ globals\ }|True}", color="black", fontname="Calibri", style="filled", fillcolor="white"];
"777873844" -> "2098164637"[label="1", color="black", style="setlinewidth(1)"];
"777873844" -> "1977346097"[label="1", color="black", style="setlinewidth(1)"];
"691588492"[label="{{Stmt\ -1:\ ((*ptr_to_globals).c}|True}", color="black", fontname="Calibri", style="filled", fillcolor="white"];
"691588492" -> "194221374"[label="1", color="black", style="setlinewidth(1)"];
"691588492" -> "777873844"[label="1", color="black", style="setlinewidth(1)"];
"1569132288"[label="{{Stmt\ -1:\ ((*ptr_to_globals).o}|True}", color="black", fontname="Calibri", style="filled", fillcolor="white"];
"1569132288" -> "691588492"[label="1", color="black", style="setlinewidth(1)"];
"975531064"[label="{{Expr\ 1637:\ 0}|True}", color="black", fontname="Calibri", style="filled", fillcolor="white"];
"975531064" -> "2098164637"[label="1", color="black", style="setlinewidth(1)"];
"975531064" -> "1569132288"[label="1", color="black", style="setlinewidth(1)"];
"130310472"[label="{{Stmt\ -1:\ asm\ volatile\ (\\\"\\\");}|True}", color="black", fontname="Calibri", style="filled", fillcolor="white"];
"130310472" -> "194221374"[label="1", color="black", style="setlinewidth(1)"];
"130310472" -> "975531064"[label="1", color="black", style="setlinewidth(1)"];
"2098164637" -> "194221374"[label="1", color="black", style="setlinewidth(1)"];
"2098164637" -> "130310472"[label="1", color="black", style="setlinewidth(1)"];
"618738072"[label="{{Stmt\ -1:\ const\ char\ *opt_pref}|True}", color="black", fontname="Calibri", style="filled", fillcolor="white"];
"618738072" -> "2098164637"[label="1", color="black", style="setlinewidth(1)"];
"610358457" -> "618738072"[label="1", color="black", style="setlinewidth(1)"];
}
