digraph "busybox-1.18.5/util-linux/volume_id/cramfs.c" {
node [shape=record];
"2023231351"[label="{{Decl\ -1:\ xstrtoull_range_sfx}|True}", color="blue", fontname="Calibri", style="filled", fillcolor="white"];
"1346455764"[label="{{Stmt\ -1:\ return\ xstrtoull_ran}|True}", color="black", fontname="Calibri", style="filled", fillcolor="white"];
"1346455764" -> "2023231351"[label="1", color="black", style="setlinewidth(1)"];
"14267475"[label="{{Function\ -1:\ xstrtoul_range_sfx}|True}", color="blue", fontname="Calibri", style="filled", fillcolor="white"];
"1346455764" -> "14267475"[label="1", color="black", style="setlinewidth(1)"];
"14267475" -> "1346455764"[label="1", color="black", style="setlinewidth(1)"];
"529388991"[label="{{Decl\ -1:\ xstrtoull_range}|True}", color="blue", fontname="Calibri", style="filled", fillcolor="white"];
"1499207751"[label="{{Stmt\ -1:\ return\ xstrtoull_ran}|True}", color="black", fontname="Calibri", style="filled", fillcolor="white"];
"1499207751" -> "529388991"[label="1", color="black", style="setlinewidth(1)"];
"1414258346"[label="{{Function\ -1:\ xstrtoul_range}|True}", color="blue", fontname="Calibri", style="filled", fillcolor="white"];
"1499207751" -> "1414258346"[label="1", color="black", style="setlinewidth(1)"];
"1414258346" -> "1499207751"[label="1", color="black", style="setlinewidth(1)"];
"302656116"[label="{{Decl\ -1:\ xstrtoull_sfx}|True}", color="blue", fontname="Calibri", style="filled", fillcolor="white"];
"1371831541"[label="{{Stmt\ -1:\ return\ xstrtoull_sfx}|True}", color="black", fontname="Calibri", style="filled", fillcolor="white"];
"1371831541" -> "302656116"[label="1", color="black", style="setlinewidth(1)"];
"1511949003"[label="{{Function\ -1:\ xstrtoul_sfx}|True}", color="blue", fontname="Calibri", style="filled", fillcolor="white"];
"1371831541" -> "1511949003"[label="1", color="black", style="setlinewidth(1)"];
"1511949003" -> "1371831541"[label="1", color="black", style="setlinewidth(1)"];
"228537235"[label="{{Decl\ -1:\ xstrtoull}|True}", color="blue", fontname="Calibri", style="filled", fillcolor="white"];
"530669521"[label="{{Stmt\ -1:\ return\ xstrtoull(str}|True}", color="black", fontname="Calibri", style="filled", fillcolor="white"];
"530669521" -> "228537235"[label="1", color="black", style="setlinewidth(1)"];
"2017808525"[label="{{Function\ -1:\ xstrtoul}|True}", color="blue", fontname="Calibri", style="filled", fillcolor="white"];
"530669521" -> "2017808525"[label="1", color="black", style="setlinewidth(1)"];
"2017808525" -> "530669521"[label="1", color="black", style="setlinewidth(1)"];
"1667524486"[label="{{Decl\ -1:\ xatoull_range_sfx}|True}", color="blue", fontname="Calibri", style="filled", fillcolor="white"];
"389182681"[label="{{Stmt\ -1:\ return\ xatoull_range}|True}", color="black", fontname="Calibri", style="filled", fillcolor="white"];
"389182681" -> "1667524486"[label="1", color="black", style="setlinewidth(1)"];
"649262877"[label="{{Function\ -1:\ xatoul_range_sfx}|True}", color="blue", fontname="Calibri", style="filled", fillcolor="white"];
"389182681" -> "649262877"[label="1", color="black", style="setlinewidth(1)"];
"649262877" -> "389182681"[label="1", color="black", style="setlinewidth(1)"];
"1234410895"[label="{{Decl\ -1:\ xatoull_range}|True}", color="blue", fontname="Calibri", style="filled", fillcolor="white"];
"288874157"[label="{{Stmt\ -1:\ return\ xatoull_range}|True}", color="black", fontname="Calibri", style="filled", fillcolor="white"];
"288874157" -> "1234410895"[label="1", color="black", style="setlinewidth(1)"];
"468373365"[label="{{Function\ -1:\ xatoul_range}|True}", color="blue", fontname="Calibri", style="filled", fillcolor="white"];
"288874157" -> "468373365"[label="1", color="black", style="setlinewidth(1)"];
"468373365" -> "288874157"[label="1", color="black", style="setlinewidth(1)"];
"219963551"[label="{{Decl\ -1:\ xatoull_sfx}|True}", color="blue", fontname="Calibri", style="filled", fillcolor="white"];
"1553588734"[label="{{Stmt\ -1:\ return\ xatoull_sfx(s}|True}", color="black", fontname="Calibri", style="filled", fillcolor="white"];
"1553588734" -> "219963551"[label="1", color="black", style="setlinewidth(1)"];
"735796247"[label="{{Function\ -1:\ xatoul_sfx}|True}", color="blue", fontname="Calibri", style="filled", fillcolor="white"];
"1553588734" -> "735796247"[label="1", color="black", style="setlinewidth(1)"];
"735796247" -> "1553588734"[label="1", color="black", style="setlinewidth(1)"];
"2108022203"[label="{{Decl\ -1:\ xatoull}|True}", color="blue", fontname="Calibri", style="filled", fillcolor="white"];
"1634243527"[label="{{Stmt\ -1:\ return\ xatoull(str);}|True}", color="black", fontname="Calibri", style="filled", fillcolor="white"];
"1634243527" -> "2108022203"[label="1", color="black", style="setlinewidth(1)"];
"331684261"[label="{{Function\ -1:\ xatoul}|True}", color="blue", fontname="Calibri", style="filled", fillcolor="white"];
"1634243527" -> "331684261"[label="1", color="black", style="setlinewidth(1)"];
"331684261" -> "1634243527"[label="1", color="black", style="setlinewidth(1)"];
"409304447"[label="{{Decl\ -1:\ xstrtoll_range_sfx}|True}", color="blue", fontname="Calibri", style="filled", fillcolor="white"];
"1733787572"[label="{{Stmt\ -1:\ return\ xstrtoll_rang}|True}", color="black", fontname="Calibri", style="filled", fillcolor="white"];
"1733787572" -> "409304447"[label="1", color="black", style="setlinewidth(1)"];
"1135424415"[label="{{Function\ -1:\ xstrtol_range_sfx}|True}", color="blue", fontname="Calibri", style="filled", fillcolor="white"];
"1733787572" -> "1135424415"[label="1", color="black", style="setlinewidth(1)"];
"1135424415" -> "1733787572"[label="1", color="black", style="setlinewidth(1)"];
"530217944"[label="{{Decl\ -1:\ xstrtoll_range}|True}", color="blue", fontname="Calibri", style="filled", fillcolor="white"];
"1565250522"[label="{{Stmt\ -1:\ return\ xstrtoll_rang}|True}", color="black", fontname="Calibri", style="filled", fillcolor="white"];
"1565250522" -> "530217944"[label="1", color="black", style="setlinewidth(1)"];
"899790218"[label="{{Function\ -1:\ xstrtol_range}|True}", color="blue", fontname="Calibri", style="filled", fillcolor="white"];
"1565250522" -> "899790218"[label="1", color="black", style="setlinewidth(1)"];
"899790218" -> "1565250522"[label="1", color="black", style="setlinewidth(1)"];
"1953003375"[label="{{Decl\ -1:\ xstrtoll}|True}", color="blue", fontname="Calibri", style="filled", fillcolor="white"];
"833022628"[label="{{Stmt\ -1:\ return\ xstrtoll(str\ }|True}", color="black", fontname="Calibri", style="filled", fillcolor="white"];
"833022628" -> "1953003375"[label="1", color="black", style="setlinewidth(1)"];
"1645596997"[label="{{Function\ -1:\ xstrtol}|True}", color="blue", fontname="Calibri", style="filled", fillcolor="white"];
"833022628" -> "1645596997"[label="1", color="black", style="setlinewidth(1)"];
"1645596997" -> "833022628"[label="1", color="black", style="setlinewidth(1)"];
"66614051"[label="{{Decl\ -1:\ xatoll_range_sfx}|True}", color="blue", fontname="Calibri", style="filled", fillcolor="white"];
"451125025"[label="{{Stmt\ -1:\ return\ xatoll_range_}|True}", color="black", fontname="Calibri", style="filled", fillcolor="white"];
"451125025" -> "66614051"[label="1", color="black", style="setlinewidth(1)"];
"388628425"[label="{{Function\ -1:\ xatol_range_sfx}|True}", color="blue", fontname="Calibri", style="filled", fillcolor="white"];
"451125025" -> "388628425"[label="1", color="black", style="setlinewidth(1)"];
"388628425" -> "451125025"[label="1", color="black", style="setlinewidth(1)"];
"1681448166"[label="{{Decl\ -1:\ xatoll_range}|True}", color="blue", fontname="Calibri", style="filled", fillcolor="white"];
"1065701600"[label="{{Stmt\ -1:\ return\ xatoll_range(}|True}", color="black", fontname="Calibri", style="filled", fillcolor="white"];
"1065701600" -> "1681448166"[label="1", color="black", style="setlinewidth(1)"];
"1157653786"[label="{{Function\ -1:\ xatol_range}|True}", color="blue", fontname="Calibri", style="filled", fillcolor="white"];
"1065701600" -> "1157653786"[label="1", color="black", style="setlinewidth(1)"];
"1157653786" -> "1065701600"[label="1", color="black", style="setlinewidth(1)"];
"1536261041"[label="{{Decl\ -1:\ xatoll_sfx}|True}", color="blue", fontname="Calibri", style="filled", fillcolor="white"];
"1169476611"[label="{{Stmt\ -1:\ return\ xatoll_sfx(st}|True}", color="black", fontname="Calibri", style="filled", fillcolor="white"];
"1169476611" -> "1536261041"[label="1", color="black", style="setlinewidth(1)"];
"1254704281"[label="{{Function\ -1:\ xatol_sfx}|True}", color="blue", fontname="Calibri", style="filled", fillcolor="white"];
"1169476611" -> "1254704281"[label="1", color="black", style="setlinewidth(1)"];
"1254704281" -> "1169476611"[label="1", color="black", style="setlinewidth(1)"];
"1922763875"[label="{{Decl\ -1:\ xatoll}|True}", color="blue", fontname="Calibri", style="filled", fillcolor="white"];
"777829026"[label="{{Stmt\ -1:\ return\ xatoll(str);}|True}", color="black", fontname="Calibri", style="filled", fillcolor="white"];
"777829026" -> "1922763875"[label="1", color="black", style="setlinewidth(1)"];
"1207491027"[label="{{Function\ -1:\ xatol}|True}", color="blue", fontname="Calibri", style="filled", fillcolor="white"];
"777829026" -> "1207491027"[label="1", color="black", style="setlinewidth(1)"];
"1207491027" -> "777829026"[label="1", color="black", style="setlinewidth(1)"];
"1634243527" -> "2108022203"[label="1", color="black", style="setlinewidth(1)"];
"1634243527" -> "331684261"[label="1", color="black", style="setlinewidth(1)"];
"331684261" -> "1634243527"[label="1", color="black", style="setlinewidth(1)"];
"1556678227"[label="{{Decl\ -1:\ BUG_xatou32_unimplemented}|True}", color="blue", fontname="Calibri", style="filled", fillcolor="white"];
"2067056950"[label="{{Decl\ -1:\ xatou}|True}", color="blue", fontname="Calibri", style="filled", fillcolor="white"];
"1060168338"[label="{{Stmt\ -1:\ return\ xatoul(numstr}|True}", color="black", fontname="Calibri", style="filled", fillcolor="white"];
"1060168338" -> "331684261"[label="1", color="black", style="setlinewidth(1)"];
"1545193337"[label="{{Function\ -1:\ xatou32}|True}", color="blue", fontname="Calibri", style="filled", fillcolor="white"];
"1060168338" -> "1545193337"[label="1", color="black", style="setlinewidth(1)"];
"1254043708"[label="{{Stmt\ -1:\ return\ BUG_xatou32_u}|True}", color="black", fontname="Calibri", style="filled", fillcolor="white"];
"1254043708" -> "1556678227"[label="1", color="black", style="setlinewidth(1)"];
"1254043708" -> "1545193337"[label="1", color="black", style="setlinewidth(1)"];
"1128517179"[label="{{Stmt\ -1:\ return\ xatou(numstr)}|True}", color="black", fontname="Calibri", style="filled", fillcolor="white"];
"1128517179" -> "2067056950"[label="1", color="black", style="setlinewidth(1)"];
"1128517179" -> "1545193337"[label="1", color="black", style="setlinewidth(1)"];
"1330522256"[label="{{Expr\ -1:\ (((92233720368547758}|True}", color="black", fontname="Calibri", style="filled", fillcolor="white"];
"1330522256" -> "1254043708"[label="1", color="black", style="setlinewidth(1)"];
"1330522256" -> "1060168338"[label="1", color="black", style="setlinewidth(1)"];
"1035397405"[label="{{Expr\ -1:\ (((2147483647\ *\ 2U)\ }|True}", color="black", fontname="Calibri", style="filled", fillcolor="white"];
"1035397405" -> "1330522256"[label="1", color="black", style="setlinewidth(1)"];
"1035397405" -> "1128517179"[label="1", color="black", style="setlinewidth(1)"];
"1545193337" -> "1035397405"[label="1", color="black", style="setlinewidth(1)"];
"1944058993"[label="{{Decl\ -1:\ bb_strtoull}|True}", color="blue", fontname="Calibri", style="filled", fillcolor="white"];
"9928623"[label="{{Stmt\ -1:\ return\ bb_strtoull(a}|True}", color="black", fontname="Calibri", style="filled", fillcolor="white"];
"9928623" -> "1944058993"[label="1", color="black", style="setlinewidth(1)"];
"1626868248"[label="{{Function\ -1:\ bb_strtoul}|True}", color="blue", fontname="Calibri", style="filled", fillcolor="white"];
"9928623" -> "1626868248"[label="1", color="black", style="setlinewidth(1)"];
"1626868248" -> "9928623"[label="1", color="black", style="setlinewidth(1)"];
"1603465720"[label="{{Decl\ -1:\ bb_strtoll}|True}", color="blue", fontname="Calibri", style="filled", fillcolor="white"];
"686356703"[label="{{Stmt\ -1:\ return\ bb_strtoll(ar}|True}", color="black", fontname="Calibri", style="filled", fillcolor="white"];
"686356703" -> "1603465720"[label="1", color="black", style="setlinewidth(1)"];
"1174917511"[label="{{Function\ -1:\ bb_strtol}|True}", color="blue", fontname="Calibri", style="filled", fillcolor="white"];
"686356703" -> "1174917511"[label="1", color="black", style="setlinewidth(1)"];
"1174917511" -> "686356703"[label="1", color="black", style="setlinewidth(1)"];
"9928623" -> "1944058993"[label="1", color="black", style="setlinewidth(1)"];
"9928623" -> "1626868248"[label="1", color="black", style="setlinewidth(1)"];
"1626868248" -> "9928623"[label="1", color="black", style="setlinewidth(1)"];
"1909041901"[label="{{Decl\ -1:\ BUG_bb_strtou32_unimplemented}|True}", color="blue", fontname="Calibri", style="filled", fillcolor="white"];
"1072862333"[label="{{Decl\ -1:\ bb_strtou}|True}", color="blue", fontname="Calibri", style="filled", fillcolor="white"];
"811817459"[label="{{Stmt\ -1:\ return\ bb_strtoul(ar}|True}", color="black", fontname="Calibri", style="filled", fillcolor="white"];
"811817459" -> "1626868248"[label="1", color="black", style="setlinewidth(1)"];
"1294776113"[label="{{Function\ -1:\ bb_strtou32}|True}", color="blue", fontname="Calibri", style="filled", fillcolor="white"];
"811817459" -> "1294776113"[label="1", color="black", style="setlinewidth(1)"];
"148259706"[label="{{Stmt\ -1:\ return\ BUG_bb_strtou}|True}", color="black", fontname="Calibri", style="filled", fillcolor="white"];
"148259706" -> "1909041901"[label="1", color="black", style="setlinewidth(1)"];
"148259706" -> "1294776113"[label="1", color="black", style="setlinewidth(1)"];
"179331370"[label="{{Stmt\ -1:\ return\ bb_strtou(arg}|True}", color="black", fontname="Calibri", style="filled", fillcolor="white"];
"179331370" -> "1072862333"[label="1", color="black", style="setlinewidth(1)"];
"179331370" -> "1294776113"[label="1", color="black", style="setlinewidth(1)"];
"2020470049"[label="{{Expr\ -1:\ (sizeof(uint32_t\ )\ =}|True}", color="black", fontname="Calibri", style="filled", fillcolor="white"];
"2020470049" -> "148259706"[label="1", color="black", style="setlinewidth(1)"];
"2020470049" -> "811817459"[label="1", color="black", style="setlinewidth(1)"];
"1559825035"[label="{{Expr\ -1:\ (sizeof(uint32_t\ )\ =}|True}", color="black", fontname="Calibri", style="filled", fillcolor="white"];
"1559825035" -> "2020470049"[label="1", color="black", style="setlinewidth(1)"];
"1559825035" -> "179331370"[label="1", color="black", style="setlinewidth(1)"];
"1294776113" -> "1559825035"[label="1", color="black", style="setlinewidth(1)"];
"533237148"[label="{{Stmt\ -1:\ return\ (b\ \<=\ ('z'\ -\ }|True}", color="black", fontname="Calibri", style="filled", fillcolor="white"];
"582244037"[label="{{Function\ -1:\ bb_ascii_isalnum}|True}", color="blue", fontname="Calibri", style="filled", fillcolor="white"];
"533237148" -> "582244037"[label="1", color="black", style="setlinewidth(1)"];
"224239217"[label="{{Stmt\ -1:\ return\ (b\ \<=\ 9);}|True}", color="black", fontname="Calibri", style="filled", fillcolor="white"];
"224239217" -> "582244037"[label="1", color="black", style="setlinewidth(1)"];
"1067660332"[label="{{Stmt\ -1:\ (b\ =\ ((a\ \|\ 0x20)\ -\ '}|True}", color="black", fontname="Calibri", style="filled", fillcolor="white"];
"1067660332" -> "533237148"[label="1", color="black", style="setlinewidth(1)"];
"431250749"[label="{{Expr\ -1:\ (b\ \<=\ 9)}|True}", color="black", fontname="Calibri", style="filled", fillcolor="white"];
"431250749" -> "1067660332"[label="1", color="black", style="setlinewidth(1)"];
"431250749" -> "224239217"[label="1", color="black", style="setlinewidth(1)"];
"1852111109"[label="{{Stmt\ -1:\ unsigned\ char\ b\ =\ \ (}|True}", color="black", fontname="Calibri", style="filled", fillcolor="white"];
"1852111109" -> "431250749"[label="1", color="black", style="setlinewidth(1)"];
"582244037" -> "1852111109"[label="1", color="black", style="setlinewidth(1)"];
"209280223"[label="{{Stmt\ -1:\ return\ (b\ \<=\ ('f'\ -\ }|True}", color="black", fontname="Calibri", style="filled", fillcolor="white"];
"187577754"[label="{{Function\ -1:\ bb_ascii_isxdigit}|True}", color="blue", fontname="Calibri", style="filled", fillcolor="white"];
"209280223" -> "187577754"[label="1", color="black", style="setlinewidth(1)"];
"270503342"[label="{{Stmt\ -1:\ return\ (b\ \<=\ 9);}|True}", color="black", fontname="Calibri", style="filled", fillcolor="white"];
"270503342" -> "187577754"[label="1", color="black", style="setlinewidth(1)"];
"1424531447"[label="{{Stmt\ -1:\ (b\ =\ ((a\ \|\ 0x20)\ -\ '}|True}", color="black", fontname="Calibri", style="filled", fillcolor="white"];
"1424531447" -> "209280223"[label="1", color="black", style="setlinewidth(1)"];
"1890005663"[label="{{Expr\ -1:\ (b\ \<=\ 9)}|True}", color="black", fontname="Calibri", style="filled", fillcolor="white"];
"1890005663" -> "1424531447"[label="1", color="black", style="setlinewidth(1)"];
"1890005663" -> "270503342"[label="1", color="black", style="setlinewidth(1)"];
"1977140389"[label="{{Stmt\ -1:\ unsigned\ char\ b\ =\ \ (}|True}", color="black", fontname="Calibri", style="filled", fillcolor="white"];
"1977140389" -> "1890005663"[label="1", color="black", style="setlinewidth(1)"];
"187577754" -> "1977140389"[label="1", color="black", style="setlinewidth(1)"];
"610381468"[label="{{Stmt\ -1:\ (a\ -=\ ('a'\ -\ 'A'));}|True}", color="black", fontname="Calibri", style="filled", fillcolor="white"];
"978154930"[label="{{Stmt\ -1:\ return\ a;}|True}", color="black", fontname="Calibri", style="filled", fillcolor="white"];
"610381468" -> "978154930"[label="1", color="black", style="setlinewidth(1)"];
"1501117268"[label="{{Function\ -1:\ bb_ascii_toupper}|True}", color="blue", fontname="Calibri", style="filled", fillcolor="white"];
"978154930" -> "1501117268"[label="1", color="black", style="setlinewidth(1)"];
"1082346442"[label="{{Expr\ -1:\ (b\ \<=\ ('z'\ -\ 'a'))}|True}", color="black", fontname="Calibri", style="filled", fillcolor="white"];
"1082346442" -> "978154930"[label="1", color="black", style="setlinewidth(1)"];
"1082346442" -> "610381468"[label="1", color="black", style="setlinewidth(1)"];
"2045014770"[label="{{Stmt\ -1:\ unsigned\ char\ b\ =\ \ (}|True}", color="black", fontname="Calibri", style="filled", fillcolor="white"];
"2045014770" -> "1082346442"[label="1", color="black", style="setlinewidth(1)"];
"1501117268" -> "2045014770"[label="1", color="black", style="setlinewidth(1)"];
"1470537170"[label="{{Stmt\ -1:\ (a\ +=\ ('a'\ -\ 'A'));}|True}", color="black", fontname="Calibri", style="filled", fillcolor="white"];
"1194836307"[label="{{Stmt\ -1:\ return\ a;}|True}", color="black", fontname="Calibri", style="filled", fillcolor="white"];
"1470537170" -> "1194836307"[label="1", color="black", style="setlinewidth(1)"];
"2047697825"[label="{{Function\ -1:\ bb_ascii_tolower}|True}", color="blue", fontname="Calibri", style="filled", fillcolor="white"];
"1194836307" -> "2047697825"[label="1", color="black", style="setlinewidth(1)"];
"1893566115"[label="{{Expr\ -1:\ (b\ \<=\ ('Z'\ -\ 'A'))}|True}", color="black", fontname="Calibri", style="filled", fillcolor="white"];
"1893566115" -> "1194836307"[label="1", color="black", style="setlinewidth(1)"];
"1893566115" -> "1470537170"[label="1", color="black", style="setlinewidth(1)"];
"604340653"[label="{{Stmt\ -1:\ unsigned\ char\ b\ =\ \ (}|True}", color="black", fontname="Calibri", style="filled", fillcolor="white"];
"604340653" -> "1893566115"[label="1", color="black", style="setlinewidth(1)"];
"2047697825" -> "604340653"[label="1", color="black", style="setlinewidth(1)"];
"1162513035"[label="{{Stmt\ -1:\ return\ 0;}|True}", color="black", fontname="Calibri", style="filled", fillcolor="white"];
"192658880"[label="{{Function\ -1:\ volume_id_probe_cramfs}|True}", color="blue", fontname="Calibri", style="filled", fillcolor="white"];
"1162513035" -> "192658880"[label="1", color="black", style="setlinewidth(1)"];
"1853432597"[label="{{Decl\ -1:\ volume_id_set_label_string}|True}", color="blue", fontname="Calibri", style="filled", fillcolor="white"];
"1301042686"[label="{{Stmt\ -1:\ volume_id_set_label_}|True}", color="black", fontname="Calibri", style="filled", fillcolor="white"];
"1301042686" -> "1853432597"[label="1", color="black", style="setlinewidth(1)"];
"1301042686" -> "1162513035"[label="1", color="black", style="setlinewidth(1)"];
"668939444"[label="{{Stmt\ -1:\ return\ (-\ 1);}|True}", color="black", fontname="Calibri", style="filled", fillcolor="white"];
"668939444" -> "192658880"[label="1", color="black", style="setlinewidth(1)"];
"669773757"[label="{{Stmt\ -1:\ return\ (-\ 1);}|True}", color="black", fontname="Calibri", style="filled", fillcolor="white"];
"669773757" -> "192658880"[label="1", color="black", style="setlinewidth(1)"];
"446804452"[label="{{Expr\ -1:\ (cs-\>magic\ ==\ ((uint}|True}", color="black", fontname="Calibri", style="filled", fillcolor="white"];
"446804452" -> "668939444"[label="1", color="black", style="setlinewidth(1)"];
"446804452" -> "1301042686"[label="1", color="black", style="setlinewidth(1)"];
"1102242655"[label="{{Expr\ -1:\ (cs\ ==\ ((void\ *)\ 0))}|True}", color="black", fontname="Calibri", style="filled", fillcolor="white"];
"1102242655" -> "446804452"[label="1", color="black", style="setlinewidth(1)"];
"1102242655" -> "669773757"[label="1", color="black", style="setlinewidth(1)"];
"1693607627"[label="{{Decl\ -1:\ volume_id_get_buffer}|True}", color="blue", fontname="Calibri", style="filled", fillcolor="white"];
"263470347"[label="{{Stmt\ -1:\ (cs\ =\ volume_id_get_}|True}", color="black", fontname="Calibri", style="filled", fillcolor="white"];
"263470347" -> "1693607627"[label="1", color="black", style="setlinewidth(1)"];
"263470347" -> "1102242655"[label="1", color="black", style="setlinewidth(1)"];
"108795340"[label="{{Stmt\ -1:\ ((void\ )\ 0);}|True}", color="black", fontname="Calibri", style="filled", fillcolor="white"];
"108795340" -> "263470347"[label="1", color="black", style="setlinewidth(1)"];
"770853660"[label="{{Stmt\ -1:\ struct\ cramfs_super\ }|True}", color="black", fontname="Calibri", style="filled", fillcolor="white"];
"770853660" -> "108795340"[label="1", color="black", style="setlinewidth(1)"];
"192658880" -> "770853660"[label="1", color="black", style="setlinewidth(1)"];
}
