digraph "busybox-1.18.5/util-linux/volume_id/reiserfs.c" {
node [shape=record];
"2097821543"[label="{{Decl\ -1:\ xstrtoull_range_sfx}|True}", color="blue", fontname="Calibri", style="filled", fillcolor="white"];
"1604784547"[label="{{Stmt\ -1:\ return\ xstrtoull_ran}|True}", color="black", fontname="Calibri", style="filled", fillcolor="white"];
"1604784547" -> "2097821543"[label="1", color="black", style="setlinewidth(1)"];
"173901060"[label="{{Function\ -1:\ xstrtoul_range_sfx}|True}", color="blue", fontname="Calibri", style="filled", fillcolor="white"];
"1604784547" -> "173901060"[label="1", color="black", style="setlinewidth(1)"];
"173901060" -> "1604784547"[label="1", color="black", style="setlinewidth(1)"];
"143111632"[label="{{Decl\ -1:\ xstrtoull_range}|True}", color="blue", fontname="Calibri", style="filled", fillcolor="white"];
"199708687"[label="{{Stmt\ -1:\ return\ xstrtoull_ran}|True}", color="black", fontname="Calibri", style="filled", fillcolor="white"];
"199708687" -> "143111632"[label="1", color="black", style="setlinewidth(1)"];
"1668181854"[label="{{Function\ -1:\ xstrtoul_range}|True}", color="blue", fontname="Calibri", style="filled", fillcolor="white"];
"199708687" -> "1668181854"[label="1", color="black", style="setlinewidth(1)"];
"1668181854" -> "199708687"[label="1", color="black", style="setlinewidth(1)"];
"872497312"[label="{{Decl\ -1:\ xstrtoull_sfx}|True}", color="blue", fontname="Calibri", style="filled", fillcolor="white"];
"649262877"[label="{{Stmt\ -1:\ return\ xstrtoull_sfx}|True}", color="black", fontname="Calibri", style="filled", fillcolor="white"];
"649262877" -> "872497312"[label="1", color="black", style="setlinewidth(1)"];
"460852298"[label="{{Function\ -1:\ xstrtoul_sfx}|True}", color="blue", fontname="Calibri", style="filled", fillcolor="white"];
"649262877" -> "460852298"[label="1", color="black", style="setlinewidth(1)"];
"460852298" -> "649262877"[label="1", color="black", style="setlinewidth(1)"];
"381740976"[label="{{Decl\ -1:\ xstrtoull}|True}", color="blue", fontname="Calibri", style="filled", fillcolor="white"];
"1341222369"[label="{{Stmt\ -1:\ return\ xstrtoull(str}|True}", color="black", fontname="Calibri", style="filled", fillcolor="white"];
"1341222369" -> "381740976"[label="1", color="black", style="setlinewidth(1)"];
"357648566"[label="{{Function\ -1:\ xstrtoul}|True}", color="blue", fontname="Calibri", style="filled", fillcolor="white"];
"1341222369" -> "357648566"[label="1", color="black", style="setlinewidth(1)"];
"357648566" -> "1341222369"[label="1", color="black", style="setlinewidth(1)"];
"1073024416"[label="{{Decl\ -1:\ xatoull_range_sfx}|True}", color="blue", fontname="Calibri", style="filled", fillcolor="white"];
"1345081357"[label="{{Stmt\ -1:\ return\ xatoull_range}|True}", color="black", fontname="Calibri", style="filled", fillcolor="white"];
"1345081357" -> "1073024416"[label="1", color="black", style="setlinewidth(1)"];
"1480403089"[label="{{Function\ -1:\ xatoul_range_sfx}|True}", color="blue", fontname="Calibri", style="filled", fillcolor="white"];
"1345081357" -> "1480403089"[label="1", color="black", style="setlinewidth(1)"];
"1480403089" -> "1345081357"[label="1", color="black", style="setlinewidth(1)"];
"1655634807"[label="{{Decl\ -1:\ xatoull_range}|True}", color="blue", fontname="Calibri", style="filled", fillcolor="white"];
"1726328953"[label="{{Stmt\ -1:\ return\ xatoull_range}|True}", color="black", fontname="Calibri", style="filled", fillcolor="white"];
"1726328953" -> "1655634807"[label="1", color="black", style="setlinewidth(1)"];
"791981879"[label="{{Function\ -1:\ xatoul_range}|True}", color="blue", fontname="Calibri", style="filled", fillcolor="white"];
"1726328953" -> "791981879"[label="1", color="black", style="setlinewidth(1)"];
"791981879" -> "1726328953"[label="1", color="black", style="setlinewidth(1)"];
"353478840"[label="{{Decl\ -1:\ xatoull_sfx}|True}", color="blue", fontname="Calibri", style="filled", fillcolor="white"];
"1241825537"[label="{{Stmt\ -1:\ return\ xatoull_sfx(s}|True}", color="black", fontname="Calibri", style="filled", fillcolor="white"];
"1241825537" -> "353478840"[label="1", color="black", style="setlinewidth(1)"];
"1946466187"[label="{{Function\ -1:\ xatoul_sfx}|True}", color="blue", fontname="Calibri", style="filled", fillcolor="white"];
"1241825537" -> "1946466187"[label="1", color="black", style="setlinewidth(1)"];
"1946466187" -> "1241825537"[label="1", color="black", style="setlinewidth(1)"];
"529454733"[label="{{Decl\ -1:\ xatoull}|True}", color="blue", fontname="Calibri", style="filled", fillcolor="white"];
"479865064"[label="{{Stmt\ -1:\ return\ xatoull(str);}|True}", color="black", fontname="Calibri", style="filled", fillcolor="white"];
"479865064" -> "529454733"[label="1", color="black", style="setlinewidth(1)"];
"2062058570"[label="{{Function\ -1:\ xatoul}|True}", color="blue", fontname="Calibri", style="filled", fillcolor="white"];
"479865064" -> "2062058570"[label="1", color="black", style="setlinewidth(1)"];
"2062058570" -> "479865064"[label="1", color="black", style="setlinewidth(1)"];
"401576960"[label="{{Decl\ -1:\ xstrtoll_range_sfx}|True}", color="blue", fontname="Calibri", style="filled", fillcolor="white"];
"1899720579"[label="{{Stmt\ -1:\ return\ xstrtoll_rang}|True}", color="black", fontname="Calibri", style="filled", fillcolor="white"];
"1899720579" -> "401576960"[label="1", color="black", style="setlinewidth(1)"];
"1654893467"[label="{{Function\ -1:\ xstrtol_range_sfx}|True}", color="blue", fontname="Calibri", style="filled", fillcolor="white"];
"1899720579" -> "1654893467"[label="1", color="black", style="setlinewidth(1)"];
"1654893467" -> "1899720579"[label="1", color="black", style="setlinewidth(1)"];
"455795549"[label="{{Decl\ -1:\ xstrtoll_range}|True}", color="blue", fontname="Calibri", style="filled", fillcolor="white"];
"388628425"[label="{{Stmt\ -1:\ return\ xstrtoll_rang}|True}", color="black", fontname="Calibri", style="filled", fillcolor="white"];
"388628425" -> "455795549"[label="1", color="black", style="setlinewidth(1)"];
"603597777"[label="{{Function\ -1:\ xstrtol_range}|True}", color="blue", fontname="Calibri", style="filled", fillcolor="white"];
"388628425" -> "603597777"[label="1", color="black", style="setlinewidth(1)"];
"603597777" -> "388628425"[label="1", color="black", style="setlinewidth(1)"];
"240647839"[label="{{Decl\ -1:\ xstrtoll}|True}", color="blue", fontname="Calibri", style="filled", fillcolor="white"];
"461052010"[label="{{Stmt\ -1:\ return\ xstrtoll(str\ }|True}", color="black", fontname="Calibri", style="filled", fillcolor="white"];
"461052010" -> "240647839"[label="1", color="black", style="setlinewidth(1)"];
"1480106909"[label="{{Function\ -1:\ xstrtol}|True}", color="blue", fontname="Calibri", style="filled", fillcolor="white"];
"461052010" -> "1480106909"[label="1", color="black", style="setlinewidth(1)"];
"1480106909" -> "461052010"[label="1", color="black", style="setlinewidth(1)"];
"482491717"[label="{{Decl\ -1:\ xatoll_range_sfx}|True}", color="blue", fontname="Calibri", style="filled", fillcolor="white"];
"1786196200"[label="{{Stmt\ -1:\ return\ xatoll_range_}|True}", color="black", fontname="Calibri", style="filled", fillcolor="white"];
"1786196200" -> "482491717"[label="1", color="black", style="setlinewidth(1)"];
"637256699"[label="{{Function\ -1:\ xatol_range_sfx}|True}", color="blue", fontname="Calibri", style="filled", fillcolor="white"];
"1786196200" -> "637256699"[label="1", color="black", style="setlinewidth(1)"];
"637256699" -> "1786196200"[label="1", color="black", style="setlinewidth(1)"];
"1091963180"[label="{{Decl\ -1:\ xatoll_range}|True}", color="blue", fontname="Calibri", style="filled", fillcolor="white"];
"374290583"[label="{{Stmt\ -1:\ return\ xatoll_range(}|True}", color="black", fontname="Calibri", style="filled", fillcolor="white"];
"374290583" -> "1091963180"[label="1", color="black", style="setlinewidth(1)"];
"1197419879"[label="{{Function\ -1:\ xatol_range}|True}", color="blue", fontname="Calibri", style="filled", fillcolor="white"];
"374290583" -> "1197419879"[label="1", color="black", style="setlinewidth(1)"];
"1197419879" -> "374290583"[label="1", color="black", style="setlinewidth(1)"];
"818466986"[label="{{Decl\ -1:\ xatoll_sfx}|True}", color="blue", fontname="Calibri", style="filled", fillcolor="white"];
"386195006"[label="{{Stmt\ -1:\ return\ xatoll_sfx(st}|True}", color="black", fontname="Calibri", style="filled", fillcolor="white"];
"386195006" -> "818466986"[label="1", color="black", style="setlinewidth(1)"];
"355173768"[label="{{Function\ -1:\ xatol_sfx}|True}", color="blue", fontname="Calibri", style="filled", fillcolor="white"];
"386195006" -> "355173768"[label="1", color="black", style="setlinewidth(1)"];
"355173768" -> "386195006"[label="1", color="black", style="setlinewidth(1)"];
"593722432"[label="{{Decl\ -1:\ xatoll}|True}", color="blue", fontname="Calibri", style="filled", fillcolor="white"];
"1094180784"[label="{{Stmt\ -1:\ return\ xatoll(str);}|True}", color="black", fontname="Calibri", style="filled", fillcolor="white"];
"1094180784" -> "593722432"[label="1", color="black", style="setlinewidth(1)"];
"1133546825"[label="{{Function\ -1:\ xatol}|True}", color="blue", fontname="Calibri", style="filled", fillcolor="white"];
"1094180784" -> "1133546825"[label="1", color="black", style="setlinewidth(1)"];
"1133546825" -> "1094180784"[label="1", color="black", style="setlinewidth(1)"];
"479865064" -> "529454733"[label="1", color="black", style="setlinewidth(1)"];
"479865064" -> "2062058570"[label="1", color="black", style="setlinewidth(1)"];
"2062058570" -> "479865064"[label="1", color="black", style="setlinewidth(1)"];
"1780382270"[label="{{Decl\ -1:\ BUG_xatou32_unimplemented}|True}", color="blue", fontname="Calibri", style="filled", fillcolor="white"];
"1605608971"[label="{{Decl\ -1:\ xatou}|True}", color="blue", fontname="Calibri", style="filled", fillcolor="white"];
"1603465720"[label="{{Stmt\ -1:\ return\ xatoul(numstr}|True}", color="black", fontname="Calibri", style="filled", fillcolor="white"];
"1603465720" -> "2062058570"[label="1", color="black", style="setlinewidth(1)"];
"1330522256"[label="{{Function\ -1:\ xatou32}|True}", color="blue", fontname="Calibri", style="filled", fillcolor="white"];
"1603465720" -> "1330522256"[label="1", color="black", style="setlinewidth(1)"];
"881509117"[label="{{Stmt\ -1:\ return\ BUG_xatou32_u}|True}", color="black", fontname="Calibri", style="filled", fillcolor="white"];
"881509117" -> "1780382270"[label="1", color="black", style="setlinewidth(1)"];
"881509117" -> "1330522256"[label="1", color="black", style="setlinewidth(1)"];
"960057151"[label="{{Stmt\ -1:\ return\ xatou(numstr)}|True}", color="black", fontname="Calibri", style="filled", fillcolor="white"];
"960057151" -> "1605608971"[label="1", color="black", style="setlinewidth(1)"];
"960057151" -> "1330522256"[label="1", color="black", style="setlinewidth(1)"];
"154699689"[label="{{Expr\ -1:\ (((92233720368547758}|True}", color="black", fontname="Calibri", style="filled", fillcolor="white"];
"154699689" -> "881509117"[label="1", color="black", style="setlinewidth(1)"];
"154699689" -> "1603465720"[label="1", color="black", style="setlinewidth(1)"];
"2059546564"[label="{{Expr\ -1:\ (((2147483647\ *\ 2U)\ }|True}", color="black", fontname="Calibri", style="filled", fillcolor="white"];
"2059546564" -> "154699689"[label="1", color="black", style="setlinewidth(1)"];
"2059546564" -> "960057151"[label="1", color="black", style="setlinewidth(1)"];
"1330522256" -> "2059546564"[label="1", color="black", style="setlinewidth(1)"];
"38076291"[label="{{Decl\ -1:\ bb_strtoull}|True}", color="blue", fontname="Calibri", style="filled", fillcolor="white"];
"1462439284"[label="{{Stmt\ -1:\ return\ bb_strtoull(a}|True}", color="black", fontname="Calibri", style="filled", fillcolor="white"];
"1462439284" -> "38076291"[label="1", color="black", style="setlinewidth(1)"];
"825867896"[label="{{Function\ -1:\ bb_strtoul}|True}", color="blue", fontname="Calibri", style="filled", fillcolor="white"];
"1462439284" -> "825867896"[label="1", color="black", style="setlinewidth(1)"];
"825867896" -> "1462439284"[label="1", color="black", style="setlinewidth(1)"];
"1897245020"[label="{{Decl\ -1:\ bb_strtoll}|True}", color="blue", fontname="Calibri", style="filled", fillcolor="white"];
"1309565987"[label="{{Stmt\ -1:\ return\ bb_strtoll(ar}|True}", color="black", fontname="Calibri", style="filled", fillcolor="white"];
"1309565987" -> "1897245020"[label="1", color="black", style="setlinewidth(1)"];
"1324530519"[label="{{Function\ -1:\ bb_strtol}|True}", color="blue", fontname="Calibri", style="filled", fillcolor="white"];
"1309565987" -> "1324530519"[label="1", color="black", style="setlinewidth(1)"];
"1324530519" -> "1309565987"[label="1", color="black", style="setlinewidth(1)"];
"1462439284" -> "38076291"[label="1", color="black", style="setlinewidth(1)"];
"1462439284" -> "825867896"[label="1", color="black", style="setlinewidth(1)"];
"825867896" -> "1462439284"[label="1", color="black", style="setlinewidth(1)"];
"1853967292"[label="{{Decl\ -1:\ BUG_bb_strtou32_unimplemented}|True}", color="blue", fontname="Calibri", style="filled", fillcolor="white"];
"1341228708"[label="{{Decl\ -1:\ bb_strtou}|True}", color="blue", fontname="Calibri", style="filled", fillcolor="white"];
"1958960685"[label="{{Stmt\ -1:\ return\ bb_strtoul(ar}|True}", color="black", fontname="Calibri", style="filled", fillcolor="white"];
"1958960685" -> "825867896"[label="1", color="black", style="setlinewidth(1)"];
"286307650"[label="{{Function\ -1:\ bb_strtou32}|True}", color="blue", fontname="Calibri", style="filled", fillcolor="white"];
"1958960685" -> "286307650"[label="1", color="black", style="setlinewidth(1)"];
"898632076"[label="{{Stmt\ -1:\ return\ BUG_bb_strtou}|True}", color="black", fontname="Calibri", style="filled", fillcolor="white"];
"898632076" -> "1853967292"[label="1", color="black", style="setlinewidth(1)"];
"898632076" -> "286307650"[label="1", color="black", style="setlinewidth(1)"];
"1319374344"[label="{{Stmt\ -1:\ return\ bb_strtou(arg}|True}", color="black", fontname="Calibri", style="filled", fillcolor="white"];
"1319374344" -> "1341228708"[label="1", color="black", style="setlinewidth(1)"];
"1319374344" -> "286307650"[label="1", color="black", style="setlinewidth(1)"];
"888489622"[label="{{Expr\ -1:\ (sizeof(uint32_t\ )\ =}|True}", color="black", fontname="Calibri", style="filled", fillcolor="white"];
"888489622" -> "898632076"[label="1", color="black", style="setlinewidth(1)"];
"888489622" -> "1958960685"[label="1", color="black", style="setlinewidth(1)"];
"1563441314"[label="{{Expr\ -1:\ (sizeof(uint32_t\ )\ =}|True}", color="black", fontname="Calibri", style="filled", fillcolor="white"];
"1563441314" -> "888489622"[label="1", color="black", style="setlinewidth(1)"];
"1563441314" -> "1319374344"[label="1", color="black", style="setlinewidth(1)"];
"286307650" -> "1563441314"[label="1", color="black", style="setlinewidth(1)"];
"669132765"[label="{{Stmt\ -1:\ return\ (b\ \<=\ ('z'\ -\ }|True}", color="black", fontname="Calibri", style="filled", fillcolor="white"];
"1739562626"[label="{{Function\ -1:\ bb_ascii_isalnum}|True}", color="blue", fontname="Calibri", style="filled", fillcolor="white"];
"669132765" -> "1739562626"[label="1", color="black", style="setlinewidth(1)"];
"1772842581"[label="{{Stmt\ -1:\ return\ (b\ \<=\ 9);}|True}", color="black", fontname="Calibri", style="filled", fillcolor="white"];
"1772842581" -> "1739562626"[label="1", color="black", style="setlinewidth(1)"];
"50576689"[label="{{Stmt\ -1:\ (b\ =\ ((a\ \|\ 0x20)\ -\ '}|True}", color="black", fontname="Calibri", style="filled", fillcolor="white"];
"50576689" -> "669132765"[label="1", color="black", style="setlinewidth(1)"];
"136778540"[label="{{Expr\ -1:\ (b\ \<=\ 9)}|True}", color="black", fontname="Calibri", style="filled", fillcolor="white"];
"136778540" -> "50576689"[label="1", color="black", style="setlinewidth(1)"];
"136778540" -> "1772842581"[label="1", color="black", style="setlinewidth(1)"];
"203937138"[label="{{Stmt\ -1:\ unsigned\ char\ b\ =\ \ (}|True}", color="black", fontname="Calibri", style="filled", fillcolor="white"];
"203937138" -> "136778540"[label="1", color="black", style="setlinewidth(1)"];
"1739562626" -> "203937138"[label="1", color="black", style="setlinewidth(1)"];
"90759117"[label="{{Stmt\ -1:\ return\ (b\ \<=\ ('f'\ -\ }|True}", color="black", fontname="Calibri", style="filled", fillcolor="white"];
"1904266658"[label="{{Function\ -1:\ bb_ascii_isxdigit}|True}", color="blue", fontname="Calibri", style="filled", fillcolor="white"];
"90759117" -> "1904266658"[label="1", color="black", style="setlinewidth(1)"];
"88165189"[label="{{Stmt\ -1:\ return\ (b\ \<=\ 9);}|True}", color="black", fontname="Calibri", style="filled", fillcolor="white"];
"88165189" -> "1904266658"[label="1", color="black", style="setlinewidth(1)"];
"98574442"[label="{{Stmt\ -1:\ (b\ =\ ((a\ \|\ 0x20)\ -\ '}|True}", color="black", fontname="Calibri", style="filled", fillcolor="white"];
"98574442" -> "90759117"[label="1", color="black", style="setlinewidth(1)"];
"1816583573"[label="{{Expr\ -1:\ (b\ \<=\ 9)}|True}", color="black", fontname="Calibri", style="filled", fillcolor="white"];
"1816583573" -> "98574442"[label="1", color="black", style="setlinewidth(1)"];
"1816583573" -> "88165189"[label="1", color="black", style="setlinewidth(1)"];
"636910788"[label="{{Stmt\ -1:\ unsigned\ char\ b\ =\ \ (}|True}", color="black", fontname="Calibri", style="filled", fillcolor="white"];
"636910788" -> "1816583573"[label="1", color="black", style="setlinewidth(1)"];
"1904266658" -> "636910788"[label="1", color="black", style="setlinewidth(1)"];
"1577108539"[label="{{Stmt\ -1:\ (a\ -=\ ('a'\ -\ 'A'));}|True}", color="black", fontname="Calibri", style="filled", fillcolor="white"];
"1715502615"[label="{{Stmt\ -1:\ return\ a;}|True}", color="black", fontname="Calibri", style="filled", fillcolor="white"];
"1577108539" -> "1715502615"[label="1", color="black", style="setlinewidth(1)"];
"1936520006"[label="{{Function\ -1:\ bb_ascii_toupper}|True}", color="blue", fontname="Calibri", style="filled", fillcolor="white"];
"1715502615" -> "1936520006"[label="1", color="black", style="setlinewidth(1)"];
"1386988377"[label="{{Expr\ -1:\ (b\ \<=\ ('z'\ -\ 'a'))}|True}", color="black", fontname="Calibri", style="filled", fillcolor="white"];
"1386988377" -> "1715502615"[label="1", color="black", style="setlinewidth(1)"];
"1386988377" -> "1577108539"[label="1", color="black", style="setlinewidth(1)"];
"1899799543"[label="{{Stmt\ -1:\ unsigned\ char\ b\ =\ \ (}|True}", color="black", fontname="Calibri", style="filled", fillcolor="white"];
"1899799543" -> "1386988377"[label="1", color="black", style="setlinewidth(1)"];
"1936520006" -> "1899799543"[label="1", color="black", style="setlinewidth(1)"];
"1026111703"[label="{{Stmt\ -1:\ (a\ +=\ ('a'\ -\ 'A'));}|True}", color="black", fontname="Calibri", style="filled", fillcolor="white"];
"1572738824"[label="{{Stmt\ -1:\ return\ a;}|True}", color="black", fontname="Calibri", style="filled", fillcolor="white"];
"1026111703" -> "1572738824"[label="1", color="black", style="setlinewidth(1)"];
"1140137042"[label="{{Function\ -1:\ bb_ascii_tolower}|True}", color="blue", fontname="Calibri", style="filled", fillcolor="white"];
"1572738824" -> "1140137042"[label="1", color="black", style="setlinewidth(1)"];
"1526413029"[label="{{Expr\ -1:\ (b\ \<=\ ('Z'\ -\ 'A'))}|True}", color="black", fontname="Calibri", style="filled", fillcolor="white"];
"1526413029" -> "1572738824"[label="1", color="black", style="setlinewidth(1)"];
"1526413029" -> "1026111703"[label="1", color="black", style="setlinewidth(1)"];
"1251515415"[label="{{Stmt\ -1:\ unsigned\ char\ b\ =\ \ (}|True}", color="black", fontname="Calibri", style="filled", fillcolor="white"];
"1251515415" -> "1526413029"[label="1", color="black", style="setlinewidth(1)"];
"1140137042" -> "1251515415"[label="1", color="black", style="setlinewidth(1)"];
"1964055966"[label="{{Stmt\ -1:\ return\ (-\ 1);}|True}", color="black", fontname="Calibri", style="filled", fillcolor="white"];
"957555162"[label="{{Function\ -1:\ volume_id_probe_reiserfs}|True}", color="blue", fontname="Calibri", style="filled", fillcolor="white"];
"1964055966" -> "957555162"[label="1", color="black", style="setlinewidth(1)"];
"160451686"[label="{{Decl\ -1:\ memcmp}|True}", color="blue", fontname="Calibri", style="filled", fillcolor="white"];
"2134399153"[label="{{Expr\ -1:\ (rs\ ==\ ((void\ *)\ 0))}|True}", color="black", fontname="Calibri", style="filled", fillcolor="white"];
"2134399153" -> "160451686"[label="1", color="black", style="setlinewidth(1)"];
"2134399153" -> "1964055966"[label="1", color="black", style="setlinewidth(1)"];
"1861383180"[label="{{Decl\ -1:\ volume_id_get_buffer}|True}", color="blue", fontname="Calibri", style="filled", fillcolor="white"];
"1316412358"[label="{{Stmt\ -1:\ (rs\ =\ volume_id_get_}|True}", color="black", fontname="Calibri", style="filled", fillcolor="white"];
"1316412358" -> "1861383180"[label="1", color="black", style="setlinewidth(1)"];
"1316412358" -> "2134399153"[label="1", color="black", style="setlinewidth(1)"];
"1022745738"[label="{{Stmt\ -1:\ ((void\ )\ 0);}|True}", color="black", fontname="Calibri", style="filled", fillcolor="white"];
"1022745738" -> "1316412358"[label="1", color="black", style="setlinewidth(1)"];
"867354536"[label="{{Stmt\ -1:\ struct\ reiser4_super}|True}", color="black", fontname="Calibri", style="filled", fillcolor="white"];
"867354536" -> "1022745738"[label="1", color="black", style="setlinewidth(1)"];
"888439183"[label="{{Stmt\ -1:\ struct\ reiserfs_supe}|True}", color="black", fontname="Calibri", style="filled", fillcolor="white"];
"888439183" -> "867354536"[label="1", color="black", style="setlinewidth(1)"];
"957555162" -> "888439183"[label="1", color="black", style="setlinewidth(1)"];
}
