digraph "busybox-1.18.5/util-linux/volume_id/udf.c" {
node [shape=record];
"664387537"[label="{{Decl\ -1:\ xstrtoull_range_sfx}|True}", color="blue", fontname="Calibri", style="filled", fillcolor="white"];
"1494876337"[label="{{Stmt\ -1:\ return\ xstrtoull_ran}|True}", color="black", fontname="Calibri", style="filled", fillcolor="white"];
"1494876337" -> "664387537"[label="1", color="black", style="setlinewidth(1)"];
"1619701892"[label="{{Function\ -1:\ xstrtoul_range_sfx}|True}", color="blue", fontname="Calibri", style="filled", fillcolor="white"];
"1494876337" -> "1619701892"[label="1", color="black", style="setlinewidth(1)"];
"1619701892" -> "1494876337"[label="1", color="black", style="setlinewidth(1)"];
"879188863"[label="{{Decl\ -1:\ xstrtoull_range}|True}", color="blue", fontname="Calibri", style="filled", fillcolor="white"];
"1777380050"[label="{{Stmt\ -1:\ return\ xstrtoull_ran}|True}", color="black", fontname="Calibri", style="filled", fillcolor="white"];
"1777380050" -> "879188863"[label="1", color="black", style="setlinewidth(1)"];
"355173768"[label="{{Function\ -1:\ xstrtoul_range}|True}", color="blue", fontname="Calibri", style="filled", fillcolor="white"];
"1777380050" -> "355173768"[label="1", color="black", style="setlinewidth(1)"];
"355173768" -> "1777380050"[label="1", color="black", style="setlinewidth(1)"];
"1306037867"[label="{{Decl\ -1:\ xstrtoull_sfx}|True}", color="blue", fontname="Calibri", style="filled", fillcolor="white"];
"1895412718"[label="{{Stmt\ -1:\ return\ xstrtoull_sfx}|True}", color="black", fontname="Calibri", style="filled", fillcolor="white"];
"1895412718" -> "1306037867"[label="1", color="black", style="setlinewidth(1)"];
"905086084"[label="{{Function\ -1:\ xstrtoul_sfx}|True}", color="blue", fontname="Calibri", style="filled", fillcolor="white"];
"1895412718" -> "905086084"[label="1", color="black", style="setlinewidth(1)"];
"905086084" -> "1895412718"[label="1", color="black", style="setlinewidth(1)"];
"530669521"[label="{{Decl\ -1:\ xstrtoull}|True}", color="blue", fontname="Calibri", style="filled", fillcolor="white"];
"1212877220"[label="{{Stmt\ -1:\ return\ xstrtoull(str}|True}", color="black", fontname="Calibri", style="filled", fillcolor="white"];
"1212877220" -> "530669521"[label="1", color="black", style="setlinewidth(1)"];
"115322315"[label="{{Function\ -1:\ xstrtoul}|True}", color="blue", fontname="Calibri", style="filled", fillcolor="white"];
"1212877220" -> "115322315"[label="1", color="black", style="setlinewidth(1)"];
"115322315" -> "1212877220"[label="1", color="black", style="setlinewidth(1)"];
"937201323"[label="{{Decl\ -1:\ xatoull_range_sfx}|True}", color="blue", fontname="Calibri", style="filled", fillcolor="white"];
"1497118671"[label="{{Stmt\ -1:\ return\ xatoull_range}|True}", color="black", fontname="Calibri", style="filled", fillcolor="white"];
"1497118671" -> "937201323"[label="1", color="black", style="setlinewidth(1)"];
"573597068"[label="{{Function\ -1:\ xatoul_range_sfx}|True}", color="blue", fontname="Calibri", style="filled", fillcolor="white"];
"1497118671" -> "573597068"[label="1", color="black", style="setlinewidth(1)"];
"573597068" -> "1497118671"[label="1", color="black", style="setlinewidth(1)"];
"932221974"[label="{{Decl\ -1:\ xatoull_range}|True}", color="blue", fontname="Calibri", style="filled", fillcolor="white"];
"867241963"[label="{{Stmt\ -1:\ return\ xatoull_range}|True}", color="black", fontname="Calibri", style="filled", fillcolor="white"];
"867241963" -> "932221974"[label="1", color="black", style="setlinewidth(1)"];
"1328862234"[label="{{Function\ -1:\ xatoul_range}|True}", color="blue", fontname="Calibri", style="filled", fillcolor="white"];
"867241963" -> "1328862234"[label="1", color="black", style="setlinewidth(1)"];
"1328862234" -> "867241963"[label="1", color="black", style="setlinewidth(1)"];
"735796247"[label="{{Decl\ -1:\ xatoull_sfx}|True}", color="blue", fontname="Calibri", style="filled", fillcolor="white"];
"1771941160"[label="{{Stmt\ -1:\ return\ xatoull_sfx(s}|True}", color="black", fontname="Calibri", style="filled", fillcolor="white"];
"1771941160" -> "735796247"[label="1", color="black", style="setlinewidth(1)"];
"1067049902"[label="{{Function\ -1:\ xatoul_sfx}|True}", color="blue", fontname="Calibri", style="filled", fillcolor="white"];
"1771941160" -> "1067049902"[label="1", color="black", style="setlinewidth(1)"];
"1067049902" -> "1771941160"[label="1", color="black", style="setlinewidth(1)"];
"111183432"[label="{{Decl\ -1:\ xatoull}|True}", color="blue", fontname="Calibri", style="filled", fillcolor="white"];
"1026456445"[label="{{Stmt\ -1:\ return\ xatoull(str);}|True}", color="black", fontname="Calibri", style="filled", fillcolor="white"];
"1026456445" -> "111183432"[label="1", color="black", style="setlinewidth(1)"];
"734347813"[label="{{Function\ -1:\ xatoul}|True}", color="blue", fontname="Calibri", style="filled", fillcolor="white"];
"1026456445" -> "734347813"[label="1", color="black", style="setlinewidth(1)"];
"734347813" -> "1026456445"[label="1", color="black", style="setlinewidth(1)"];
"1118110020"[label="{{Decl\ -1:\ xstrtoll_range_sfx}|True}", color="blue", fontname="Calibri", style="filled", fillcolor="white"];
"1671828645"[label="{{Stmt\ -1:\ return\ xstrtoll_rang}|True}", color="black", fontname="Calibri", style="filled", fillcolor="white"];
"1671828645" -> "1118110020"[label="1", color="black", style="setlinewidth(1)"];
"1107909977"[label="{{Function\ -1:\ xstrtol_range_sfx}|True}", color="blue", fontname="Calibri", style="filled", fillcolor="white"];
"1671828645" -> "1107909977"[label="1", color="black", style="setlinewidth(1)"];
"1107909977" -> "1671828645"[label="1", color="black", style="setlinewidth(1)"];
"1524231356"[label="{{Decl\ -1:\ xstrtoll_range}|True}", color="blue", fontname="Calibri", style="filled", fillcolor="white"];
"544085021"[label="{{Stmt\ -1:\ return\ xstrtoll_rang}|True}", color="black", fontname="Calibri", style="filled", fillcolor="white"];
"544085021" -> "1524231356"[label="1", color="black", style="setlinewidth(1)"];
"1881137891"[label="{{Function\ -1:\ xstrtol_range}|True}", color="blue", fontname="Calibri", style="filled", fillcolor="white"];
"544085021" -> "1881137891"[label="1", color="black", style="setlinewidth(1)"];
"1881137891" -> "544085021"[label="1", color="black", style="setlinewidth(1)"];
"1292030534"[label="{{Decl\ -1:\ xstrtoll}|True}", color="blue", fontname="Calibri", style="filled", fillcolor="white"];
"232717341"[label="{{Stmt\ -1:\ return\ xstrtoll(str\ }|True}", color="black", fontname="Calibri", style="filled", fillcolor="white"];
"232717341" -> "1292030534"[label="1", color="black", style="setlinewidth(1)"];
"1696122673"[label="{{Function\ -1:\ xstrtol}|True}", color="blue", fontname="Calibri", style="filled", fillcolor="white"];
"232717341" -> "1696122673"[label="1", color="black", style="setlinewidth(1)"];
"1696122673" -> "232717341"[label="1", color="black", style="setlinewidth(1)"];
"1964391304"[label="{{Decl\ -1:\ xatoll_range_sfx}|True}", color="blue", fontname="Calibri", style="filled", fillcolor="white"];
"1500176858"[label="{{Stmt\ -1:\ return\ xatoll_range_}|True}", color="black", fontname="Calibri", style="filled", fillcolor="white"];
"1500176858" -> "1964391304"[label="1", color="black", style="setlinewidth(1)"];
"681081452"[label="{{Function\ -1:\ xatol_range_sfx}|True}", color="blue", fontname="Calibri", style="filled", fillcolor="white"];
"1500176858" -> "681081452"[label="1", color="black", style="setlinewidth(1)"];
"681081452" -> "1500176858"[label="1", color="black", style="setlinewidth(1)"];
"2062287781"[label="{{Decl\ -1:\ xatoll_range}|True}", color="blue", fontname="Calibri", style="filled", fillcolor="white"];
"851363558"[label="{{Stmt\ -1:\ return\ xatoll_range(}|True}", color="black", fontname="Calibri", style="filled", fillcolor="white"];
"851363558" -> "2062287781"[label="1", color="black", style="setlinewidth(1)"];
"81026782"[label="{{Function\ -1:\ xatol_range}|True}", color="blue", fontname="Calibri", style="filled", fillcolor="white"];
"851363558" -> "81026782"[label="1", color="black", style="setlinewidth(1)"];
"81026782" -> "851363558"[label="1", color="black", style="setlinewidth(1)"];
"738349763"[label="{{Decl\ -1:\ xatoll_sfx}|True}", color="blue", fontname="Calibri", style="filled", fillcolor="white"];
"1944058993"[label="{{Stmt\ -1:\ return\ xatoll_sfx(st}|True}", color="black", fontname="Calibri", style="filled", fillcolor="white"];
"1944058993" -> "738349763"[label="1", color="black", style="setlinewidth(1)"];
"412657149"[label="{{Function\ -1:\ xatol_sfx}|True}", color="blue", fontname="Calibri", style="filled", fillcolor="white"];
"1944058993" -> "412657149"[label="1", color="black", style="setlinewidth(1)"];
"412657149" -> "1944058993"[label="1", color="black", style="setlinewidth(1)"];
"2063366811"[label="{{Decl\ -1:\ xatoll}|True}", color="blue", fontname="Calibri", style="filled", fillcolor="white"];
"1068384627"[label="{{Stmt\ -1:\ return\ xatoll(str);}|True}", color="black", fontname="Calibri", style="filled", fillcolor="white"];
"1068384627" -> "2063366811"[label="1", color="black", style="setlinewidth(1)"];
"1458664497"[label="{{Function\ -1:\ xatol}|True}", color="blue", fontname="Calibri", style="filled", fillcolor="white"];
"1068384627" -> "1458664497"[label="1", color="black", style="setlinewidth(1)"];
"1458664497" -> "1068384627"[label="1", color="black", style="setlinewidth(1)"];
"1026456445" -> "111183432"[label="1", color="black", style="setlinewidth(1)"];
"1026456445" -> "734347813"[label="1", color="black", style="setlinewidth(1)"];
"734347813" -> "1026456445"[label="1", color="black", style="setlinewidth(1)"];
"566360156"[label="{{Decl\ -1:\ BUG_xatou32_unimplemented}|True}", color="blue", fontname="Calibri", style="filled", fillcolor="white"];
"1590147755"[label="{{Decl\ -1:\ xatou}|True}", color="blue", fontname="Calibri", style="filled", fillcolor="white"];
"703167908"[label="{{Stmt\ -1:\ return\ xatoul(numstr}|True}", color="black", fontname="Calibri", style="filled", fillcolor="white"];
"703167908" -> "734347813"[label="1", color="black", style="setlinewidth(1)"];
"1957608097"[label="{{Function\ -1:\ xatou32}|True}", color="blue", fontname="Calibri", style="filled", fillcolor="white"];
"703167908" -> "1957608097"[label="1", color="black", style="setlinewidth(1)"];
"786415144"[label="{{Stmt\ -1:\ return\ BUG_xatou32_u}|True}", color="black", fontname="Calibri", style="filled", fillcolor="white"];
"786415144" -> "566360156"[label="1", color="black", style="setlinewidth(1)"];
"786415144" -> "1957608097"[label="1", color="black", style="setlinewidth(1)"];
"5230972"[label="{{Stmt\ -1:\ return\ xatou(numstr)}|True}", color="black", fontname="Calibri", style="filled", fillcolor="white"];
"5230972" -> "1590147755"[label="1", color="black", style="setlinewidth(1)"];
"5230972" -> "1957608097"[label="1", color="black", style="setlinewidth(1)"];
"1027854296"[label="{{Expr\ -1:\ (((92233720368547758}|True}", color="black", fontname="Calibri", style="filled", fillcolor="white"];
"1027854296" -> "786415144"[label="1", color="black", style="setlinewidth(1)"];
"1027854296" -> "703167908"[label="1", color="black", style="setlinewidth(1)"];
"811911381"[label="{{Expr\ -1:\ (((2147483647\ *\ 2U)\ }|True}", color="black", fontname="Calibri", style="filled", fillcolor="white"];
"811911381" -> "1027854296"[label="1", color="black", style="setlinewidth(1)"];
"811911381" -> "5230972"[label="1", color="black", style="setlinewidth(1)"];
"1957608097" -> "811911381"[label="1", color="black", style="setlinewidth(1)"];
"1563310639"[label="{{Decl\ -1:\ bb_strtoull}|True}", color="blue", fontname="Calibri", style="filled", fillcolor="white"];
"1654996989"[label="{{Stmt\ -1:\ return\ bb_strtoull(a}|True}", color="black", fontname="Calibri", style="filled", fillcolor="white"];
"1654996989" -> "1563310639"[label="1", color="black", style="setlinewidth(1)"];
"827319093"[label="{{Function\ -1:\ bb_strtoul}|True}", color="blue", fontname="Calibri", style="filled", fillcolor="white"];
"1654996989" -> "827319093"[label="1", color="black", style="setlinewidth(1)"];
"827319093" -> "1654996989"[label="1", color="black", style="setlinewidth(1)"];
"970920645"[label="{{Decl\ -1:\ bb_strtoll}|True}", color="blue", fontname="Calibri", style="filled", fillcolor="white"];
"682496459"[label="{{Stmt\ -1:\ return\ bb_strtoll(ar}|True}", color="black", fontname="Calibri", style="filled", fillcolor="white"];
"682496459" -> "970920645"[label="1", color="black", style="setlinewidth(1)"];
"1118757559"[label="{{Function\ -1:\ bb_strtol}|True}", color="blue", fontname="Calibri", style="filled", fillcolor="white"];
"682496459" -> "1118757559"[label="1", color="black", style="setlinewidth(1)"];
"1118757559" -> "682496459"[label="1", color="black", style="setlinewidth(1)"];
"1654996989" -> "1563310639"[label="1", color="black", style="setlinewidth(1)"];
"1654996989" -> "827319093"[label="1", color="black", style="setlinewidth(1)"];
"827319093" -> "1654996989"[label="1", color="black", style="setlinewidth(1)"];
"263203513"[label="{{Decl\ -1:\ BUG_bb_strtou32_unimplemented}|True}", color="blue", fontname="Calibri", style="filled", fillcolor="white"];
"1945561537"[label="{{Decl\ -1:\ bb_strtou}|True}", color="blue", fontname="Calibri", style="filled", fillcolor="white"];
"357266650"[label="{{Stmt\ -1:\ return\ bb_strtoul(ar}|True}", color="black", fontname="Calibri", style="filled", fillcolor="white"];
"357266650" -> "827319093"[label="1", color="black", style="setlinewidth(1)"];
"2024330046"[label="{{Function\ -1:\ bb_strtou32}|True}", color="blue", fontname="Calibri", style="filled", fillcolor="white"];
"357266650" -> "2024330046"[label="1", color="black", style="setlinewidth(1)"];
"1058371206"[label="{{Stmt\ -1:\ return\ BUG_bb_strtou}|True}", color="black", fontname="Calibri", style="filled", fillcolor="white"];
"1058371206" -> "263203513"[label="1", color="black", style="setlinewidth(1)"];
"1058371206" -> "2024330046"[label="1", color="black", style="setlinewidth(1)"];
"714999572"[label="{{Stmt\ -1:\ return\ bb_strtou(arg}|True}", color="black", fontname="Calibri", style="filled", fillcolor="white"];
"714999572" -> "1945561537"[label="1", color="black", style="setlinewidth(1)"];
"714999572" -> "2024330046"[label="1", color="black", style="setlinewidth(1)"];
"1754866122"[label="{{Expr\ -1:\ (sizeof(uint32_t\ )\ =}|True}", color="black", fontname="Calibri", style="filled", fillcolor="white"];
"1754866122" -> "1058371206"[label="1", color="black", style="setlinewidth(1)"];
"1754866122" -> "357266650"[label="1", color="black", style="setlinewidth(1)"];
"187622212"[label="{{Expr\ -1:\ (sizeof(uint32_t\ )\ =}|True}", color="black", fontname="Calibri", style="filled", fillcolor="white"];
"187622212" -> "1754866122"[label="1", color="black", style="setlinewidth(1)"];
"187622212" -> "714999572"[label="1", color="black", style="setlinewidth(1)"];
"2024330046" -> "187622212"[label="1", color="black", style="setlinewidth(1)"];
"1029671468"[label="{{Stmt\ -1:\ return\ (b\ \<=\ ('z'\ -\ }|True}", color="black", fontname="Calibri", style="filled", fillcolor="white"];
"344711843"[label="{{Function\ -1:\ bb_ascii_isalnum}|True}", color="blue", fontname="Calibri", style="filled", fillcolor="white"];
"1029671468" -> "344711843"[label="1", color="black", style="setlinewidth(1)"];
"1731869185"[label="{{Stmt\ -1:\ return\ (b\ \<=\ 9);}|True}", color="black", fontname="Calibri", style="filled", fillcolor="white"];
"1731869185" -> "344711843"[label="1", color="black", style="setlinewidth(1)"];
"1233284771"[label="{{Stmt\ -1:\ (b\ =\ ((a\ \|\ 0x20)\ -\ '}|True}", color="black", fontname="Calibri", style="filled", fillcolor="white"];
"1233284771" -> "1029671468"[label="1", color="black", style="setlinewidth(1)"];
"2250656"[label="{{Expr\ -1:\ (b\ \<=\ 9)}|True}", color="black", fontname="Calibri", style="filled", fillcolor="white"];
"2250656" -> "1233284771"[label="1", color="black", style="setlinewidth(1)"];
"2250656" -> "1731869185"[label="1", color="black", style="setlinewidth(1)"];
"1915743085"[label="{{Stmt\ -1:\ unsigned\ char\ b\ =\ \ (}|True}", color="black", fontname="Calibri", style="filled", fillcolor="white"];
"1915743085" -> "2250656"[label="1", color="black", style="setlinewidth(1)"];
"344711843" -> "1915743085"[label="1", color="black", style="setlinewidth(1)"];
"824445694"[label="{{Stmt\ -1:\ return\ (b\ \<=\ ('f'\ -\ }|True}", color="black", fontname="Calibri", style="filled", fillcolor="white"];
"628274730"[label="{{Function\ -1:\ bb_ascii_isxdigit}|True}", color="blue", fontname="Calibri", style="filled", fillcolor="white"];
"824445694" -> "628274730"[label="1", color="black", style="setlinewidth(1)"];
"718946026"[label="{{Stmt\ -1:\ return\ (b\ \<=\ 9);}|True}", color="black", fontname="Calibri", style="filled", fillcolor="white"];
"718946026" -> "628274730"[label="1", color="black", style="setlinewidth(1)"];
"1861383180"[label="{{Stmt\ -1:\ (b\ =\ ((a\ \|\ 0x20)\ -\ '}|True}", color="black", fontname="Calibri", style="filled", fillcolor="white"];
"1861383180" -> "824445694"[label="1", color="black", style="setlinewidth(1)"];
"1680623355"[label="{{Expr\ -1:\ (b\ \<=\ 9)}|True}", color="black", fontname="Calibri", style="filled", fillcolor="white"];
"1680623355" -> "1861383180"[label="1", color="black", style="setlinewidth(1)"];
"1680623355" -> "718946026"[label="1", color="black", style="setlinewidth(1)"];
"1089351771"[label="{{Stmt\ -1:\ unsigned\ char\ b\ =\ \ (}|True}", color="black", fontname="Calibri", style="filled", fillcolor="white"];
"1089351771" -> "1680623355"[label="1", color="black", style="setlinewidth(1)"];
"628274730" -> "1089351771"[label="1", color="black", style="setlinewidth(1)"];
"583998164"[label="{{Stmt\ -1:\ (a\ -=\ ('a'\ -\ 'A'));}|True}", color="black", fontname="Calibri", style="filled", fillcolor="white"];
"548635036"[label="{{Stmt\ -1:\ return\ a;}|True}", color="black", fontname="Calibri", style="filled", fillcolor="white"];
"583998164" -> "548635036"[label="1", color="black", style="setlinewidth(1)"];
"581550195"[label="{{Function\ -1:\ bb_ascii_toupper}|True}", color="blue", fontname="Calibri", style="filled", fillcolor="white"];
"548635036" -> "581550195"[label="1", color="black", style="setlinewidth(1)"];
"2125601123"[label="{{Expr\ -1:\ (b\ \<=\ ('z'\ -\ 'a'))}|True}", color="black", fontname="Calibri", style="filled", fillcolor="white"];
"2125601123" -> "548635036"[label="1", color="black", style="setlinewidth(1)"];
"2125601123" -> "583998164"[label="1", color="black", style="setlinewidth(1)"];
"381831760"[label="{{Stmt\ -1:\ unsigned\ char\ b\ =\ \ (}|True}", color="black", fontname="Calibri", style="filled", fillcolor="white"];
"381831760" -> "2125601123"[label="1", color="black", style="setlinewidth(1)"];
"581550195" -> "381831760"[label="1", color="black", style="setlinewidth(1)"];
"1836598010"[label="{{Stmt\ -1:\ (a\ +=\ ('a'\ -\ 'A'));}|True}", color="black", fontname="Calibri", style="filled", fillcolor="white"];
"127921344"[label="{{Stmt\ -1:\ return\ a;}|True}", color="black", fontname="Calibri", style="filled", fillcolor="white"];
"1836598010" -> "127921344"[label="1", color="black", style="setlinewidth(1)"];
"286230331"[label="{{Function\ -1:\ bb_ascii_tolower}|True}", color="blue", fontname="Calibri", style="filled", fillcolor="white"];
"127921344" -> "286230331"[label="1", color="black", style="setlinewidth(1)"];
"1534556808"[label="{{Expr\ -1:\ (b\ \<=\ ('Z'\ -\ 'A'))}|True}", color="black", fontname="Calibri", style="filled", fillcolor="white"];
"1534556808" -> "127921344"[label="1", color="black", style="setlinewidth(1)"];
"1534556808" -> "1836598010"[label="1", color="black", style="setlinewidth(1)"];
"325364397"[label="{{Stmt\ -1:\ unsigned\ char\ b\ =\ \ (}|True}", color="black", fontname="Calibri", style="filled", fillcolor="white"];
"325364397" -> "1534556808"[label="1", color="black", style="setlinewidth(1)"];
"286230331" -> "325364397"[label="1", color="black", style="setlinewidth(1)"];
"998138275"[label="{{Stmt\ -1:\ return\ (-\ 1);}|True}", color="black", fontname="Calibri", style="filled", fillcolor="white"];
"195664508"[label="{{Function\ -1:\ volume_id_probe_udf}|True}", color="blue", fontname="Calibri", style="filled", fillcolor="white"];
"998138275" -> "195664508"[label="1", color="black", style="setlinewidth(1)"];
"2043156282"[label="{{Decl\ -1:\ memcmp}|True}", color="blue", fontname="Calibri", style="filled", fillcolor="white"];
"1978162506"[label="{{Expr\ -1:\ (vsd\ ==\ ((void\ *)\ 0)}|True}", color="black", fontname="Calibri", style="filled", fillcolor="white"];
"1978162506" -> "2043156282"[label="1", color="black", style="setlinewidth(1)"];
"1978162506" -> "998138275"[label="1", color="black", style="setlinewidth(1)"];
"291273207"[label="{{Decl\ -1:\ volume_id_get_buffer}|True}", color="blue", fontname="Calibri", style="filled", fillcolor="white"];
"1489219479"[label="{{Stmt\ -1:\ (vsd\ =\ volume_id_get}|True}", color="black", fontname="Calibri", style="filled", fillcolor="white"];
"1489219479" -> "291273207"[label="1", color="black", style="setlinewidth(1)"];
"1489219479" -> "1978162506"[label="1", color="black", style="setlinewidth(1)"];
"1247321477"[label="{{Stmt\ -1:\ ((void\ )\ 0);}|True}", color="black", fontname="Calibri", style="filled", fillcolor="white"];
"1247321477" -> "1489219479"[label="1", color="black", style="setlinewidth(1)"];
"52828354"[label="{{Stmt\ -1:\ unsigned\ clen;}|True}", color="black", fontname="Calibri", style="filled", fillcolor="white"];
"52828354" -> "1247321477"[label="1", color="black", style="setlinewidth(1)"];
"816829837"[label="{{Stmt\ -1:\ unsigned\ loc;}|True}", color="black", fontname="Calibri", style="filled", fillcolor="white"];
"816829837" -> "52828354"[label="1", color="black", style="setlinewidth(1)"];
"971802530"[label="{{Stmt\ -1:\ unsigned\ count;}|True}", color="black", fontname="Calibri", style="filled", fillcolor="white"];
"971802530" -> "816829837"[label="1", color="black", style="setlinewidth(1)"];
"1580582973"[label="{{Stmt\ -1:\ unsigned\ type;}|True}", color="black", fontname="Calibri", style="filled", fillcolor="white"];
"1580582973" -> "971802530"[label="1", color="black", style="setlinewidth(1)"];
"1660432725"[label="{{Stmt\ -1:\ unsigned\ b;}|True}", color="black", fontname="Calibri", style="filled", fillcolor="white"];
"1660432725" -> "1580582973"[label="1", color="black", style="setlinewidth(1)"];
"1503349481"[label="{{Stmt\ -1:\ unsigned\ bs;}|True}", color="black", fontname="Calibri", style="filled", fillcolor="white"];
"1503349481" -> "1660432725"[label="1", color="black", style="setlinewidth(1)"];
"1435342049"[label="{{Stmt\ -1:\ struct\ volume_struct}|True}", color="black", fontname="Calibri", style="filled", fillcolor="white"];
"1435342049" -> "1503349481"[label="1", color="black", style="setlinewidth(1)"];
"1420694243"[label="{{Stmt\ -1:\ struct\ volume_descri}|True}", color="black", fontname="Calibri", style="filled", fillcolor="white"];
"1420694243" -> "1435342049"[label="1", color="black", style="setlinewidth(1)"];
"195664508" -> "1420694243"[label="1", color="black", style="setlinewidth(1)"];
}
