digraph "busybox-1.18.5/util-linux/volume_id/util.c" {
node [shape=record];
"1490706252"[label="{{Decl\ -1:\ xstrtoull_range_sfx}|True}", color="blue", fontname="Calibri", style="filled", fillcolor="white"];
"2140118453"[label="{{Stmt\ -1:\ return\ xstrtoull_ran}|True}", color="black", fontname="Calibri", style="filled", fillcolor="white"];
"2140118453" -> "1490706252"[label="1", color="black", style="setlinewidth(1)"];
"1571198138"[label="{{Function\ -1:\ xstrtoul_range_sfx}|True}", color="blue", fontname="Calibri", style="filled", fillcolor="white"];
"2140118453" -> "1571198138"[label="1", color="black", style="setlinewidth(1)"];
"1571198138" -> "2140118453"[label="1", color="black", style="setlinewidth(1)"];
"1553419769"[label="{{Decl\ -1:\ xstrtoull_range}|True}", color="blue", fontname="Calibri", style="filled", fillcolor="white"];
"5944919"[label="{{Stmt\ -1:\ return\ xstrtoull_ran}|True}", color="black", fontname="Calibri", style="filled", fillcolor="white"];
"5944919" -> "1553419769"[label="1", color="black", style="setlinewidth(1)"];
"1473903654"[label="{{Function\ -1:\ xstrtoul_range}|True}", color="blue", fontname="Calibri", style="filled", fillcolor="white"];
"5944919" -> "1473903654"[label="1", color="black", style="setlinewidth(1)"];
"1473903654" -> "5944919"[label="1", color="black", style="setlinewidth(1)"];
"1234410895"[label="{{Decl\ -1:\ xstrtoull_sfx}|True}", color="blue", fontname="Calibri", style="filled", fillcolor="white"];
"432744645"[label="{{Stmt\ -1:\ return\ xstrtoull_sfx}|True}", color="black", fontname="Calibri", style="filled", fillcolor="white"];
"432744645" -> "1234410895"[label="1", color="black", style="setlinewidth(1)"];
"1448359561"[label="{{Function\ -1:\ xstrtoul_sfx}|True}", color="blue", fontname="Calibri", style="filled", fillcolor="white"];
"432744645" -> "1448359561"[label="1", color="black", style="setlinewidth(1)"];
"1448359561" -> "432744645"[label="1", color="black", style="setlinewidth(1)"];
"1092061150"[label="{{Decl\ -1:\ xstrtoull}|True}", color="blue", fontname="Calibri", style="filled", fillcolor="white"];
"1723096462"[label="{{Stmt\ -1:\ return\ xstrtoull(str}|True}", color="black", fontname="Calibri", style="filled", fillcolor="white"];
"1723096462" -> "1092061150"[label="1", color="black", style="setlinewidth(1)"];
"816283710"[label="{{Function\ -1:\ xstrtoul}|True}", color="blue", fontname="Calibri", style="filled", fillcolor="white"];
"1723096462" -> "816283710"[label="1", color="black", style="setlinewidth(1)"];
"816283710" -> "1723096462"[label="1", color="black", style="setlinewidth(1)"];
"90072208"[label="{{Decl\ -1:\ xatoull_range_sfx}|True}", color="blue", fontname="Calibri", style="filled", fillcolor="white"];
"1593194890"[label="{{Stmt\ -1:\ return\ xatoull_range}|True}", color="black", fontname="Calibri", style="filled", fillcolor="white"];
"1593194890" -> "90072208"[label="1", color="black", style="setlinewidth(1)"];
"1173347675"[label="{{Function\ -1:\ xatoul_range_sfx}|True}", color="blue", fontname="Calibri", style="filled", fillcolor="white"];
"1593194890" -> "1173347675"[label="1", color="black", style="setlinewidth(1)"];
"1173347675" -> "1593194890"[label="1", color="black", style="setlinewidth(1)"];
"215673850"[label="{{Decl\ -1:\ xatoull_range}|True}", color="blue", fontname="Calibri", style="filled", fillcolor="white"];
"423975229"[label="{{Stmt\ -1:\ return\ xatoull_range}|True}", color="black", fontname="Calibri", style="filled", fillcolor="white"];
"423975229" -> "215673850"[label="1", color="black", style="setlinewidth(1)"];
"415113159"[label="{{Function\ -1:\ xatoul_range}|True}", color="blue", fontname="Calibri", style="filled", fillcolor="white"];
"423975229" -> "415113159"[label="1", color="black", style="setlinewidth(1)"];
"415113159" -> "423975229"[label="1", color="black", style="setlinewidth(1)"];
"1885082400"[label="{{Decl\ -1:\ xatoull_sfx}|True}", color="blue", fontname="Calibri", style="filled", fillcolor="white"];
"539769534"[label="{{Stmt\ -1:\ return\ xatoull_sfx(s}|True}", color="black", fontname="Calibri", style="filled", fillcolor="white"];
"539769534" -> "1885082400"[label="1", color="black", style="setlinewidth(1)"];
"270022253"[label="{{Function\ -1:\ xatoul_sfx}|True}", color="blue", fontname="Calibri", style="filled", fillcolor="white"];
"539769534" -> "270022253"[label="1", color="black", style="setlinewidth(1)"];
"270022253" -> "539769534"[label="1", color="black", style="setlinewidth(1)"];
"890910007"[label="{{Decl\ -1:\ xatoull}|True}", color="blue", fontname="Calibri", style="filled", fillcolor="white"];
"956743572"[label="{{Stmt\ -1:\ return\ xatoull(str);}|True}", color="black", fontname="Calibri", style="filled", fillcolor="white"];
"956743572" -> "890910007"[label="1", color="black", style="setlinewidth(1)"];
"915478794"[label="{{Function\ -1:\ xatoul}|True}", color="blue", fontname="Calibri", style="filled", fillcolor="white"];
"956743572" -> "915478794"[label="1", color="black", style="setlinewidth(1)"];
"915478794" -> "956743572"[label="1", color="black", style="setlinewidth(1)"];
"22364268"[label="{{Decl\ -1:\ xstrtoll_range_sfx}|True}", color="blue", fontname="Calibri", style="filled", fillcolor="white"];
"1842626278"[label="{{Stmt\ -1:\ return\ xstrtoll_rang}|True}", color="black", fontname="Calibri", style="filled", fillcolor="white"];
"1842626278" -> "22364268"[label="1", color="black", style="setlinewidth(1)"];
"344491970"[label="{{Function\ -1:\ xstrtol_range_sfx}|True}", color="blue", fontname="Calibri", style="filled", fillcolor="white"];
"1842626278" -> "344491970"[label="1", color="black", style="setlinewidth(1)"];
"344491970" -> "1842626278"[label="1", color="black", style="setlinewidth(1)"];
"540260762"[label="{{Decl\ -1:\ xstrtoll_range}|True}", color="blue", fontname="Calibri", style="filled", fillcolor="white"];
"2065407546"[label="{{Stmt\ -1:\ return\ xstrtoll_rang}|True}", color="black", fontname="Calibri", style="filled", fillcolor="white"];
"2065407546" -> "540260762"[label="1", color="black", style="setlinewidth(1)"];
"1283954375"[label="{{Function\ -1:\ xstrtol_range}|True}", color="blue", fontname="Calibri", style="filled", fillcolor="white"];
"2065407546" -> "1283954375"[label="1", color="black", style="setlinewidth(1)"];
"1283954375" -> "2065407546"[label="1", color="black", style="setlinewidth(1)"];
"1697014940"[label="{{Decl\ -1:\ xstrtoll}|True}", color="blue", fontname="Calibri", style="filled", fillcolor="white"];
"1011702487"[label="{{Stmt\ -1:\ return\ xstrtoll(str\ }|True}", color="black", fontname="Calibri", style="filled", fillcolor="white"];
"1011702487" -> "1697014940"[label="1", color="black", style="setlinewidth(1)"];
"697892520"[label="{{Function\ -1:\ xstrtol}|True}", color="blue", fontname="Calibri", style="filled", fillcolor="white"];
"1011702487" -> "697892520"[label="1", color="black", style="setlinewidth(1)"];
"697892520" -> "1011702487"[label="1", color="black", style="setlinewidth(1)"];
"1226311989"[label="{{Decl\ -1:\ xatoll_range_sfx}|True}", color="blue", fontname="Calibri", style="filled", fillcolor="white"];
"120587685"[label="{{Stmt\ -1:\ return\ xatoll_range_}|True}", color="black", fontname="Calibri", style="filled", fillcolor="white"];
"120587685" -> "1226311989"[label="1", color="black", style="setlinewidth(1)"];
"418892140"[label="{{Function\ -1:\ xatol_range_sfx}|True}", color="blue", fontname="Calibri", style="filled", fillcolor="white"];
"120587685" -> "418892140"[label="1", color="black", style="setlinewidth(1)"];
"418892140" -> "120587685"[label="1", color="black", style="setlinewidth(1)"];
"1129101173"[label="{{Decl\ -1:\ xatoll_range}|True}", color="blue", fontname="Calibri", style="filled", fillcolor="white"];
"1155142087"[label="{{Stmt\ -1:\ return\ xatoll_range(}|True}", color="black", fontname="Calibri", style="filled", fillcolor="white"];
"1155142087" -> "1129101173"[label="1", color="black", style="setlinewidth(1)"];
"865251031"[label="{{Function\ -1:\ xatol_range}|True}", color="blue", fontname="Calibri", style="filled", fillcolor="white"];
"1155142087" -> "865251031"[label="1", color="black", style="setlinewidth(1)"];
"865251031" -> "1155142087"[label="1", color="black", style="setlinewidth(1)"];
"186543364"[label="{{Decl\ -1:\ xatoll_sfx}|True}", color="blue", fontname="Calibri", style="filled", fillcolor="white"];
"343776873"[label="{{Stmt\ -1:\ return\ xatoll_sfx(st}|True}", color="black", fontname="Calibri", style="filled", fillcolor="white"];
"343776873" -> "186543364"[label="1", color="black", style="setlinewidth(1)"];
"344610950"[label="{{Function\ -1:\ xatol_sfx}|True}", color="blue", fontname="Calibri", style="filled", fillcolor="white"];
"343776873" -> "344610950"[label="1", color="black", style="setlinewidth(1)"];
"344610950" -> "343776873"[label="1", color="black", style="setlinewidth(1)"];
"766936722"[label="{{Decl\ -1:\ xatoll}|True}", color="blue", fontname="Calibri", style="filled", fillcolor="white"];
"1481334572"[label="{{Stmt\ -1:\ return\ xatoll(str);}|True}", color="black", fontname="Calibri", style="filled", fillcolor="white"];
"1481334572" -> "766936722"[label="1", color="black", style="setlinewidth(1)"];
"512495861"[label="{{Function\ -1:\ xatol}|True}", color="blue", fontname="Calibri", style="filled", fillcolor="white"];
"1481334572" -> "512495861"[label="1", color="black", style="setlinewidth(1)"];
"512495861" -> "1481334572"[label="1", color="black", style="setlinewidth(1)"];
"956743572" -> "890910007"[label="1", color="black", style="setlinewidth(1)"];
"956743572" -> "915478794"[label="1", color="black", style="setlinewidth(1)"];
"915478794" -> "956743572"[label="1", color="black", style="setlinewidth(1)"];
"1068384627"[label="{{Decl\ -1:\ BUG_xatou32_unimplemented}|True}", color="blue", fontname="Calibri", style="filled", fillcolor="white"];
"6036438"[label="{{Decl\ -1:\ xatou}|True}", color="blue", fontname="Calibri", style="filled", fillcolor="white"];
"2061415365"[label="{{Stmt\ -1:\ return\ xatoul(numstr}|True}", color="black", fontname="Calibri", style="filled", fillcolor="white"];
"2061415365" -> "915478794"[label="1", color="black", style="setlinewidth(1)"];
"881509117"[label="{{Function\ -1:\ xatou32}|True}", color="blue", fontname="Calibri", style="filled", fillcolor="white"];
"2061415365" -> "881509117"[label="1", color="black", style="setlinewidth(1)"];
"1514125942"[label="{{Stmt\ -1:\ return\ BUG_xatou32_u}|True}", color="black", fontname="Calibri", style="filled", fillcolor="white"];
"1514125942" -> "1068384627"[label="1", color="black", style="setlinewidth(1)"];
"1514125942" -> "881509117"[label="1", color="black", style="setlinewidth(1)"];
"448199979"[label="{{Stmt\ -1:\ return\ xatou(numstr)}|True}", color="black", fontname="Calibri", style="filled", fillcolor="white"];
"448199979" -> "6036438"[label="1", color="black", style="setlinewidth(1)"];
"448199979" -> "881509117"[label="1", color="black", style="setlinewidth(1)"];
"1784011419"[label="{{Expr\ -1:\ (((92233720368547758}|True}", color="black", fontname="Calibri", style="filled", fillcolor="white"];
"1784011419" -> "1514125942"[label="1", color="black", style="setlinewidth(1)"];
"1784011419" -> "2061415365"[label="1", color="black", style="setlinewidth(1)"];
"97967557"[label="{{Expr\ -1:\ (((2147483647\ *\ 2U)\ }|True}", color="black", fontname="Calibri", style="filled", fillcolor="white"];
"97967557" -> "1784011419"[label="1", color="black", style="setlinewidth(1)"];
"97967557" -> "448199979"[label="1", color="black", style="setlinewidth(1)"];
"881509117" -> "97967557"[label="1", color="black", style="setlinewidth(1)"];
"458355395"[label="{{Decl\ -1:\ bb_strtoull}|True}", color="blue", fontname="Calibri", style="filled", fillcolor="white"];
"1947853755"[label="{{Stmt\ -1:\ return\ bb_strtoull(a}|True}", color="black", fontname="Calibri", style="filled", fillcolor="white"];
"1947853755" -> "458355395"[label="1", color="black", style="setlinewidth(1)"];
"1184511427"[label="{{Function\ -1:\ bb_strtoul}|True}", color="blue", fontname="Calibri", style="filled", fillcolor="white"];
"1947853755" -> "1184511427"[label="1", color="black", style="setlinewidth(1)"];
"1184511427" -> "1947853755"[label="1", color="black", style="setlinewidth(1)"];
"657613901"[label="{{Decl\ -1:\ bb_strtoll}|True}", color="blue", fontname="Calibri", style="filled", fillcolor="white"];
"477395570"[label="{{Stmt\ -1:\ return\ bb_strtoll(ar}|True}", color="black", fontname="Calibri", style="filled", fillcolor="white"];
"477395570" -> "657613901"[label="1", color="black", style="setlinewidth(1)"];
"1479452433"[label="{{Function\ -1:\ bb_strtol}|True}", color="blue", fontname="Calibri", style="filled", fillcolor="white"];
"477395570" -> "1479452433"[label="1", color="black", style="setlinewidth(1)"];
"1479452433" -> "477395570"[label="1", color="black", style="setlinewidth(1)"];
"1947853755" -> "458355395"[label="1", color="black", style="setlinewidth(1)"];
"1947853755" -> "1184511427"[label="1", color="black", style="setlinewidth(1)"];
"1184511427" -> "1947853755"[label="1", color="black", style="setlinewidth(1)"];
"1955944333"[label="{{Decl\ -1:\ BUG_bb_strtou32_unimplemented}|True}", color="blue", fontname="Calibri", style="filled", fillcolor="white"];
"1888616576"[label="{{Decl\ -1:\ bb_strtou}|True}", color="blue", fontname="Calibri", style="filled", fillcolor="white"];
"914637830"[label="{{Stmt\ -1:\ return\ bb_strtoul(ar}|True}", color="black", fontname="Calibri", style="filled", fillcolor="white"];
"914637830" -> "1184511427"[label="1", color="black", style="setlinewidth(1)"];
"1430305405"[label="{{Function\ -1:\ bb_strtou32}|True}", color="blue", fontname="Calibri", style="filled", fillcolor="white"];
"914637830" -> "1430305405"[label="1", color="black", style="setlinewidth(1)"];
"2052601171"[label="{{Stmt\ -1:\ return\ BUG_bb_strtou}|True}", color="black", fontname="Calibri", style="filled", fillcolor="white"];
"2052601171" -> "1955944333"[label="1", color="black", style="setlinewidth(1)"];
"2052601171" -> "1430305405"[label="1", color="black", style="setlinewidth(1)"];
"1178642246"[label="{{Stmt\ -1:\ return\ bb_strtou(arg}|True}", color="black", fontname="Calibri", style="filled", fillcolor="white"];
"1178642246" -> "1888616576"[label="1", color="black", style="setlinewidth(1)"];
"1178642246" -> "1430305405"[label="1", color="black", style="setlinewidth(1)"];
"1911358965"[label="{{Expr\ -1:\ (sizeof(uint32_t\ )\ =}|True}", color="black", fontname="Calibri", style="filled", fillcolor="white"];
"1911358965" -> "2052601171"[label="1", color="black", style="setlinewidth(1)"];
"1911358965" -> "914637830"[label="1", color="black", style="setlinewidth(1)"];
"1429772546"[label="{{Expr\ -1:\ (sizeof(uint32_t\ )\ =}|True}", color="black", fontname="Calibri", style="filled", fillcolor="white"];
"1429772546" -> "1911358965"[label="1", color="black", style="setlinewidth(1)"];
"1429772546" -> "1178642246"[label="1", color="black", style="setlinewidth(1)"];
"1430305405" -> "1429772546"[label="1", color="black", style="setlinewidth(1)"];
"1414724706"[label="{{Stmt\ -1:\ return\ (b\ \<=\ ('z'\ -\ }|True}", color="black", fontname="Calibri", style="filled", fillcolor="white"];
"1653273125"[label="{{Function\ -1:\ bb_ascii_isalnum}|True}", color="blue", fontname="Calibri", style="filled", fillcolor="white"];
"1414724706" -> "1653273125"[label="1", color="black", style="setlinewidth(1)"];
"364277582"[label="{{Stmt\ -1:\ return\ (b\ \<=\ 9);}|True}", color="black", fontname="Calibri", style="filled", fillcolor="white"];
"364277582" -> "1653273125"[label="1", color="black", style="setlinewidth(1)"];
"2045014770"[label="{{Stmt\ -1:\ (b\ =\ ((a\ \|\ 0x20)\ -\ '}|True}", color="black", fontname="Calibri", style="filled", fillcolor="white"];
"2045014770" -> "1414724706"[label="1", color="black", style="setlinewidth(1)"];
"341167646"[label="{{Expr\ -1:\ (b\ \<=\ 9)}|True}", color="black", fontname="Calibri", style="filled", fillcolor="white"];
"341167646" -> "2045014770"[label="1", color="black", style="setlinewidth(1)"];
"341167646" -> "364277582"[label="1", color="black", style="setlinewidth(1)"];
"542696428"[label="{{Stmt\ -1:\ unsigned\ char\ b\ =\ \ (}|True}", color="black", fontname="Calibri", style="filled", fillcolor="white"];
"542696428" -> "341167646"[label="1", color="black", style="setlinewidth(1)"];
"1653273125" -> "542696428"[label="1", color="black", style="setlinewidth(1)"];
"337005683"[label="{{Stmt\ -1:\ return\ (b\ \<=\ ('f'\ -\ }|True}", color="black", fontname="Calibri", style="filled", fillcolor="white"];
"880846150"[label="{{Function\ -1:\ bb_ascii_isxdigit}|True}", color="blue", fontname="Calibri", style="filled", fillcolor="white"];
"337005683" -> "880846150"[label="1", color="black", style="setlinewidth(1)"];
"178664054"[label="{{Stmt\ -1:\ return\ (b\ \<=\ 9);}|True}", color="black", fontname="Calibri", style="filled", fillcolor="white"];
"178664054" -> "880846150"[label="1", color="black", style="setlinewidth(1)"];
"1911084343"[label="{{Stmt\ -1:\ (b\ =\ ((a\ \|\ 0x20)\ -\ '}|True}", color="black", fontname="Calibri", style="filled", fillcolor="white"];
"1911084343" -> "337005683"[label="1", color="black", style="setlinewidth(1)"];
"1703188308"[label="{{Expr\ -1:\ (b\ \<=\ 9)}|True}", color="black", fontname="Calibri", style="filled", fillcolor="white"];
"1703188308" -> "1911084343"[label="1", color="black", style="setlinewidth(1)"];
"1703188308" -> "178664054"[label="1", color="black", style="setlinewidth(1)"];
"430565162"[label="{{Stmt\ -1:\ unsigned\ char\ b\ =\ \ (}|True}", color="black", fontname="Calibri", style="filled", fillcolor="white"];
"430565162" -> "1703188308"[label="1", color="black", style="setlinewidth(1)"];
"880846150" -> "430565162"[label="1", color="black", style="setlinewidth(1)"];
"1792687692"[label="{{Stmt\ -1:\ (a\ -=\ ('a'\ -\ 'A'));}|True}", color="black", fontname="Calibri", style="filled", fillcolor="white"];
"994070542"[label="{{Stmt\ -1:\ return\ a;}|True}", color="black", fontname="Calibri", style="filled", fillcolor="white"];
"1792687692" -> "994070542"[label="1", color="black", style="setlinewidth(1)"];
"1700348648"[label="{{Function\ -1:\ bb_ascii_toupper}|True}", color="blue", fontname="Calibri", style="filled", fillcolor="white"];
"994070542" -> "1700348648"[label="1", color="black", style="setlinewidth(1)"];
"905972819"[label="{{Expr\ -1:\ (b\ \<=\ ('z'\ -\ 'a'))}|True}", color="black", fontname="Calibri", style="filled", fillcolor="white"];
"905972819" -> "994070542"[label="1", color="black", style="setlinewidth(1)"];
"905972819" -> "1792687692"[label="1", color="black", style="setlinewidth(1)"];
"555373864"[label="{{Stmt\ -1:\ unsigned\ char\ b\ =\ \ (}|True}", color="black", fontname="Calibri", style="filled", fillcolor="white"];
"555373864" -> "905972819"[label="1", color="black", style="setlinewidth(1)"];
"1700348648" -> "555373864"[label="1", color="black", style="setlinewidth(1)"];
"1504524452"[label="{{Stmt\ -1:\ (a\ +=\ ('a'\ -\ 'A'));}|True}", color="black", fontname="Calibri", style="filled", fillcolor="white"];
"275828654"[label="{{Stmt\ -1:\ return\ a;}|True}", color="black", fontname="Calibri", style="filled", fillcolor="white"];
"1504524452" -> "275828654"[label="1", color="black", style="setlinewidth(1)"];
"757972478"[label="{{Function\ -1:\ bb_ascii_tolower}|True}", color="blue", fontname="Calibri", style="filled", fillcolor="white"];
"275828654" -> "757972478"[label="1", color="black", style="setlinewidth(1)"];
"1564078836"[label="{{Expr\ -1:\ (b\ \<=\ ('Z'\ -\ 'A'))}|True}", color="black", fontname="Calibri", style="filled", fillcolor="white"];
"1564078836" -> "275828654"[label="1", color="black", style="setlinewidth(1)"];
"1564078836" -> "1504524452"[label="1", color="black", style="setlinewidth(1)"];
"1718712222"[label="{{Stmt\ -1:\ unsigned\ char\ b\ =\ \ (}|True}", color="black", fontname="Calibri", style="filled", fillcolor="white"];
"1718712222" -> "1564078836"[label="1", color="black", style="setlinewidth(1)"];
"757972478" -> "1718712222"[label="1", color="black", style="setlinewidth(1)"];
"888089242"[label="{{Stmt\ -1:\ (str[j++]\ =\ ((uint8_}|True}", color="black", fontname="Calibri", style="filled", fillcolor="white"];
"1529907135"[label="{{Expr\ -1:\ (i\ +=\ 2)}|True}", color="black", fontname="Calibri", style="filled", fillcolor="white"];
"888089242" -> "1529907135"[label="1", color="black", style="setlinewidth(1)"];
"1148971497"[label="{{Stmt\ -1:\ (str[j++]\ =\ ((uint8_}|True}", color="black", fontname="Calibri", style="filled", fillcolor="white"];
"1148971497" -> "1529907135"[label="1", color="black", style="setlinewidth(1)"];
"763444603"[label="{{Stmt\ -1:\ (str[j++]\ =\ ((uint8_}|True}", color="black", fontname="Calibri", style="filled", fillcolor="white"];
"763444603" -> "888089242"[label="1", color="black", style="setlinewidth(1)"];
"1638035600"[label="{{Expr\ -1:\ ((i\ +\ 2)\ \<=\ count)}|True}", color="black", fontname="Calibri", style="filled", fillcolor="white"];
"1529907135" -> "1638035600"[label="1", color="black", style="setlinewidth(1)"];
"1196212215"[label="{{Stmt\ 43:\ break;}|True}", color="black", fontname="Calibri", style="filled", fillcolor="white"];
"1173636219"[label="{{Stmt\ -1:\ (str[j]\ =\ '\0');}|True}", color="black", fontname="Calibri", style="filled", fillcolor="white"];
"1196212215" -> "1173636219"[label="1", color="black", style="setlinewidth(1)"];
"2144277938"[label="{{Stmt\ -1:\ (str[j++]\ =\ ((uint8_}|True}", color="black", fontname="Calibri", style="filled", fillcolor="white"];
"2144277938" -> "1148971497"[label="1", color="black", style="setlinewidth(1)"];
"892521844"[label="{{Stmt\ 48:\ break;}|True}", color="black", fontname="Calibri", style="filled", fillcolor="white"];
"892521844" -> "1173636219"[label="1", color="black", style="setlinewidth(1)"];
"441357813"[label="{{Stmt\ -1:\ (str[j++]\ =\ ((uint8_}|True}", color="black", fontname="Calibri", style="filled", fillcolor="white"];
"441357813" -> "763444603"[label="1", color="black", style="setlinewidth(1)"];
"1316412358"[label="{{Stmt\ 39:\ break;}|True}", color="black", fontname="Calibri", style="filled", fillcolor="white"];
"1316412358" -> "1173636219"[label="1", color="black", style="setlinewidth(1)"];
"1565969512"[label="{{Stmt\ -1:\ (str[j++]\ =\ ((uint8_}|True}", color="black", fontname="Calibri", style="filled", fillcolor="white"];
"1565969512" -> "1529907135"[label="1", color="black", style="setlinewidth(1)"];
"598469110"[label="{{Expr\ -1:\ ((j\ +\ 2)\ \>=\ len)}|True}", color="black", fontname="Calibri", style="filled", fillcolor="white"];
"598469110" -> "2144277938"[label="1", color="black", style="setlinewidth(1)"];
"598469110" -> "1196212215"[label="1", color="black", style="setlinewidth(1)"];
"2107408613"[label="{{Expr\ -1:\ ((j\ +\ 3)\ \>=\ len)}|True}", color="black", fontname="Calibri", style="filled", fillcolor="white"];
"2107408613" -> "441357813"[label="1", color="black", style="setlinewidth(1)"];
"2107408613" -> "892521844"[label="1", color="black", style="setlinewidth(1)"];
"67735292"[label="{{Stmt\ 36:\ break;}|True}", color="black", fontname="Calibri", style="filled", fillcolor="white"];
"67735292" -> "1173636219"[label="1", color="black", style="setlinewidth(1)"];
"575555017"[label="{{Expr\ -1:\ ((j\ +\ 1)\ \>=\ len)}|True}", color="black", fontname="Calibri", style="filled", fillcolor="white"];
"575555017" -> "1565969512"[label="1", color="black", style="setlinewidth(1)"];
"575555017" -> "1316412358"[label="1", color="black", style="setlinewidth(1)"];
"565583145"[label="{{Expr\ -1:\ (c\ \<\ 0x800)}|True}", color="black", fontname="Calibri", style="filled", fillcolor="white"];
"565583145" -> "2107408613"[label="1", color="black", style="setlinewidth(1)"];
"565583145" -> "598469110"[label="1", color="black", style="setlinewidth(1)"];
"1858602898"[label="{{Stmt\ -1:\ (str[j]\ =\ '\0');}|True}", color="black", fontname="Calibri", style="filled", fillcolor="white"];
"1858602898" -> "67735292"[label="1", color="black", style="setlinewidth(1)"];
"846423392"[label="{{Expr\ -1:\ (c\ \<\ 0x80)}|True}", color="black", fontname="Calibri", style="filled", fillcolor="white"];
"846423392" -> "565583145"[label="1", color="black", style="setlinewidth(1)"];
"846423392" -> "575555017"[label="1", color="black", style="setlinewidth(1)"];
"944489038"[label="{{Expr\ -1:\ (c\ ==\ 0)}|True}", color="black", fontname="Calibri", style="filled", fillcolor="white"];
"944489038" -> "846423392"[label="1", color="black", style="setlinewidth(1)"];
"944489038" -> "1858602898"[label="1", color="black", style="setlinewidth(1)"];
"1940004853"[label="{{Stmt\ -1:\ (c\ =\ ((buf[(i\ +\ 1)]\ }|True}", color="black", fontname="Calibri", style="filled", fillcolor="white"];
"1940004853" -> "944489038"[label="1", color="black", style="setlinewidth(1)"];
"957555162"[label="{{Stmt\ -1:\ (c\ =\ ((buf[i]\ \<\<\ 8)\ }|True}", color="black", fontname="Calibri", style="filled", fillcolor="white"];
"957555162" -> "944489038"[label="1", color="black", style="setlinewidth(1)"];
"148796159"[label="{{Expr\ -1:\ (endianess\ ==\ LE)}|True}", color="black", fontname="Calibri", style="filled", fillcolor="white"];
"148796159" -> "957555162"[label="1", color="black", style="setlinewidth(1)"];
"148796159" -> "1940004853"[label="1", color="black", style="setlinewidth(1)"];
"200697232"[label="{{Function\ -1:\ volume_id_set_unicode16}|True}", color="blue", fontname="Calibri", style="filled", fillcolor="white"];
"1173636219" -> "200697232"[label="1", color="black", style="setlinewidth(1)"];
"1638035600" -> "1173636219"[label="1", color="black", style="setlinewidth(1)"];
"1638035600" -> "148796159"[label="1", color="black", style="setlinewidth(1)"];
"1929956100"[label="{{Expr\ -1:\ (i\ =\ 0)}|True}", color="black", fontname="Calibri", style="filled", fillcolor="white"];
"1929956100" -> "1638035600"[label="1", color="black", style="setlinewidth(1)"];
"763209470"[label="{{Stmt\ -1:\ (j\ =\ 0);}|True}", color="black", fontname="Calibri", style="filled", fillcolor="white"];
"763209470" -> "1929956100"[label="1", color="black", style="setlinewidth(1)"];
"1839594852"[label="{{Stmt\ -1:\ unsigned\ c;}|True}", color="black", fontname="Calibri", style="filled", fillcolor="white"];
"1839594852" -> "763209470"[label="1", color="black", style="setlinewidth(1)"];
"1459668766"[label="{{Stmt\ -1:\ unsigned\ i,\ j;}|True}", color="black", fontname="Calibri", style="filled", fillcolor="white"];
"1459668766" -> "1839594852"[label="1", color="black", style="setlinewidth(1)"];
"200697232" -> "1459668766"[label="1", color="black", style="setlinewidth(1)"];
"1446433895"[label="{{Stmt\ 121:\ break;}|True}", color="black", fontname="Calibri", style="filled", fillcolor="white"];
"699589225"[label="{{Stmt\ -1:\ (id-\>label[(i\ +\ 1)]\ }|True}", color="black", fontname="Calibri", style="filled", fillcolor="white"];
"1446433895" -> "699589225"[label="1", color="black", style="setlinewidth(1)"];
"174088768"[label="{{Decl\ -1:\ strnlen}|True}", color="blue", fontname="Calibri", style="filled", fillcolor="white"];
"699589225" -> "174088768"[label="1", color="black", style="setlinewidth(1)"];
"206247600"[label="{{Decl\ -1:\ memcpy}|True}", color="blue", fontname="Calibri", style="filled", fillcolor="white"];
"699589225" -> "206247600"[label="1", color="black", style="setlinewidth(1)"];
"1070038681"[label="{{Function\ -1:\ volume_id_set_label_string}|True}", color="blue", fontname="Calibri", style="filled", fillcolor="white"];
"699589225" -> "1070038681"[label="1", color="black", style="setlinewidth(1)"];
"1387043372"[label="{{Expr\ -1:\ (!\ (\{\l\ \ unsigned\ cha}|True}", color="black", fontname="Calibri", style="filled", fillcolor="white"];
"1377250547"[label="{{Expr\ -1:\ i--}|True}", color="black", fontname="Calibri", style="filled", fillcolor="white"];
"1387043372" -> "1377250547"[label="1", color="black", style="setlinewidth(1)"];
"1387043372" -> "1446433895"[label="1", color="black", style="setlinewidth(1)"];
"1377250547" -> "1387043372"[label="1", color="black", style="setlinewidth(1)"];
"1377250547" -> "699589225"[label="1", color="black", style="setlinewidth(1)"];
"1774358782"[label="{{Stmt\ -1:\ (i\ =\ strnlen(id-\>lab}|True}", color="black", fontname="Calibri", style="filled", fillcolor="white"];
"1774358782" -> "174088768"[label="1", color="black", style="setlinewidth(1)"];
"1774358782" -> "1377250547"[label="1", color="black", style="setlinewidth(1)"];
"2001711315"[label="{{Stmt\ -1:\ memcpy(id-\>label\ ,\ b}|True}", color="black", fontname="Calibri", style="filled", fillcolor="white"];
"2001711315" -> "206247600"[label="1", color="black", style="setlinewidth(1)"];
"2001711315" -> "1774358782"[label="1", color="black", style="setlinewidth(1)"];
"733456778"[label="{{Stmt\ -1:\ unsigned\ i;}|True}", color="black", fontname="Calibri", style="filled", fillcolor="white"];
"733456778" -> "2001711315"[label="1", color="black", style="setlinewidth(1)"];
"1070038681" -> "733456778"[label="1", color="black", style="setlinewidth(1)"];
"888089242" -> "1529907135"[label="1", color="black", style="setlinewidth(1)"];
"1148971497" -> "1529907135"[label="1", color="black", style="setlinewidth(1)"];
"763444603" -> "888089242"[label="1", color="black", style="setlinewidth(1)"];
"1529907135" -> "1638035600"[label="1", color="black", style="setlinewidth(1)"];
"1196212215" -> "1173636219"[label="1", color="black", style="setlinewidth(1)"];
"2144277938" -> "1148971497"[label="1", color="black", style="setlinewidth(1)"];
"892521844" -> "1173636219"[label="1", color="black", style="setlinewidth(1)"];
"441357813" -> "763444603"[label="1", color="black", style="setlinewidth(1)"];
"1316412358" -> "1173636219"[label="1", color="black", style="setlinewidth(1)"];
"1565969512" -> "1529907135"[label="1", color="black", style="setlinewidth(1)"];
"598469110" -> "2144277938"[label="1", color="black", style="setlinewidth(1)"];
"598469110" -> "1196212215"[label="1", color="black", style="setlinewidth(1)"];
"2107408613" -> "441357813"[label="1", color="black", style="setlinewidth(1)"];
"2107408613" -> "892521844"[label="1", color="black", style="setlinewidth(1)"];
"67735292" -> "1173636219"[label="1", color="black", style="setlinewidth(1)"];
"575555017" -> "1565969512"[label="1", color="black", style="setlinewidth(1)"];
"575555017" -> "1316412358"[label="1", color="black", style="setlinewidth(1)"];
"565583145" -> "2107408613"[label="1", color="black", style="setlinewidth(1)"];
"565583145" -> "598469110"[label="1", color="black", style="setlinewidth(1)"];
"1858602898" -> "67735292"[label="1", color="black", style="setlinewidth(1)"];
"846423392" -> "565583145"[label="1", color="black", style="setlinewidth(1)"];
"846423392" -> "575555017"[label="1", color="black", style="setlinewidth(1)"];
"944489038" -> "846423392"[label="1", color="black", style="setlinewidth(1)"];
"944489038" -> "1858602898"[label="1", color="black", style="setlinewidth(1)"];
"1940004853" -> "944489038"[label="1", color="black", style="setlinewidth(1)"];
"957555162" -> "944489038"[label="1", color="black", style="setlinewidth(1)"];
"148796159" -> "957555162"[label="1", color="black", style="setlinewidth(1)"];
"148796159" -> "1940004853"[label="1", color="black", style="setlinewidth(1)"];
"1173636219" -> "200697232"[label="1", color="black", style="setlinewidth(1)"];
"1638035600" -> "1173636219"[label="1", color="black", style="setlinewidth(1)"];
"1638035600" -> "148796159"[label="1", color="black", style="setlinewidth(1)"];
"1929956100" -> "1638035600"[label="1", color="black", style="setlinewidth(1)"];
"763209470" -> "1929956100"[label="1", color="black", style="setlinewidth(1)"];
"1839594852" -> "763209470"[label="1", color="black", style="setlinewidth(1)"];
"1459668766" -> "1839594852"[label="1", color="black", style="setlinewidth(1)"];
"200697232" -> "1459668766"[label="1", color="black", style="setlinewidth(1)"];
"1998350154"[label="{{Stmt\ -1:\ volume_id_set_unicod}|True}", color="black", fontname="Calibri", style="filled", fillcolor="white"];
"1998350154" -> "200697232"[label="1", color="black", style="setlinewidth(1)"];
"22593878"[label="{{Function\ -1:\ volume_id_set_label_unicode16}|True}", color="blue", fontname="Calibri", style="filled", fillcolor="white"];
"1998350154" -> "22593878"[label="1", color="black", style="setlinewidth(1)"];
"22593878" -> "1998350154"[label="1", color="black", style="setlinewidth(1)"];
"1629439381"[label="{{Stmt\ 189:\ break;}|True}", color="black", fontname="Calibri", style="filled", fillcolor="white"];
"1629439381" -> "206247600"[label="1", color="black", style="setlinewidth(1)"];
"1819072527"[label="{{Decl\ -1:\ sprintf}|True}", color="blue", fontname="Calibri", style="filled", fillcolor="white"];
"1629439381" -> "1819072527"[label="1", color="black", style="setlinewidth(1)"];
"1092199341"[label="{{Function\ -1:\ volume_id_set_uuid}|True}", color="blue", fontname="Calibri", style="filled", fillcolor="white"];
"1629439381" -> "1092199341"[label="1", color="black", style="setlinewidth(1)"];
"1602577633"[label="{{Stmt\ -1:\ (id-\>uuid[count]\ =\ '}|True}", color="black", fontname="Calibri", style="filled", fillcolor="white"];
"1602577633" -> "1629439381"[label="1", color="black", style="setlinewidth(1)"];
"730502382"[label="{{Stmt\ 185:\ break;}|True}", color="black", fontname="Calibri", style="filled", fillcolor="white"];
"730502382" -> "206247600"[label="1", color="black", style="setlinewidth(1)"];
"730502382" -> "1819072527"[label="1", color="black", style="setlinewidth(1)"];
"730502382" -> "1092199341"[label="1", color="black", style="setlinewidth(1)"];
"2074727889"[label="{{Stmt\ 176:\ break;}|True}", color="black", fontname="Calibri", style="filled", fillcolor="white"];
"2074727889" -> "206247600"[label="1", color="black", style="setlinewidth(1)"];
"2074727889" -> "1819072527"[label="1", color="black", style="setlinewidth(1)"];
"2074727889" -> "1092199341"[label="1", color="black", style="setlinewidth(1)"];
"271693019"[label="{{Stmt\ 171:\ break;}|True}", color="black", fontname="Calibri", style="filled", fillcolor="white"];
"271693019" -> "206247600"[label="1", color="black", style="setlinewidth(1)"];
"271693019" -> "1819072527"[label="1", color="black", style="setlinewidth(1)"];
"271693019" -> "1092199341"[label="1", color="black", style="setlinewidth(1)"];
"1452195716"[label="{{Stmt\ 166:\ break;}|True}", color="black", fontname="Calibri", style="filled", fillcolor="white"];
"1452195716" -> "206247600"[label="1", color="black", style="setlinewidth(1)"];
"1452195716" -> "1819072527"[label="1", color="black", style="setlinewidth(1)"];
"1452195716" -> "1092199341"[label="1", color="black", style="setlinewidth(1)"];
"1536200797"[label="{{Stmt\ -1:\ memcpy(id-\>uuid\ ,\ bu}|True}", color="black", fontname="Calibri", style="filled", fillcolor="white"];
"1536200797" -> "206247600"[label="1", color="black", style="setlinewidth(1)"];
"1536200797" -> "1602577633"[label="1", color="black", style="setlinewidth(1)"];
"74874452"[label="{{Stmt\ -1:\ sprintf(id-\>uuid\ ,\ \\\"}|True}", color="black", fontname="Calibri", style="filled", fillcolor="white"];
"74874452" -> "1819072527"[label="1", color="black", style="setlinewidth(1)"];
"74874452" -> "730502382"[label="1", color="black", style="setlinewidth(1)"];
"342816310"[label="{{Stmt\ -1:\ sprintf(id-\>uuid\ ,\ \\\"}|True}", color="black", fontname="Calibri", style="filled", fillcolor="white"];
"342816310" -> "1819072527"[label="1", color="black", style="setlinewidth(1)"];
"342816310" -> "2074727889"[label="1", color="black", style="setlinewidth(1)"];
"1886407551"[label="{{Stmt\ -1:\ sprintf(id-\>uuid\ ,\ \\\"}|True}", color="black", fontname="Calibri", style="filled", fillcolor="white"];
"1886407551" -> "1819072527"[label="1", color="black", style="setlinewidth(1)"];
"1886407551" -> "271693019"[label="1", color="black", style="setlinewidth(1)"];
"711621331"[label="{{Stmt\ -1:\ sprintf(id-\>uuid\ ,\ \\\"}|True}", color="black", fontname="Calibri", style="filled", fillcolor="white"];
"711621331" -> "1819072527"[label="1", color="black", style="setlinewidth(1)"];
"711621331" -> "1452195716"[label="1", color="black", style="setlinewidth(1)"];
"389524375"[label="{{Stmt\ -1:\ case\ UUID_DCE_STRING}|True}", color="black", fontname="Calibri", style="filled", fillcolor="white"];
"389524375" -> "1536200797"[label="1", color="black", style="setlinewidth(1)"];
"1259654084"[label="{{Stmt\ -1:\ case\ UUID_DCE:}|True}", color="black", fontname="Calibri", style="filled", fillcolor="white"];
"1259654084" -> "74874452"[label="1", color="black", style="setlinewidth(1)"];
"794336811"[label="{{Stmt\ -1:\ case\ UUID_HFS:}|True}", color="black", fontname="Calibri", style="filled", fillcolor="white"];
"794336811" -> "342816310"[label="1", color="black", style="setlinewidth(1)"];
"901750657"[label="{{Stmt\ -1:\ case\ UUID_NTFS:}|True}", color="black", fontname="Calibri", style="filled", fillcolor="white"];
"901750657" -> "1886407551"[label="1", color="black", style="setlinewidth(1)"];
"2076747064"[label="{{Stmt\ -1:\ case\ UUID_DOS:}|True}", color="black", fontname="Calibri", style="filled", fillcolor="white"];
"2076747064" -> "711621331"[label="1", color="black", style="setlinewidth(1)"];
"757182573"[label="{{Expr\ 162:\ format}|True}", color="black", fontname="Calibri", style="filled", fillcolor="white"];
"757182573" -> "2076747064"[label="1", color="black", style="setlinewidth(1)"];
"757182573" -> "901750657"[label="1", color="black", style="setlinewidth(1)"];
"757182573" -> "794336811"[label="1", color="black", style="setlinewidth(1)"];
"757182573" -> "1259654084"[label="1", color="black", style="setlinewidth(1)"];
"757182573" -> "389524375"[label="1", color="black", style="setlinewidth(1)"];
"757182573" -> "206247600"[label="1", color="black", style="setlinewidth(1)"];
"757182573" -> "1819072527"[label="1", color="black", style="setlinewidth(1)"];
"757182573" -> "1092199341"[label="1", color="black", style="setlinewidth(1)"];
"1426094937"[label="{{Stmt\ -1:\ set:}|True}", color="black", fontname="Calibri", style="filled", fillcolor="white"];
"1426094937" -> "757182573"[label="1", color="black", style="setlinewidth(1)"];
"1436439670"[label="{{Stmt\ -1:\ goto\ set;}|True}", color="black", fontname="Calibri", style="filled", fillcolor="white"];
"1436439670" -> "1426094937"[label="1", color="black", style="setlinewidth(1)"];
"1897667095"[label="{{Expr\ -1:\ i++}|True}", color="black", fontname="Calibri", style="filled", fillcolor="white"];
"957302045"[label="{{Expr\ -1:\ (i\ \<\ count)}|True}", color="black", fontname="Calibri", style="filled", fillcolor="white"];
"1897667095" -> "957302045"[label="1", color="black", style="setlinewidth(1)"];
"91892819"[label="{{Expr\ -1:\ (buf[i]\ !=\ 0)}|True}", color="black", fontname="Calibri", style="filled", fillcolor="white"];
"91892819" -> "1897667095"[label="1", color="black", style="setlinewidth(1)"];
"91892819" -> "1436439670"[label="1", color="black", style="setlinewidth(1)"];
"2132235718"[label="{{Stmt\ 159:\ return;}|True}", color="black", fontname="Calibri", style="filled", fillcolor="white"];
"2132235718" -> "1092199341"[label="1", color="black", style="setlinewidth(1)"];
"1449490549"[label="{{Stmt\ 150:\ break;}|True}", color="black", fontname="Calibri", style="filled", fillcolor="white"];
"1610363041"[label="{{Expr\ -1:\ (i\ =\ 0)}|True}", color="black", fontname="Calibri", style="filled", fillcolor="white"];
"1449490549" -> "1610363041"[label="1", color="black", style="setlinewidth(1)"];
"570173249"[label="{{Stmt\ 146:\ break;}|True}", color="black", fontname="Calibri", style="filled", fillcolor="white"];
"570173249" -> "1610363041"[label="1", color="black", style="setlinewidth(1)"];
"124781149"[label="{{Stmt\ 143:\ break;}|True}", color="black", fontname="Calibri", style="filled", fillcolor="white"];
"124781149" -> "1610363041"[label="1", color="black", style="setlinewidth(1)"];
"1876766765"[label="{{Stmt\ 139:\ break;}|True}", color="black", fontname="Calibri", style="filled", fillcolor="white"];
"1876766765" -> "1610363041"[label="1", color="black", style="setlinewidth(1)"];
"957302045" -> "2132235718"[label="1", color="black", style="setlinewidth(1)"];
"957302045" -> "91892819"[label="1", color="black", style="setlinewidth(1)"];
"1111610350"[label="{{Stmt\ -1:\ (count\ =\ 36);}|True}", color="black", fontname="Calibri", style="filled", fillcolor="white"];
"1111610350" -> "1449490549"[label="1", color="black", style="setlinewidth(1)"];
"631384777"[label="{{Stmt\ -1:\ (count\ =\ 16);}|True}", color="black", fontname="Calibri", style="filled", fillcolor="white"];
"631384777" -> "570173249"[label="1", color="black", style="setlinewidth(1)"];
"1408800382"[label="{{Stmt\ -1:\ (count\ =\ 8);}|True}", color="black", fontname="Calibri", style="filled", fillcolor="white"];
"1408800382" -> "124781149"[label="1", color="black", style="setlinewidth(1)"];
"688876300"[label="{{Stmt\ -1:\ (count\ =\ 4);}|True}", color="black", fontname="Calibri", style="filled", fillcolor="white"];
"688876300" -> "1876766765"[label="1", color="black", style="setlinewidth(1)"];
"1610363041" -> "957302045"[label="1", color="black", style="setlinewidth(1)"];
"829763029"[label="{{Stmt\ -1:\ case\ UUID_DCE_STRING}|True}", color="black", fontname="Calibri", style="filled", fillcolor="white"];
"829763029" -> "1111610350"[label="1", color="black", style="setlinewidth(1)"];
"1252731771"[label="{{Stmt\ -1:\ case\ UUID_DCE:}|True}", color="black", fontname="Calibri", style="filled", fillcolor="white"];
"1252731771" -> "631384777"[label="1", color="black", style="setlinewidth(1)"];
"328039313"[label="{{Stmt\ -1:\ case\ UUID_HFS:}|True}", color="black", fontname="Calibri", style="filled", fillcolor="white"];
"328039313" -> "1408800382"[label="1", color="black", style="setlinewidth(1)"];
"579212219"[label="{{Stmt\ -1:\ case\ UUID_NTFS:}|True}", color="black", fontname="Calibri", style="filled", fillcolor="white"];
"579212219" -> "328039313"[label="1", color="black", style="setlinewidth(1)"];
"998420288"[label="{{Stmt\ -1:\ case\ UUID_DOS:}|True}", color="black", fontname="Calibri", style="filled", fillcolor="white"];
"998420288" -> "688876300"[label="1", color="black", style="setlinewidth(1)"];
"608220585"[label="{{Expr\ 136:\ format}|True}", color="black", fontname="Calibri", style="filled", fillcolor="white"];
"608220585" -> "998420288"[label="1", color="black", style="setlinewidth(1)"];
"608220585" -> "579212219"[label="1", color="black", style="setlinewidth(1)"];
"608220585" -> "328039313"[label="1", color="black", style="setlinewidth(1)"];
"608220585" -> "1252731771"[label="1", color="black", style="setlinewidth(1)"];
"608220585" -> "829763029"[label="1", color="black", style="setlinewidth(1)"];
"608220585" -> "1610363041"[label="1", color="black", style="setlinewidth(1)"];
"1410906634"[label="{{Stmt\ -1:\ unsigned\ count\ =\ \ 0;}|True}", color="black", fontname="Calibri", style="filled", fillcolor="white"];
"1410906634" -> "608220585"[label="1", color="black", style="setlinewidth(1)"];
"219960727"[label="{{Stmt\ -1:\ unsigned\ i;}|True}", color="black", fontname="Calibri", style="filled", fillcolor="white"];
"219960727" -> "1410906634"[label="1", color="black", style="setlinewidth(1)"];
"1092199341" -> "219960727"[label="1", color="black", style="setlinewidth(1)"];
"1651512422"[label="{{Decl\ -1:\ lseek}|True}", color="blue", fontname="Calibri", style="filled", fillcolor="white"];
"1404218927"[label="{{Stmt\ -1:\ do_read:}|True}", color="black", fontname="Calibri", style="filled", fillcolor="white"];
"1404218927" -> "1651512422"[label="1", color="black", style="setlinewidth(1)"];
"1629503774"[label="{{Stmt\ -1:\ goto\ do_read;}|True}", color="black", fontname="Calibri", style="filled", fillcolor="white"];
"1629503774" -> "1404218927"[label="1", color="black", style="setlinewidth(1)"];
"932741097"[label="{{Stmt\ -1:\ ((void\ )\ 0);}|True}", color="black", fontname="Calibri", style="filled", fillcolor="white"];
"932741097" -> "1404218927"[label="1", color="black", style="setlinewidth(1)"];
"368515583"[label="{{Stmt\ -1:\ (off\ =\ 0);}|True}", color="black", fontname="Calibri", style="filled", fillcolor="white"];
"368515583" -> "1629503774"[label="1", color="black", style="setlinewidth(1)"];
"1492449149"[label="{{Stmt\ -1:\ (dst\ =\ id-\>seekbuf);}|True}", color="black", fontname="Calibri", style="filled", fillcolor="white"];
"1492449149" -> "932741097"[label="1", color="black", style="setlinewidth(1)"];
"2092137190"[label="{{Stmt\ -1:\ (id-\>sbbuf_len\ =\ len}|True}", color="black", fontname="Calibri", style="filled", fillcolor="white"];
"2092137190" -> "368515583"[label="1", color="black", style="setlinewidth(1)"];
"1088431590"[label="{{Stmt\ -1:\ return\ (dst\ +\ small_}|True}", color="black", fontname="Calibri", style="filled", fillcolor="white"];
"1276209923"[label="{{Function\ -1:\ volume_id_get_buffer}|True}", color="blue", fontname="Calibri", style="filled", fillcolor="white"];
"1088431590" -> "1276209923"[label="1", color="black", style="setlinewidth(1)"];
"914146624"[label="{{Stmt\ -1:\ (small_off\ =\ 0);}|True}", color="black", fontname="Calibri", style="filled", fillcolor="white"];
"914146624" -> "1492449149"[label="1", color="black", style="setlinewidth(1)"];
"530832326"[label="{{Decl\ -1:\ xrealloc}|True}", color="blue", fontname="Calibri", style="filled", fillcolor="white"];
"1418852250"[label="{{Stmt\ -1:\ goto\ ret;}|True}", color="black", fontname="Calibri", style="filled", fillcolor="white"];
"186931131"[label="{{Stmt\ -1:\ ret:}|True}", color="black", fontname="Calibri", style="filled", fillcolor="white"];
"1418852250" -> "186931131"[label="1", color="black", style="setlinewidth(1)"];
"1432274408"[label="{{Stmt\ -1:\ ((void\ )\ 0);}|True}", color="black", fontname="Calibri", style="filled", fillcolor="white"];
"1432274408" -> "2092137190"[label="1", color="black", style="setlinewidth(1)"];
"186931131" -> "1088431590"[label="1", color="black", style="setlinewidth(1)"];
"1821984824"[label="{{Stmt\ -1:\ (id-\>seekbuf\ =\ xreal}|True}", color="black", fontname="Calibri", style="filled", fillcolor="white"];
"1821984824" -> "530832326"[label="1", color="black", style="setlinewidth(1)"];
"1821984824" -> "914146624"[label="1", color="black", style="setlinewidth(1)"];
"733201391"[label="{{Expr\ -1:\ (len\ \<=\ id-\>sbbuf_le}|True}", color="black", fontname="Calibri", style="filled", fillcolor="white"];
"733201391" -> "1432274408"[label="1", color="black", style="setlinewidth(1)"];
"733201391" -> "1418852250"[label="1", color="black", style="setlinewidth(1)"];
"1435290012"[label="{{Stmt\ -1:\ goto\ ret;}|True}", color="black", fontname="Calibri", style="filled", fillcolor="white"];
"1435290012" -> "186931131"[label="1", color="black", style="setlinewidth(1)"];
"1041074214"[label="{{Stmt\ -1:\ (id-\>seekbuf_len\ =\ l}|True}", color="black", fontname="Calibri", style="filled", fillcolor="white"];
"1041074214" -> "1821984824"[label="1", color="black", style="setlinewidth(1)"];
"1264862169"[label="{{Stmt\ -1:\ (len\ +=\ off);}|True}", color="black", fontname="Calibri", style="filled", fillcolor="white"];
"1264862169" -> "733201391"[label="1", color="black", style="setlinewidth(1)"];
"1353111952"[label="{{Stmt\ -1:\ (small_off\ =\ (off\ -\ }|True}", color="black", fontname="Calibri", style="filled", fillcolor="white"];
"1353111952" -> "1435290012"[label="1", color="black", style="setlinewidth(1)"];
"1121971157"[label="{{Stmt\ -1:\ (id-\>seekbuf_off\ =\ o}|True}", color="black", fontname="Calibri", style="filled", fillcolor="white"];
"1121971157" -> "1041074214"[label="1", color="black", style="setlinewidth(1)"];
"1344747267"[label="{{Decl\ -1:\ xmalloc}|True}", color="blue", fontname="Calibri", style="filled", fillcolor="white"];
"505291434"[label="{{Stmt\ -1:\ (dst\ =\ id-\>sbbuf);}|True}", color="black", fontname="Calibri", style="filled", fillcolor="white"];
"505291434" -> "1264862169"[label="1", color="black", style="setlinewidth(1)"];
"1966595057"[label="{{Stmt\ -1:\ return\ ((void\ *)\ 0);}|True}", color="black", fontname="Calibri", style="filled", fillcolor="white"];
"1966595057" -> "1276209923"[label="1", color="black", style="setlinewidth(1)"];
"2041630095"[label="{{Expr\ -1:\ ((off\ \>=\ id-\>seekbuf}|True}", color="black", fontname="Calibri", style="filled", fillcolor="white"];
"2041630095" -> "1121971157"[label="1", color="black", style="setlinewidth(1)"];
"2041630095" -> "1353111952"[label="1", color="black", style="setlinewidth(1)"];
"1859927547"[label="{{Stmt\ -1:\ (id-\>sbbuf\ =\ xmalloc}|True}", color="black", fontname="Calibri", style="filled", fillcolor="white"];
"1859927547" -> "1344747267"[label="1", color="black", style="setlinewidth(1)"];
"1657836009"[label="{{Stmt\ -1:\ (small_off\ =\ off);}|True}", color="black", fontname="Calibri", style="filled", fillcolor="white"];
"1859927547" -> "1657836009"[label="1", color="black", style="setlinewidth(1)"];
"1657836009" -> "505291434"[label="1", color="black", style="setlinewidth(1)"];
"1188236759"[label="{{Stmt\ -1:\ ((void\ )\ 0);}|True}", color="black", fontname="Calibri", style="filled", fillcolor="white"];
"1188236759" -> "1966595057"[label="1", color="black", style="setlinewidth(1)"];
"2053311020"[label="{{Stmt\ -1:\ (dst\ =\ id-\>seekbuf);}|True}", color="black", fontname="Calibri", style="filled", fillcolor="white"];
"2053311020" -> "2041630095"[label="1", color="black", style="setlinewidth(1)"];
"1945653100"[label="{{Expr\ -1:\ (id-\>sbbuf\ ==\ ((void}|True}", color="black", fontname="Calibri", style="filled", fillcolor="white"];
"1945653100" -> "1657836009"[label="1", color="black", style="setlinewidth(1)"];
"1945653100" -> "1859927547"[label="1", color="black", style="setlinewidth(1)"];
"1964643652"[label="{{Expr\ -1:\ (len\ \>\ 0x10000)}|True}", color="black", fontname="Calibri", style="filled", fillcolor="white"];
"1964643652" -> "2053311020"[label="1", color="black", style="setlinewidth(1)"];
"1964643652" -> "1188236759"[label="1", color="black", style="setlinewidth(1)"];
"1695980159"[label="{{Expr\ -1:\ ((off\ +\ len)\ \<=\ 0x11}|True}", color="black", fontname="Calibri", style="filled", fillcolor="white"];
"1695980159" -> "1964643652"[label="1", color="black", style="setlinewidth(1)"];
"1695980159" -> "1945653100"[label="1", color="black", style="setlinewidth(1)"];
"33775654"[label="{{Stmt\ -1:\ ((void\ )\ 0);}|True}", color="black", fontname="Calibri", style="filled", fillcolor="white"];
"33775654" -> "1695980159"[label="1", color="black", style="setlinewidth(1)"];
"317389876"[label="{{Stmt\ -1:\ ssize_t\ read_len;}|True}", color="black", fontname="Calibri", style="filled", fillcolor="white"];
"317389876" -> "33775654"[label="1", color="black", style="setlinewidth(1)"];
"590542917"[label="{{Stmt\ -1:\ unsigned\ small_off;}|True}", color="black", fontname="Calibri", style="filled", fillcolor="white"];
"590542917" -> "317389876"[label="1", color="black", style="setlinewidth(1)"];
"1496031607"[label="{{Stmt\ -1:\ uint8_t\ *dst;}|True}", color="black", fontname="Calibri", style="filled", fillcolor="white"];
"1496031607" -> "590542917"[label="1", color="black", style="setlinewidth(1)"];
"1276209923" -> "1496031607"[label="1", color="black", style="setlinewidth(1)"];
"1444543591"[label="{{Stmt\ -1:\ (id-\>seekbuf_off\ =\ 0}|True}", color="black", fontname="Calibri", style="filled", fillcolor="white"];
"1519162972"[label="{{Decl\ -1:\ free}|True}", color="blue", fontname="Calibri", style="filled", fillcolor="white"];
"1444543591" -> "1519162972"[label="1", color="black", style="setlinewidth(1)"];
"687602015"[label="{{Function\ -1:\ volume_id_free_buffer}|True}", color="blue", fontname="Calibri", style="filled", fillcolor="white"];
"1444543591" -> "687602015"[label="1", color="black", style="setlinewidth(1)"];
"278712948"[label="{{Stmt\ -1:\ (id-\>seekbuf_len\ =\ 0}|True}", color="black", fontname="Calibri", style="filled", fillcolor="white"];
"278712948" -> "1444543591"[label="1", color="black", style="setlinewidth(1)"];
"660070727"[label="{{Stmt\ -1:\ (id-\>seekbuf\ =\ ((voi}|True}", color="black", fontname="Calibri", style="filled", fillcolor="white"];
"660070727" -> "278712948"[label="1", color="black", style="setlinewidth(1)"];
"1481596039"[label="{{Stmt\ -1:\ free(id-\>seekbuf);}|True}", color="black", fontname="Calibri", style="filled", fillcolor="white"];
"1481596039" -> "1519162972"[label="1", color="black", style="setlinewidth(1)"];
"1481596039" -> "660070727"[label="1", color="black", style="setlinewidth(1)"];
"629877977"[label="{{Stmt\ -1:\ (id-\>sbbuf_len\ =\ 0);}|True}", color="black", fontname="Calibri", style="filled", fillcolor="white"];
"629877977" -> "1481596039"[label="1", color="black", style="setlinewidth(1)"];
"572046340"[label="{{Stmt\ -1:\ (id-\>sbbuf\ =\ ((void\ }|True}", color="black", fontname="Calibri", style="filled", fillcolor="white"];
"572046340" -> "629877977"[label="1", color="black", style="setlinewidth(1)"];
"1297912179"[label="{{Stmt\ -1:\ free(id-\>sbbuf);}|True}", color="black", fontname="Calibri", style="filled", fillcolor="white"];
"1297912179" -> "1519162972"[label="1", color="black", style="setlinewidth(1)"];
"1297912179" -> "572046340"[label="1", color="black", style="setlinewidth(1)"];
"687602015" -> "1297912179"[label="1", color="black", style="setlinewidth(1)"];
}
