digraph "busybox-1.18.5/util-linux/hexdump.c" {
node [shape=record];
"1664021007"[label="{{Decl\ -1:\ xstrtoull_range_sfx}|True}", color="blue", fontname="Calibri", style="filled", fillcolor="white"];
"1001688235"[label="{{Stmt\ -1:\ return\ xstrtoull_ran}|True}", color="black", fontname="Calibri", style="filled", fillcolor="white"];
"1001688235" -> "1664021007"[label="1", color="black", style="setlinewidth(1)"];
"1365685911"[label="{{Function\ -1:\ xstrtoul_range_sfx}|True}", color="blue", fontname="Calibri", style="filled", fillcolor="white"];
"1001688235" -> "1365685911"[label="1", color="black", style="setlinewidth(1)"];
"1365685911" -> "1001688235"[label="1", color="black", style="setlinewidth(1)"];
"674347810"[label="{{Decl\ -1:\ xstrtoull_range}|True}", color="blue", fontname="Calibri", style="filled", fillcolor="white"];
"2047156901"[label="{{Stmt\ -1:\ return\ xstrtoull_ran}|True}", color="black", fontname="Calibri", style="filled", fillcolor="white"];
"2047156901" -> "674347810"[label="1", color="black", style="setlinewidth(1)"];
"1820990115"[label="{{Function\ -1:\ xstrtoul_range}|True}", color="blue", fontname="Calibri", style="filled", fillcolor="white"];
"2047156901" -> "1820990115"[label="1", color="black", style="setlinewidth(1)"];
"1820990115" -> "2047156901"[label="1", color="black", style="setlinewidth(1)"];
"1830946044"[label="{{Decl\ -1:\ xstrtoull_sfx}|True}", color="blue", fontname="Calibri", style="filled", fillcolor="white"];
"1448359561"[label="{{Stmt\ -1:\ return\ xstrtoull_sfx}|True}", color="black", fontname="Calibri", style="filled", fillcolor="white"];
"1448359561" -> "1830946044"[label="1", color="black", style="setlinewidth(1)"];
"1687455318"[label="{{Function\ -1:\ xstrtoul_sfx}|True}", color="blue", fontname="Calibri", style="filled", fillcolor="white"];
"1448359561" -> "1687455318"[label="1", color="black", style="setlinewidth(1)"];
"1687455318" -> "1448359561"[label="1", color="black", style="setlinewidth(1)"];
"1901175853"[label="{{Decl\ -1:\ xstrtoull}|True}", color="blue", fontname="Calibri", style="filled", fillcolor="white"];
"432744645"[label="{{Stmt\ -1:\ return\ xstrtoull(str}|True}", color="black", fontname="Calibri", style="filled", fillcolor="white"];
"432744645" -> "1901175853"[label="1", color="black", style="setlinewidth(1)"];
"1279472540"[label="{{Function\ -1:\ xstrtoul}|True}", color="blue", fontname="Calibri", style="filled", fillcolor="white"];
"432744645" -> "1279472540"[label="1", color="black", style="setlinewidth(1)"];
"1279472540" -> "432744645"[label="1", color="black", style="setlinewidth(1)"];
"233251044"[label="{{Decl\ -1:\ xatoull_range_sfx}|True}", color="blue", fontname="Calibri", style="filled", fillcolor="white"];
"625319383"[label="{{Stmt\ -1:\ return\ xatoull_range}|True}", color="black", fontname="Calibri", style="filled", fillcolor="white"];
"625319383" -> "233251044"[label="1", color="black", style="setlinewidth(1)"];
"2133612328"[label="{{Function\ -1:\ xatoul_range_sfx}|True}", color="blue", fontname="Calibri", style="filled", fillcolor="white"];
"625319383" -> "2133612328"[label="1", color="black", style="setlinewidth(1)"];
"2133612328" -> "625319383"[label="1", color="black", style="setlinewidth(1)"];
"1081279907"[label="{{Decl\ -1:\ xatoull_range}|True}", color="blue", fontname="Calibri", style="filled", fillcolor="white"];
"1634243527"[label="{{Stmt\ -1:\ return\ xatoull_range}|True}", color="black", fontname="Calibri", style="filled", fillcolor="white"];
"1634243527" -> "1081279907"[label="1", color="black", style="setlinewidth(1)"];
"1128214597"[label="{{Function\ -1:\ xatoul_range}|True}", color="blue", fontname="Calibri", style="filled", fillcolor="white"];
"1634243527" -> "1128214597"[label="1", color="black", style="setlinewidth(1)"];
"1128214597" -> "1634243527"[label="1", color="black", style="setlinewidth(1)"];
"2025484461"[label="{{Decl\ -1:\ xatoull_sfx}|True}", color="blue", fontname="Calibri", style="filled", fillcolor="white"];
"1042650153"[label="{{Stmt\ -1:\ return\ xatoull_sfx(s}|True}", color="black", fontname="Calibri", style="filled", fillcolor="white"];
"1042650153" -> "2025484461"[label="1", color="black", style="setlinewidth(1)"];
"1565204691"[label="{{Function\ -1:\ xatoul_sfx}|True}", color="blue", fontname="Calibri", style="filled", fillcolor="white"];
"1042650153" -> "1565204691"[label="1", color="black", style="setlinewidth(1)"];
"1565204691" -> "1042650153"[label="1", color="black", style="setlinewidth(1)"];
"2069701889"[label="{{Decl\ -1:\ xatoull}|True}", color="blue", fontname="Calibri", style="filled", fillcolor="white"];
"1029415197"[label="{{Stmt\ -1:\ return\ xatoull(str);}|True}", color="black", fontname="Calibri", style="filled", fillcolor="white"];
"1029415197" -> "2069701889"[label="1", color="black", style="setlinewidth(1)"];
"1026269072"[label="{{Function\ -1:\ xatoul}|True}", color="blue", fontname="Calibri", style="filled", fillcolor="white"];
"1029415197" -> "1026269072"[label="1", color="black", style="setlinewidth(1)"];
"1026269072" -> "1029415197"[label="1", color="black", style="setlinewidth(1)"];
"639215011"[label="{{Decl\ -1:\ xstrtoll_range_sfx}|True}", color="blue", fontname="Calibri", style="filled", fillcolor="white"];
"145300271"[label="{{Stmt\ -1:\ return\ xstrtoll_rang}|True}", color="black", fontname="Calibri", style="filled", fillcolor="white"];
"145300271" -> "639215011"[label="1", color="black", style="setlinewidth(1)"];
"1864498194"[label="{{Function\ -1:\ xstrtol_range_sfx}|True}", color="blue", fontname="Calibri", style="filled", fillcolor="white"];
"145300271" -> "1864498194"[label="1", color="black", style="setlinewidth(1)"];
"1864498194" -> "145300271"[label="1", color="black", style="setlinewidth(1)"];
"2036921418"[label="{{Decl\ -1:\ xstrtoll_range}|True}", color="blue", fontname="Calibri", style="filled", fillcolor="white"];
"738349763"[label="{{Stmt\ -1:\ return\ xstrtoll_rang}|True}", color="black", fontname="Calibri", style="filled", fillcolor="white"];
"738349763" -> "2036921418"[label="1", color="black", style="setlinewidth(1)"];
"129004947"[label="{{Function\ -1:\ xstrtol_range}|True}", color="blue", fontname="Calibri", style="filled", fillcolor="white"];
"738349763" -> "129004947"[label="1", color="black", style="setlinewidth(1)"];
"129004947" -> "738349763"[label="1", color="black", style="setlinewidth(1)"];
"601767418"[label="{{Decl\ -1:\ xstrtoll}|True}", color="blue", fontname="Calibri", style="filled", fillcolor="white"];
"2065407546"[label="{{Stmt\ -1:\ return\ xstrtoll(str\ }|True}", color="black", fontname="Calibri", style="filled", fillcolor="white"];
"2065407546" -> "601767418"[label="1", color="black", style="setlinewidth(1)"];
"780133694"[label="{{Function\ -1:\ xstrtol}|True}", color="blue", fontname="Calibri", style="filled", fillcolor="white"];
"2065407546" -> "780133694"[label="1", color="black", style="setlinewidth(1)"];
"780133694" -> "2065407546"[label="1", color="black", style="setlinewidth(1)"];
"1842172704"[label="{{Decl\ -1:\ xatoll_range_sfx}|True}", color="blue", fontname="Calibri", style="filled", fillcolor="white"];
"585610175"[label="{{Stmt\ -1:\ return\ xatoll_range_}|True}", color="black", fontname="Calibri", style="filled", fillcolor="white"];
"585610175" -> "1842172704"[label="1", color="black", style="setlinewidth(1)"];
"1257603424"[label="{{Function\ -1:\ xatol_range_sfx}|True}", color="blue", fontname="Calibri", style="filled", fillcolor="white"];
"585610175" -> "1257603424"[label="1", color="black", style="setlinewidth(1)"];
"1257603424" -> "585610175"[label="1", color="black", style="setlinewidth(1)"];
"635273083"[label="{{Decl\ -1:\ xatoll_range}|True}", color="blue", fontname="Calibri", style="filled", fillcolor="white"];
"834916013"[label="{{Stmt\ -1:\ return\ xatoll_range(}|True}", color="black", fontname="Calibri", style="filled", fillcolor="white"];
"834916013" -> "635273083"[label="1", color="black", style="setlinewidth(1)"];
"1623063733"[label="{{Function\ -1:\ xatol_range}|True}", color="blue", fontname="Calibri", style="filled", fillcolor="white"];
"834916013" -> "1623063733"[label="1", color="black", style="setlinewidth(1)"];
"1623063733" -> "834916013"[label="1", color="black", style="setlinewidth(1)"];
"959119566"[label="{{Decl\ -1:\ xatoll_sfx}|True}", color="blue", fontname="Calibri", style="filled", fillcolor="white"];
"1779572675"[label="{{Stmt\ -1:\ return\ xatoll_sfx(st}|True}", color="black", fontname="Calibri", style="filled", fillcolor="white"];
"1779572675" -> "959119566"[label="1", color="black", style="setlinewidth(1)"];
"1106062545"[label="{{Function\ -1:\ xatol_sfx}|True}", color="blue", fontname="Calibri", style="filled", fillcolor="white"];
"1779572675" -> "1106062545"[label="1", color="black", style="setlinewidth(1)"];
"1106062545" -> "1779572675"[label="1", color="black", style="setlinewidth(1)"];
"62657225"[label="{{Decl\ -1:\ xatoll}|True}", color="blue", fontname="Calibri", style="filled", fillcolor="white"];
"779160362"[label="{{Stmt\ -1:\ return\ xatoll(str);}|True}", color="black", fontname="Calibri", style="filled", fillcolor="white"];
"779160362" -> "62657225"[label="1", color="black", style="setlinewidth(1)"];
"112840691"[label="{{Function\ -1:\ xatol}|True}", color="blue", fontname="Calibri", style="filled", fillcolor="white"];
"779160362" -> "112840691"[label="1", color="black", style="setlinewidth(1)"];
"112840691" -> "779160362"[label="1", color="black", style="setlinewidth(1)"];
"1029415197" -> "2069701889"[label="1", color="black", style="setlinewidth(1)"];
"1029415197" -> "1026269072"[label="1", color="black", style="setlinewidth(1)"];
"1026269072" -> "1029415197"[label="1", color="black", style="setlinewidth(1)"];
"515260056"[label="{{Decl\ -1:\ BUG_xatou32_unimplemented}|True}", color="blue", fontname="Calibri", style="filled", fillcolor="white"];
"1763259809"[label="{{Decl\ -1:\ xatou}|True}", color="blue", fontname="Calibri", style="filled", fillcolor="white"];
"812495793"[label="{{Stmt\ -1:\ return\ xatoul(numstr}|True}", color="black", fontname="Calibri", style="filled", fillcolor="white"];
"812495793" -> "1026269072"[label="1", color="black", style="setlinewidth(1)"];
"1302272683"[label="{{Function\ -1:\ xatou32}|True}", color="blue", fontname="Calibri", style="filled", fillcolor="white"];
"812495793" -> "1302272683"[label="1", color="black", style="setlinewidth(1)"];
"1626868248"[label="{{Stmt\ -1:\ return\ BUG_xatou32_u}|True}", color="black", fontname="Calibri", style="filled", fillcolor="white"];
"1626868248" -> "515260056"[label="1", color="black", style="setlinewidth(1)"];
"1626868248" -> "1302272683"[label="1", color="black", style="setlinewidth(1)"];
"881509117"[label="{{Stmt\ -1:\ return\ xatou(numstr)}|True}", color="black", fontname="Calibri", style="filled", fillcolor="white"];
"881509117" -> "1763259809"[label="1", color="black", style="setlinewidth(1)"];
"881509117" -> "1302272683"[label="1", color="black", style="setlinewidth(1)"];
"1911916813"[label="{{Expr\ -1:\ (((92233720368547758}|True}", color="black", fontname="Calibri", style="filled", fillcolor="white"];
"1911916813" -> "1626868248"[label="1", color="black", style="setlinewidth(1)"];
"1911916813" -> "812495793"[label="1", color="black", style="setlinewidth(1)"];
"1068384627"[label="{{Expr\ -1:\ (((2147483647\ *\ 2U)\ }|True}", color="black", fontname="Calibri", style="filled", fillcolor="white"];
"1068384627" -> "1911916813"[label="1", color="black", style="setlinewidth(1)"];
"1068384627" -> "881509117"[label="1", color="black", style="setlinewidth(1)"];
"1302272683" -> "1068384627"[label="1", color="black", style="setlinewidth(1)"];
"258848646"[label="{{Decl\ -1:\ bb_strtoull}|True}", color="blue", fontname="Calibri", style="filled", fillcolor="white"];
"1905040650"[label="{{Stmt\ -1:\ return\ bb_strtoull(a}|True}", color="black", fontname="Calibri", style="filled", fillcolor="white"];
"1905040650" -> "258848646"[label="1", color="black", style="setlinewidth(1)"];
"1994917560"[label="{{Function\ -1:\ bb_strtoul}|True}", color="blue", fontname="Calibri", style="filled", fillcolor="white"];
"1905040650" -> "1994917560"[label="1", color="black", style="setlinewidth(1)"];
"1994917560" -> "1905040650"[label="1", color="black", style="setlinewidth(1)"];
"817907839"[label="{{Decl\ -1:\ bb_strtoll}|True}", color="blue", fontname="Calibri", style="filled", fillcolor="white"];
"1909041901"[label="{{Stmt\ -1:\ return\ bb_strtoll(ar}|True}", color="black", fontname="Calibri", style="filled", fillcolor="white"];
"1909041901" -> "817907839"[label="1", color="black", style="setlinewidth(1)"];
"2099449238"[label="{{Function\ -1:\ bb_strtol}|True}", color="blue", fontname="Calibri", style="filled", fillcolor="white"];
"1909041901" -> "2099449238"[label="1", color="black", style="setlinewidth(1)"];
"2099449238" -> "1909041901"[label="1", color="black", style="setlinewidth(1)"];
"1905040650" -> "258848646"[label="1", color="black", style="setlinewidth(1)"];
"1905040650" -> "1994917560"[label="1", color="black", style="setlinewidth(1)"];
"1994917560" -> "1905040650"[label="1", color="black", style="setlinewidth(1)"];
"1199017551"[label="{{Decl\ -1:\ BUG_bb_strtou32_unimplemented}|True}", color="blue", fontname="Calibri", style="filled", fillcolor="white"];
"104562295"[label="{{Decl\ -1:\ bb_strtou}|True}", color="blue", fontname="Calibri", style="filled", fillcolor="white"];
"448313346"[label="{{Stmt\ -1:\ return\ bb_strtoul(ar}|True}", color="black", fontname="Calibri", style="filled", fillcolor="white"];
"448313346" -> "1994917560"[label="1", color="black", style="setlinewidth(1)"];
"638958293"[label="{{Function\ -1:\ bb_strtou32}|True}", color="blue", fontname="Calibri", style="filled", fillcolor="white"];
"448313346" -> "638958293"[label="1", color="black", style="setlinewidth(1)"];
"1197072187"[label="{{Stmt\ -1:\ return\ BUG_bb_strtou}|True}", color="black", fontname="Calibri", style="filled", fillcolor="white"];
"1197072187" -> "1199017551"[label="1", color="black", style="setlinewidth(1)"];
"1197072187" -> "638958293"[label="1", color="black", style="setlinewidth(1)"];
"1211871880"[label="{{Stmt\ -1:\ return\ bb_strtou(arg}|True}", color="black", fontname="Calibri", style="filled", fillcolor="white"];
"1211871880" -> "104562295"[label="1", color="black", style="setlinewidth(1)"];
"1211871880" -> "638958293"[label="1", color="black", style="setlinewidth(1)"];
"446769168"[label="{{Expr\ -1:\ (sizeof(uint32_t\ )\ =}|True}", color="black", fontname="Calibri", style="filled", fillcolor="white"];
"446769168" -> "1197072187"[label="1", color="black", style="setlinewidth(1)"];
"446769168" -> "448313346"[label="1", color="black", style="setlinewidth(1)"];
"736405622"[label="{{Expr\ -1:\ (sizeof(uint32_t\ )\ =}|True}", color="black", fontname="Calibri", style="filled", fillcolor="white"];
"736405622" -> "446769168"[label="1", color="black", style="setlinewidth(1)"];
"736405622" -> "1211871880"[label="1", color="black", style="setlinewidth(1)"];
"638958293" -> "736405622"[label="1", color="black", style="setlinewidth(1)"];
"735816587"[label="{{Stmt\ -1:\ return\ (b\ \<=\ ('z'\ -\ }|True}", color="black", fontname="Calibri", style="filled", fillcolor="white"];
"835565904"[label="{{Function\ -1:\ bb_ascii_isalnum}|True}", color="blue", fontname="Calibri", style="filled", fillcolor="white"];
"735816587" -> "835565904"[label="1", color="black", style="setlinewidth(1)"];
"1424531447"[label="{{Stmt\ -1:\ return\ (b\ \<=\ 9);}|True}", color="black", fontname="Calibri", style="filled", fillcolor="white"];
"1424531447" -> "835565904"[label="1", color="black", style="setlinewidth(1)"];
"1146535422"[label="{{Stmt\ -1:\ (b\ =\ ((a\ \|\ 0x20)\ -\ '}|True}", color="black", fontname="Calibri", style="filled", fillcolor="white"];
"1146535422" -> "735816587"[label="1", color="black", style="setlinewidth(1)"];
"270503342"[label="{{Expr\ -1:\ (b\ \<=\ 9)}|True}", color="black", fontname="Calibri", style="filled", fillcolor="white"];
"270503342" -> "1146535422"[label="1", color="black", style="setlinewidth(1)"];
"270503342" -> "1424531447"[label="1", color="black", style="setlinewidth(1)"];
"1786371458"[label="{{Stmt\ -1:\ unsigned\ char\ b\ =\ \ (}|True}", color="black", fontname="Calibri", style="filled", fillcolor="white"];
"1786371458" -> "270503342"[label="1", color="black", style="setlinewidth(1)"];
"835565904" -> "1786371458"[label="1", color="black", style="setlinewidth(1)"];
"1636270991"[label="{{Stmt\ -1:\ return\ (b\ \<=\ ('f'\ -\ }|True}", color="black", fontname="Calibri", style="filled", fillcolor="white"];
"1254830391"[label="{{Function\ -1:\ bb_ascii_isxdigit}|True}", color="blue", fontname="Calibri", style="filled", fillcolor="white"];
"1636270991" -> "1254830391"[label="1", color="black", style="setlinewidth(1)"];
"151950957"[label="{{Stmt\ -1:\ return\ (b\ \<=\ 9);}|True}", color="black", fontname="Calibri", style="filled", fillcolor="white"];
"151950957" -> "1254830391"[label="1", color="black", style="setlinewidth(1)"];
"1946682425"[label="{{Stmt\ -1:\ (b\ =\ ((a\ \|\ 0x20)\ -\ '}|True}", color="black", fontname="Calibri", style="filled", fillcolor="white"];
"1946682425" -> "1636270991"[label="1", color="black", style="setlinewidth(1)"];
"1776464279"[label="{{Expr\ -1:\ (b\ \<=\ 9)}|True}", color="black", fontname="Calibri", style="filled", fillcolor="white"];
"1776464279" -> "1946682425"[label="1", color="black", style="setlinewidth(1)"];
"1776464279" -> "151950957"[label="1", color="black", style="setlinewidth(1)"];
"1030754857"[label="{{Stmt\ -1:\ unsigned\ char\ b\ =\ \ (}|True}", color="black", fontname="Calibri", style="filled", fillcolor="white"];
"1030754857" -> "1776464279"[label="1", color="black", style="setlinewidth(1)"];
"1254830391" -> "1030754857"[label="1", color="black", style="setlinewidth(1)"];
"2136341445"[label="{{Stmt\ -1:\ (a\ -=\ ('a'\ -\ 'A'));}|True}", color="black", fontname="Calibri", style="filled", fillcolor="white"];
"416569700"[label="{{Stmt\ -1:\ return\ a;}|True}", color="black", fontname="Calibri", style="filled", fillcolor="white"];
"2136341445" -> "416569700"[label="1", color="black", style="setlinewidth(1)"];
"261473082"[label="{{Function\ -1:\ bb_ascii_toupper}|True}", color="blue", fontname="Calibri", style="filled", fillcolor="white"];
"416569700" -> "261473082"[label="1", color="black", style="setlinewidth(1)"];
"494228652"[label="{{Expr\ -1:\ (b\ \<=\ ('z'\ -\ 'a'))}|True}", color="black", fontname="Calibri", style="filled", fillcolor="white"];
"494228652" -> "416569700"[label="1", color="black", style="setlinewidth(1)"];
"494228652" -> "2136341445"[label="1", color="black", style="setlinewidth(1)"];
"1605529912"[label="{{Stmt\ -1:\ unsigned\ char\ b\ =\ \ (}|True}", color="black", fontname="Calibri", style="filled", fillcolor="white"];
"1605529912" -> "494228652"[label="1", color="black", style="setlinewidth(1)"];
"261473082" -> "1605529912"[label="1", color="black", style="setlinewidth(1)"];
"1396116712"[label="{{Stmt\ -1:\ (a\ +=\ ('a'\ -\ 'A'));}|True}", color="black", fontname="Calibri", style="filled", fillcolor="white"];
"874043864"[label="{{Stmt\ -1:\ return\ a;}|True}", color="black", fontname="Calibri", style="filled", fillcolor="white"];
"1396116712" -> "874043864"[label="1", color="black", style="setlinewidth(1)"];
"2030364868"[label="{{Function\ -1:\ bb_ascii_tolower}|True}", color="blue", fontname="Calibri", style="filled", fillcolor="white"];
"874043864" -> "2030364868"[label="1", color="black", style="setlinewidth(1)"];
"492879141"[label="{{Expr\ -1:\ (b\ \<=\ ('Z'\ -\ 'A'))}|True}", color="black", fontname="Calibri", style="filled", fillcolor="white"];
"492879141" -> "874043864"[label="1", color="black", style="setlinewidth(1)"];
"492879141" -> "1396116712"[label="1", color="black", style="setlinewidth(1)"];
"2047430758"[label="{{Stmt\ -1:\ unsigned\ char\ b\ =\ \ (}|True}", color="black", fontname="Calibri", style="filled", fillcolor="white"];
"2047430758" -> "492879141"[label="1", color="black", style="setlinewidth(1)"];
"2030364868" -> "2047430758"[label="1", color="black", style="setlinewidth(1)"];
"1174257884"[label="{{Decl\ -1:\ xmalloc_fgetline}|True}", color="blue", fontname="Calibri", style="filled", fillcolor="white"];
"700402845"[label="{{Decl\ -1:\ xfopen_for_read}|True}", color="blue", fontname="Calibri", style="filled", fillcolor="white"];
"1181351999"[label="{{Stmt\ -1:\ (fp\ =\ xfopen_for_rea}|True}", color="black", fontname="Calibri", style="filled", fillcolor="white"];
"1181351999" -> "700402845"[label="1", color="black", style="setlinewidth(1)"];
"1181351999" -> "1174257884"[label="1", color="black", style="setlinewidth(1)"];
"83894739"[label="{{Stmt\ -1:\ char\ *buf;}|True}", color="black", fontname="Calibri", style="filled", fillcolor="white"];
"83894739" -> "1181351999"[label="1", color="black", style="setlinewidth(1)"];
"1896066086"[label="{{Stmt\ -1:\ FILE\ *fp;}|True}", color="black", fontname="Calibri", style="filled", fillcolor="white"];
"1896066086" -> "83894739"[label="1", color="black", style="setlinewidth(1)"];
"374535320"[label="{{Stmt\ -1:\ char\ *p;}|True}", color="black", fontname="Calibri", style="filled", fillcolor="white"];
"374535320" -> "1896066086"[label="1", color="black", style="setlinewidth(1)"];
"1303016115"[label="{{Function\ -1:\ bb_dump_addfile}|True}", color="blue", fontname="Calibri", style="filled", fillcolor="white"];
"1303016115" -> "374535320"[label="1", color="black", style="setlinewidth(1)"];
"2107408613"[label="{{Stmt\ -1:\ jump_in:}|def(CONFIG_FEATURE_HEXDUMP_REVERSE)}", color="black", fontname="Calibri", style="filled", fillcolor="#CD5200"];
"2107408613" -> "1174257884"[label="definedEx(CONFIG_FEATURE_HEXDUMP_REVERSE)", color="red", style="setlinewidth(1)"];
"2142403080"[label="{{Stmt\ -1:\ goto\ jump_in;}|def(CONFIG_FEATURE_HEXDUMP_REVERSE)}", color="black", fontname="Calibri", style="filled", fillcolor="#CD5200"];
"2142403080" -> "2107408613"[label="definedEx(CONFIG_FEATURE_HEXDUMP_REVERSE)", color="red", style="setlinewidth(1)"];
"1512968389"[label="{{Stmt\ -1:\ (fp\ =\ xfopen_for_rea}|def(CONFIG_FEATURE_HEXDUMP_REVERSE)}", color="black", fontname="Calibri", style="filled", fillcolor="#CD5200"];
"1512968389" -> "700402845"[label="definedEx(CONFIG_FEATURE_HEXDUMP_REVERSE)", color="red", style="setlinewidth(1)"];
"1512968389" -> "2107408613"[label="definedEx(CONFIG_FEATURE_HEXDUMP_REVERSE)", color="red", style="setlinewidth(1)"];
"1192676018"[label="{{Stmt\ -1:\ argv--;}|def(CONFIG_FEATURE_HEXDUMP_REVERSE)}", color="black", fontname="Calibri", style="filled", fillcolor="#CD5200"];
"1192676018" -> "2142403080"[label="definedEx(CONFIG_FEATURE_HEXDUMP_REVERSE)", color="red", style="setlinewidth(1)"];
"1899230108"[label="{{Stmt\ -1:\ char\ \l#if\ definedEx(}|def(CONFIG_FEATURE_HEXDUMP_REVERSE)}", color="black", fontname="Calibri", style="filled", fillcolor="#CD5200"];
"1899230108" -> "1512968389"[label="definedEx(CONFIG_FEATURE_HEXDUMP_REVERSE)", color="red", style="setlinewidth(1)"];
"574135719"[label="{{Expr\ -1:\ (!\ (*argv))}|def(CONFIG_FEATURE_HEXDUMP_REVERSE)}", color="black", fontname="Calibri", style="filled", fillcolor="#CD5200"];
"574135719" -> "1899230108"[label="definedEx(CONFIG_FEATURE_HEXDUMP_REVERSE)", color="red", style="setlinewidth(1)"];
"574135719" -> "1192676018"[label="definedEx(CONFIG_FEATURE_HEXDUMP_REVERSE)", color="red", style="setlinewidth(1)"];
"559468067"[label="{{Stmt\ -1:\ bb_dump_add(dumper\ ,}|True}", color="black", fontname="Calibri", style="filled", fillcolor="white"];
"1522679135"[label="{{Decl\ -1:\ bb_dump_add}|True}", color="blue", fontname="Calibri", style="filled", fillcolor="white"];
"559468067" -> "1522679135"[label="1", color="black", style="setlinewidth(1)"];
"1831102876"[label="{{Expr\ -1:\ (ch\ ==\ 'C')}|True}", color="black", fontname="Calibri", style="filled", fillcolor="white"];
"559468067" -> "1831102876"[label="1", color="black", style="setlinewidth(1)"];
"544621788"[label="{{Stmt\ -1:\ return\ bb_dump_dump(}|def(CONFIG_FEATURE_HEXDUMP_REVERSE)}", color="black", fontname="Calibri", style="filled", fillcolor="#CD5200"];
"1758892536"[label="{{Decl\ -1:\ bb_dump_dump}|def(CONFIG_FEATURE_HEXDUMP_REVERSE)}", color="blue", fontname="Calibri", style="filled", fillcolor="#CD5200"];
"544621788" -> "1758892536"[label="definedEx(CONFIG_FEATURE_HEXDUMP_REVERSE)", color="red", style="setlinewidth(1)"];
"725326507"[label="{{Function\ -1:\ hexdump_main}|def(CONFIG_FEATURE_HEXDUMP_REVERSE)}", color="blue", fontname="Calibri", style="filled", fillcolor="#CD5200"];
"544621788" -> "725326507"[label="definedEx(CONFIG_FEATURE_HEXDUMP_REVERSE)", color="red", style="setlinewidth(1)"];
"276401243"[label="{{Stmt\ -1:\ (fp\ =\ stdin);}|def(CONFIG_FEATURE_HEXDUMP_REVERSE)}", color="black", fontname="Calibri", style="filled", fillcolor="#CD5200"];
"276401243" -> "574135719"[label="definedEx(CONFIG_FEATURE_HEXDUMP_REVERSE)", color="red", style="setlinewidth(1)"];
"1435022847"[label="{{Stmt\ -1:\ bb_dump_add(dumper\ ,}|True}", color="black", fontname="Calibri", style="filled", fillcolor="white"];
"1435022847" -> "1522679135"[label="1", color="black", style="setlinewidth(1)"];
"1435022847" -> "559468067"[label="1", color="black", style="setlinewidth(1)"];
"2144584715"[label="{{Expr\ -1:\ (ch\ ==\ 'e')}|True}", color="black", fontname="Calibri", style="filled", fillcolor="white"];
"1831102876" -> "2144584715"[label="1", color="black", style="setlinewidth(1)"];
"93751661"[label="{{Stmt\ -1:\ hd_applet:}|True}", color="black", fontname="Calibri", style="filled", fillcolor="white"];
"1831102876" -> "93751661"[label="1", color="black", style="setlinewidth(1)"];
"1950158733"[label="{{Stmt\ -1:\ bb_dump_add(dumper\ ,}|True}", color="black", fontname="Calibri", style="filled", fillcolor="white"];
"1950158733" -> "1522679135"[label="1", color="black", style="setlinewidth(1)"];
"1486198786"[label="{{Stmt\ -1:\ (argv\ +=\ optind);}|True}", color="black", fontname="Calibri", style="filled", fillcolor="white"];
"1950158733" -> "1486198786"[label="1", color="black", style="setlinewidth(1)"];
"216355583"[label="{{Expr\ -1:\ (!\ rdump)}|def(CONFIG_FEATURE_HEXDUMP_REVERSE)}", color="black", fontname="Calibri", style="filled", fillcolor="#CD5200"];
"216355583" -> "276401243"[label="definedEx(CONFIG_FEATURE_HEXDUMP_REVERSE)", color="red", style="setlinewidth(1)"];
"216355583" -> "544621788"[label="definedEx(CONFIG_FEATURE_HEXDUMP_REVERSE)", color="red", style="setlinewidth(1)"];
"565583145"[label="{{Stmt\ -1:\ return\ bb_dump_dump(}|!def(CONFIG_FEATURE_HEXDUMP_REVERSE)}", color="black", fontname="Calibri", style="filled", fillcolor="#CD5200"];
"565583145" -> "1758892536"[label="!definedEx(CONFIG_FEATURE_HEXDUMP_REVERSE)", color="red", style="setlinewidth(1)"];
"565583145" -> "725326507"[label="!definedEx(CONFIG_FEATURE_HEXDUMP_REVERSE)", color="red", style="setlinewidth(1)"];
"358591043"[label="{{Stmt\ -1:\ bb_show_usage();}|True}", color="black", fontname="Calibri", style="filled", fillcolor="white"];
"927213438"[label="{{Decl\ -1:\ bb_show_usage}|True}", color="blue", fontname="Calibri", style="filled", fillcolor="white"];
"358591043" -> "927213438"[label="1", color="black", style="setlinewidth(1)"];
"2138651673"[label="{{Expr\ -1:\ ((p\ -\ hexdump_opts)\ }|True}", color="black", fontname="Calibri", style="filled", fillcolor="white"];
"358591043" -> "2138651673"[label="1", color="black", style="setlinewidth(1)"];
"2138651673" -> "1831102876"[label="1", color="black", style="setlinewidth(1)"];
"2138651673" -> "1435022847"[label="1", color="black", style="setlinewidth(1)"];
"1181351999" -> "700402845"[label="1", color="black", style="setlinewidth(1)"];
"1181351999" -> "1174257884"[label="1", color="black", style="setlinewidth(1)"];
"1022745738"[label="{{Stmt\ -1:\ bb_dump_add(dumper\ ,}|True}", color="black", fontname="Calibri", style="filled", fillcolor="white"];
"1022745738" -> "1522679135"[label="1", color="black", style="setlinewidth(1)"];
"1022745738" -> "1950158733"[label="1", color="black", style="setlinewidth(1)"];
"1486198786" -> "565583145"[label="!definedEx(CONFIG_FEATURE_HEXDUMP_REVERSE)", color="red", style="setlinewidth(1)"];
"1486198786" -> "216355583"[label="definedEx(CONFIG_FEATURE_HEXDUMP_REVERSE)", color="red", style="setlinewidth(1)"];
"617714789"[label="{{Expr\ -1:\ (!\ p)}|True}", color="black", fontname="Calibri", style="filled", fillcolor="white"];
"617714789" -> "2138651673"[label="1", color="black", style="setlinewidth(1)"];
"617714789" -> "358591043"[label="1", color="black", style="setlinewidth(1)"];
"83894739" -> "1181351999"[label="1", color="black", style="setlinewidth(1)"];
"432465105"[label="{{Expr\ -1:\ (!\ dumper-\>fshead)}|True}", color="black", fontname="Calibri", style="filled", fillcolor="white"];
"432465105" -> "1486198786"[label="1", color="black", style="setlinewidth(1)"];
"432465105" -> "1022745738"[label="1", color="black", style="setlinewidth(1)"];
"1117328473"[label="{{Stmt\ -1:\ (p\ =\ strchr(hexdump_}|True}", color="black", fontname="Calibri", style="filled", fillcolor="white"];
"1618170118"[label="{{Decl\ -1:\ strchr}|True}", color="blue", fontname="Calibri", style="filled", fillcolor="white"];
"1117328473" -> "1618170118"[label="1", color="black", style="setlinewidth(1)"];
"1117328473" -> "617714789"[label="1", color="black", style="setlinewidth(1)"];
"846423392"[label="{{Stmt\ -1:\ (rdump\ =\ 1);}|def(CONFIG_FEATURE_HEXDUMP_REVERSE)}", color="black", fontname="Calibri", style="filled", fillcolor="#CD5200"];
"846423392" -> "1365685911"[label="definedEx(CONFIG_FEATURE_HEXDUMP_REVERSE)", color="red", style="setlinewidth(1)"];
"89529075"[label="{{Decl\ -1:\ xatoi_positive}|def(CONFIG_FEATURE_HEXDUMP_REVERSE)}", color="blue", fontname="Calibri", style="filled", fillcolor="#CD5200"];
"846423392" -> "89529075"[label="definedEx(CONFIG_FEATURE_HEXDUMP_REVERSE)", color="red", style="setlinewidth(1)"];
"846423392" -> "1303016115"[label="definedEx(CONFIG_FEATURE_HEXDUMP_REVERSE)", color="red", style="setlinewidth(1)"];
"846423392" -> "1522679135"[label="definedEx(CONFIG_FEATURE_HEXDUMP_REVERSE)", color="red", style="setlinewidth(1)"];
"846423392" -> "927213438"[label="definedEx(CONFIG_FEATURE_HEXDUMP_REVERSE)", color="red", style="setlinewidth(1)"];
"846423392" -> "1618170118"[label="definedEx(CONFIG_FEATURE_HEXDUMP_REVERSE)", color="red", style="setlinewidth(1)"];
"1117772618"[label="{{Decl\ -1:\ getopt}|def(CONFIG_FEATURE_HEXDUMP_REVERSE)}", color="blue", fontname="Calibri", style="filled", fillcolor="#CD5200"];
"846423392" -> "1117772618"[label="definedEx(CONFIG_FEATURE_HEXDUMP_REVERSE)", color="red", style="setlinewidth(1)"];
"1877845960"[label="{{Expr\ -1:\ ((ch\ =\ getopt(argc\ ,}|def(CONFIG_FEATURE_HEXDUMP_REVERSE)}", color="black", fontname="Calibri", style="filled", fillcolor="#CD5200"];
"846423392" -> "1877845960"[label="definedEx(CONFIG_FEATURE_HEXDUMP_REVERSE)", color="red", style="setlinewidth(1)"];
"1001688235" -> "1664021007"[label="1", color="black", style="setlinewidth(1)"];
"1001688235" -> "1365685911"[label="1", color="black", style="setlinewidth(1)"];
"1896066086" -> "83894739"[label="1", color="black", style="setlinewidth(1)"];
"1887534417"[label="{{Stmt\ -1:\ (dumper-\>dump_vflag\ }|True}", color="black", fontname="Calibri", style="filled", fillcolor="white"];
"1887534417" -> "1365685911"[label="!definedEx(CONFIG_FEATURE_HEXDUMP_REVERSE)", color="red", style="setlinewidth(1)"];
"1887534417" -> "89529075"[label="!definedEx(CONFIG_FEATURE_HEXDUMP_REVERSE)", color="red", style="setlinewidth(1)"];
"1887534417" -> "1303016115"[label="!definedEx(CONFIG_FEATURE_HEXDUMP_REVERSE)", color="red", style="setlinewidth(1)"];
"1887534417" -> "1522679135"[label="!definedEx(CONFIG_FEATURE_HEXDUMP_REVERSE)", color="red", style="setlinewidth(1)"];
"1887534417" -> "927213438"[label="!definedEx(CONFIG_FEATURE_HEXDUMP_REVERSE)", color="red", style="setlinewidth(1)"];
"1887534417" -> "1618170118"[label="!definedEx(CONFIG_FEATURE_HEXDUMP_REVERSE)", color="red", style="setlinewidth(1)"];
"1887534417" -> "1117772618"[label="!definedEx(CONFIG_FEATURE_HEXDUMP_REVERSE)", color="red", style="setlinewidth(1)"];
"775252676"[label="{{Expr\ -1:\ (ch\ ==\ 'R')}|True}", color="black", fontname="Calibri", style="filled", fillcolor="white"];
"1887534417" -> "775252676"[label="definedEx(CONFIG_FEATURE_HEXDUMP_REVERSE)", color="red", style="setlinewidth(1)"];
"1887534417" -> "1877845960"[label="!definedEx(CONFIG_FEATURE_HEXDUMP_REVERSE)", color="red", style="setlinewidth(1)"];
"1877845960" -> "1117328473"[label="1", color="black", style="setlinewidth(1)"];
"1877845960" -> "432465105"[label="1", color="black", style="setlinewidth(1)"];
"775252676" -> "1365685911"[label="definedEx(CONFIG_FEATURE_HEXDUMP_REVERSE)", color="red", style="setlinewidth(1)"];
"775252676" -> "89529075"[label="definedEx(CONFIG_FEATURE_HEXDUMP_REVERSE)", color="red", style="setlinewidth(1)"];
"775252676" -> "1303016115"[label="definedEx(CONFIG_FEATURE_HEXDUMP_REVERSE)", color="red", style="setlinewidth(1)"];
"775252676" -> "1522679135"[label="definedEx(CONFIG_FEATURE_HEXDUMP_REVERSE)", color="red", style="setlinewidth(1)"];
"775252676" -> "927213438"[label="definedEx(CONFIG_FEATURE_HEXDUMP_REVERSE)", color="red", style="setlinewidth(1)"];
"775252676" -> "1618170118"[label="definedEx(CONFIG_FEATURE_HEXDUMP_REVERSE)", color="red", style="setlinewidth(1)"];
"775252676" -> "1117772618"[label="definedEx(CONFIG_FEATURE_HEXDUMP_REVERSE)", color="red", style="setlinewidth(1)"];
"775252676" -> "1877845960"[label="definedEx(CONFIG_FEATURE_HEXDUMP_REVERSE)", color="red", style="setlinewidth(1)"];
"775252676" -> "846423392"[label="definedEx(CONFIG_FEATURE_HEXDUMP_REVERSE)", color="red", style="setlinewidth(1)"];
"1365685911" -> "1001688235"[label="1", color="black", style="setlinewidth(1)"];
"374535320" -> "1896066086"[label="1", color="black", style="setlinewidth(1)"];
"1090018507"[label="{{Stmt\ -1:\ (dumper-\>dump_skip\ =}|True}", color="black", fontname="Calibri", style="filled", fillcolor="white"];
"1090018507" -> "1365685911"[label="1", color="black", style="setlinewidth(1)"];
"1235937681"[label="{{Expr\ -1:\ (ch\ ==\ 'v')}|True}", color="black", fontname="Calibri", style="filled", fillcolor="white"];
"1090018507" -> "1235937681"[label="1", color="black", style="setlinewidth(1)"];
"1235937681" -> "1365685911"[label="!definedEx(CONFIG_FEATURE_HEXDUMP_REVERSE)", color="red", style="setlinewidth(1)"];
"1235937681" -> "89529075"[label="!definedEx(CONFIG_FEATURE_HEXDUMP_REVERSE)", color="red", style="setlinewidth(1)"];
"1235937681" -> "1303016115"[label="!definedEx(CONFIG_FEATURE_HEXDUMP_REVERSE)", color="red", style="setlinewidth(1)"];
"1235937681" -> "1522679135"[label="!definedEx(CONFIG_FEATURE_HEXDUMP_REVERSE)", color="red", style="setlinewidth(1)"];
"1235937681" -> "927213438"[label="!definedEx(CONFIG_FEATURE_HEXDUMP_REVERSE)", color="red", style="setlinewidth(1)"];
"1235937681" -> "1618170118"[label="!definedEx(CONFIG_FEATURE_HEXDUMP_REVERSE)", color="red", style="setlinewidth(1)"];
"1235937681" -> "1117772618"[label="!definedEx(CONFIG_FEATURE_HEXDUMP_REVERSE)", color="red", style="setlinewidth(1)"];
"1235937681" -> "775252676"[label="definedEx(CONFIG_FEATURE_HEXDUMP_REVERSE)", color="red", style="setlinewidth(1)"];
"1235937681" -> "1877845960"[label="!definedEx(CONFIG_FEATURE_HEXDUMP_REVERSE)", color="red", style="setlinewidth(1)"];
"1235937681" -> "1887534417"[label="1", color="black", style="setlinewidth(1)"];
"1303016115" -> "374535320"[label="1", color="black", style="setlinewidth(1)"];
"1219710324"[label="{{Stmt\ -1:\ (dumper-\>dump_length}|True}", color="black", fontname="Calibri", style="filled", fillcolor="white"];
"1219710324" -> "89529075"[label="1", color="black", style="setlinewidth(1)"];
"285215488"[label="{{Expr\ -1:\ (ch\ ==\ 's')}|True}", color="black", fontname="Calibri", style="filled", fillcolor="white"];
"1219710324" -> "285215488"[label="1", color="black", style="setlinewidth(1)"];
"285215488" -> "1235937681"[label="1", color="black", style="setlinewidth(1)"];
"285215488" -> "1090018507"[label="1", color="black", style="setlinewidth(1)"];
"75819932"[label="{{Stmt\ -1:\ bb_dump_addfile(dump}|True}", color="black", fontname="Calibri", style="filled", fillcolor="white"];
"75819932" -> "1303016115"[label="1", color="black", style="setlinewidth(1)"];
"938750733"[label="{{Expr\ -1:\ (ch\ ==\ 'n')}|True}", color="black", fontname="Calibri", style="filled", fillcolor="white"];
"75819932" -> "938750733"[label="1", color="black", style="setlinewidth(1)"];
"938750733" -> "285215488"[label="1", color="black", style="setlinewidth(1)"];
"938750733" -> "1219710324"[label="1", color="black", style="setlinewidth(1)"];
"748611705"[label="{{Stmt\ -1:\ bb_dump_add(dumper\ ,}|True}", color="black", fontname="Calibri", style="filled", fillcolor="white"];
"748611705" -> "1522679135"[label="1", color="black", style="setlinewidth(1)"];
"216307032"[label="{{Expr\ -1:\ (ch\ ==\ 'f')}|True}", color="black", fontname="Calibri", style="filled", fillcolor="white"];
"748611705" -> "216307032"[label="1", color="black", style="setlinewidth(1)"];
"216307032" -> "938750733"[label="1", color="black", style="setlinewidth(1)"];
"216307032" -> "75819932"[label="1", color="black", style="setlinewidth(1)"];
"2144584715" -> "216307032"[label="1", color="black", style="setlinewidth(1)"];
"2144584715" -> "748611705"[label="1", color="black", style="setlinewidth(1)"];
"1102242655"[label="{{Stmt\ -1:\ bb_dump_add(dumper\ ,}|True}", color="black", fontname="Calibri", style="filled", fillcolor="white"];
"1102242655" -> "1522679135"[label="1", color="black", style="setlinewidth(1)"];
"1102242655" -> "2144584715"[label="1", color="black", style="setlinewidth(1)"];
"1357133956"[label="{{Stmt\ -1:\ bb_dump_add(dumper\ ,}|True}", color="black", fontname="Calibri", style="filled", fillcolor="white"];
"1357133956" -> "1522679135"[label="1", color="black", style="setlinewidth(1)"];
"1357133956" -> "1102242655"[label="1", color="black", style="setlinewidth(1)"];
"263470347"[label="{{Stmt\ -1:\ bb_dump_add(dumper\ ,}|True}", color="black", fontname="Calibri", style="filled", fillcolor="white"];
"263470347" -> "1522679135"[label="1", color="black", style="setlinewidth(1)"];
"263470347" -> "1357133956"[label="1", color="black", style="setlinewidth(1)"];
"93751661" -> "263470347"[label="1", color="black", style="setlinewidth(1)"];
"192045807"[label="{{Stmt\ -1:\ goto\ hd_applet;}|True}", color="black", fontname="Calibri", style="filled", fillcolor="white"];
"192045807" -> "93751661"[label="1", color="black", style="setlinewidth(1)"];
"179590728"[label="{{Stmt\ -1:\ (ch\ =\ 'C');}|True}", color="black", fontname="Calibri", style="filled", fillcolor="white"];
"179590728" -> "192045807"[label="1", color="black", style="setlinewidth(1)"];
"654113249"[label="{{Stmt\ -1:\ smallint\ \l#if\ define}|def(CONFIG_FEATURE_HEXDUMP_REVERSE)}", color="black", fontname="Calibri", style="filled", fillcolor="#CD5200"];
"1163731933"[label="{{Expr\ -1:\ (1\ &&\ (!\ applet_name}|def(CONFIG_FEATURE_HEXDUMP_REVERSE)}", color="black", fontname="Calibri", style="filled", fillcolor="#CD5200"];
"654113249" -> "1163731933"[label="(definedEx(CONFIG_HD) && definedEx(CONFIG_FEATURE_HEXDUMP_REVERSE))", color="red", style="setlinewidth(1)"];
"1190966907"[label="{{Expr\ -1:\ (0\ &&\ (!\ applet_name}|def(CONFIG_FEATURE_HEXDUMP_REVERSE)}", color="black", fontname="Calibri", style="filled", fillcolor="#CD5200"];
"654113249" -> "1190966907"[label="(definedEx(CONFIG_FEATURE_HEXDUMP_REVERSE) && !definedEx(CONFIG_HD))", color="red", style="setlinewidth(1)"];
"1190966907" -> "1117772618"[label="!definedEx(CONFIG_HD)", color="red", style="setlinewidth(1)"];
"1190966907" -> "179590728"[label="!definedEx(CONFIG_HD)", color="red", style="setlinewidth(1)"];
"1163731933" -> "1117772618"[label="definedEx(CONFIG_HD)", color="red", style="setlinewidth(1)"];
"1163731933" -> "179590728"[label="definedEx(CONFIG_HD)", color="red", style="setlinewidth(1)"];
"1419164133"[label="{{Stmt\ -1:\ FILE\ \l#if\ definedEx(}|def(CONFIG_FEATURE_HEXDUMP_REVERSE)}", color="black", fontname="Calibri", style="filled", fillcolor="#CD5200"];
"1419164133" -> "654113249"[label="definedEx(CONFIG_FEATURE_HEXDUMP_REVERSE)", color="red", style="setlinewidth(1)"];
"1677625084"[label="{{Stmt\ -1:\ int\ ch;}|True}", color="black", fontname="Calibri", style="filled", fillcolor="white"];
"1677625084" -> "1419164133"[label="definedEx(CONFIG_FEATURE_HEXDUMP_REVERSE)", color="red", style="setlinewidth(1)"];
"1677625084" -> "1163731933"[label="(!definedEx(CONFIG_FEATURE_HEXDUMP_REVERSE) && definedEx(CONFIG_HD))", color="red", style="setlinewidth(1)"];
"1677625084" -> "1190966907"[label="(!definedEx(CONFIG_FEATURE_HEXDUMP_REVERSE) && !definedEx(CONFIG_HD))", color="red", style="setlinewidth(1)"];
"1133101112"[label="{{Stmt\ -1:\ const\ char\ *p;}|True}", color="black", fontname="Calibri", style="filled", fillcolor="white"];
"1133101112" -> "1677625084"[label="1", color="black", style="setlinewidth(1)"];
"1091178914"[label="{{Decl\ -1:\ alloc_dumper}|True}", color="blue", fontname="Calibri", style="filled", fillcolor="white"];
"334626358"[label="{{Stmt\ -1:\ dumper_t\ *dumper\ =\ \ }|True}", color="black", fontname="Calibri", style="filled", fillcolor="white"];
"334626358" -> "1091178914"[label="1", color="black", style="setlinewidth(1)"];
"334626358" -> "1133101112"[label="1", color="black", style="setlinewidth(1)"];
"725326507" -> "334626358"[label="1", color="black", style="setlinewidth(1)"];
}
