digraph "busybox-1.18.5/util-linux/losetup.c" {
node [shape=record];
"743428206"[label="{{Decl\ -1:\ xstrtoull_range_sfx}|True}", color="blue", fontname="Calibri", style="filled", fillcolor="white"];
"1531430123"[label="{{Stmt\ -1:\ return\ xstrtoull_ran}|True}", color="black", fontname="Calibri", style="filled", fillcolor="white"];
"1531430123" -> "743428206"[label="1", color="black", style="setlinewidth(1)"];
"106838866"[label="{{Function\ -1:\ xstrtoul_range_sfx}|True}", color="blue", fontname="Calibri", style="filled", fillcolor="white"];
"1531430123" -> "106838866"[label="1", color="black", style="setlinewidth(1)"];
"106838866" -> "1531430123"[label="1", color="black", style="setlinewidth(1)"];
"808099855"[label="{{Decl\ -1:\ xstrtoull_range}|True}", color="blue", fontname="Calibri", style="filled", fillcolor="white"];
"1619701892"[label="{{Stmt\ -1:\ return\ xstrtoull_ran}|True}", color="black", fontname="Calibri", style="filled", fillcolor="white"];
"1619701892" -> "808099855"[label="1", color="black", style="setlinewidth(1)"];
"713003975"[label="{{Function\ -1:\ xstrtoul_range}|True}", color="blue", fontname="Calibri", style="filled", fillcolor="white"];
"1619701892" -> "713003975"[label="1", color="black", style="setlinewidth(1)"];
"713003975" -> "1619701892"[label="1", color="black", style="setlinewidth(1)"];
"1286755922"[label="{{Decl\ -1:\ xstrtoull_sfx}|True}", color="blue", fontname="Calibri", style="filled", fillcolor="white"];
"1528364454"[label="{{Stmt\ -1:\ return\ xstrtoull_sfx}|True}", color="black", fontname="Calibri", style="filled", fillcolor="white"];
"1528364454" -> "1286755922"[label="1", color="black", style="setlinewidth(1)"];
"611245343"[label="{{Function\ -1:\ xstrtoul_sfx}|True}", color="blue", fontname="Calibri", style="filled", fillcolor="white"];
"1528364454" -> "611245343"[label="1", color="black", style="setlinewidth(1)"];
"611245343" -> "1528364454"[label="1", color="black", style="setlinewidth(1)"];
"197155356"[label="{{Decl\ -1:\ xstrtoull}|True}", color="blue", fontname="Calibri", style="filled", fillcolor="white"];
"1540159731"[label="{{Stmt\ -1:\ return\ xstrtoull(str}|True}", color="black", fontname="Calibri", style="filled", fillcolor="white"];
"1540159731" -> "197155356"[label="1", color="black", style="setlinewidth(1)"];
"581226639"[label="{{Function\ -1:\ xstrtoul}|True}", color="blue", fontname="Calibri", style="filled", fillcolor="white"];
"1540159731" -> "581226639"[label="1", color="black", style="setlinewidth(1)"];
"581226639" -> "1540159731"[label="1", color="black", style="setlinewidth(1)"];
"635067349"[label="{{Decl\ -1:\ xatoull_range_sfx}|True}", color="blue", fontname="Calibri", style="filled", fillcolor="white"];
"731993621"[label="{{Stmt\ -1:\ return\ xatoull_range}|True}", color="black", fontname="Calibri", style="filled", fillcolor="white"];
"731993621" -> "635067349"[label="1", color="black", style="setlinewidth(1)"];
"1465836770"[label="{{Function\ -1:\ xatoul_range_sfx}|True}", color="blue", fontname="Calibri", style="filled", fillcolor="white"];
"731993621" -> "1465836770"[label="1", color="black", style="setlinewidth(1)"];
"1465836770" -> "731993621"[label="1", color="black", style="setlinewidth(1)"];
"630176830"[label="{{Decl\ -1:\ xatoull_range}|True}", color="blue", fontname="Calibri", style="filled", fillcolor="white"];
"1012231933"[label="{{Stmt\ -1:\ return\ xatoull_range}|True}", color="black", fontname="Calibri", style="filled", fillcolor="white"];
"1012231933" -> "630176830"[label="1", color="black", style="setlinewidth(1)"];
"1344987728"[label="{{Function\ -1:\ xatoul_range}|True}", color="blue", fontname="Calibri", style="filled", fillcolor="white"];
"1012231933" -> "1344987728"[label="1", color="black", style="setlinewidth(1)"];
"1344987728" -> "1012231933"[label="1", color="black", style="setlinewidth(1)"];
"1132319710"[label="{{Decl\ -1:\ xatoull_sfx}|True}", color="blue", fontname="Calibri", style="filled", fillcolor="white"];
"1403575067"[label="{{Stmt\ -1:\ return\ xatoull_sfx(s}|True}", color="black", fontname="Calibri", style="filled", fillcolor="white"];
"1403575067" -> "1132319710"[label="1", color="black", style="setlinewidth(1)"];
"444692817"[label="{{Function\ -1:\ xatoul_sfx}|True}", color="blue", fontname="Calibri", style="filled", fillcolor="white"];
"1403575067" -> "444692817"[label="1", color="black", style="setlinewidth(1)"];
"444692817" -> "1403575067"[label="1", color="black", style="setlinewidth(1)"];
"852002982"[label="{{Decl\ -1:\ xatoull}|True}", color="blue", fontname="Calibri", style="filled", fillcolor="white"];
"15776713"[label="{{Stmt\ -1:\ return\ xatoull(str);}|True}", color="black", fontname="Calibri", style="filled", fillcolor="white"];
"15776713" -> "852002982"[label="1", color="black", style="setlinewidth(1)"];
"719368635"[label="{{Function\ -1:\ xatoul}|True}", color="blue", fontname="Calibri", style="filled", fillcolor="white"];
"15776713" -> "719368635"[label="1", color="black", style="setlinewidth(1)"];
"719368635" -> "15776713"[label="1", color="black", style="setlinewidth(1)"];
"90983406"[label="{{Decl\ -1:\ xstrtoll_range_sfx}|True}", color="blue", fontname="Calibri", style="filled", fillcolor="white"];
"594658085"[label="{{Stmt\ -1:\ return\ xstrtoll_rang}|True}", color="black", fontname="Calibri", style="filled", fillcolor="white"];
"594658085" -> "90983406"[label="1", color="black", style="setlinewidth(1)"];
"876626649"[label="{{Function\ -1:\ xstrtol_range_sfx}|True}", color="blue", fontname="Calibri", style="filled", fillcolor="white"];
"594658085" -> "876626649"[label="1", color="black", style="setlinewidth(1)"];
"876626649" -> "594658085"[label="1", color="black", style="setlinewidth(1)"];
"1424859144"[label="{{Decl\ -1:\ xstrtoll_range}|True}", color="blue", fontname="Calibri", style="filled", fillcolor="white"];
"2013871406"[label="{{Stmt\ -1:\ return\ xstrtoll_rang}|True}", color="black", fontname="Calibri", style="filled", fillcolor="white"];
"2013871406" -> "1424859144"[label="1", color="black", style="setlinewidth(1)"];
"1109274624"[label="{{Function\ -1:\ xstrtol_range}|True}", color="blue", fontname="Calibri", style="filled", fillcolor="white"];
"2013871406" -> "1109274624"[label="1", color="black", style="setlinewidth(1)"];
"1109274624" -> "2013871406"[label="1", color="black", style="setlinewidth(1)"];
"111183432"[label="{{Decl\ -1:\ xstrtoll}|True}", color="blue", fontname="Calibri", style="filled", fillcolor="white"];
"781124710"[label="{{Stmt\ -1:\ return\ xstrtoll(str\ }|True}", color="black", fontname="Calibri", style="filled", fillcolor="white"];
"781124710" -> "111183432"[label="1", color="black", style="setlinewidth(1)"];
"1959763949"[label="{{Function\ -1:\ xstrtol}|True}", color="blue", fontname="Calibri", style="filled", fillcolor="white"];
"781124710" -> "1959763949"[label="1", color="black", style="setlinewidth(1)"];
"1959763949" -> "781124710"[label="1", color="black", style="setlinewidth(1)"];
"382102884"[label="{{Decl\ -1:\ xatoll_range_sfx}|True}", color="blue", fontname="Calibri", style="filled", fillcolor="white"];
"1661643736"[label="{{Stmt\ -1:\ return\ xatoll_range_}|True}", color="black", fontname="Calibri", style="filled", fillcolor="white"];
"1661643736" -> "382102884"[label="1", color="black", style="setlinewidth(1)"];
"28273754"[label="{{Function\ -1:\ xatol_range_sfx}|True}", color="blue", fontname="Calibri", style="filled", fillcolor="white"];
"1661643736" -> "28273754"[label="1", color="black", style="setlinewidth(1)"];
"28273754" -> "1661643736"[label="1", color="black", style="setlinewidth(1)"];
"695826629"[label="{{Decl\ -1:\ xatoll_range}|True}", color="blue", fontname="Calibri", style="filled", fillcolor="white"];
"841516450"[label="{{Stmt\ -1:\ return\ xatoll_range(}|True}", color="black", fontname="Calibri", style="filled", fillcolor="white"];
"841516450" -> "695826629"[label="1", color="black", style="setlinewidth(1)"];
"430965898"[label="{{Function\ -1:\ xatol_range}|True}", color="blue", fontname="Calibri", style="filled", fillcolor="white"];
"841516450" -> "430965898"[label="1", color="black", style="setlinewidth(1)"];
"430965898" -> "841516450"[label="1", color="black", style="setlinewidth(1)"];
"147268777"[label="{{Decl\ -1:\ xatoll_sfx}|True}", color="blue", fontname="Calibri", style="filled", fillcolor="white"];
"291346344"[label="{{Stmt\ -1:\ return\ xatoll_sfx(st}|True}", color="black", fontname="Calibri", style="filled", fillcolor="white"];
"291346344" -> "147268777"[label="1", color="black", style="setlinewidth(1)"];
"1754261018"[label="{{Function\ -1:\ xatol_sfx}|True}", color="blue", fontname="Calibri", style="filled", fillcolor="white"];
"291346344" -> "1754261018"[label="1", color="black", style="setlinewidth(1)"];
"1754261018" -> "291346344"[label="1", color="black", style="setlinewidth(1)"];
"292651271"[label="{{Decl\ -1:\ xatoll}|True}", color="blue", fontname="Calibri", style="filled", fillcolor="white"];
"571935180"[label="{{Stmt\ -1:\ return\ xatoll(str);}|True}", color="black", fontname="Calibri", style="filled", fillcolor="white"];
"571935180" -> "292651271"[label="1", color="black", style="setlinewidth(1)"];
"714762484"[label="{{Function\ -1:\ xatol}|True}", color="blue", fontname="Calibri", style="filled", fillcolor="white"];
"571935180" -> "714762484"[label="1", color="black", style="setlinewidth(1)"];
"714762484" -> "571935180"[label="1", color="black", style="setlinewidth(1)"];
"15776713" -> "852002982"[label="1", color="black", style="setlinewidth(1)"];
"15776713" -> "719368635"[label="1", color="black", style="setlinewidth(1)"];
"719368635" -> "15776713"[label="1", color="black", style="setlinewidth(1)"];
"1020037731"[label="{{Decl\ -1:\ BUG_xatou32_unimplemented}|True}", color="blue", fontname="Calibri", style="filled", fillcolor="white"];
"1905040650"[label="{{Decl\ -1:\ xatou}|True}", color="blue", fontname="Calibri", style="filled", fillcolor="white"];
"265292515"[label="{{Stmt\ -1:\ return\ xatoul(numstr}|True}", color="black", fontname="Calibri", style="filled", fillcolor="white"];
"265292515" -> "719368635"[label="1", color="black", style="setlinewidth(1)"];
"382924223"[label="{{Function\ -1:\ xatou32}|True}", color="blue", fontname="Calibri", style="filled", fillcolor="white"];
"265292515" -> "382924223"[label="1", color="black", style="setlinewidth(1)"];
"1187023312"[label="{{Stmt\ -1:\ return\ BUG_xatou32_u}|True}", color="black", fontname="Calibri", style="filled", fillcolor="white"];
"1187023312" -> "1020037731"[label="1", color="black", style="setlinewidth(1)"];
"1187023312" -> "382924223"[label="1", color="black", style="setlinewidth(1)"];
"1947705168"[label="{{Stmt\ -1:\ return\ xatou(numstr)}|True}", color="black", fontname="Calibri", style="filled", fillcolor="white"];
"1947705168" -> "1905040650"[label="1", color="black", style="setlinewidth(1)"];
"1947705168" -> "382924223"[label="1", color="black", style="setlinewidth(1)"];
"540725424"[label="{{Expr\ -1:\ (((92233720368547758}|True}", color="black", fontname="Calibri", style="filled", fillcolor="white"];
"540725424" -> "1187023312"[label="1", color="black", style="setlinewidth(1)"];
"540725424" -> "265292515"[label="1", color="black", style="setlinewidth(1)"];
"1166631724"[label="{{Expr\ -1:\ (((2147483647\ *\ 2U)\ }|True}", color="black", fontname="Calibri", style="filled", fillcolor="white"];
"1166631724" -> "540725424"[label="1", color="black", style="setlinewidth(1)"];
"1166631724" -> "1947705168"[label="1", color="black", style="setlinewidth(1)"];
"382924223" -> "1166631724"[label="1", color="black", style="setlinewidth(1)"];
"1456173050"[label="{{Decl\ -1:\ bb_strtoull}|True}", color="blue", fontname="Calibri", style="filled", fillcolor="white"];
"1297186580"[label="{{Stmt\ -1:\ return\ bb_strtoull(a}|True}", color="black", fontname="Calibri", style="filled", fillcolor="white"];
"1297186580" -> "1456173050"[label="1", color="black", style="setlinewidth(1)"];
"1028363729"[label="{{Function\ -1:\ bb_strtoul}|True}", color="blue", fontname="Calibri", style="filled", fillcolor="white"];
"1297186580" -> "1028363729"[label="1", color="black", style="setlinewidth(1)"];
"1028363729" -> "1297186580"[label="1", color="black", style="setlinewidth(1)"];
"766949946"[label="{{Decl\ -1:\ bb_strtoll}|True}", color="blue", fontname="Calibri", style="filled", fillcolor="white"];
"1652554414"[label="{{Stmt\ -1:\ return\ bb_strtoll(ar}|True}", color="black", fontname="Calibri", style="filled", fillcolor="white"];
"1652554414" -> "766949946"[label="1", color="black", style="setlinewidth(1)"];
"691416244"[label="{{Function\ -1:\ bb_strtol}|True}", color="blue", fontname="Calibri", style="filled", fillcolor="white"];
"1652554414" -> "691416244"[label="1", color="black", style="setlinewidth(1)"];
"691416244" -> "1652554414"[label="1", color="black", style="setlinewidth(1)"];
"1297186580" -> "1456173050"[label="1", color="black", style="setlinewidth(1)"];
"1297186580" -> "1028363729"[label="1", color="black", style="setlinewidth(1)"];
"1028363729" -> "1297186580"[label="1", color="black", style="setlinewidth(1)"];
"1118757559"[label="{{Decl\ -1:\ BUG_bb_strtou32_unimplemented}|True}", color="blue", fontname="Calibri", style="filled", fillcolor="white"];
"2005829810"[label="{{Decl\ -1:\ bb_strtou}|True}", color="blue", fontname="Calibri", style="filled", fillcolor="white"];
"199599944"[label="{{Stmt\ -1:\ return\ bb_strtoul(ar}|True}", color="black", fontname="Calibri", style="filled", fillcolor="white"];
"199599944" -> "1028363729"[label="1", color="black", style="setlinewidth(1)"];
"2111365055"[label="{{Function\ -1:\ bb_strtou32}|True}", color="blue", fontname="Calibri", style="filled", fillcolor="white"];
"199599944" -> "2111365055"[label="1", color="black", style="setlinewidth(1)"];
"409867889"[label="{{Stmt\ -1:\ return\ BUG_bb_strtou}|True}", color="black", fontname="Calibri", style="filled", fillcolor="white"];
"409867889" -> "1118757559"[label="1", color="black", style="setlinewidth(1)"];
"409867889" -> "2111365055"[label="1", color="black", style="setlinewidth(1)"];
"305100573"[label="{{Stmt\ -1:\ return\ bb_strtou(arg}|True}", color="black", fontname="Calibri", style="filled", fillcolor="white"];
"305100573" -> "2005829810"[label="1", color="black", style="setlinewidth(1)"];
"305100573" -> "2111365055"[label="1", color="black", style="setlinewidth(1)"];
"519746975"[label="{{Expr\ -1:\ (sizeof(uint32_t\ )\ =}|True}", color="black", fontname="Calibri", style="filled", fillcolor="white"];
"519746975" -> "409867889"[label="1", color="black", style="setlinewidth(1)"];
"519746975" -> "199599944"[label="1", color="black", style="setlinewidth(1)"];
"2073173079"[label="{{Expr\ -1:\ (sizeof(uint32_t\ )\ =}|True}", color="black", fontname="Calibri", style="filled", fillcolor="white"];
"2073173079" -> "519746975"[label="1", color="black", style="setlinewidth(1)"];
"2073173079" -> "305100573"[label="1", color="black", style="setlinewidth(1)"];
"2111365055" -> "2073173079"[label="1", color="black", style="setlinewidth(1)"];
"317417999"[label="{{Stmt\ -1:\ return\ (b\ \<=\ ('z'\ -\ }|True}", color="black", fontname="Calibri", style="filled", fillcolor="white"];
"1802109772"[label="{{Function\ -1:\ bb_ascii_isalnum}|True}", color="blue", fontname="Calibri", style="filled", fillcolor="white"];
"317417999" -> "1802109772"[label="1", color="black", style="setlinewidth(1)"];
"1640227685"[label="{{Stmt\ -1:\ return\ (b\ \<=\ 9);}|True}", color="black", fontname="Calibri", style="filled", fillcolor="white"];
"1640227685" -> "1802109772"[label="1", color="black", style="setlinewidth(1)"];
"645119727"[label="{{Stmt\ -1:\ (b\ =\ ((a\ \|\ 0x20)\ -\ '}|True}", color="black", fontname="Calibri", style="filled", fillcolor="white"];
"645119727" -> "317417999"[label="1", color="black", style="setlinewidth(1)"];
"575244400"[label="{{Expr\ -1:\ (b\ \<=\ 9)}|True}", color="black", fontname="Calibri", style="filled", fillcolor="white"];
"575244400" -> "645119727"[label="1", color="black", style="setlinewidth(1)"];
"575244400" -> "1640227685"[label="1", color="black", style="setlinewidth(1)"];
"804092951"[label="{{Stmt\ -1:\ unsigned\ char\ b\ =\ \ (}|True}", color="black", fontname="Calibri", style="filled", fillcolor="white"];
"804092951" -> "575244400"[label="1", color="black", style="setlinewidth(1)"];
"1802109772" -> "804092951"[label="1", color="black", style="setlinewidth(1)"];
"858768978"[label="{{Stmt\ -1:\ return\ (b\ \<=\ ('f'\ -\ }|True}", color="black", fontname="Calibri", style="filled", fillcolor="white"];
"1522679135"[label="{{Function\ -1:\ bb_ascii_isxdigit}|True}", color="blue", fontname="Calibri", style="filled", fillcolor="white"];
"858768978" -> "1522679135"[label="1", color="black", style="setlinewidth(1)"];
"574506290"[label="{{Stmt\ -1:\ return\ (b\ \<=\ 9);}|True}", color="black", fontname="Calibri", style="filled", fillcolor="white"];
"574506290" -> "1522679135"[label="1", color="black", style="setlinewidth(1)"];
"1715345317"[label="{{Stmt\ -1:\ (b\ =\ ((a\ \|\ 0x20)\ -\ '}|True}", color="black", fontname="Calibri", style="filled", fillcolor="white"];
"1715345317" -> "858768978"[label="1", color="black", style="setlinewidth(1)"];
"1946745827"[label="{{Expr\ -1:\ (b\ \<=\ 9)}|True}", color="black", fontname="Calibri", style="filled", fillcolor="white"];
"1946745827" -> "1715345317"[label="1", color="black", style="setlinewidth(1)"];
"1946745827" -> "574506290"[label="1", color="black", style="setlinewidth(1)"];
"2071446503"[label="{{Stmt\ -1:\ unsigned\ char\ b\ =\ \ (}|True}", color="black", fontname="Calibri", style="filled", fillcolor="white"];
"2071446503" -> "1946745827"[label="1", color="black", style="setlinewidth(1)"];
"1522679135" -> "2071446503"[label="1", color="black", style="setlinewidth(1)"];
"2076547835"[label="{{Stmt\ -1:\ (a\ -=\ ('a'\ -\ 'A'));}|True}", color="black", fontname="Calibri", style="filled", fillcolor="white"];
"152032604"[label="{{Stmt\ -1:\ return\ a;}|True}", color="black", fontname="Calibri", style="filled", fillcolor="white"];
"2076547835" -> "152032604"[label="1", color="black", style="setlinewidth(1)"];
"2128080888"[label="{{Function\ -1:\ bb_ascii_toupper}|True}", color="blue", fontname="Calibri", style="filled", fillcolor="white"];
"152032604" -> "2128080888"[label="1", color="black", style="setlinewidth(1)"];
"869533795"[label="{{Expr\ -1:\ (b\ \<=\ ('z'\ -\ 'a'))}|True}", color="black", fontname="Calibri", style="filled", fillcolor="white"];
"869533795" -> "152032604"[label="1", color="black", style="setlinewidth(1)"];
"869533795" -> "2076547835"[label="1", color="black", style="setlinewidth(1)"];
"1609931491"[label="{{Stmt\ -1:\ unsigned\ char\ b\ =\ \ (}|True}", color="black", fontname="Calibri", style="filled", fillcolor="white"];
"1609931491" -> "869533795"[label="1", color="black", style="setlinewidth(1)"];
"2128080888" -> "1609931491"[label="1", color="black", style="setlinewidth(1)"];
"708535942"[label="{{Stmt\ -1:\ (a\ +=\ ('a'\ -\ 'A'));}|True}", color="black", fontname="Calibri", style="filled", fillcolor="white"];
"1410591079"[label="{{Stmt\ -1:\ return\ a;}|True}", color="black", fontname="Calibri", style="filled", fillcolor="white"];
"708535942" -> "1410591079"[label="1", color="black", style="setlinewidth(1)"];
"978835692"[label="{{Function\ -1:\ bb_ascii_tolower}|True}", color="blue", fontname="Calibri", style="filled", fillcolor="white"];
"1410591079" -> "978835692"[label="1", color="black", style="setlinewidth(1)"];
"1018231885"[label="{{Expr\ -1:\ (b\ \<=\ ('Z'\ -\ 'A'))}|True}", color="black", fontname="Calibri", style="filled", fillcolor="white"];
"1018231885" -> "1410591079"[label="1", color="black", style="setlinewidth(1)"];
"1018231885" -> "708535942"[label="1", color="black", style="setlinewidth(1)"];
"1757602129"[label="{{Stmt\ -1:\ unsigned\ char\ b\ =\ \ (}|True}", color="black", fontname="Calibri", style="filled", fillcolor="white"];
"1757602129" -> "1018231885"[label="1", color="black", style="setlinewidth(1)"];
"978835692" -> "1757602129"[label="1", color="black", style="setlinewidth(1)"];
"1514520644"[label="{{Stmt\ -1:\ return\ 0;}|True}", color="black", fontname="Calibri", style="filled", fillcolor="white"];
"864446892"[label="{{Function\ -1:\ losetup_main}|True}", color="blue", fontname="Calibri", style="filled", fillcolor="white"];
"1514520644" -> "864446892"[label="1", color="black", style="setlinewidth(1)"];
"2036856338"[label="{{Stmt\ -1:\ puts(dev);}|True}", color="black", fontname="Calibri", style="filled", fillcolor="white"];
"871032793"[label="{{Decl\ -1:\ puts}|True}", color="blue", fontname="Calibri", style="filled", fillcolor="white"];
"2036856338" -> "871032793"[label="1", color="black", style="setlinewidth(1)"];
"2036856338" -> "1514520644"[label="1", color="black", style="setlinewidth(1)"];
"2113095756"[label="{{Stmt\ -1:\ free(s);}|True}", color="black", fontname="Calibri", style="filled", fillcolor="white"];
"380682452"[label="{{Decl\ -1:\ free}|True}", color="blue", fontname="Calibri", style="filled", fillcolor="white"];
"2113095756" -> "380682452"[label="1", color="black", style="setlinewidth(1)"];
"898824134"[label="{{Decl\ -1:\ printf}|True}", color="blue", fontname="Calibri", style="filled", fillcolor="white"];
"2113095756" -> "898824134"[label="1", color="black", style="setlinewidth(1)"];
"2113095756" -> "871032793"[label="1", color="black", style="setlinewidth(1)"];
"72085424"[label="{{Decl\ -1:\ query_loop}|True}", color="blue", fontname="Calibri", style="filled", fillcolor="white"];
"2113095756" -> "72085424"[label="1", color="black", style="setlinewidth(1)"];
"1247346406"[label="{{Decl\ -1:\ sprintf}|True}", color="blue", fontname="Calibri", style="filled", fillcolor="white"];
"2113095756" -> "1247346406"[label="1", color="black", style="setlinewidth(1)"];
"1385268482"[label="{{Expr\ 66:\ 1}|True}", color="black", fontname="Calibri", style="filled", fillcolor="white"];
"2113095756" -> "1385268482"[label="1", color="black", style="setlinewidth(1)"];
"1372368492"[label="{{Stmt\ -1:\ return\ 0;}|True}", color="black", fontname="Calibri", style="filled", fillcolor="white"];
"1372368492" -> "864446892"[label="1", color="black", style="setlinewidth(1)"];
"1940004853"[label="{{Expr\ -1:\ (opt\ ==\ OPT_f)}|True}", color="black", fontname="Calibri", style="filled", fillcolor="white"];
"1940004853" -> "871032793"[label="1", color="black", style="setlinewidth(1)"];
"1940004853" -> "380682452"[label="1", color="black", style="setlinewidth(1)"];
"1940004853" -> "898824134"[label="1", color="black", style="setlinewidth(1)"];
"1940004853" -> "72085424"[label="1", color="black", style="setlinewidth(1)"];
"1940004853" -> "1247346406"[label="1", color="black", style="setlinewidth(1)"];
"1940004853" -> "1385268482"[label="1", color="black", style="setlinewidth(1)"];
"1940004853" -> "2036856338"[label="1", color="black", style="setlinewidth(1)"];
"215800823"[label="{{Stmt\ -1:\ printf(\\\"%s:\ %s\n\\\"\ ,\ }|True}", color="black", fontname="Calibri", style="filled", fillcolor="white"];
"215800823" -> "898824134"[label="1", color="black", style="setlinewidth(1)"];
"1807180893"[label="{{Expr\ 393:\ 1}|True}", color="black", fontname="Calibri", style="filled", fillcolor="white"];
"215800823" -> "1807180893"[label="definedEx(CONFIG_FEATURE_CLEAN_UP)", color="red", style="setlinewidth(1)"];
"944489038"[label="{{Expr\ 397:\ 0}|True}", color="black", fontname="Calibri", style="filled", fillcolor="white"];
"215800823" -> "944489038"[label="!definedEx(CONFIG_FEATURE_CLEAN_UP)", color="red", style="setlinewidth(1)"];
"944489038" -> "380682452"[label="!definedEx(CONFIG_FEATURE_CLEAN_UP)", color="red", style="setlinewidth(1)"];
"944489038" -> "898824134"[label="!definedEx(CONFIG_FEATURE_CLEAN_UP)", color="red", style="setlinewidth(1)"];
"944489038" -> "871032793"[label="!definedEx(CONFIG_FEATURE_CLEAN_UP)", color="red", style="setlinewidth(1)"];
"944489038" -> "72085424"[label="!definedEx(CONFIG_FEATURE_CLEAN_UP)", color="red", style="setlinewidth(1)"];
"944489038" -> "1247346406"[label="!definedEx(CONFIG_FEATURE_CLEAN_UP)", color="red", style="setlinewidth(1)"];
"944489038" -> "1385268482"[label="!definedEx(CONFIG_FEATURE_CLEAN_UP)", color="red", style="setlinewidth(1)"];
"944489038" -> "2113095756"[label="!definedEx(CONFIG_FEATURE_CLEAN_UP)", color="red", style="setlinewidth(1)"];
"1807180893" -> "380682452"[label="definedEx(CONFIG_FEATURE_CLEAN_UP)", color="red", style="setlinewidth(1)"];
"1807180893" -> "898824134"[label="definedEx(CONFIG_FEATURE_CLEAN_UP)", color="red", style="setlinewidth(1)"];
"1807180893" -> "871032793"[label="definedEx(CONFIG_FEATURE_CLEAN_UP)", color="red", style="setlinewidth(1)"];
"1807180893" -> "72085424"[label="definedEx(CONFIG_FEATURE_CLEAN_UP)", color="red", style="setlinewidth(1)"];
"1807180893" -> "1247346406"[label="definedEx(CONFIG_FEATURE_CLEAN_UP)", color="red", style="setlinewidth(1)"];
"1807180893" -> "1385268482"[label="definedEx(CONFIG_FEATURE_CLEAN_UP)", color="red", style="setlinewidth(1)"];
"1807180893" -> "2113095756"[label="definedEx(CONFIG_FEATURE_CLEAN_UP)", color="red", style="setlinewidth(1)"];
"1871458307"[label="{{Expr\ -1:\ ((n\ \>\ 9)\ &&\ (*bb_err}|True}", color="black", fontname="Calibri", style="filled", fillcolor="white"];
"1871458307" -> "1940004853"[label="1", color="black", style="setlinewidth(1)"];
"1871458307" -> "1372368492"[label="1", color="black", style="setlinewidth(1)"];
"387157116"[label="{{Expr\ -1:\ (opt\ !=\ OPT_f)}|True}", color="black", fontname="Calibri", style="filled", fillcolor="white"];
"387157116" -> "1807180893"[label="definedEx(CONFIG_FEATURE_CLEAN_UP)", color="red", style="setlinewidth(1)"];
"387157116" -> "944489038"[label="!definedEx(CONFIG_FEATURE_CLEAN_UP)", color="red", style="setlinewidth(1)"];
"387157116" -> "215800823"[label="1", color="black", style="setlinewidth(1)"];
"1250411039"[label="{{Stmt\ -1:\ free(s);}|True}", color="black", fontname="Calibri", style="filled", fillcolor="white"];
"1250411039" -> "380682452"[label="1", color="black", style="setlinewidth(1)"];
"945132987"[label="{{Stmt\ -1:\ return\ 0;}|True}", color="black", fontname="Calibri", style="filled", fillcolor="white"];
"1250411039" -> "945132987"[label="1", color="black", style="setlinewidth(1)"];
"945132987" -> "864446892"[label="1", color="black", style="setlinewidth(1)"];
"341738759"[label="{{Expr\ -1:\ (!\ s)}|True}", color="black", fontname="Calibri", style="filled", fillcolor="white"];
"341738759" -> "387157116"[label="1", color="black", style="setlinewidth(1)"];
"341738759" -> "1871458307"[label="1", color="black", style="setlinewidth(1)"];
"76556569"[label="{{Decl\ -1:\ bb_simple_perror_msg_and_die}|True}", color="blue", fontname="Calibri", style="filled", fillcolor="white"];
"1000546219"[label="{{Expr\ 397:\ 0}|!def(CONFIG_FEATURE_CLEAN_UP)}", color="black", fontname="Calibri", style="filled", fillcolor="#CD5200"];
"1000546219" -> "945132987"[label="!definedEx(CONFIG_FEATURE_CLEAN_UP)", color="red", style="setlinewidth(1)"];
"1000546219" -> "1250411039"[label="!definedEx(CONFIG_FEATURE_CLEAN_UP)", color="red", style="setlinewidth(1)"];
"103900922"[label="{{Expr\ 393:\ 1}|def(CONFIG_FEATURE_CLEAN_UP)}", color="black", fontname="Calibri", style="filled", fillcolor="#CD5200"];
"103900922" -> "945132987"[label="definedEx(CONFIG_FEATURE_CLEAN_UP)", color="red", style="setlinewidth(1)"];
"103900922" -> "1250411039"[label="definedEx(CONFIG_FEATURE_CLEAN_UP)", color="red", style="setlinewidth(1)"];
"1833488176"[label="{{Stmt\ -1:\ n++;}|True}", color="black", fontname="Calibri", style="filled", fillcolor="white"];
"1833488176" -> "341738759"[label="1", color="black", style="setlinewidth(1)"];
"823250915"[label="{{Stmt\ -1:\ bb_simple_perror_msg}|True}", color="black", fontname="Calibri", style="filled", fillcolor="white"];
"823250915" -> "76556569"[label="1", color="black", style="setlinewidth(1)"];
"1776583428"[label="{{Stmt\ -1:\ printf(\\\"%s:\ %s\n\\\"\ ,\ }|True}", color="black", fontname="Calibri", style="filled", fillcolor="white"];
"823250915" -> "1776583428"[label="1", color="black", style="setlinewidth(1)"];
"1776583428" -> "898824134"[label="1", color="black", style="setlinewidth(1)"];
"1776583428" -> "103900922"[label="definedEx(CONFIG_FEATURE_CLEAN_UP)", color="red", style="setlinewidth(1)"];
"1776583428" -> "1000546219"[label="!definedEx(CONFIG_FEATURE_CLEAN_UP)", color="red", style="setlinewidth(1)"];
"669773757"[label="{{Stmt\ -1:\ (s\ =\ query_loop(dev)}|True}", color="black", fontname="Calibri", style="filled", fillcolor="white"];
"669773757" -> "72085424"[label="1", color="black", style="setlinewidth(1)"];
"669773757" -> "1833488176"[label="1", color="black", style="setlinewidth(1)"];
"1816052455"[label="{{Expr\ -1:\ (!\ s)}|True}", color="black", fontname="Calibri", style="filled", fillcolor="white"];
"1816052455" -> "1776583428"[label="1", color="black", style="setlinewidth(1)"];
"1816052455" -> "823250915"[label="1", color="black", style="setlinewidth(1)"];
"1701497742"[label="{{Stmt\ -1:\ sprintf(dev\ ,\ \l#if\ d}|True}", color="black", fontname="Calibri", style="filled", fillcolor="white"];
"1701497742" -> "1247346406"[label="1", color="black", style="setlinewidth(1)"];
"1701497742" -> "669773757"[label="1", color="black", style="setlinewidth(1)"];
"1691551286"[label="{{Decl\ -1:\ set_loop}|True}", color="blue", fontname="Calibri", style="filled", fillcolor="white"];
"45956808"[label="{{Stmt\ -1:\ (s\ =\ query_loop(argv}|True}", color="black", fontname="Calibri", style="filled", fillcolor="white"];
"45956808" -> "72085424"[label="1", color="black", style="setlinewidth(1)"];
"45956808" -> "1816052455"[label="1", color="black", style="setlinewidth(1)"];
"1065743328"[label="{{Stmt\ -1:\ char\ dev\l#if\ defined}|True}", color="black", fontname="Calibri", style="filled", fillcolor="white"];
"1065743328" -> "1701497742"[label="1", color="black", style="setlinewidth(1)"];
"143740100"[label="{{Stmt\ -1:\ bb_show_usage();}|True}", color="black", fontname="Calibri", style="filled", fillcolor="white"];
"369518939"[label="{{Decl\ -1:\ bb_show_usage}|True}", color="blue", fontname="Calibri", style="filled", fillcolor="white"];
"143740100" -> "369518939"[label="1", color="black", style="setlinewidth(1)"];
"1802021941"[label="{{Expr\ -1:\ argv[1]}|True}", color="black", fontname="Calibri", style="filled", fillcolor="white"];
"143740100" -> "1802021941"[label="1", color="black", style="setlinewidth(1)"];
"1802021941" -> "45956808"[label="1", color="black", style="setlinewidth(1)"];
"1802021941" -> "1691551286"[label="1", color="black", style="setlinewidth(1)"];
"1858602898"[label="{{Stmt\ -1:\ return\ 0;}|True}", color="black", fontname="Calibri", style="filled", fillcolor="white"];
"1858602898" -> "864446892"[label="1", color="black", style="setlinewidth(1)"];
"2021511586"[label="{{Stmt\ -1:\ char\ *s;}|True}", color="black", fontname="Calibri", style="filled", fillcolor="white"];
"2021511586" -> "1065743328"[label="1", color="black", style="setlinewidth(1)"];
"203340270"[label="{{Expr\ -1:\ (opt\ ==\ OPT_f)}|True}", color="black", fontname="Calibri", style="filled", fillcolor="white"];
"203340270" -> "1802021941"[label="1", color="black", style="setlinewidth(1)"];
"203340270" -> "143740100"[label="1", color="black", style="setlinewidth(1)"];
"1385268482" -> "2021511586"[label="1", color="black", style="setlinewidth(1)"];
"1385268482" -> "1858602898"[label="1", color="black", style="setlinewidth(1)"];
"361854298"[label="{{Stmt\ -1:\ bb_show_usage();}|True}", color="black", fontname="Calibri", style="filled", fillcolor="white"];
"361854298" -> "369518939"[label="1", color="black", style="setlinewidth(1)"];
"56760359"[label="{{Decl\ -1:\ del_loop}|True}", color="blue", fontname="Calibri", style="filled", fillcolor="white"];
"361854298" -> "56760359"[label="1", color="black", style="setlinewidth(1)"];
"1076763518"[label="{{Stmt\ -1:\ char\ *s;}|True}", color="black", fontname="Calibri", style="filled", fillcolor="white"];
"1076763518" -> "203340270"[label="1", color="black", style="setlinewidth(1)"];
"1312378569"[label="{{Stmt\ -1:\ (n\ =\ 0);}|True}", color="black", fontname="Calibri", style="filled", fillcolor="white"];
"1312378569" -> "1385268482"[label="1", color="black", style="setlinewidth(1)"];
"1445422777"[label="{{Expr\ -1:\ ((!\ argv[0])\ \|\|\ argv}|True}", color="black", fontname="Calibri", style="filled", fillcolor="white"];
"1445422777" -> "56760359"[label="1", color="black", style="setlinewidth(1)"];
"1445422777" -> "361854298"[label="1", color="black", style="setlinewidth(1)"];
"153786171"[label="{{Expr\ -1:\ argv[0]}|True}", color="black", fontname="Calibri", style="filled", fillcolor="white"];
"153786171" -> "1312378569"[label="1", color="black", style="setlinewidth(1)"];
"153786171" -> "1076763518"[label="1", color="black", style="setlinewidth(1)"];
"382990542"[label="{{Stmt\ -1:\ (offset\ =\ xatoull(op}|True}", color="black", fontname="Calibri", style="filled", fillcolor="white"];
"382990542" -> "852002982"[label="1", color="black", style="setlinewidth(1)"];
"1108031284"[label="{{Expr\ -1:\ (opt\ ==\ OPT_d)}|True}", color="black", fontname="Calibri", style="filled", fillcolor="white"];
"382990542" -> "1108031284"[label="1", color="black", style="setlinewidth(1)"];
"1108031284" -> "153786171"[label="1", color="black", style="setlinewidth(1)"];
"1108031284" -> "1445422777"[label="1", color="black", style="setlinewidth(1)"];
"1044546292"[label="{{Expr\ -1:\ (opt\ ==\ OPT_o)}|True}", color="black", fontname="Calibri", style="filled", fillcolor="white"];
"1044546292" -> "1108031284"[label="1", color="black", style="setlinewidth(1)"];
"1044546292" -> "382990542"[label="1", color="black", style="setlinewidth(1)"];
"2005204476"[label="{{Stmt\ -1:\ (argv\ +=\ optind);}|True}", color="black", fontname="Calibri", style="filled", fillcolor="white"];
"2005204476" -> "1044546292"[label="1", color="black", style="setlinewidth(1)"];
"437274512"[label="{{Decl\ -1:\ getopt32}|True}", color="blue", fontname="Calibri", style="filled", fillcolor="white"];
"1473912795"[label="{{Stmt\ -1:\ (opt\ =\ getopt32(argv}|True}", color="black", fontname="Calibri", style="filled", fillcolor="white"];
"1473912795" -> "437274512"[label="1", color="black", style="setlinewidth(1)"];
"1473912795" -> "2005204476"[label="1", color="black", style="setlinewidth(1)"];
"1126043408"[label="{{Stmt\ -1:\ (opt_complementary\ =}|True}", color="black", fontname="Calibri", style="filled", fillcolor="white"];
"1126043408" -> "1473912795"[label="1", color="black", style="setlinewidth(1)"];
"127921344"[label="{{Stmt\ -1:\ enum\ \ \{\l\ \ OPT_d\ =\ (1}|True}", color="black", fontname="Calibri", style="filled", fillcolor="white"];
"127921344" -> "1126043408"[label="1", color="black", style="setlinewidth(1)"];
"930348410"[label="{{Stmt\ -1:\ unsigned\ long\ long\ o}|True}", color="black", fontname="Calibri", style="filled", fillcolor="white"];
"930348410" -> "127921344"[label="1", color="black", style="setlinewidth(1)"];
"1481372187"[label="{{Stmt\ -1:\ char\ *opt_o;}|True}", color="black", fontname="Calibri", style="filled", fillcolor="white"];
"1481372187" -> "930348410"[label="1", color="black", style="setlinewidth(1)"];
"1304045545"[label="{{Stmt\ -1:\ int\ n;}|True}", color="black", fontname="Calibri", style="filled", fillcolor="white"];
"1304045545" -> "1481372187"[label="1", color="black", style="setlinewidth(1)"];
"1410715537"[label="{{Stmt\ -1:\ unsigned\ opt;}|True}", color="black", fontname="Calibri", style="filled", fillcolor="white"];
"1410715537" -> "1304045545"[label="1", color="black", style="setlinewidth(1)"];
"864446892" -> "1410715537"[label="1", color="black", style="setlinewidth(1)"];
}
