digraph "busybox-1.18.5/util-linux/mkswap.c" {
node [shape=record];
"1048874069"[label="{{Decl\ -1:\ xstrtoull_range_sfx}|True}", color="blue", fontname="Calibri", style="filled", fillcolor="white"];
"635067349"[label="{{Stmt\ -1:\ return\ xstrtoull_ran}|True}", color="black", fontname="Calibri", style="filled", fillcolor="white"];
"635067349" -> "1048874069"[label="1", color="black", style="setlinewidth(1)"];
"664387537"[label="{{Function\ -1:\ xstrtoul_range_sfx}|True}", color="blue", fontname="Calibri", style="filled", fillcolor="white"];
"635067349" -> "664387537"[label="1", color="black", style="setlinewidth(1)"];
"664387537" -> "635067349"[label="1", color="black", style="setlinewidth(1)"];
"1441152563"[label="{{Decl\ -1:\ xstrtoull_range}|True}", color="blue", fontname="Calibri", style="filled", fillcolor="white"];
"590396435"[label="{{Stmt\ -1:\ return\ xstrtoull_ran}|True}", color="black", fontname="Calibri", style="filled", fillcolor="white"];
"590396435" -> "1441152563"[label="1", color="black", style="setlinewidth(1)"];
"1805887977"[label="{{Function\ -1:\ xstrtoul_range}|True}", color="blue", fontname="Calibri", style="filled", fillcolor="white"];
"590396435" -> "1805887977"[label="1", color="black", style="setlinewidth(1)"];
"1805887977" -> "590396435"[label="1", color="black", style="setlinewidth(1)"];
"1197972673"[label="{{Decl\ -1:\ xstrtoull_sfx}|True}", color="blue", fontname="Calibri", style="filled", fillcolor="white"];
"5944919"[label="{{Stmt\ -1:\ return\ xstrtoull_sfx}|True}", color="black", fontname="Calibri", style="filled", fillcolor="white"];
"5944919" -> "1197972673"[label="1", color="black", style="setlinewidth(1)"];
"2047156901"[label="{{Function\ -1:\ xstrtoul_sfx}|True}", color="blue", fontname="Calibri", style="filled", fillcolor="white"];
"5944919" -> "2047156901"[label="1", color="black", style="setlinewidth(1)"];
"2047156901" -> "5944919"[label="1", color="black", style="setlinewidth(1)"];
"1974493812"[label="{{Decl\ -1:\ xstrtoull}|True}", color="blue", fontname="Calibri", style="filled", fillcolor="white"];
"1857508461"[label="{{Stmt\ -1:\ return\ xstrtoull(str}|True}", color="black", fontname="Calibri", style="filled", fillcolor="white"];
"1857508461" -> "1974493812"[label="1", color="black", style="setlinewidth(1)"];
"1690088824"[label="{{Function\ -1:\ xstrtoul}|True}", color="blue", fontname="Calibri", style="filled", fillcolor="white"];
"1857508461" -> "1690088824"[label="1", color="black", style="setlinewidth(1)"];
"1690088824" -> "1857508461"[label="1", color="black", style="setlinewidth(1)"];
"1928961307"[label="{{Decl\ -1:\ xatoull_range_sfx}|True}", color="blue", fontname="Calibri", style="filled", fillcolor="white"];
"610596711"[label="{{Stmt\ -1:\ return\ xatoull_range}|True}", color="black", fontname="Calibri", style="filled", fillcolor="white"];
"610596711" -> "1928961307"[label="1", color="black", style="setlinewidth(1)"];
"791126316"[label="{{Function\ -1:\ xatoul_range_sfx}|True}", color="blue", fontname="Calibri", style="filled", fillcolor="white"];
"610596711" -> "791126316"[label="1", color="black", style="setlinewidth(1)"];
"791126316" -> "610596711"[label="1", color="black", style="setlinewidth(1)"];
"2093568729"[label="{{Decl\ -1:\ xatoull_range}|True}", color="blue", fontname="Calibri", style="filled", fillcolor="white"];
"1118110020"[label="{{Stmt\ -1:\ return\ xatoull_range}|True}", color="black", fontname="Calibri", style="filled", fillcolor="white"];
"1118110020" -> "2093568729"[label="1", color="black", style="setlinewidth(1)"];
"625319383"[label="{{Function\ -1:\ xatoul_range}|True}", color="blue", fontname="Calibri", style="filled", fillcolor="white"];
"1118110020" -> "625319383"[label="1", color="black", style="setlinewidth(1)"];
"625319383" -> "1118110020"[label="1", color="black", style="setlinewidth(1)"];
"1611338745"[label="{{Decl\ -1:\ xatoull_sfx}|True}", color="blue", fontname="Calibri", style="filled", fillcolor="white"];
"620495331"[label="{{Stmt\ -1:\ return\ xatoull_sfx(s}|True}", color="black", fontname="Calibri", style="filled", fillcolor="white"];
"620495331" -> "1611338745"[label="1", color="black", style="setlinewidth(1)"];
"1142951595"[label="{{Function\ -1:\ xatoul_sfx}|True}", color="blue", fontname="Calibri", style="filled", fillcolor="white"];
"620495331" -> "1142951595"[label="1", color="black", style="setlinewidth(1)"];
"1142951595" -> "620495331"[label="1", color="black", style="setlinewidth(1)"];
"2039531292"[label="{{Decl\ -1:\ xatoull}|True}", color="blue", fontname="Calibri", style="filled", fillcolor="white"];
"308779054"[label="{{Stmt\ -1:\ return\ xatoull(str);}|True}", color="black", fontname="Calibri", style="filled", fillcolor="white"];
"308779054" -> "2039531292"[label="1", color="black", style="setlinewidth(1)"];
"400933057"[label="{{Function\ -1:\ xatoul}|True}", color="blue", fontname="Calibri", style="filled", fillcolor="white"];
"308779054" -> "400933057"[label="1", color="black", style="setlinewidth(1)"];
"400933057" -> "308779054"[label="1", color="black", style="setlinewidth(1)"];
"780849457"[label="{{Decl\ -1:\ xstrtoll_range_sfx}|True}", color="blue", fontname="Calibri", style="filled", fillcolor="white"];
"1105335821"[label="{{Stmt\ -1:\ return\ xstrtoll_rang}|True}", color="black", fontname="Calibri", style="filled", fillcolor="white"];
"1105335821" -> "780849457"[label="1", color="black", style="setlinewidth(1)"];
"194351752"[label="{{Function\ -1:\ xstrtol_range_sfx}|True}", color="blue", fontname="Calibri", style="filled", fillcolor="white"];
"1105335821" -> "194351752"[label="1", color="black", style="setlinewidth(1)"];
"194351752" -> "1105335821"[label="1", color="black", style="setlinewidth(1)"];
"2097014576"[label="{{Decl\ -1:\ xstrtoll_range}|True}", color="blue", fontname="Calibri", style="filled", fillcolor="white"];
"158180959"[label="{{Stmt\ -1:\ return\ xstrtoll_rang}|True}", color="black", fontname="Calibri", style="filled", fillcolor="white"];
"158180959" -> "2097014576"[label="1", color="black", style="setlinewidth(1)"];
"566812507"[label="{{Function\ -1:\ xstrtol_range}|True}", color="blue", fontname="Calibri", style="filled", fillcolor="white"];
"158180959" -> "566812507"[label="1", color="black", style="setlinewidth(1)"];
"566812507" -> "158180959"[label="1", color="black", style="setlinewidth(1)"];
"1985068097"[label="{{Decl\ -1:\ xstrtoll}|True}", color="blue", fontname="Calibri", style="filled", fillcolor="white"];
"1157653786"[label="{{Stmt\ -1:\ return\ xstrtoll(str\ }|True}", color="black", fontname="Calibri", style="filled", fillcolor="white"];
"1157653786" -> "1985068097"[label="1", color="black", style="setlinewidth(1)"];
"738349763"[label="{{Function\ -1:\ xstrtol}|True}", color="blue", fontname="Calibri", style="filled", fillcolor="white"];
"1157653786" -> "738349763"[label="1", color="black", style="setlinewidth(1)"];
"738349763" -> "1157653786"[label="1", color="black", style="setlinewidth(1)"];
"1475151813"[label="{{Decl\ -1:\ xatoll_range_sfx}|True}", color="blue", fontname="Calibri", style="filled", fillcolor="white"];
"1011702487"[label="{{Stmt\ -1:\ return\ xatoll_range_}|True}", color="black", fontname="Calibri", style="filled", fillcolor="white"];
"1011702487" -> "1475151813"[label="1", color="black", style="setlinewidth(1)"];
"70752246"[label="{{Function\ -1:\ xatol_range_sfx}|True}", color="blue", fontname="Calibri", style="filled", fillcolor="white"];
"1011702487" -> "70752246"[label="1", color="black", style="setlinewidth(1)"];
"70752246" -> "1011702487"[label="1", color="black", style="setlinewidth(1)"];
"1486116355"[label="{{Decl\ -1:\ xatoll_range}|True}", color="blue", fontname="Calibri", style="filled", fillcolor="white"];
"529058223"[label="{{Stmt\ -1:\ return\ xatoll_range(}|True}", color="black", fontname="Calibri", style="filled", fillcolor="white"];
"529058223" -> "1486116355"[label="1", color="black", style="setlinewidth(1)"];
"585610175"[label="{{Function\ -1:\ xatol_range}|True}", color="blue", fontname="Calibri", style="filled", fillcolor="white"];
"529058223" -> "585610175"[label="1", color="black", style="setlinewidth(1)"];
"585610175" -> "529058223"[label="1", color="black", style="setlinewidth(1)"];
"1162769811"[label="{{Decl\ -1:\ xatoll_sfx}|True}", color="blue", fontname="Calibri", style="filled", fillcolor="white"];
"881771582"[label="{{Stmt\ -1:\ return\ xatoll_sfx(st}|True}", color="black", fontname="Calibri", style="filled", fillcolor="white"];
"881771582" -> "1162769811"[label="1", color="black", style="setlinewidth(1)"];
"1360631351"[label="{{Function\ -1:\ xatol_sfx}|True}", color="blue", fontname="Calibri", style="filled", fillcolor="white"];
"881771582" -> "1360631351"[label="1", color="black", style="setlinewidth(1)"];
"1360631351" -> "881771582"[label="1", color="black", style="setlinewidth(1)"];
"1180347996"[label="{{Decl\ -1:\ xatoll}|True}", color="blue", fontname="Calibri", style="filled", fillcolor="white"];
"538490295"[label="{{Stmt\ -1:\ return\ xatoll(str);}|True}", color="black", fontname="Calibri", style="filled", fillcolor="white"];
"538490295" -> "1180347996"[label="1", color="black", style="setlinewidth(1)"];
"905086084"[label="{{Function\ -1:\ xatol}|True}", color="blue", fontname="Calibri", style="filled", fillcolor="white"];
"538490295" -> "905086084"[label="1", color="black", style="setlinewidth(1)"];
"905086084" -> "538490295"[label="1", color="black", style="setlinewidth(1)"];
"308779054" -> "2039531292"[label="1", color="black", style="setlinewidth(1)"];
"308779054" -> "400933057"[label="1", color="black", style="setlinewidth(1)"];
"400933057" -> "308779054"[label="1", color="black", style="setlinewidth(1)"];
"2002619729"[label="{{Decl\ -1:\ BUG_xatou32_unimplemented}|True}", color="blue", fontname="Calibri", style="filled", fillcolor="white"];
"2052016780"[label="{{Decl\ -1:\ xatou}|True}", color="blue", fontname="Calibri", style="filled", fillcolor="white"];
"788066030"[label="{{Stmt\ -1:\ return\ xatoul(numstr}|True}", color="black", fontname="Calibri", style="filled", fillcolor="white"];
"788066030" -> "400933057"[label="1", color="black", style="setlinewidth(1)"];
"1321696488"[label="{{Function\ -1:\ xatou32}|True}", color="blue", fontname="Calibri", style="filled", fillcolor="white"];
"788066030" -> "1321696488"[label="1", color="black", style="setlinewidth(1)"];
"2003653159"[label="{{Stmt\ -1:\ return\ BUG_xatou32_u}|True}", color="black", fontname="Calibri", style="filled", fillcolor="white"];
"2003653159" -> "2002619729"[label="1", color="black", style="setlinewidth(1)"];
"2003653159" -> "1321696488"[label="1", color="black", style="setlinewidth(1)"];
"1229653422"[label="{{Stmt\ -1:\ return\ xatou(numstr)}|True}", color="black", fontname="Calibri", style="filled", fillcolor="white"];
"1229653422" -> "2052016780"[label="1", color="black", style="setlinewidth(1)"];
"1229653422" -> "1321696488"[label="1", color="black", style="setlinewidth(1)"];
"2124486103"[label="{{Expr\ -1:\ (((92233720368547758}|True}", color="black", fontname="Calibri", style="filled", fillcolor="white"];
"2124486103" -> "2003653159"[label="1", color="black", style="setlinewidth(1)"];
"2124486103" -> "788066030"[label="1", color="black", style="setlinewidth(1)"];
"1947769099"[label="{{Expr\ -1:\ (((2147483647\ *\ 2U)\ }|True}", color="black", fontname="Calibri", style="filled", fillcolor="white"];
"1947769099" -> "2124486103"[label="1", color="black", style="setlinewidth(1)"];
"1947769099" -> "1229653422"[label="1", color="black", style="setlinewidth(1)"];
"1321696488" -> "1947769099"[label="1", color="black", style="setlinewidth(1)"];
"542445444"[label="{{Decl\ -1:\ bb_strtoull}|True}", color="blue", fontname="Calibri", style="filled", fillcolor="white"];
"1518191940"[label="{{Stmt\ -1:\ return\ bb_strtoull(a}|True}", color="black", fontname="Calibri", style="filled", fillcolor="white"];
"1518191940" -> "542445444"[label="1", color="black", style="setlinewidth(1)"];
"1566735329"[label="{{Function\ -1:\ bb_strtoul}|True}", color="blue", fontname="Calibri", style="filled", fillcolor="white"];
"1518191940" -> "1566735329"[label="1", color="black", style="setlinewidth(1)"];
"1566735329" -> "1518191940"[label="1", color="black", style="setlinewidth(1)"];
"1324171118"[label="{{Decl\ -1:\ bb_strtoll}|True}", color="blue", fontname="Calibri", style="filled", fillcolor="white"];
"1253176714"[label="{{Stmt\ -1:\ return\ bb_strtoll(ar}|True}", color="black", fontname="Calibri", style="filled", fillcolor="white"];
"1253176714" -> "1324171118"[label="1", color="black", style="setlinewidth(1)"];
"39427939"[label="{{Function\ -1:\ bb_strtol}|True}", color="blue", fontname="Calibri", style="filled", fillcolor="white"];
"1253176714" -> "39427939"[label="1", color="black", style="setlinewidth(1)"];
"39427939" -> "1253176714"[label="1", color="black", style="setlinewidth(1)"];
"1518191940" -> "542445444"[label="1", color="black", style="setlinewidth(1)"];
"1518191940" -> "1566735329"[label="1", color="black", style="setlinewidth(1)"];
"1566735329" -> "1518191940"[label="1", color="black", style="setlinewidth(1)"];
"268763602"[label="{{Decl\ -1:\ BUG_bb_strtou32_unimplemented}|True}", color="blue", fontname="Calibri", style="filled", fillcolor="white"];
"603261329"[label="{{Decl\ -1:\ bb_strtou}|True}", color="blue", fontname="Calibri", style="filled", fillcolor="white"];
"363531716"[label="{{Stmt\ -1:\ return\ bb_strtoul(ar}|True}", color="black", fontname="Calibri", style="filled", fillcolor="white"];
"363531716" -> "1566735329"[label="1", color="black", style="setlinewidth(1)"];
"2048919856"[label="{{Function\ -1:\ bb_strtou32}|True}", color="blue", fontname="Calibri", style="filled", fillcolor="white"];
"363531716" -> "2048919856"[label="1", color="black", style="setlinewidth(1)"];
"686021344"[label="{{Stmt\ -1:\ return\ BUG_bb_strtou}|True}", color="black", fontname="Calibri", style="filled", fillcolor="white"];
"686021344" -> "268763602"[label="1", color="black", style="setlinewidth(1)"];
"686021344" -> "2048919856"[label="1", color="black", style="setlinewidth(1)"];
"736405622"[label="{{Stmt\ -1:\ return\ bb_strtou(arg}|True}", color="black", fontname="Calibri", style="filled", fillcolor="white"];
"736405622" -> "603261329"[label="1", color="black", style="setlinewidth(1)"];
"736405622" -> "2048919856"[label="1", color="black", style="setlinewidth(1)"];
"1211871880"[label="{{Expr\ -1:\ (sizeof(uint32_t\ )\ =}|True}", color="black", fontname="Calibri", style="filled", fillcolor="white"];
"1211871880" -> "686021344"[label="1", color="black", style="setlinewidth(1)"];
"1211871880" -> "363531716"[label="1", color="black", style="setlinewidth(1)"];
"2001485600"[label="{{Expr\ -1:\ (sizeof(uint32_t\ )\ =}|True}", color="black", fontname="Calibri", style="filled", fillcolor="white"];
"2001485600" -> "1211871880"[label="1", color="black", style="setlinewidth(1)"];
"2001485600" -> "736405622"[label="1", color="black", style="setlinewidth(1)"];
"2048919856" -> "2001485600"[label="1", color="black", style="setlinewidth(1)"];
"205411334"[label="{{Stmt\ -1:\ return\ (b\ \<=\ ('z'\ -\ }|True}", color="black", fontname="Calibri", style="filled", fillcolor="white"];
"7924607"[label="{{Function\ -1:\ bb_ascii_isalnum}|True}", color="blue", fontname="Calibri", style="filled", fillcolor="white"];
"205411334" -> "7924607"[label="1", color="black", style="setlinewidth(1)"];
"652960705"[label="{{Stmt\ -1:\ return\ (b\ \<=\ 9);}|True}", color="black", fontname="Calibri", style="filled", fillcolor="white"];
"652960705" -> "7924607"[label="1", color="black", style="setlinewidth(1)"];
"1440996392"[label="{{Stmt\ -1:\ (b\ =\ ((a\ \|\ 0x20)\ -\ '}|True}", color="black", fontname="Calibri", style="filled", fillcolor="white"];
"1440996392" -> "205411334"[label="1", color="black", style="setlinewidth(1)"];
"1881162276"[label="{{Expr\ -1:\ (b\ \<=\ 9)}|True}", color="black", fontname="Calibri", style="filled", fillcolor="white"];
"1881162276" -> "1440996392"[label="1", color="black", style="setlinewidth(1)"];
"1881162276" -> "652960705"[label="1", color="black", style="setlinewidth(1)"];
"1200820378"[label="{{Stmt\ -1:\ unsigned\ char\ b\ =\ \ (}|True}", color="black", fontname="Calibri", style="filled", fillcolor="white"];
"1200820378" -> "1881162276"[label="1", color="black", style="setlinewidth(1)"];
"7924607" -> "1200820378"[label="1", color="black", style="setlinewidth(1)"];
"1017787784"[label="{{Stmt\ -1:\ return\ (b\ \<=\ ('f'\ -\ }|True}", color="black", fontname="Calibri", style="filled", fillcolor="white"];
"1364787248"[label="{{Function\ -1:\ bb_ascii_isxdigit}|True}", color="blue", fontname="Calibri", style="filled", fillcolor="white"];
"1017787784" -> "1364787248"[label="1", color="black", style="setlinewidth(1)"];
"632227039"[label="{{Stmt\ -1:\ return\ (b\ \<=\ 9);}|True}", color="black", fontname="Calibri", style="filled", fillcolor="white"];
"632227039" -> "1364787248"[label="1", color="black", style="setlinewidth(1)"];
"73138662"[label="{{Stmt\ -1:\ (b\ =\ ((a\ \|\ 0x20)\ -\ '}|True}", color="black", fontname="Calibri", style="filled", fillcolor="white"];
"73138662" -> "1017787784"[label="1", color="black", style="setlinewidth(1)"];
"308778309"[label="{{Expr\ -1:\ (b\ \<=\ 9)}|True}", color="black", fontname="Calibri", style="filled", fillcolor="white"];
"308778309" -> "73138662"[label="1", color="black", style="setlinewidth(1)"];
"308778309" -> "632227039"[label="1", color="black", style="setlinewidth(1)"];
"168257575"[label="{{Stmt\ -1:\ unsigned\ char\ b\ =\ \ (}|True}", color="black", fontname="Calibri", style="filled", fillcolor="white"];
"168257575" -> "308778309"[label="1", color="black", style="setlinewidth(1)"];
"1364787248" -> "168257575"[label="1", color="black", style="setlinewidth(1)"];
"1230098925"[label="{{Stmt\ -1:\ (a\ -=\ ('a'\ -\ 'A'));}|True}", color="black", fontname="Calibri", style="filled", fillcolor="white"];
"945211724"[label="{{Stmt\ -1:\ return\ a;}|True}", color="black", fontname="Calibri", style="filled", fillcolor="white"];
"1230098925" -> "945211724"[label="1", color="black", style="setlinewidth(1)"];
"601633739"[label="{{Function\ -1:\ bb_ascii_toupper}|True}", color="blue", fontname="Calibri", style="filled", fillcolor="white"];
"945211724" -> "601633739"[label="1", color="black", style="setlinewidth(1)"];
"2031184361"[label="{{Expr\ -1:\ (b\ \<=\ ('z'\ -\ 'a'))}|True}", color="black", fontname="Calibri", style="filled", fillcolor="white"];
"2031184361" -> "945211724"[label="1", color="black", style="setlinewidth(1)"];
"2031184361" -> "1230098925"[label="1", color="black", style="setlinewidth(1)"];
"332164990"[label="{{Stmt\ -1:\ unsigned\ char\ b\ =\ \ (}|True}", color="black", fontname="Calibri", style="filled", fillcolor="white"];
"332164990" -> "2031184361"[label="1", color="black", style="setlinewidth(1)"];
"601633739" -> "332164990"[label="1", color="black", style="setlinewidth(1)"];
"994070542"[label="{{Stmt\ -1:\ (a\ +=\ ('a'\ -\ 'A'));}|True}", color="black", fontname="Calibri", style="filled", fillcolor="white"];
"90122077"[label="{{Stmt\ -1:\ return\ a;}|True}", color="black", fontname="Calibri", style="filled", fillcolor="white"];
"994070542" -> "90122077"[label="1", color="black", style="setlinewidth(1)"];
"1077927103"[label="{{Function\ -1:\ bb_ascii_tolower}|True}", color="blue", fontname="Calibri", style="filled", fillcolor="white"];
"90122077" -> "1077927103"[label="1", color="black", style="setlinewidth(1)"];
"560123375"[label="{{Expr\ -1:\ (b\ \<=\ ('Z'\ -\ 'A'))}|True}", color="black", fontname="Calibri", style="filled", fillcolor="white"];
"560123375" -> "90122077"[label="1", color="black", style="setlinewidth(1)"];
"560123375" -> "994070542"[label="1", color="black", style="setlinewidth(1)"];
"2019545752"[label="{{Stmt\ -1:\ unsigned\ char\ b\ =\ \ (}|True}", color="black", fontname="Calibri", style="filled", fillcolor="white"];
"2019545752" -> "560123375"[label="1", color="black", style="setlinewidth(1)"];
"1077927103" -> "2019545752"[label="1", color="black", style="setlinewidth(1)"];
"1701863938"[label="{{Decl\ -1:\ is_selinux_enabled}|(def(CONFIG_FEATURE_FIND_CONTEXT)\|def(CONFIG_SELINUX))}", color="blue", fontname="Calibri", style="filled", fillcolor="#CD5200"];
"125673725"[label="{{Stmt\ -1:\ struct\ stat\ \ \l#if\ (d}|(def(CONFIG_FEATURE_FIND_CONTEXT)\|def(CONFIG_SELINUX))}", color="black", fontname="Calibri", style="filled", fillcolor="#CD5200"];
"125673725" -> "1701863938"[label="(definedEx(CONFIG_FEATURE_FIND_CONTEXT) || definedEx(CONFIG_SELINUX))", color="red", style="setlinewidth(1)"];
"2132745027"[label="{{Function\ -1:\ mkswap_selinux_setcontext}|(def(CONFIG_FEATURE_FIND_CONTEXT)\|def(CONFIG_SELINUX))}", color="blue", fontname="Calibri", style="filled", fillcolor="#CD5200"];
"2132745027" -> "125673725"[label="(definedEx(CONFIG_FEATURE_FIND_CONTEXT) || definedEx(CONFIG_SELINUX))", color="red", style="setlinewidth(1)"];
"23456110"[label="{{Decl\ -1:\ close}|True}", color="blue", fontname="Calibri", style="filled", fillcolor="white"];
"748611705"[label="{{Stmt\ -1:\ close(fd);}|True}", color="black", fontname="Calibri", style="filled", fillcolor="white"];
"748611705" -> "23456110"[label="1", color="black", style="setlinewidth(1)"];
"763209470"[label="{{Stmt\ -1:\ return\ 0;}|True}", color="black", fontname="Calibri", style="filled", fillcolor="white"];
"748611705" -> "763209470"[label="1", color="black", style="setlinewidth(1)"];
"1382403757"[label="{{Function\ -1:\ mkswap_main}|True}", color="blue", fontname="Calibri", style="filled", fillcolor="white"];
"763209470" -> "1382403757"[label="1", color="black", style="setlinewidth(1)"];
"446804452"[label="{{Expr\ 397:\ 0}|!def(CONFIG_FEATURE_CLEAN_UP)}", color="black", fontname="Calibri", style="filled", fillcolor="#CD5200"];
"446804452" -> "763209470"[label="!definedEx(CONFIG_FEATURE_CLEAN_UP)", color="red", style="setlinewidth(1)"];
"446804452" -> "748611705"[label="!definedEx(CONFIG_FEATURE_CLEAN_UP)", color="red", style="setlinewidth(1)"];
"978743356"[label="{{Expr\ 393:\ 1}|def(CONFIG_FEATURE_CLEAN_UP)}", color="black", fontname="Calibri", style="filled", fillcolor="#CD5200"];
"978743356" -> "763209470"[label="definedEx(CONFIG_FEATURE_CLEAN_UP)", color="red", style="setlinewidth(1)"];
"978743356" -> "748611705"[label="definedEx(CONFIG_FEATURE_CLEAN_UP)", color="red", style="setlinewidth(1)"];
"1063549965"[label="{{Decl\ -1:\ fsync}|True}", color="blue", fontname="Calibri", style="filled", fillcolor="white"];
"1878863522"[label="{{Stmt\ -1:\ fsync(fd);}|True}", color="black", fontname="Calibri", style="filled", fillcolor="white"];
"1878863522" -> "1063549965"[label="1", color="black", style="setlinewidth(1)"];
"1878863522" -> "978743356"[label="definedEx(CONFIG_FEATURE_CLEAN_UP)", color="red", style="setlinewidth(1)"];
"1878863522" -> "446804452"[label="!definedEx(CONFIG_FEATURE_CLEAN_UP)", color="red", style="setlinewidth(1)"];
"1037628774"[label="{{Stmt\ -1:\ printf(\\\"UUID=%.8s\\\"\ \\\"}|True}", color="black", fontname="Calibri", style="filled", fillcolor="white"];
"123465890"[label="{{Decl\ -1:\ printf}|True}", color="blue", fontname="Calibri", style="filled", fillcolor="white"];
"1037628774" -> "123465890"[label="1", color="black", style="setlinewidth(1)"];
"115476109"[label="{{Decl\ -1:\ bin2hex}|True}", color="blue", fontname="Calibri", style="filled", fillcolor="white"];
"1037628774" -> "115476109"[label="1", color="black", style="setlinewidth(1)"];
"532310065"[label="{{Decl\ -1:\ generate_uuid}|True}", color="blue", fontname="Calibri", style="filled", fillcolor="white"];
"1037628774" -> "532310065"[label="1", color="black", style="setlinewidth(1)"];
"229182674"[label="{{Stmt\ -1:\ safe_strncpy(((struc}|True}", color="black", fontname="Calibri", style="filled", fillcolor="white"];
"1037628774" -> "229182674"[label="1", color="black", style="setlinewidth(1)"];
"1151842404"[label="{{Stmt\ -1:\ xwrite(fd\ ,\ SWAPSPAC}|True}", color="black", fontname="Calibri", style="filled", fillcolor="white"];
"354122400"[label="{{Decl\ -1:\ xwrite}|True}", color="blue", fontname="Calibri", style="filled", fillcolor="white"];
"1151842404" -> "354122400"[label="1", color="black", style="setlinewidth(1)"];
"1151842404" -> "1878863522"[label="1", color="black", style="setlinewidth(1)"];
"267911296"[label="{{Decl\ -1:\ xlseek}|True}", color="blue", fontname="Calibri", style="filled", fillcolor="white"];
"257896782"[label="{{Stmt\ -1:\ bin2hex(uuid_string\ }|True}", color="black", fontname="Calibri", style="filled", fillcolor="white"];
"257896782" -> "115476109"[label="1", color="black", style="setlinewidth(1)"];
"257896782" -> "1037628774"[label="1", color="black", style="setlinewidth(1)"];
"263470347"[label="{{Stmt\ -1:\ xlseek(fd\ ,\ (pagesiz}|True}", color="black", fontname="Calibri", style="filled", fillcolor="white"];
"263470347" -> "267911296"[label="1", color="black", style="setlinewidth(1)"];
"263470347" -> "1151842404"[label="1", color="black", style="setlinewidth(1)"];
"1632121074"[label="{{Stmt\ -1:\ generate_uuid(((void}|True}", color="black", fontname="Calibri", style="filled", fillcolor="white"];
"1632121074" -> "532310065"[label="1", color="black", style="setlinewidth(1)"];
"1632121074" -> "257896782"[label="1", color="black", style="setlinewidth(1)"];
"1393741224"[label="{{Stmt\ -1:\ xwrite(fd\ ,\ ((struct}|True}", color="black", fontname="Calibri", style="filled", fillcolor="white"];
"1393741224" -> "354122400"[label="1", color="black", style="setlinewidth(1)"];
"1393741224" -> "263470347"[label="1", color="black", style="setlinewidth(1)"];
"1453337888"[label="{{Decl\ -1:\ safe_strncpy}|True}", color="blue", fontname="Calibri", style="filled", fillcolor="white"];
"2109578295"[label="{{Stmt\ -1:\ char\ uuid_string[32]}|True}", color="black", fontname="Calibri", style="filled", fillcolor="white"];
"2109578295" -> "1632121074"[label="1", color="black", style="setlinewidth(1)"];
"229182674" -> "1453337888"[label="1", color="black", style="setlinewidth(1)"];
"229182674" -> "1393741224"[label="1", color="black", style="setlinewidth(1)"];
"1419164133"[label="{{Expr\ 4727:\ 0}|!def(CONFIG_FEATURE_MKSWAP_UUID)}", color="black", fontname="Calibri", style="filled", fillcolor="#CD5200"];
"1419164133" -> "229182674"[label="!definedEx(CONFIG_FEATURE_MKSWAP_UUID)", color="red", style="setlinewidth(1)"];
"1419164133" -> "2109578295"[label="!definedEx(CONFIG_FEATURE_MKSWAP_UUID)", color="red", style="setlinewidth(1)"];
"765007167"[label="{{Expr\ 4723:\ 1}|def(CONFIG_FEATURE_MKSWAP_UUID)}", color="black", fontname="Calibri", style="filled", fillcolor="#CD5200"];
"765007167" -> "229182674"[label="definedEx(CONFIG_FEATURE_MKSWAP_UUID)", color="red", style="setlinewidth(1)"];
"765007167" -> "2109578295"[label="definedEx(CONFIG_FEATURE_MKSWAP_UUID)", color="red", style="setlinewidth(1)"];
"1261348656"[label="{{Stmt\ -1:\ (((struct\ swap_heade}|True}", color="black", fontname="Calibri", style="filled", fillcolor="white"];
"1261348656" -> "765007167"[label="definedEx(CONFIG_FEATURE_MKSWAP_UUID)", color="red", style="setlinewidth(1)"];
"1261348656" -> "1419164133"[label="!definedEx(CONFIG_FEATURE_MKSWAP_UUID)", color="red", style="setlinewidth(1)"];
"125673725" -> "1701863938"[label="(definedEx(CONFIG_FEATURE_FIND_CONTEXT) || definedEx(CONFIG_SELINUX))", color="red", style="setlinewidth(1)"];
"490491463"[label="{{Stmt\ -1:\ (((struct\ swap_heade}|True}", color="black", fontname="Calibri", style="filled", fillcolor="white"];
"490491463" -> "1261348656"[label="1", color="black", style="setlinewidth(1)"];
"2132745027" -> "125673725"[label="(definedEx(CONFIG_FEATURE_FIND_CONTEXT) || definedEx(CONFIG_SELINUX))", color="red", style="setlinewidth(1)"];
"1783832741"[label="{{Stmt\ -1:\ xwrite(fd\ ,\ ((struct}|True}", color="black", fontname="Calibri", style="filled", fillcolor="white"];
"1783832741" -> "354122400"[label="1", color="black", style="setlinewidth(1)"];
"1783832741" -> "490491463"[label="1", color="black", style="setlinewidth(1)"];
"725326507"[label="{{Stmt\ -1:\ mkswap_selinux_setco}|(def(CONFIG_FEATURE_FIND_CONTEXT)\|def(CONFIG_SELINUX))}", color="black", fontname="Calibri", style="filled", fillcolor="#CD5200"];
"725326507" -> "2132745027"[label="(definedEx(CONFIG_FEATURE_FIND_CONTEXT) || definedEx(CONFIG_SELINUX))", color="red", style="setlinewidth(1)"];
"725326507" -> "1783832741"[label="(definedEx(CONFIG_FEATURE_FIND_CONTEXT) || definedEx(CONFIG_SELINUX))", color="red", style="setlinewidth(1)"];
"306958518"[label="{{Stmt\ -1:\ ((void\ )\ 0);}|(!def(CONFIG_FEATURE_FIND_CONTEXT)&!def(CONFIG_SELINUX))}", color="black", fontname="Calibri", style="filled", fillcolor="#CD5200"];
"306958518" -> "1783832741"[label="(!definedEx(CONFIG_FEATURE_FIND_CONTEXT) && !definedEx(CONFIG_SELINUX))", color="red", style="setlinewidth(1)"];
"1901726489"[label="{{Stmt\ -1:\ printf(\\\"Setting\ up\ s}|True}", color="black", fontname="Calibri", style="filled", fillcolor="white"];
"1901726489" -> "123465890"[label="1", color="black", style="setlinewidth(1)"];
"1901726489" -> "306958518"[label="(!definedEx(CONFIG_FEATURE_FIND_CONTEXT) && !definedEx(CONFIG_SELINUX))", color="red", style="setlinewidth(1)"];
"1901726489" -> "725326507"[label="(definedEx(CONFIG_FEATURE_FIND_CONTEXT) || definedEx(CONFIG_SELINUX))", color="red", style="setlinewidth(1)"];
"725774386"[label="{{Stmt\ -1:\ (len\ -=\ pagesize);}|True}", color="black", fontname="Calibri", style="filled", fillcolor="white"];
"725774386" -> "1901726489"[label="1", color="black", style="setlinewidth(1)"];
"268182347"[label="{{Decl\ -1:\ getpagesize}|True}", color="blue", fontname="Calibri", style="filled", fillcolor="white"];
"968281049"[label="{{Stmt\ -1:\ (pagesize\ =\ getpages}|True}", color="black", fontname="Calibri", style="filled", fillcolor="white"];
"968281049" -> "268182347"[label="1", color="black", style="setlinewidth(1)"];
"968281049" -> "725774386"[label="1", color="black", style="setlinewidth(1)"];
"1272504982"[label="{{Decl\ -1:\ get_volume_size_in_bytes}|True}", color="blue", fontname="Calibri", style="filled", fillcolor="white"];
"828477420"[label="{{Stmt\ -1:\ (len\ =\ get_volume_si}|True}", color="black", fontname="Calibri", style="filled", fillcolor="white"];
"828477420" -> "1272504982"[label="1", color="black", style="setlinewidth(1)"];
"828477420" -> "968281049"[label="1", color="black", style="setlinewidth(1)"];
"796419016"[label="{{Decl\ -1:\ xopen}|True}", color="blue", fontname="Calibri", style="filled", fillcolor="white"];
"1845421972"[label="{{Stmt\ -1:\ (fd\ =\ xopen(argv[0]\ }|True}", color="black", fontname="Calibri", style="filled", fillcolor="white"];
"1845421972" -> "796419016"[label="1", color="black", style="setlinewidth(1)"];
"1845421972" -> "828477420"[label="1", color="black", style="setlinewidth(1)"];
"1392629912"[label="{{Stmt\ -1:\ (argv\ +=\ optind);}|True}", color="black", fontname="Calibri", style="filled", fillcolor="white"];
"1392629912" -> "1845421972"[label="1", color="black", style="setlinewidth(1)"];
"1682743039"[label="{{Decl\ -1:\ getopt32}|True}", color="blue", fontname="Calibri", style="filled", fillcolor="white"];
"748917056"[label="{{Stmt\ -1:\ getopt32(argv\ ,\ \\\"L:\\\"}|True}", color="black", fontname="Calibri", style="filled", fillcolor="white"];
"748917056" -> "1682743039"[label="1", color="black", style="setlinewidth(1)"];
"748917056" -> "1392629912"[label="1", color="black", style="setlinewidth(1)"];
"1892770485"[label="{{Stmt\ -1:\ (opt_complementary\ =}|True}", color="black", fontname="Calibri", style="filled", fillcolor="white"];
"1892770485" -> "748917056"[label="1", color="black", style="setlinewidth(1)"];
"17671586"[label="{{Stmt\ -1:\ const\ char\ *label\ =\ }|True}", color="black", fontname="Calibri", style="filled", fillcolor="white"];
"17671586" -> "1892770485"[label="1", color="black", style="setlinewidth(1)"];
"1004960343"[label="{{Stmt\ -1:\ off_t\ len;}|True}", color="black", fontname="Calibri", style="filled", fillcolor="white"];
"1004960343" -> "17671586"[label="1", color="black", style="setlinewidth(1)"];
"261810542"[label="{{Stmt\ -1:\ unsigned\ pagesize;}|True}", color="black", fontname="Calibri", style="filled", fillcolor="white"];
"261810542" -> "1004960343"[label="1", color="black", style="setlinewidth(1)"];
"1344655404"[label="{{Stmt\ -1:\ int\ fd;}|True}", color="black", fontname="Calibri", style="filled", fillcolor="white"];
"1344655404" -> "261810542"[label="1", color="black", style="setlinewidth(1)"];
"1382403757" -> "1344655404"[label="1", color="black", style="setlinewidth(1)"];
}
