digraph "busybox-1.18.5/util-linux/rdev.c" {
node [shape=record];
"240647839"[label="{{Decl\ -1:\ xstrtoull_range_sfx}|True}", color="blue", fontname="Calibri", style="filled", fillcolor="white"];
"603597777"[label="{{Stmt\ -1:\ return\ xstrtoull_ran}|True}", color="black", fontname="Calibri", style="filled", fillcolor="white"];
"603597777" -> "240647839"[label="1", color="black", style="setlinewidth(1)"];
"377076993"[label="{{Function\ -1:\ xstrtoul_range_sfx}|True}", color="blue", fontname="Calibri", style="filled", fillcolor="white"];
"603597777" -> "377076993"[label="1", color="black", style="setlinewidth(1)"];
"377076993" -> "603597777"[label="1", color="black", style="setlinewidth(1)"];
"1169982539"[label="{{Decl\ -1:\ xstrtoull_range}|True}", color="blue", fontname="Calibri", style="filled", fillcolor="white"];
"1531430123"[label="{{Stmt\ -1:\ return\ xstrtoull_ran}|True}", color="black", fontname="Calibri", style="filled", fillcolor="white"];
"1531430123" -> "1169982539"[label="1", color="black", style="setlinewidth(1)"];
"145300271"[label="{{Function\ -1:\ xstrtoul_range}|True}", color="blue", fontname="Calibri", style="filled", fillcolor="white"];
"1531430123" -> "145300271"[label="1", color="black", style="setlinewidth(1)"];
"145300271" -> "1531430123"[label="1", color="black", style="setlinewidth(1)"];
"698718913"[label="{{Decl\ -1:\ xstrtoull_sfx}|True}", color="blue", fontname="Calibri", style="filled", fillcolor="white"];
"963334647"[label="{{Stmt\ -1:\ return\ xstrtoull_sfx}|True}", color="black", fontname="Calibri", style="filled", fillcolor="white"];
"963334647" -> "698718913"[label="1", color="black", style="setlinewidth(1)"];
"441517302"[label="{{Function\ -1:\ xstrtoul_sfx}|True}", color="blue", fontname="Calibri", style="filled", fillcolor="white"];
"963334647" -> "441517302"[label="1", color="black", style="setlinewidth(1)"];
"441517302" -> "963334647"[label="1", color="black", style="setlinewidth(1)"];
"1903259987"[label="{{Decl\ -1:\ xstrtoull}|True}", color="blue", fontname="Calibri", style="filled", fillcolor="white"];
"278811533"[label="{{Stmt\ -1:\ return\ xstrtoull(str}|True}", color="black", fontname="Calibri", style="filled", fillcolor="white"];
"278811533" -> "1903259987"[label="1", color="black", style="setlinewidth(1)"];
"950176494"[label="{{Function\ -1:\ xstrtoul}|True}", color="blue", fontname="Calibri", style="filled", fillcolor="white"];
"278811533" -> "950176494"[label="1", color="black", style="setlinewidth(1)"];
"950176494" -> "278811533"[label="1", color="black", style="setlinewidth(1)"];
"1099956682"[label="{{Decl\ -1:\ xatoull_range_sfx}|True}", color="blue", fontname="Calibri", style="filled", fillcolor="white"];
"1089741221"[label="{{Stmt\ -1:\ return\ xatoull_range}|True}", color="black", fontname="Calibri", style="filled", fillcolor="white"];
"1089741221" -> "1099956682"[label="1", color="black", style="setlinewidth(1)"];
"585610175"[label="{{Function\ -1:\ xatoul_range_sfx}|True}", color="blue", fontname="Calibri", style="filled", fillcolor="white"];
"1089741221" -> "585610175"[label="1", color="black", style="setlinewidth(1)"];
"585610175" -> "1089741221"[label="1", color="black", style="setlinewidth(1)"];
"1974043903"[label="{{Decl\ -1:\ xatoull_range}|True}", color="blue", fontname="Calibri", style="filled", fillcolor="white"];
"1746941819"[label="{{Stmt\ -1:\ return\ xatoull_range}|True}", color="black", fontname="Calibri", style="filled", fillcolor="white"];
"1746941819" -> "1974043903"[label="1", color="black", style="setlinewidth(1)"];
"1892312802"[label="{{Function\ -1:\ xatoul_range}|True}", color="blue", fontname="Calibri", style="filled", fillcolor="white"];
"1746941819" -> "1892312802"[label="1", color="black", style="setlinewidth(1)"];
"1892312802" -> "1746941819"[label="1", color="black", style="setlinewidth(1)"];
"194450253"[label="{{Decl\ -1:\ xatoull_sfx}|True}", color="blue", fontname="Calibri", style="filled", fillcolor="white"];
"823431091"[label="{{Stmt\ -1:\ return\ xatoull_sfx(s}|True}", color="black", fontname="Calibri", style="filled", fillcolor="white"];
"823431091" -> "194450253"[label="1", color="black", style="setlinewidth(1)"];
"1804775408"[label="{{Function\ -1:\ xatoul_sfx}|True}", color="blue", fontname="Calibri", style="filled", fillcolor="white"];
"823431091" -> "1804775408"[label="1", color="black", style="setlinewidth(1)"];
"1804775408" -> "823431091"[label="1", color="black", style="setlinewidth(1)"];
"1501039109"[label="{{Decl\ -1:\ xatoull}|True}", color="blue", fontname="Calibri", style="filled", fillcolor="white"];
"657302165"[label="{{Stmt\ -1:\ return\ xatoull(str);}|True}", color="black", fontname="Calibri", style="filled", fillcolor="white"];
"657302165" -> "1501039109"[label="1", color="black", style="setlinewidth(1)"];
"1224968333"[label="{{Function\ -1:\ xatoul}|True}", color="blue", fontname="Calibri", style="filled", fillcolor="white"];
"657302165" -> "1224968333"[label="1", color="black", style="setlinewidth(1)"];
"1224968333" -> "657302165"[label="1", color="black", style="setlinewidth(1)"];
"463053456"[label="{{Decl\ -1:\ xstrtoll_range_sfx}|True}", color="blue", fontname="Calibri", style="filled", fillcolor="white"];
"1387312359"[label="{{Stmt\ -1:\ return\ xstrtoll_rang}|True}", color="black", fontname="Calibri", style="filled", fillcolor="white"];
"1387312359" -> "463053456"[label="1", color="black", style="setlinewidth(1)"];
"191933144"[label="{{Function\ -1:\ xstrtol_range_sfx}|True}", color="blue", fontname="Calibri", style="filled", fillcolor="white"];
"1387312359" -> "191933144"[label="1", color="black", style="setlinewidth(1)"];
"191933144" -> "1387312359"[label="1", color="black", style="setlinewidth(1)"];
"1031932850"[label="{{Decl\ -1:\ xstrtoll_range}|True}", color="blue", fontname="Calibri", style="filled", fillcolor="white"];
"2145096998"[label="{{Stmt\ -1:\ return\ xstrtoll_rang}|True}", color="black", fontname="Calibri", style="filled", fillcolor="white"];
"2145096998" -> "1031932850"[label="1", color="black", style="setlinewidth(1)"];
"63602744"[label="{{Function\ -1:\ xstrtol_range}|True}", color="blue", fontname="Calibri", style="filled", fillcolor="white"];
"2145096998" -> "63602744"[label="1", color="black", style="setlinewidth(1)"];
"63602744" -> "2145096998"[label="1", color="black", style="setlinewidth(1)"];
"2049719168"[label="{{Decl\ -1:\ xstrtoll}|True}", color="blue", fontname="Calibri", style="filled", fillcolor="white"];
"734347813"[label="{{Stmt\ -1:\ return\ xstrtoll(str\ }|True}", color="black", fontname="Calibri", style="filled", fillcolor="white"];
"734347813" -> "2049719168"[label="1", color="black", style="setlinewidth(1)"];
"832506973"[label="{{Function\ -1:\ xstrtol}|True}", color="blue", fontname="Calibri", style="filled", fillcolor="white"];
"734347813" -> "832506973"[label="1", color="black", style="setlinewidth(1)"];
"832506973" -> "734347813"[label="1", color="black", style="setlinewidth(1)"];
"791981879"[label="{{Decl\ -1:\ xatoll_range_sfx}|True}", color="blue", fontname="Calibri", style="filled", fillcolor="white"];
"1806134287"[label="{{Stmt\ -1:\ return\ xatoll_range_}|True}", color="black", fontname="Calibri", style="filled", fillcolor="white"];
"1806134287" -> "791981879"[label="1", color="black", style="setlinewidth(1)"];
"10472389"[label="{{Function\ -1:\ xatol_range_sfx}|True}", color="blue", fontname="Calibri", style="filled", fillcolor="white"];
"1806134287" -> "10472389"[label="1", color="black", style="setlinewidth(1)"];
"10472389" -> "1806134287"[label="1", color="black", style="setlinewidth(1)"];
"115621931"[label="{{Decl\ -1:\ xatoll_range}|True}", color="blue", fontname="Calibri", style="filled", fillcolor="white"];
"1875503051"[label="{{Stmt\ -1:\ return\ xatoll_range(}|True}", color="black", fontname="Calibri", style="filled", fillcolor="white"];
"1875503051" -> "115621931"[label="1", color="black", style="setlinewidth(1)"];
"1980764910"[label="{{Function\ -1:\ xatol_range}|True}", color="blue", fontname="Calibri", style="filled", fillcolor="white"];
"1875503051" -> "1980764910"[label="1", color="black", style="setlinewidth(1)"];
"1980764910" -> "1875503051"[label="1", color="black", style="setlinewidth(1)"];
"1812975325"[label="{{Decl\ -1:\ xatoll_sfx}|True}", color="blue", fontname="Calibri", style="filled", fillcolor="white"];
"1575089857"[label="{{Stmt\ -1:\ return\ xatoll_sfx(st}|True}", color="black", fontname="Calibri", style="filled", fillcolor="white"];
"1575089857" -> "1812975325"[label="1", color="black", style="setlinewidth(1)"];
"852700988"[label="{{Function\ -1:\ xatol_sfx}|True}", color="blue", fontname="Calibri", style="filled", fillcolor="white"];
"1575089857" -> "852700988"[label="1", color="black", style="setlinewidth(1)"];
"852700988" -> "1575089857"[label="1", color="black", style="setlinewidth(1)"];
"1531423464"[label="{{Decl\ -1:\ xatoll}|True}", color="blue", fontname="Calibri", style="filled", fillcolor="white"];
"716968435"[label="{{Stmt\ -1:\ return\ xatoll(str);}|True}", color="black", fontname="Calibri", style="filled", fillcolor="white"];
"716968435" -> "1531423464"[label="1", color="black", style="setlinewidth(1)"];
"1567240945"[label="{{Function\ -1:\ xatol}|True}", color="blue", fontname="Calibri", style="filled", fillcolor="white"];
"716968435" -> "1567240945"[label="1", color="black", style="setlinewidth(1)"];
"1567240945" -> "716968435"[label="1", color="black", style="setlinewidth(1)"];
"657302165" -> "1501039109"[label="1", color="black", style="setlinewidth(1)"];
"657302165" -> "1224968333"[label="1", color="black", style="setlinewidth(1)"];
"1224968333" -> "657302165"[label="1", color="black", style="setlinewidth(1)"];
"1490509476"[label="{{Decl\ -1:\ BUG_xatou32_unimplemented}|True}", color="blue", fontname="Calibri", style="filled", fillcolor="white"];
"963457837"[label="{{Decl\ -1:\ xatou}|True}", color="blue", fontname="Calibri", style="filled", fillcolor="white"];
"1924570019"[label="{{Stmt\ -1:\ return\ xatoul(numstr}|True}", color="black", fontname="Calibri", style="filled", fillcolor="white"];
"1924570019" -> "1224968333"[label="1", color="black", style="setlinewidth(1)"];
"744104466"[label="{{Function\ -1:\ xatou32}|True}", color="blue", fontname="Calibri", style="filled", fillcolor="white"];
"1924570019" -> "744104466"[label="1", color="black", style="setlinewidth(1)"];
"1979467257"[label="{{Stmt\ -1:\ return\ BUG_xatou32_u}|True}", color="black", fontname="Calibri", style="filled", fillcolor="white"];
"1979467257" -> "1490509476"[label="1", color="black", style="setlinewidth(1)"];
"1979467257" -> "744104466"[label="1", color="black", style="setlinewidth(1)"];
"89136920"[label="{{Stmt\ -1:\ return\ xatou(numstr)}|True}", color="black", fontname="Calibri", style="filled", fillcolor="white"];
"89136920" -> "963457837"[label="1", color="black", style="setlinewidth(1)"];
"89136920" -> "744104466"[label="1", color="black", style="setlinewidth(1)"];
"823228477"[label="{{Expr\ -1:\ (((92233720368547758}|True}", color="black", fontname="Calibri", style="filled", fillcolor="white"];
"823228477" -> "1979467257"[label="1", color="black", style="setlinewidth(1)"];
"823228477" -> "1924570019"[label="1", color="black", style="setlinewidth(1)"];
"534000608"[label="{{Expr\ -1:\ (((2147483647\ *\ 2U)\ }|True}", color="black", fontname="Calibri", style="filled", fillcolor="white"];
"534000608" -> "823228477"[label="1", color="black", style="setlinewidth(1)"];
"534000608" -> "89136920"[label="1", color="black", style="setlinewidth(1)"];
"744104466" -> "534000608"[label="1", color="black", style="setlinewidth(1)"];
"128278616"[label="{{Decl\ -1:\ bb_strtoull}|True}", color="blue", fontname="Calibri", style="filled", fillcolor="white"];
"1448676340"[label="{{Stmt\ -1:\ return\ bb_strtoull(a}|True}", color="black", fontname="Calibri", style="filled", fillcolor="white"];
"1448676340" -> "128278616"[label="1", color="black", style="setlinewidth(1)"];
"1356588275"[label="{{Function\ -1:\ bb_strtoul}|True}", color="blue", fontname="Calibri", style="filled", fillcolor="white"];
"1448676340" -> "1356588275"[label="1", color="black", style="setlinewidth(1)"];
"1356588275" -> "1448676340"[label="1", color="black", style="setlinewidth(1)"];
"473661776"[label="{{Decl\ -1:\ bb_strtoll}|True}", color="blue", fontname="Calibri", style="filled", fillcolor="white"];
"1874488961"[label="{{Stmt\ -1:\ return\ bb_strtoll(ar}|True}", color="black", fontname="Calibri", style="filled", fillcolor="white"];
"1874488961" -> "473661776"[label="1", color="black", style="setlinewidth(1)"];
"871858"[label="{{Function\ -1:\ bb_strtol}|True}", color="blue", fontname="Calibri", style="filled", fillcolor="white"];
"1874488961" -> "871858"[label="1", color="black", style="setlinewidth(1)"];
"871858" -> "1874488961"[label="1", color="black", style="setlinewidth(1)"];
"1448676340" -> "128278616"[label="1", color="black", style="setlinewidth(1)"];
"1448676340" -> "1356588275"[label="1", color="black", style="setlinewidth(1)"];
"1356588275" -> "1448676340"[label="1", color="black", style="setlinewidth(1)"];
"110990538"[label="{{Decl\ -1:\ BUG_bb_strtou32_unimplemented}|True}", color="blue", fontname="Calibri", style="filled", fillcolor="white"];
"1664961570"[label="{{Decl\ -1:\ bb_strtou}|True}", color="blue", fontname="Calibri", style="filled", fillcolor="white"];
"2016754448"[label="{{Stmt\ -1:\ return\ bb_strtoul(ar}|True}", color="black", fontname="Calibri", style="filled", fillcolor="white"];
"2016754448" -> "1356588275"[label="1", color="black", style="setlinewidth(1)"];
"316192077"[label="{{Function\ -1:\ bb_strtou32}|True}", color="blue", fontname="Calibri", style="filled", fillcolor="white"];
"2016754448" -> "316192077"[label="1", color="black", style="setlinewidth(1)"];
"1277569680"[label="{{Stmt\ -1:\ return\ BUG_bb_strtou}|True}", color="black", fontname="Calibri", style="filled", fillcolor="white"];
"1277569680" -> "110990538"[label="1", color="black", style="setlinewidth(1)"];
"1277569680" -> "316192077"[label="1", color="black", style="setlinewidth(1)"];
"1785077721"[label="{{Stmt\ -1:\ return\ bb_strtou(arg}|True}", color="black", fontname="Calibri", style="filled", fillcolor="white"];
"1785077721" -> "1664961570"[label="1", color="black", style="setlinewidth(1)"];
"1785077721" -> "316192077"[label="1", color="black", style="setlinewidth(1)"];
"576036010"[label="{{Expr\ -1:\ (sizeof(uint32_t\ )\ =}|True}", color="black", fontname="Calibri", style="filled", fillcolor="white"];
"576036010" -> "1277569680"[label="1", color="black", style="setlinewidth(1)"];
"576036010" -> "2016754448"[label="1", color="black", style="setlinewidth(1)"];
"394353410"[label="{{Expr\ -1:\ (sizeof(uint32_t\ )\ =}|True}", color="black", fontname="Calibri", style="filled", fillcolor="white"];
"394353410" -> "576036010"[label="1", color="black", style="setlinewidth(1)"];
"394353410" -> "1785077721"[label="1", color="black", style="setlinewidth(1)"];
"316192077" -> "394353410"[label="1", color="black", style="setlinewidth(1)"];
"1435243028"[label="{{Stmt\ -1:\ return\ (b\ \<=\ ('z'\ -\ }|True}", color="black", fontname="Calibri", style="filled", fillcolor="white"];
"1475500253"[label="{{Function\ -1:\ bb_ascii_isalnum}|True}", color="blue", fontname="Calibri", style="filled", fillcolor="white"];
"1435243028" -> "1475500253"[label="1", color="black", style="setlinewidth(1)"];
"94290999"[label="{{Stmt\ -1:\ return\ (b\ \<=\ 9);}|True}", color="black", fontname="Calibri", style="filled", fillcolor="white"];
"94290999" -> "1475500253"[label="1", color="black", style="setlinewidth(1)"];
"900016368"[label="{{Stmt\ -1:\ (b\ =\ ((a\ \|\ 0x20)\ -\ '}|True}", color="black", fontname="Calibri", style="filled", fillcolor="white"];
"900016368" -> "1435243028"[label="1", color="black", style="setlinewidth(1)"];
"1920197851"[label="{{Expr\ -1:\ (b\ \<=\ 9)}|True}", color="black", fontname="Calibri", style="filled", fillcolor="white"];
"1920197851" -> "900016368"[label="1", color="black", style="setlinewidth(1)"];
"1920197851" -> "94290999"[label="1", color="black", style="setlinewidth(1)"];
"797435620"[label="{{Stmt\ -1:\ unsigned\ char\ b\ =\ \ (}|True}", color="black", fontname="Calibri", style="filled", fillcolor="white"];
"797435620" -> "1920197851"[label="1", color="black", style="setlinewidth(1)"];
"1475500253" -> "797435620"[label="1", color="black", style="setlinewidth(1)"];
"311027888"[label="{{Stmt\ -1:\ return\ (b\ \<=\ ('f'\ -\ }|True}", color="black", fontname="Calibri", style="filled", fillcolor="white"];
"472880938"[label="{{Function\ -1:\ bb_ascii_isxdigit}|True}", color="blue", fontname="Calibri", style="filled", fillcolor="white"];
"311027888" -> "472880938"[label="1", color="black", style="setlinewidth(1)"];
"1752394366"[label="{{Stmt\ -1:\ return\ (b\ \<=\ 9);}|True}", color="black", fontname="Calibri", style="filled", fillcolor="white"];
"1752394366" -> "472880938"[label="1", color="black", style="setlinewidth(1)"];
"1085101484"[label="{{Stmt\ -1:\ (b\ =\ ((a\ \|\ 0x20)\ -\ '}|True}", color="black", fontname="Calibri", style="filled", fillcolor="white"];
"1085101484" -> "311027888"[label="1", color="black", style="setlinewidth(1)"];
"2098313236"[label="{{Expr\ -1:\ (b\ \<=\ 9)}|True}", color="black", fontname="Calibri", style="filled", fillcolor="white"];
"2098313236" -> "1085101484"[label="1", color="black", style="setlinewidth(1)"];
"2098313236" -> "1752394366"[label="1", color="black", style="setlinewidth(1)"];
"808151012"[label="{{Stmt\ -1:\ unsigned\ char\ b\ =\ \ (}|True}", color="black", fontname="Calibri", style="filled", fillcolor="white"];
"808151012" -> "2098313236"[label="1", color="black", style="setlinewidth(1)"];
"472880938" -> "808151012"[label="1", color="black", style="setlinewidth(1)"];
"92621759"[label="{{Stmt\ -1:\ (a\ -=\ ('a'\ -\ 'A'));}|True}", color="black", fontname="Calibri", style="filled", fillcolor="white"];
"428166734"[label="{{Stmt\ -1:\ return\ a;}|True}", color="black", fontname="Calibri", style="filled", fillcolor="white"];
"92621759" -> "428166734"[label="1", color="black", style="setlinewidth(1)"];
"758232213"[label="{{Function\ -1:\ bb_ascii_toupper}|True}", color="blue", fontname="Calibri", style="filled", fillcolor="white"];
"428166734" -> "758232213"[label="1", color="black", style="setlinewidth(1)"];
"1991847791"[label="{{Expr\ -1:\ (b\ \<=\ ('z'\ -\ 'a'))}|True}", color="black", fontname="Calibri", style="filled", fillcolor="white"];
"1991847791" -> "428166734"[label="1", color="black", style="setlinewidth(1)"];
"1991847791" -> "92621759"[label="1", color="black", style="setlinewidth(1)"];
"2056524809"[label="{{Stmt\ -1:\ unsigned\ char\ b\ =\ \ (}|True}", color="black", fontname="Calibri", style="filled", fillcolor="white"];
"2056524809" -> "1991847791"[label="1", color="black", style="setlinewidth(1)"];
"758232213" -> "2056524809"[label="1", color="black", style="setlinewidth(1)"];
"1782715448"[label="{{Stmt\ -1:\ (a\ +=\ ('a'\ -\ 'A'));}|True}", color="black", fontname="Calibri", style="filled", fillcolor="white"];
"1853919145"[label="{{Stmt\ -1:\ return\ a;}|True}", color="black", fontname="Calibri", style="filled", fillcolor="white"];
"1782715448" -> "1853919145"[label="1", color="black", style="setlinewidth(1)"];
"315343831"[label="{{Function\ -1:\ bb_ascii_tolower}|True}", color="blue", fontname="Calibri", style="filled", fillcolor="white"];
"1853919145" -> "315343831"[label="1", color="black", style="setlinewidth(1)"];
"628274730"[label="{{Expr\ -1:\ (b\ \<=\ ('Z'\ -\ 'A'))}|True}", color="black", fontname="Calibri", style="filled", fillcolor="white"];
"628274730" -> "1853919145"[label="1", color="black", style="setlinewidth(1)"];
"628274730" -> "1782715448"[label="1", color="black", style="setlinewidth(1)"];
"1972100684"[label="{{Stmt\ -1:\ unsigned\ char\ b\ =\ \ (}|True}", color="black", fontname="Calibri", style="filled", fillcolor="white"];
"1972100684" -> "628274730"[label="1", color="black", style="setlinewidth(1)"];
"315343831" -> "1972100684"[label="1", color="black", style="setlinewidth(1)"];
"548635036"[label="{{Stmt\ -1:\ return\ 0;}|True}", color="black", fontname="Calibri", style="filled", fillcolor="white"];
"1154472898"[label="{{Function\ -1:\ rdev_main}|True}", color="blue", fontname="Calibri", style="filled", fillcolor="white"];
"548635036" -> "1154472898"[label="1", color="black", style="setlinewidth(1)"];
"228787862"[label="{{Decl\ -1:\ printf}|True}", color="blue", fontname="Calibri", style="filled", fillcolor="white"];
"1160448206"[label="{{Stmt\ -1:\ printf(\\\"%s\ /\n\\\"\ ,\ ro}|True}", color="black", fontname="Calibri", style="filled", fillcolor="white"];
"1160448206" -> "228787862"[label="1", color="black", style="setlinewidth(1)"];
"1160448206" -> "548635036"[label="1", color="black", style="setlinewidth(1)"];
"286230331"[label="{{Stmt\ -1:\ return\ 1;}|True}", color="black", fontname="Calibri", style="filled", fillcolor="white"];
"286230331" -> "1154472898"[label="1", color="black", style="setlinewidth(1)"];
"1109353689"[label="{{Expr\ -1:\ (root_device\ !=\ ((vo}|True}", color="black", fontname="Calibri", style="filled", fillcolor="white"];
"1109353689" -> "286230331"[label="1", color="black", style="setlinewidth(1)"];
"1109353689" -> "1160448206"[label="1", color="black", style="setlinewidth(1)"];
"1979044830"[label="{{Decl\ -1:\ find_block_device}|True}", color="blue", fontname="Calibri", style="filled", fillcolor="white"];
"2033952371"[label="{{Stmt\ -1:\ char\ const\ *const\ ro}|True}", color="black", fontname="Calibri", style="filled", fillcolor="white"];
"2033952371" -> "1979044830"[label="1", color="black", style="setlinewidth(1)"];
"2033952371" -> "1109353689"[label="1", color="black", style="setlinewidth(1)"];
"1154472898" -> "2033952371"[label="1", color="black", style="setlinewidth(1)"];
}
