digraph "busybox-1.18.5/util-linux/switch_root.c" {
node [shape=record];
"1651441032"[label="{{Decl\ -1:\ xstrtoull_range_sfx}|True}", color="blue", fontname="Calibri", style="filled", fillcolor="white"];
"1602408001"[label="{{Stmt\ -1:\ return\ xstrtoull_ran}|True}", color="black", fontname="Calibri", style="filled", fillcolor="white"];
"1602408001" -> "1651441032"[label="1", color="black", style="setlinewidth(1)"];
"1868890397"[label="{{Function\ -1:\ xstrtoul_range_sfx}|True}", color="blue", fontname="Calibri", style="filled", fillcolor="white"];
"1602408001" -> "1868890397"[label="1", color="black", style="setlinewidth(1)"];
"1868890397" -> "1602408001"[label="1", color="black", style="setlinewidth(1)"];
"1261812391"[label="{{Decl\ -1:\ xstrtoull_range}|True}", color="blue", fontname="Calibri", style="filled", fillcolor="white"];
"484438285"[label="{{Stmt\ -1:\ return\ xstrtoull_ran}|True}", color="black", fontname="Calibri", style="filled", fillcolor="white"];
"484438285" -> "1261812391"[label="1", color="black", style="setlinewidth(1)"];
"1593194890"[label="{{Function\ -1:\ xstrtoul_range}|True}", color="blue", fontname="Calibri", style="filled", fillcolor="white"];
"484438285" -> "1593194890"[label="1", color="black", style="setlinewidth(1)"];
"1593194890" -> "484438285"[label="1", color="black", style="setlinewidth(1)"];
"455795549"[label="{{Decl\ -1:\ xstrtoull_sfx}|True}", color="blue", fontname="Calibri", style="filled", fillcolor="white"];
"935633010"[label="{{Stmt\ -1:\ return\ xstrtoull_sfx}|True}", color="black", fontname="Calibri", style="filled", fillcolor="white"];
"935633010" -> "455795549"[label="1", color="black", style="setlinewidth(1)"];
"354561951"[label="{{Function\ -1:\ xstrtoul_sfx}|True}", color="blue", fontname="Calibri", style="filled", fillcolor="white"];
"935633010" -> "354561951"[label="1", color="black", style="setlinewidth(1)"];
"354561951" -> "935633010"[label="1", color="black", style="setlinewidth(1)"];
"2135279596"[label="{{Decl\ -1:\ xstrtoull}|True}", color="blue", fontname="Calibri", style="filled", fillcolor="white"];
"1646866513"[label="{{Stmt\ -1:\ return\ xstrtoull(str}|True}", color="black", fontname="Calibri", style="filled", fillcolor="white"];
"1646866513" -> "2135279596"[label="1", color="black", style="setlinewidth(1)"];
"221385059"[label="{{Function\ -1:\ xstrtoul}|True}", color="blue", fontname="Calibri", style="filled", fillcolor="white"];
"1646866513" -> "221385059"[label="1", color="black", style="setlinewidth(1)"];
"221385059" -> "1646866513"[label="1", color="black", style="setlinewidth(1)"];
"1359407450"[label="{{Decl\ -1:\ xatoull_range_sfx}|True}", color="blue", fontname="Calibri", style="filled", fillcolor="white"];
"1396739085"[label="{{Stmt\ -1:\ return\ xatoull_range}|True}", color="black", fontname="Calibri", style="filled", fillcolor="white"];
"1396739085" -> "1359407450"[label="1", color="black", style="setlinewidth(1)"];
"372748058"[label="{{Function\ -1:\ xatoul_range_sfx}|True}", color="blue", fontname="Calibri", style="filled", fillcolor="white"];
"1396739085" -> "372748058"[label="1", color="black", style="setlinewidth(1)"];
"372748058" -> "1396739085"[label="1", color="black", style="setlinewidth(1)"];
"1641552118"[label="{{Decl\ -1:\ xatoull_range}|True}", color="blue", fontname="Calibri", style="filled", fillcolor="white"];
"1257603424"[label="{{Stmt\ -1:\ return\ xatoull_range}|True}", color="black", fontname="Calibri", style="filled", fillcolor="white"];
"1257603424" -> "1641552118"[label="1", color="black", style="setlinewidth(1)"];
"420249101"[label="{{Function\ -1:\ xatoul_range}|True}", color="blue", fontname="Calibri", style="filled", fillcolor="white"];
"1257603424" -> "420249101"[label="1", color="black", style="setlinewidth(1)"];
"420249101" -> "1257603424"[label="1", color="black", style="setlinewidth(1)"];
"1047679357"[label="{{Decl\ -1:\ xatoull_sfx}|True}", color="blue", fontname="Calibri", style="filled", fillcolor="white"];
"432657024"[label="{{Stmt\ -1:\ return\ xatoull_sfx(s}|True}", color="black", fontname="Calibri", style="filled", fillcolor="white"];
"432657024" -> "1047679357"[label="1", color="black", style="setlinewidth(1)"];
"1637156885"[label="{{Function\ -1:\ xatoul_sfx}|True}", color="blue", fontname="Calibri", style="filled", fillcolor="white"];
"432657024" -> "1637156885"[label="1", color="black", style="setlinewidth(1)"];
"1637156885" -> "432657024"[label="1", color="black", style="setlinewidth(1)"];
"432836942"[label="{{Decl\ -1:\ xatoull}|True}", color="blue", fontname="Calibri", style="filled", fillcolor="white"];
"529058223"[label="{{Stmt\ -1:\ return\ xatoull(str);}|True}", color="black", fontname="Calibri", style="filled", fillcolor="white"];
"529058223" -> "432836942"[label="1", color="black", style="setlinewidth(1)"];
"779890585"[label="{{Function\ -1:\ xatoul}|True}", color="blue", fontname="Calibri", style="filled", fillcolor="white"];
"529058223" -> "779890585"[label="1", color="black", style="setlinewidth(1)"];
"779890585" -> "529058223"[label="1", color="black", style="setlinewidth(1)"];
"7679575"[label="{{Decl\ -1:\ xstrtoll_range_sfx}|True}", color="blue", fontname="Calibri", style="filled", fillcolor="white"];
"1273196956"[label="{{Stmt\ -1:\ return\ xstrtoll_rang}|True}", color="black", fontname="Calibri", style="filled", fillcolor="white"];
"1273196956" -> "7679575"[label="1", color="black", style="setlinewidth(1)"];
"120587685"[label="{{Function\ -1:\ xstrtol_range_sfx}|True}", color="blue", fontname="Calibri", style="filled", fillcolor="white"];
"1273196956" -> "120587685"[label="1", color="black", style="setlinewidth(1)"];
"120587685" -> "1273196956"[label="1", color="black", style="setlinewidth(1)"];
"1499207751"[label="{{Decl\ -1:\ xstrtoll_range}|True}", color="blue", fontname="Calibri", style="filled", fillcolor="white"];
"1548494820"[label="{{Stmt\ -1:\ return\ xstrtoll_rang}|True}", color="black", fontname="Calibri", style="filled", fillcolor="white"];
"1548494820" -> "1499207751"[label="1", color="black", style="setlinewidth(1)"];
"3161995"[label="{{Function\ -1:\ xstrtol_range}|True}", color="blue", fontname="Calibri", style="filled", fillcolor="white"];
"1548494820" -> "3161995"[label="1", color="black", style="setlinewidth(1)"];
"3161995" -> "1548494820"[label="1", color="black", style="setlinewidth(1)"];
"394061265"[label="{{Decl\ -1:\ xstrtoll}|True}", color="blue", fontname="Calibri", style="filled", fillcolor="white"];
"1271498924"[label="{{Stmt\ -1:\ return\ xstrtoll(str\ }|True}", color="black", fontname="Calibri", style="filled", fillcolor="white"];
"1271498924" -> "394061265"[label="1", color="black", style="setlinewidth(1)"];
"117048942"[label="{{Function\ -1:\ xstrtol}|True}", color="blue", fontname="Calibri", style="filled", fillcolor="white"];
"1271498924" -> "117048942"[label="1", color="black", style="setlinewidth(1)"];
"117048942" -> "1271498924"[label="1", color="black", style="setlinewidth(1)"];
"402675988"[label="{{Decl\ -1:\ xatoll_range_sfx}|True}", color="blue", fontname="Calibri", style="filled", fillcolor="white"];
"1328862234"[label="{{Stmt\ -1:\ return\ xatoll_range_}|True}", color="black", fontname="Calibri", style="filled", fillcolor="white"];
"1328862234" -> "402675988"[label="1", color="black", style="setlinewidth(1)"];
"211139949"[label="{{Function\ -1:\ xatol_range_sfx}|True}", color="blue", fontname="Calibri", style="filled", fillcolor="white"];
"1328862234" -> "211139949"[label="1", color="black", style="setlinewidth(1)"];
"211139949" -> "1328862234"[label="1", color="black", style="setlinewidth(1)"];
"192720809"[label="{{Decl\ -1:\ xatoll_range}|True}", color="blue", fontname="Calibri", style="filled", fillcolor="white"];
"675238817"[label="{{Stmt\ -1:\ return\ xatoll_range(}|True}", color="black", fontname="Calibri", style="filled", fillcolor="white"];
"675238817" -> "192720809"[label="1", color="black", style="setlinewidth(1)"];
"454109626"[label="{{Function\ -1:\ xatol_range}|True}", color="blue", fontname="Calibri", style="filled", fillcolor="white"];
"675238817" -> "454109626"[label="1", color="black", style="setlinewidth(1)"];
"454109626" -> "675238817"[label="1", color="black", style="setlinewidth(1)"];
"1305431459"[label="{{Decl\ -1:\ xatoll_sfx}|True}", color="blue", fontname="Calibri", style="filled", fillcolor="white"];
"1439059988"[label="{{Stmt\ -1:\ return\ xatoll_sfx(st}|True}", color="black", fontname="Calibri", style="filled", fillcolor="white"];
"1439059988" -> "1305431459"[label="1", color="black", style="setlinewidth(1)"];
"260479097"[label="{{Function\ -1:\ xatol_sfx}|True}", color="blue", fontname="Calibri", style="filled", fillcolor="white"];
"1439059988" -> "260479097"[label="1", color="black", style="setlinewidth(1)"];
"260479097" -> "1439059988"[label="1", color="black", style="setlinewidth(1)"];
"2133612328"[label="{{Decl\ -1:\ xatoll}|True}", color="blue", fontname="Calibri", style="filled", fillcolor="white"];
"1811173541"[label="{{Stmt\ -1:\ return\ xatoll(str);}|True}", color="black", fontname="Calibri", style="filled", fillcolor="white"];
"1811173541" -> "2133612328"[label="1", color="black", style="setlinewidth(1)"];
"1356518705"[label="{{Function\ -1:\ xatol}|True}", color="blue", fontname="Calibri", style="filled", fillcolor="white"];
"1811173541" -> "1356518705"[label="1", color="black", style="setlinewidth(1)"];
"1356518705" -> "1811173541"[label="1", color="black", style="setlinewidth(1)"];
"529058223" -> "432836942"[label="1", color="black", style="setlinewidth(1)"];
"529058223" -> "779890585"[label="1", color="black", style="setlinewidth(1)"];
"779890585" -> "529058223"[label="1", color="black", style="setlinewidth(1)"];
"240692615"[label="{{Decl\ -1:\ BUG_xatou32_unimplemented}|True}", color="blue", fontname="Calibri", style="filled", fillcolor="white"];
"1233435604"[label="{{Decl\ -1:\ xatou}|True}", color="blue", fontname="Calibri", style="filled", fillcolor="white"];
"268763602"[label="{{Stmt\ -1:\ return\ xatoul(numstr}|True}", color="black", fontname="Calibri", style="filled", fillcolor="white"];
"268763602" -> "779890585"[label="1", color="black", style="setlinewidth(1)"];
"1479452433"[label="{{Function\ -1:\ xatou32}|True}", color="blue", fontname="Calibri", style="filled", fillcolor="white"];
"268763602" -> "1479452433"[label="1", color="black", style="setlinewidth(1)"];
"1092023128"[label="{{Stmt\ -1:\ return\ BUG_xatou32_u}|True}", color="black", fontname="Calibri", style="filled", fillcolor="white"];
"1092023128" -> "240692615"[label="1", color="black", style="setlinewidth(1)"];
"1092023128" -> "1479452433"[label="1", color="black", style="setlinewidth(1)"];
"1040094059"[label="{{Stmt\ -1:\ return\ xatou(numstr)}|True}", color="black", fontname="Calibri", style="filled", fillcolor="white"];
"1040094059" -> "1233435604"[label="1", color="black", style="setlinewidth(1)"];
"1040094059" -> "1479452433"[label="1", color="black", style="setlinewidth(1)"];
"23006525"[label="{{Expr\ -1:\ (((92233720368547758}|True}", color="black", fontname="Calibri", style="filled", fillcolor="white"];
"23006525" -> "1092023128"[label="1", color="black", style="setlinewidth(1)"];
"23006525" -> "268763602"[label="1", color="black", style="setlinewidth(1)"];
"1627526021"[label="{{Expr\ -1:\ (((2147483647\ *\ 2U)\ }|True}", color="black", fontname="Calibri", style="filled", fillcolor="white"];
"1627526021" -> "23006525"[label="1", color="black", style="setlinewidth(1)"];
"1627526021" -> "1040094059"[label="1", color="black", style="setlinewidth(1)"];
"1479452433" -> "1627526021"[label="1", color="black", style="setlinewidth(1)"];
"203486225"[label="{{Decl\ -1:\ bb_strtoull}|True}", color="blue", fontname="Calibri", style="filled", fillcolor="white"];
"89136920"[label="{{Stmt\ -1:\ return\ bb_strtoull(a}|True}", color="black", fontname="Calibri", style="filled", fillcolor="white"];
"89136920" -> "203486225"[label="1", color="black", style="setlinewidth(1)"];
"1366483581"[label="{{Function\ -1:\ bb_strtoul}|True}", color="blue", fontname="Calibri", style="filled", fillcolor="white"];
"89136920" -> "1366483581"[label="1", color="black", style="setlinewidth(1)"];
"1366483581" -> "89136920"[label="1", color="black", style="setlinewidth(1)"];
"893767243"[label="{{Decl\ -1:\ bb_strtoll}|True}", color="blue", fontname="Calibri", style="filled", fillcolor="white"];
"1186718344"[label="{{Stmt\ -1:\ return\ bb_strtoll(ar}|True}", color="black", fontname="Calibri", style="filled", fillcolor="white"];
"1186718344" -> "893767243"[label="1", color="black", style="setlinewidth(1)"];
"2249282"[label="{{Function\ -1:\ bb_strtol}|True}", color="blue", fontname="Calibri", style="filled", fillcolor="white"];
"1186718344" -> "2249282"[label="1", color="black", style="setlinewidth(1)"];
"2249282" -> "1186718344"[label="1", color="black", style="setlinewidth(1)"];
"89136920" -> "203486225"[label="1", color="black", style="setlinewidth(1)"];
"89136920" -> "1366483581"[label="1", color="black", style="setlinewidth(1)"];
"1366483581" -> "89136920"[label="1", color="black", style="setlinewidth(1)"];
"1487014735"[label="{{Decl\ -1:\ BUG_bb_strtou32_unimplemented}|True}", color="blue", fontname="Calibri", style="filled", fillcolor="white"];
"685746710"[label="{{Decl\ -1:\ bb_strtou}|True}", color="blue", fontname="Calibri", style="filled", fillcolor="white"];
"467675386"[label="{{Stmt\ -1:\ return\ bb_strtoul(ar}|True}", color="black", fontname="Calibri", style="filled", fillcolor="white"];
"467675386" -> "1366483581"[label="1", color="black", style="setlinewidth(1)"];
"1662976531"[label="{{Function\ -1:\ bb_strtou32}|True}", color="blue", fontname="Calibri", style="filled", fillcolor="white"];
"467675386" -> "1662976531"[label="1", color="black", style="setlinewidth(1)"];
"261717986"[label="{{Stmt\ -1:\ return\ BUG_bb_strtou}|True}", color="black", fontname="Calibri", style="filled", fillcolor="white"];
"261717986" -> "1487014735"[label="1", color="black", style="setlinewidth(1)"];
"261717986" -> "1662976531"[label="1", color="black", style="setlinewidth(1)"];
"1874488961"[label="{{Stmt\ -1:\ return\ bb_strtou(arg}|True}", color="black", fontname="Calibri", style="filled", fillcolor="white"];
"1874488961" -> "685746710"[label="1", color="black", style="setlinewidth(1)"];
"1874488961" -> "1662976531"[label="1", color="black", style="setlinewidth(1)"];
"560865716"[label="{{Expr\ -1:\ (sizeof(uint32_t\ )\ =}|True}", color="black", fontname="Calibri", style="filled", fillcolor="white"];
"560865716" -> "261717986"[label="1", color="black", style="setlinewidth(1)"];
"560865716" -> "467675386"[label="1", color="black", style="setlinewidth(1)"];
"150686185"[label="{{Expr\ -1:\ (sizeof(uint32_t\ )\ =}|True}", color="black", fontname="Calibri", style="filled", fillcolor="white"];
"150686185" -> "560865716"[label="1", color="black", style="setlinewidth(1)"];
"150686185" -> "1874488961"[label="1", color="black", style="setlinewidth(1)"];
"1662976531" -> "150686185"[label="1", color="black", style="setlinewidth(1)"];
"652332095"[label="{{Stmt\ -1:\ return\ (b\ \<=\ ('z'\ -\ }|True}", color="black", fontname="Calibri", style="filled", fillcolor="white"];
"1792687692"[label="{{Function\ -1:\ bb_ascii_isalnum}|True}", color="blue", fontname="Calibri", style="filled", fillcolor="white"];
"652332095" -> "1792687692"[label="1", color="black", style="setlinewidth(1)"];
"905771712"[label="{{Stmt\ -1:\ return\ (b\ \<=\ 9);}|True}", color="black", fontname="Calibri", style="filled", fillcolor="white"];
"905771712" -> "1792687692"[label="1", color="black", style="setlinewidth(1)"];
"125673725"[label="{{Stmt\ -1:\ (b\ =\ ((a\ \|\ 0x20)\ -\ '}|True}", color="black", fontname="Calibri", style="filled", fillcolor="white"];
"125673725" -> "652332095"[label="1", color="black", style="setlinewidth(1)"];
"1862161836"[label="{{Expr\ -1:\ (b\ \<=\ 9)}|True}", color="black", fontname="Calibri", style="filled", fillcolor="white"];
"1862161836" -> "125673725"[label="1", color="black", style="setlinewidth(1)"];
"1862161836" -> "905771712"[label="1", color="black", style="setlinewidth(1)"];
"614588000"[label="{{Stmt\ -1:\ unsigned\ char\ b\ =\ \ (}|True}", color="black", fontname="Calibri", style="filled", fillcolor="white"];
"614588000" -> "1862161836"[label="1", color="black", style="setlinewidth(1)"];
"1792687692" -> "614588000"[label="1", color="black", style="setlinewidth(1)"];
"9408384"[label="{{Stmt\ -1:\ return\ (b\ \<=\ ('f'\ -\ }|True}", color="black", fontname="Calibri", style="filled", fillcolor="white"];
"2127505777"[label="{{Function\ -1:\ bb_ascii_isxdigit}|True}", color="blue", fontname="Calibri", style="filled", fillcolor="white"];
"9408384" -> "2127505777"[label="1", color="black", style="setlinewidth(1)"];
"2141572385"[label="{{Stmt\ -1:\ return\ (b\ \<=\ 9);}|True}", color="black", fontname="Calibri", style="filled", fillcolor="white"];
"2141572385" -> "2127505777"[label="1", color="black", style="setlinewidth(1)"];
"1894741658"[label="{{Stmt\ -1:\ (b\ =\ ((a\ \|\ 0x20)\ -\ '}|True}", color="black", fontname="Calibri", style="filled", fillcolor="white"];
"1894741658" -> "9408384"[label="1", color="black", style="setlinewidth(1)"];
"243849874"[label="{{Expr\ -1:\ (b\ \<=\ 9)}|True}", color="black", fontname="Calibri", style="filled", fillcolor="white"];
"243849874" -> "1894741658"[label="1", color="black", style="setlinewidth(1)"];
"243849874" -> "2141572385"[label="1", color="black", style="setlinewidth(1)"];
"1428230990"[label="{{Stmt\ -1:\ unsigned\ char\ b\ =\ \ (}|True}", color="black", fontname="Calibri", style="filled", fillcolor="white"];
"1428230990" -> "243849874"[label="1", color="black", style="setlinewidth(1)"];
"2127505777" -> "1428230990"[label="1", color="black", style="setlinewidth(1)"];
"107510785"[label="{{Stmt\ -1:\ (a\ -=\ ('a'\ -\ 'A'));}|True}", color="black", fontname="Calibri", style="filled", fillcolor="white"];
"1329970364"[label="{{Stmt\ -1:\ return\ a;}|True}", color="black", fontname="Calibri", style="filled", fillcolor="white"];
"107510785" -> "1329970364"[label="1", color="black", style="setlinewidth(1)"];
"1475500253"[label="{{Function\ -1:\ bb_ascii_toupper}|True}", color="blue", fontname="Calibri", style="filled", fillcolor="white"];
"1329970364" -> "1475500253"[label="1", color="black", style="setlinewidth(1)"];
"381034641"[label="{{Expr\ -1:\ (b\ \<=\ ('z'\ -\ 'a'))}|True}", color="black", fontname="Calibri", style="filled", fillcolor="white"];
"381034641" -> "1329970364"[label="1", color="black", style="setlinewidth(1)"];
"381034641" -> "107510785"[label="1", color="black", style="setlinewidth(1)"];
"55024413"[label="{{Stmt\ -1:\ unsigned\ char\ b\ =\ \ (}|True}", color="black", fontname="Calibri", style="filled", fillcolor="white"];
"55024413" -> "381034641"[label="1", color="black", style="setlinewidth(1)"];
"1475500253" -> "55024413"[label="1", color="black", style="setlinewidth(1)"];
"645119727"[label="{{Stmt\ -1:\ (a\ +=\ ('a'\ -\ 'A'));}|True}", color="black", fontname="Calibri", style="filled", fillcolor="white"];
"1752394366"[label="{{Stmt\ -1:\ return\ a;}|True}", color="black", fontname="Calibri", style="filled", fillcolor="white"];
"645119727" -> "1752394366"[label="1", color="black", style="setlinewidth(1)"];
"2097064363"[label="{{Function\ -1:\ bb_ascii_tolower}|True}", color="blue", fontname="Calibri", style="filled", fillcolor="white"];
"1752394366" -> "2097064363"[label="1", color="black", style="setlinewidth(1)"];
"38102328"[label="{{Expr\ -1:\ (b\ \<=\ ('Z'\ -\ 'A'))}|True}", color="black", fontname="Calibri", style="filled", fillcolor="white"];
"38102328" -> "1752394366"[label="1", color="black", style="setlinewidth(1)"];
"38102328" -> "645119727"[label="1", color="black", style="setlinewidth(1)"];
"506916423"[label="{{Stmt\ -1:\ unsigned\ char\ b\ =\ \ (}|True}", color="black", fontname="Calibri", style="filled", fillcolor="white"];
"506916423" -> "38102328"[label="1", color="black", style="setlinewidth(1)"];
"2097064363" -> "506916423"[label="1", color="black", style="setlinewidth(1)"];
"355601884"[label="{{Decl\ -1:\ lstat}|True}", color="blue", fontname="Calibri", style="filled", fillcolor="white"];
"1808549342"[label="{{Stmt\ -1:\ struct\ stat\ \ st;}|True}", color="black", fontname="Calibri", style="filled", fillcolor="white"];
"1808549342" -> "355601884"[label="1", color="black", style="setlinewidth(1)"];
"1450776117"[label="{{Stmt\ -1:\ struct\ dirent\ \ *d;}|True}", color="black", fontname="Calibri", style="filled", fillcolor="white"];
"1450776117" -> "1808549342"[label="1", color="black", style="setlinewidth(1)"];
"172744800"[label="{{Stmt\ -1:\ DIR\ *dir;}|True}", color="black", fontname="Calibri", style="filled", fillcolor="white"];
"172744800" -> "1450776117"[label="1", color="black", style="setlinewidth(1)"];
"494930045"[label="{{Function\ -1:\ delete_contents}|True}", color="blue", fontname="Calibri", style="filled", fillcolor="white"];
"494930045" -> "172744800"[label="1", color="black", style="setlinewidth(1)"];
"338103064"[label="{{Decl\ -1:\ getpid}|True}", color="blue", fontname="Calibri", style="filled", fillcolor="white"];
"1201204239"[label="{{Stmt\ -1:\ xstat(\\\".\\\"\ ,\ (&st));}|True}", color="black", fontname="Calibri", style="filled", fillcolor="white"];
"1743028772"[label="{{Decl\ -1:\ xstat}|True}", color="blue", fontname="Calibri", style="filled", fillcolor="white"];
"1201204239" -> "1743028772"[label="1", color="black", style="setlinewidth(1)"];
"1201204239" -> "338103064"[label="1", color="black", style="setlinewidth(1)"];
"11498182"[label="{{Stmt\ -1:\ (rootdev\ =\ st.st_dev}|True}", color="black", fontname="Calibri", style="filled", fillcolor="white"];
"11498182" -> "1201204239"[label="1", color="black", style="setlinewidth(1)"];
"264408200"[label="{{Stmt\ -1:\ xstat(\\\"/\\\"\ ,\ (&st));}|True}", color="black", fontname="Calibri", style="filled", fillcolor="white"];
"264408200" -> "1743028772"[label="1", color="black", style="setlinewidth(1)"];
"264408200" -> "11498182"[label="1", color="black", style="setlinewidth(1)"];
"1917479582"[label="{{Decl\ -1:\ xchdir}|True}", color="blue", fontname="Calibri", style="filled", fillcolor="white"];
"1919635431"[label="{{Stmt\ -1:\ xchdir(newroot);}|True}", color="black", fontname="Calibri", style="filled", fillcolor="white"];
"1919635431" -> "1917479582"[label="1", color="black", style="setlinewidth(1)"];
"1919635431" -> "264408200"[label="1", color="black", style="setlinewidth(1)"];
"1851087051"[label="{{Stmt\ -1:\ (newroot\ =\ (*argv++)}|True}", color="black", fontname="Calibri", style="filled", fillcolor="white"];
"1851087051" -> "1919635431"[label="1", color="black", style="setlinewidth(1)"];
"1842699921"[label="{{Stmt\ -1:\ (argv\ +=\ optind);}|True}", color="black", fontname="Calibri", style="filled", fillcolor="white"];
"1842699921" -> "1851087051"[label="1", color="black", style="setlinewidth(1)"];
"1065149236"[label="{{Decl\ -1:\ getopt32}|True}", color="blue", fontname="Calibri", style="filled", fillcolor="white"];
"10715419"[label="{{Stmt\ -1:\ getopt32(argv\ ,\ \\\"+c:}|True}", color="black", fontname="Calibri", style="filled", fillcolor="white"];
"10715419" -> "1065149236"[label="1", color="black", style="setlinewidth(1)"];
"10715419" -> "1842699921"[label="1", color="black", style="setlinewidth(1)"];
"1176427357"[label="{{Stmt\ -1:\ (opt_complementary\ =}|True}", color="black", fontname="Calibri", style="filled", fillcolor="white"];
"1176427357" -> "10715419"[label="1", color="black", style="setlinewidth(1)"];
"571805386"[label="{{Stmt\ -1:\ dev_t\ rootdev;}|True}", color="black", fontname="Calibri", style="filled", fillcolor="white"];
"571805386" -> "1176427357"[label="1", color="black", style="setlinewidth(1)"];
"1354483285"[label="{{Stmt\ -1:\ struct\ statfs\ \ stfs;}|True}", color="black", fontname="Calibri", style="filled", fillcolor="white"];
"1354483285" -> "571805386"[label="1", color="black", style="setlinewidth(1)"];
"1586675995"[label="{{Stmt\ -1:\ struct\ stat\ \ st;}|True}", color="black", fontname="Calibri", style="filled", fillcolor="white"];
"1586675995" -> "1354483285"[label="1", color="black", style="setlinewidth(1)"];
"1892770485"[label="{{Stmt\ -1:\ char\ *newroot,\ *cons}|True}", color="black", fontname="Calibri", style="filled", fillcolor="white"];
"1892770485" -> "1586675995"[label="1", color="black", style="setlinewidth(1)"];
"222972775"[label="{{Function\ -1:\ switch_root_main}|True}", color="blue", fontname="Calibri", style="filled", fillcolor="white"];
"222972775" -> "1892770485"[label="1", color="black", style="setlinewidth(1)"];
}
